{
  "_id": "X03YYgsxNKIgoB8p",
  "name": "Alter Self",
  "type": "spell",
  "data": {
    "originVersion": 0,
    "originPack": "",
    "originId": "",
    "possibleUpdate": false,
    "description": {
      "value": "<div class=\"spell-description\">\n  <p>\n      <strong>School:</strong>&nbsp;transmutation;\n    <br>\n    <strong>Level:</strong>&nbsp;Assassin 2, Bard 2, Sorcerer 2, Wizard 2;\n    \n    \n    \n    \n    <br>\n    <strong>Components:</strong>&nbsp;V, S<br>\n    \n      <strong>Casting Time:</strong>&nbsp;1 standard action<br>\n    <strong>Range:</strong>&nbsp;personal<br>\n    \n    <strong>Target:</strong>&nbsp;you<br>\n    \n    <strong>Duration:</strong>&nbsp;10 min./level (D)<br>\n    \n  </p>\n  <h2>Description</h2>\n  \n\n\n<p>\nYou assume the form of a creature of the same type as your normal form. The new form must be within one size category of your normal size. The maximum HD of an assumed form is equal to your caster level, to a maximum of 5 HD at 5th level. You can change into a member of your own kind or even into yourself.\n</p><p>You retain your own ability scores. Your class and level, hit points, alignment, base attack bonus, and base save bonuses all remain the same. You retain all supernatural and spell-like special attacks and qualities of your normal form, except for those requiring a body part that the new form does not have (such as a mouth for a breath weapon or eyes for a gaze attack).\n</p><p>You keep all extraordinary special attacks and qualities derived from class levels, but you lose any from your normal form that are not derived from class levels.\n</p><p>If the new form is capable of speech, you can communicate normally. You retain any spellcasting ability you had in your original form, but the new form must be able to speak intelligibly (that is, speak a language) to use verbal components and must have limbs capable of fine manipulation to use somatic or material components.\n</p><p>You acquire the physical qualities of the new form while retaining your own mind. Physical qualities include natural size, mundane movement capabilities (such as burrowing, climbing, walking, swimming, and flight with wings, to a maximum speed of 120 feet for flying or 60 feet for nonflying movement), natural armor bonus, natural weapons (such as claws, bite, and so on), racial skill bonuses, racial bonus feats, and any gross physical qualities (presence or absence of wings, number of extremities, and so forth). A body with extra limbs does not allow you to make more attacks (or more advantageous two-weapon attacks) than normal.\n</p><p>You do not gain any extraordinary special attacks or special qualities not noted above under physical qualities, such as darkvision, low-light vision, blindsense, blindsight, fast healing, regeneration, scent, and so forth.\n</p><p>You do not gain any supernatural special attacks, special qualities, or spell-like abilities of the new form. Your creature type and subtype (if any) remain the same regardless of your new form. You cannot take the form of any creature with a template, even if that template doesn’t change the creature type or subtype.\n</p><p>You can freely designate the new form’s minor physical qualities (such as hair color, hair texture, and skin color) within the normal ranges for a creature of that kind. The new form’s significant physical qualities (such as height, weight, and gender) are also under your control, but they must fall within the norms for the new form’s kind. You are effectively disguised as an average member of the new form’s race. If you use this spell to create a disguise, you get a +10 bonus on your Disguise check.\n</p><p>When the change occurs, your equipment, if any, either remains worn or held by the new form (if it is capable of wearing or holding the item), or melds into the new form and becomes nonfunctional. When you revert to your true form, any objects previously melded into the new form reappear in the same location on your body they previously occupied and are once again functional. Any new items you wore in the assumed form and can’t wear in your normal form fall off and land at your feet; any that you could wear in either form or carry in a body part common to both forms at the time of reversion are still held in the same way. Any part of the body or piece of equipment that is separated from the whole reverts to its true form.\n</p>\n<hr/>\n\n\n\n</div>\n",
      "chat": "",
      "unidentified": ""
    },
    "epic": "",
    "psionic": "",
    "nameFormula": "",
    "nameFromFormula": false,
    "tags": [],
    "uniqueId": "",
    "linkId": "",
    "linkSourceId": "",
    "linkImported": false,
    "linkSourceName": "",
    "source": "",
    "classSource": "",
    "userNonRemovable": false,
    "customAttributes": {},
    "customAttributesLocked": false,
    "customTag": "",
    "createdBy": "",
    "activation": {
      "cost": 1,
      "type": "standard"
    },
    "duration": {
      "value": null,
      "units": ""
    },
    "target": {
      "value": "you"
    },
    "range": {
      "value": null,
      "units": "personal",
      "long": null
    },
    "recharge": {
      "enabled": false,
      "formula": "",
      "current": 0
    },
    "uses": {
      "value": 0,
      "max": 0,
      "per": "",
      "autoDeductCharges": true,
      "allowMultipleUses": false,
      "chargesPerUse": 1,
      "maxPerUse": null,
      "maxPerUseFormula": "",
      "maxFormula": "",
      "rechargeFormula": null,
      "isResource": false,
      "canBeLinked": false
    },
    "requiresPsionicFocus": false,
    "linkedChargeItem": {
      "id": null,
      "img": null,
      "name": null
    },
    "measureTemplate": {
      "type": "",
      "size": 0,
      "overrideColor": false,
      "customColor": "",
      "overrideTexture": false,
      "customTexture": ""
    },
    "actionType": "other",
    "attackBonus": "",
    "critConfirmBonus": "",
    "damage": {
      "parts": [],
      "alternativeParts": []
    },
    "summon": [],
    "attackParts": [],
    "autoscaleAttackParts": "",
    "formula": "",
    "attackCountFormula": "",
    "maxDamageDice": 0,
    "maxDamageDiceFormula": "",
    "ability": {
      "attack": "",
      "damage": "",
      "damageMult": 1,
      "critRange": 20,
      "critMult": 2,
      "twoHandedOnly": false,
      "vsTouchAc": false
    },
    "save": {
      "dc": "0",
      "description": "",
      "ability": "",
      "type": "",
      "dcAutoType": "",
      "dcAutoAbility": ""
    },
    "baseCl": "0",
    "sr": false,
    "pr": false,
    "metamagicFeats": {
      "maximized": false,
      "empowered": false,
      "enlarged": false,
      "intensified": false,
      "enhanced": false,
      "enhancedHalf": false,
      "widened": false
    },
    "effectNotes": "",
    "attackNotes": "",
    "specialActions": [],
    "favorite": false,
    "rollTableDraw": {
      "formula": "",
      "name": "",
      "pack": "",
      "id": ""
    },
    "learnedAt": {
      "class": [
        [
          "Assassin",
          2
        ],
        [
          "Bard",
          2
        ],
        [
          "Wizard",
          2
        ],
        [
          "Sorcerer",
          2
        ]
      ],
      "domain": [],
      "subDomain": [],
      "elementalSchool": [],
      "bloodline": []
    },
    "level": 0,
    "clOffset": 0,
    "slOffset": 0,
    "school": "trs",
    "subschool": "",
    "types": "",
    "components": {
      "value": "",
      "verbal": true,
      "somatic": true,
      "material": false,
      "focus": false,
      "divineFocus": 0
    },
    "castTime": "",
    "conditionals": [],
    "materials": {
      "value": "",
      "consumed": {
        "value": false,
        "_deprecated": true
      },
      "focus": ""
    },
    "isSpellSpontaneousReplacement": false,
    "spellbook": "spelllike",
    "preparation": {
      "preparedAmount": 0,
      "maxAmount": 0,
      "autoDeductCharges": true,
      "mode": "prepared"
    },
    "atWill": true,
    "powerPointsCost": 0,
    "display": "",
    "isPower": false,
    "shortDescription": "\n\n\n<p>\nYou assume the form of a creature of the same type as your normal form. The new form must be within one size category of your normal size. The maximum HD of an assumed form is equal to your caster level, to a maximum of 5 HD at 5th level. You can change into a member of your own kind or even into yourself.\n</p><p>You retain your own ability scores. Your class and level, hit points, alignment, base attack bonus, and base save bonuses all remain the same. You retain all supernatural and spell-like special attacks and qualities of your normal form, except for those requiring a body part that the new form does not have (such as a mouth for a breath weapon or eyes for a gaze attack).\n</p><p>You keep all extraordinary special attacks and qualities derived from class levels, but you lose any from your normal form that are not derived from class levels.\n</p><p>If the new form is capable of speech, you can communicate normally. You retain any spellcasting ability you had in your original form, but the new form must be able to speak intelligibly (that is, speak a language) to use verbal components and must have limbs capable of fine manipulation to use somatic or material components.\n</p><p>You acquire the physical qualities of the new form while retaining your own mind. Physical qualities include natural size, mundane movement capabilities (such as burrowing, climbing, walking, swimming, and flight with wings, to a maximum speed of 120 feet for flying or 60 feet for nonflying movement), natural armor bonus, natural weapons (such as claws, bite, and so on), racial skill bonuses, racial bonus feats, and any gross physical qualities (presence or absence of wings, number of extremities, and so forth). A body with extra limbs does not allow you to make more attacks (or more advantageous two-weapon attacks) than normal.\n</p><p>You do not gain any extraordinary special attacks or special qualities not noted above under physical qualities, such as darkvision, low-light vision, blindsense, blindsight, fast healing, regeneration, scent, and so forth.\n</p><p>You do not gain any supernatural special attacks, special qualities, or spell-like abilities of the new form. Your creature type and subtype (if any) remain the same regardless of your new form. You cannot take the form of any creature with a template, even if that template doesn’t change the creature type or subtype.\n</p><p>You can freely designate the new form’s minor physical qualities (such as hair color, hair texture, and skin color) within the normal ranges for a creature of that kind. The new form’s significant physical qualities (such as height, weight, and gender) are also under your control, but they must fall within the norms for the new form’s kind. You are effectively disguised as an average member of the new form’s race. If you use this spell to create a disguise, you get a +10 bonus on your Disguise check.\n</p><p>When the change occurs, your equipment, if any, either remains worn or held by the new form (if it is capable of wearing or holding the item), or melds into the new form and becomes nonfunctional. When you revert to your true form, any objects previously melded into the new form reappear in the same location on your body they previously occupied and are once again functional. Any new items you wore in the assumed form and can’t wear in your normal form fall off and land at your feet; any that you could wear in either form or carry in a body part common to both forms at the time of reversion are still held in the same way. Any part of the body or piece of equipment that is separated from the whole reverts to its true form.\n</p>\n<hr/>\n\n\n",
    "snip": "Assume form of a similar creature.",
    "spellDuration": "10 min./level (D)",
    "spellEffect": "",
    "spellArea": "",
    "spellType": {
      "value": "",
      "_deprecated": true
    },
    "showInQuickbar": false,
    "specialPrepared": false,
    "isDomainSpell": false,
    "specialId": null,
    "customReferenceId": "",
    "attack": {
      "parts": []
    }
  },
  "sort": 600000,
  "flags": {},
  "img": "systems/D35E/icons/spells/named-spells/alter-self.png",
  "effects": [],
  "folder": null,
  "permission": {
    "default": 0
  },
  "_key": "!actors.items!S4VxcOFLuOXFoGDy.X03YYgsxNKIgoB8p"
}