{
  "_id": "Mp4JdayQJDa5JFQ6",
  "name": "Arcane Mark",
  "type": "spell",
  "data": {
    "originVersion": 0,
    "originPack": "",
    "originId": "",
    "possibleUpdate": false,
    "description": {
      "value": "<div class=\"spell-description\">\n  <p>\n      <strong>School:</strong>&nbsp;miscellaneous;\n    <br>\n    <strong>Level:</strong>&nbsp;Sorcerer 0, Wizard 0;\n    \n    \n    \n    \n    <br>\n    <strong>Components:</strong>&nbsp;V, S<br>\n    \n      <strong>Casting Time:</strong>&nbsp;1 standard action<br>\n    \n    \n    \n    <strong>Effect:</strong>&nbsp;One personal rune or mark, all of which must fit within 1 sq. ft.\n<br>\n    <strong>Duration:</strong>&nbsp;Permanent\n<br>\n    \n        <strong>Saving Throw:</strong>&nbsp;None\n\n        <br>\n        <strong>Spell Resistance:</strong>&nbsp;no<br>\n  </p>\n  <h2>Description</h2>\n  \n\n\n<p>\nThis spell allows you to inscribe your personal rune or mark, which can consist of no more than six characters. The writing can be visible or invisible. An <i>arcane mark </i>spell enables you to etch the rune upon any substance without harm to the material upon which it is placed. If an invisible mark is made, a <i>detect magic</i> spell causes it to glow and be visible, though not necessarily understandable.\n</p><p><i>See invisibility</i>, <i>true seeing</i>, a <i>gem of seeing</i>, or a <i>robe of eyes</i> likewise allows the user to see an invisible <i>arcane mark. </i>A <i>read magic</i> spell reveals the words, if any. The mark cannot be dispelled, but it can be removed by the caster or by an <i>erase</i> spell.\n</p><p>If an <i>arcane mark</i> is placed on a living being, normal wear gradually causes the effect to fade in about a month.\n</p><p><i>Arcane mark</i> must be cast on an object prior to casting <i>instant summons</i> on the same object (see that spell description for details).\n</p>\n<hr/>\n\n\n\n</div>\n",
      "chat": "",
      "unidentified": ""
    },
    "epic": "",
    "psionic": "",
    "nameFormula": "",
    "nameFromFormula": false,
    "tags": [],
    "uniqueId": "",
    "linkId": "",
    "linkSourceId": "",
    "linkImported": false,
    "linkSourceName": "",
    "source": "",
    "classSource": "",
    "userNonRemovable": false,
    "customAttributes": {},
    "customAttributesLocked": false,
    "customTag": "",
    "createdBy": "",
    "activation": {
      "cost": 1,
      "type": "standard"
    },
    "duration": {
      "value": null,
      "units": ""
    },
    "target": {
      "value": ""
    },
    "range": {
      "value": 0,
      "units": "ft",
      "long": null
    },
    "recharge": {
      "enabled": false,
      "formula": "",
      "current": 0
    },
    "uses": {
      "value": 0,
      "max": 0,
      "per": "",
      "autoDeductCharges": true,
      "allowMultipleUses": false,
      "chargesPerUse": 1,
      "maxPerUse": null,
      "maxPerUseFormula": "",
      "maxFormula": "",
      "rechargeFormula": null,
      "isResource": false,
      "canBeLinked": false
    },
    "requiresPsionicFocus": false,
    "linkedChargeItem": {
      "id": null,
      "img": null,
      "name": null
    },
    "measureTemplate": {
      "type": "",
      "size": 0,
      "overrideColor": false,
      "customColor": "",
      "overrideTexture": false,
      "customTexture": ""
    },
    "actionType": "other",
    "attackBonus": "",
    "critConfirmBonus": "",
    "damage": {
      "parts": [],
      "alternativeParts": []
    },
    "summon": [],
    "attackParts": [],
    "autoscaleAttackParts": "",
    "formula": "",
    "attackCountFormula": "",
    "maxDamageDice": 0,
    "maxDamageDiceFormula": "",
    "ability": {
      "attack": "",
      "damage": "",
      "damageMult": 1,
      "critRange": 20,
      "critMult": 2,
      "twoHandedOnly": false,
      "vsTouchAc": false
    },
    "save": {
      "dc": "0",
      "description": "None\n",
      "ability": "",
      "type": "",
      "dcAutoType": "",
      "dcAutoAbility": ""
    },
    "baseCl": "0",
    "sr": false,
    "pr": false,
    "metamagicFeats": {
      "maximized": false,
      "empowered": false,
      "enlarged": false,
      "intensified": false,
      "enhanced": false,
      "enhancedHalf": false,
      "widened": false
    },
    "effectNotes": "",
    "attackNotes": "",
    "specialActions": [],
    "favorite": false,
    "rollTableDraw": {
      "formula": "",
      "name": "",
      "pack": "",
      "id": ""
    },
    "learnedAt": {
      "class": [
        [
          "Wizard",
          0
        ],
        [
          "Sorcerer",
          0
        ]
      ],
      "domain": [],
      "subDomain": [],
      "elementalSchool": [],
      "bloodline": []
    },
    "level": 0,
    "clOffset": 0,
    "slOffset": 0,
    "school": "misc",
    "subschool": "",
    "types": "",
    "components": {
      "value": "",
      "verbal": true,
      "somatic": true,
      "material": false,
      "focus": false,
      "divineFocus": 0
    },
    "castTime": "",
    "conditionals": [],
    "materials": {
      "value": "",
      "consumed": {
        "value": false,
        "_deprecated": true
      },
      "focus": ""
    },
    "isSpellSpontaneousReplacement": false,
    "spellbook": "primary",
    "preparation": {
      "preparedAmount": 0,
      "maxAmount": 0,
      "autoDeductCharges": true,
      "mode": "prepared"
    },
    "atWill": false,
    "powerPointsCost": 0,
    "display": "",
    "isPower": false,
    "shortDescription": "\n\n\n<p>\nThis spell allows you to inscribe your personal rune or mark, which can consist of no more than six characters. The writing can be visible or invisible. An <i>arcane mark </i>spell enables you to etch the rune upon any substance without harm to the material upon which it is placed. If an invisible mark is made, a <i>detect magic</i> spell causes it to glow and be visible, though not necessarily understandable.\n</p><p><i>See invisibility</i>, <i>true seeing</i>, a <i>gem of seeing</i>, or a <i>robe of eyes</i> likewise allows the user to see an invisible <i>arcane mark. </i>A <i>read magic</i> spell reveals the words, if any. The mark cannot be dispelled, but it can be removed by the caster or by an <i>erase</i> spell.\n</p><p>If an <i>arcane mark</i> is placed on a living being, normal wear gradually causes the effect to fade in about a month.\n</p><p><i>Arcane mark</i> must be cast on an object prior to casting <i>instant summons</i> on the same object (see that spell description for details).\n</p>\n<hr/>\n\n\n",
    "snip": "Inscribes a personal rune (visible or invisible).",
    "spellDuration": "Permanent\n",
    "spellEffect": "One personal rune or mark, all of which must fit within 1 sq. ft.\n",
    "spellArea": "",
    "spellType": {
      "value": "",
      "_deprecated": true
    },
    "showInQuickbar": false,
    "specialPrepared": false,
    "isDomainSpell": false,
    "specialId": null,
    "customReferenceId": "",
    "attack": {
      "parts": []
    }
  },
  "sort": 600000,
  "flags": {},
  "img": "systems/D35E/icons/spells/school/misc.png",
  "effects": [],
  "folder": null,
  "permission": {
    "default": 0
  },
  "_key": "!actors.items!33obHnNVCLQU4HxJ.Mp4JdayQJDa5JFQ6"
}