{
  "_id": "uBzszYtubmNozwEO",
  "name": "Blindsight 60 ft.",
  "type": "feat",
  "data": {
    "originVersion": 0,
    "originPack": "",
    "originId": "",
    "possibleUpdate": false,
    "description": {
      "value": "<p>Using nonvisual senses, such as sensitivity to vibrations, keen smell, acute hearing, or echolocation, a creature with blindsight maneuvers and fights as well as a sighted creature. Invisibility, darkness, and most kinds of concealment are irrelevant, though the creature must have line of effect to a creature or object to discern that creature or object. The ability&rsquo;s range is specified in the creature&rsquo;s descriptive text. The creature usually does not need to make Spot or Listen checks to notice creatures within range of its blindsight ability. Unless noted otherwise, blindsight is continuous, and the creature need do nothing to use it. Some forms of blindsight, however, must be triggered as a free action. If so, this is noted in the creature&rsquo;s description. If a creature must trigger its blindsight ability, the creature gains the benefits of blindsight only during its turn.</p>\n<ul>\n<li>Blindsight never allows a creature to distinguish color or visual contrast. A creature cannot read with blindsight.</li>\n<li>Blindsight does not subject a creature to gaze attacks (even though darkvision does).</li>\n<li>Blinding attacks do not penalize creatures using blindsight.</li>\n<li>Deafening attacks thwart blindsight if it relies on hearing.</li>\n<li>Blindsight works underwater but not in a vacuum.</li>\n<li>Blindsight negates displacement and blur effects.</li>\n</ul>",
      "chat": "",
      "unidentified": ""
    },
    "epic": "",
    "psionic": "",
    "nameFormula": "",
    "nameFromFormula": false,
    "tags": [],
    "uniqueId": "",
    "linkId": "",
    "linkSourceId": "",
    "linkImported": false,
    "linkSourceName": "",
    "source": "",
    "classSource": "",
    "userNonRemovable": false,
    "customAttributes": {},
    "customAttributesLocked": false,
    "customTag": "",
    "createdBy": "",
    "activation": {
      "cost": 1,
      "type": ""
    },
    "duration": {
      "value": null,
      "units": ""
    },
    "target": {
      "value": ""
    },
    "range": {
      "value": null,
      "units": "",
      "long": null
    },
    "recharge": {
      "enabled": false,
      "formula": "",
      "current": 0,
      "value": null,
      "charged": false,
      "_deprecated": true
    },
    "uses": {
      "value": 0,
      "max": 0,
      "per": null,
      "autoDeductCharges": true,
      "allowMultipleUses": false,
      "chargesPerUse": 1,
      "maxPerUse": null,
      "maxPerUseFormula": "",
      "maxFormula": "",
      "rechargeFormula": null,
      "isResource": false,
      "canBeLinked": false
    },
    "requiresPsionicFocus": false,
    "linkedChargeItem": {
      "id": null,
      "img": null,
      "name": null
    },
    "measureTemplate": {
      "type": "",
      "size": 0,
      "overrideColor": false,
      "customColor": "",
      "overrideTexture": false,
      "customTexture": ""
    },
    "actionType": "",
    "attackBonus": "",
    "critConfirmBonus": "",
    "damage": {
      "parts": [],
      "alternativeParts": []
    },
    "summon": [],
    "attackParts": [],
    "autoscaleAttackParts": "",
    "formula": "",
    "attackCountFormula": "",
    "maxDamageDice": 0,
    "maxDamageDiceFormula": "",
    "ability": {
      "attack": null,
      "damage": null,
      "damageMult": 1,
      "critRange": 20,
      "critMult": 2,
      "twoHandedOnly": false,
      "vsTouchAc": false
    },
    "save": {
      "dc": 0,
      "description": "",
      "ability": "",
      "type": "",
      "dcAutoType": "",
      "dcAutoAbility": ""
    },
    "baseCl": "0",
    "sr": false,
    "pr": false,
    "metamagicFeats": {
      "maximized": false,
      "empowered": false,
      "enlarged": false,
      "intensified": false,
      "enhanced": false,
      "enhancedHalf": false,
      "widened": false
    },
    "effectNotes": "",
    "attackNotes": "",
    "specialActions": [],
    "favorite": false,
    "rollTableDraw": {
      "formula": "",
      "name": "",
      "pack": "",
      "id": ""
    },
    "changes": [],
    "changeFlags": {
      "loseDexToAC": false,
      "noStr": false,
      "noDex": false,
      "noInt": false,
      "noCon": false,
      "oneInt": false,
      "oneWis": false,
      "oneCha": false,
      "noEncumbrance": false,
      "mediumArmorFullSpeed": false,
      "heavyArmorFullSpeed": false,
      "multiAttack": false,
      "multiweaponAttack": false,
      "uncannyDodge": false
    },
    "conditionFlags": {
      "dazzled": false,
      "wildshaped": false,
      "polymorphed": false
    },
    "combatChanges": [],
    "combatChangesRange": {
      "maxFormula": "",
      "max": 0
    },
    "combatChangesAdditionalRanges": {
      "hasAdditionalRanges": false,
      "slider1": {
        "maxFormula": "",
        "max": 0,
        "name": ""
      },
      "slider2": {
        "maxFormula": "",
        "max": 0,
        "name": ""
      },
      "slider3": {
        "maxFormula": "",
        "max": 0,
        "name": ""
      }
    },
    "combatChangesUsesCost": "chargesPerUse",
    "combatChangesApplySpecialActionsOnce": true,
    "combatChangeCustomDisplayName": "",
    "combatChangeCustomReferenceName": "",
    "sizeOverride": "",
    "counterName": "",
    "resistances": [],
    "damageReduction": [],
    "requirements": [],
    "creationChanges": [],
    "contextNotes": [],
    "featType": "trait",
    "abilityType": "",
    "associations": {
      "classes": []
    },
    "crOffset": "",
    "spellSpecializationName": "",
    "spellSpecializationForbiddenNames": "",
    "linkedItems": [],
    "metamagic": {
      "enabled": false,
      "shortDesc": "",
      "code": ""
    },
    "spellSpecialization": {
      "isDomain": false,
      "spells": {
        "level1": {
          "level": 1,
          "name": "",
          "img": "",
          "pack": null,
          "id": null
        },
        "level2": {
          "level": 2,
          "name": "",
          "img": "",
          "pack": null,
          "id": null
        },
        "level3": {
          "level": 3,
          "name": "",
          "img": "",
          "pack": null,
          "id": null
        },
        "level4": {
          "level": 4,
          "name": "",
          "img": "",
          "pack": null,
          "id": null
        },
        "level5": {
          "level": 5,
          "name": "",
          "img": "",
          "pack": null,
          "id": null
        },
        "level6": {
          "level": 6,
          "name": "",
          "img": "",
          "pack": null,
          "id": null
        },
        "level7": {
          "level": 7,
          "name": "",
          "img": "",
          "pack": null,
          "id": null
        },
        "level8": {
          "level": 8,
          "name": "",
          "img": "",
          "pack": null,
          "id": null
        },
        "level9": {
          "level": 9,
          "name": "",
          "img": "",
          "pack": null,
          "id": null
        }
      }
    },
    "showInQuickbar": false,
    "links": {
      "charges": []
    },
    "customReferenceId": "",
    "attack": {
      "parts": []
    }
  },
  "sort": 200000,
  "flags": {},
  "img": "systems/D35E/icons/special-abilities/blindsight.png",
  "effects": [],
  "folder": null,
  "permission": {
    "default": 0
  },
  "_key": "!actors.items!nNa8p7RewmOh1dqE.uBzszYtubmNozwEO"
}