{
  "_id": "gE1kFuRWFj10DY3N",
  "name": "Blue Dragon, Young",
  "type": "npc",
  "img": "systems/D35E/icons/bestiary/token/dragon-blue.png",
  "items": [
    "py0NhmuKGVMCosBy",
    "a2gw8OS4AhlYgEpM",
    "j2eDS8A7uVct8yIK",
    "kXIqofjEDBKKLGA2",
    "BaAwfA35fJM6NiZ0",
    "m28NW6KMb5t3rimE",
    "Xk3nEi19FSLke5Z9",
    "HUwA7SU7DxzPNZN9",
    "i8Q8fMfXCcHUA0h6",
    "us0O0VnjJTh7LHu0",
    "RDExqbvCMZoHSKlB",
    "mWulAaGSS9putdGW",
    "jmTxu2xajiFv2kux",
    "bI5ZxwFXEmyQNJxL"
  ],
  "effects": [],
  "folder": null,
  "sort": 0,
  "flags": {
    "core": {
      "sourceId": "Compendium.D35E.bestiary.gE1kFuRWFj10DY3N"
    },
    "D35E": {
      "loseDexToAC": false,
      "noStr": false,
      "noDex": false,
      "noInt": false,
      "noCon": false,
      "oneInt": false,
      "oneWis": false,
      "oneCha": false,
      "noEncumbrance": false,
      "mediumArmorFullSpeed": false,
      "heavyArmorFullSpeed": false,
      "multiAttack": false,
      "multiweaponAttack": false,
      "uncannyDodge": false,
      "naturalAttackCount": 3
    }
  },
  "system": {
    "shapechangeImg": "icons/svg/mystery-man.svg",
    "tokenImg": "systems/D35E/icons/bestiary/token/dragon-blue.png",
    "companionUuid": "",
    "companionPublicId": "",
    "companionUsePersonalKey": false,
    "companionAutosync": false,
    "companionLockGM": false,
    "abilities": {
      "str": {
        "total": 17,
        "mod": 3,
        "value": 17,
        "carryBonus": 0,
        "carryMultiplier": 1,
        "checkMod": 0,
        "damage": 0,
        "drain": 0,
        "penalty": 0,
        "userPenalty": 0,
        "origMod": 3,
        "origTotal": 17,
        "isZero": false
      },
      "dex": {
        "total": 10,
        "mod": 0,
        "value": 10,
        "checkMod": 0,
        "damage": 0,
        "drain": 0,
        "penalty": 0,
        "userPenalty": 0,
        "origMod": 0,
        "origTotal": 10,
        "isZero": false
      },
      "con": {
        "total": 15,
        "mod": 2,
        "value": 15,
        "checkMod": 0,
        "damage": 0,
        "drain": 0,
        "penalty": 0,
        "userPenalty": 0,
        "origMod": 2,
        "origTotal": 15,
        "isZero": false
      },
      "int": {
        "total": 12,
        "mod": 1,
        "value": 12,
        "checkMod": 0,
        "damage": 0,
        "drain": 0,
        "penalty": 0,
        "userPenalty": 0,
        "origMod": 1,
        "origTotal": 12,
        "isZero": false
      },
      "wis": {
        "total": 13,
        "mod": 1,
        "value": 13,
        "checkMod": 0,
        "damage": 0,
        "drain": 0,
        "penalty": 0,
        "userPenalty": 0,
        "origMod": 1,
        "origTotal": 13,
        "isZero": false
      },
      "cha": {
        "total": 12,
        "mod": 1,
        "value": 12,
        "checkMod": 0,
        "damage": 0,
        "drain": 0,
        "penalty": 0,
        "userPenalty": 0,
        "origMod": 1,
        "origTotal": 12,
        "isZero": false
      }
    },
    "resources": {
      "bite": {
        "max": 0,
        "_id": "RDExqbvCMZoHSKlB"
      },
      "claw": {
        "max": 0,
        "_id": "mWulAaGSS9putdGW",
        "value": 0
      },
      "wing": {
        "max": 0,
        "_id": "jmTxu2xajiFv2kux",
        "value": 0
      }
    },
    "attributes": {
      "encumbrance": {
        "level": 0,
        "levels": {
          "light": 86,
          "medium": 173,
          "heavy": 260,
          "carry": 520,
          "drag": 1300
        },
        "carriedWeight": 0
      },
      "senses": {
        "darkvision": 0,
        "blindsight": 0,
        "tremorsense": 0,
        "truesight": 0,
        "lowLight": false,
        "lowLightMultiplier": 2,
        "special": ""
      },
      "hd": {
        "base": {
          "_deprecated": true,
          "value": 0
        },
        "total": 12,
        "max": {
          "_deprecated": true,
          "value": 0
        },
        "racialClass": 12
      },
      "naturalAC": 0,
      "naturalACTotal": 11,
      "fortification": {
        "value": 0,
        "total": 0
      },
      "ac": {
        "normal": {
          "value": 0,
          "total": 21
        },
        "touch": {
          "value": 0,
          "total": 10
        },
        "flatFooted": {
          "value": 0,
          "total": 21
        }
      },
      "concealment": {
        "value": 0,
        "total": 0
      },
      "bab": {
        "value": 0,
        "total": 12,
        "base": 12
      },
      "cmd": {
        "value": 0,
        "total": 25,
        "flatFootedTotal": 25
      },
      "cmb": {
        "value": 0,
        "total": 15
      },
      "sr": {
        "formula": "",
        "total": 0
      },
      "pr": {
        "formula": "",
        "total": 0
      },
      "hardness": {
        "formula": "",
        "total": 0
      },
      "cmbNotes": "",
      "saveNotes": "",
      "acNotes": "",
      "cmdNotes": "",
      "srNotes": "",
      "attack": {
        "general": 0,
        "melee": 0,
        "ranged": 0,
        "sunder": 0,
        "bullrush": 0
      },
      "damage": {
        "general": 0,
        "weapon": 0,
        "spell": 0
      },
      "maxDexBonus": 999,
      "maxDex": {
        "gear": null,
        "encumbrance": null,
        "total": 999
      },
      "acp": {
        "gear": 0,
        "encumbrance": 0,
        "total": 0
      },
      "energyDrain": 0,
      "quadruped": false,
      "savingThrows": {
        "fort": {
          "total": 10,
          "base": 8
        },
        "ref": {
          "total": 8,
          "base": 8
        },
        "will": {
          "total": 9,
          "base": 8
        }
      },
      "hp": {
        "value": 102,
        "min": -100,
        "base": 0,
        "max": 102,
        "temp": 0,
        "nonlethal": 0
      },
      "turnUndeadHdTotal": 0,
      "turnUndeadUsesBonusFormula": "",
      "turnUndeadUses": 0,
      "prestigeCl": {
        "psionic": {
          "max": 0,
          "value": 0,
          "total": 0
        },
        "arcane": {
          "max": 0,
          "value": 0,
          "total": 0
        },
        "divine": {
          "max": 0,
          "value": 0,
          "total": 0
        },
        "cards": {
          "max": 0,
          "value": 0
        }
      },
      "turnUndeadUsesTotal": 0,
      "sneakAttackDiceTotal": 0,
      "minionClassLevels": {
        "none": 0
      },
      "minionDistance": {},
      "spellPointsTotal": [],
      "powerPointsTotal": 0,
      "arcaneSpellFailure": 0,
      "psionicFocus": false,
      "wounds": {
        "min": 0,
        "value": 30,
        "max": 30
      },
      "vigor": {
        "min": 0,
        "value": 78,
        "temp": 0,
        "max": 78
      },
      "init": {
        "value": 0,
        "bonus": 0,
        "total": 4
      },
      "prof": 2,
      "speed": {
        "land": {
          "base": 40,
          "total": 40,
          "run": 160
        },
        "climb": {
          "base": 0,
          "total": 0,
          "run": 0
        },
        "swim": {
          "base": 0,
          "total": 0,
          "run": 0
        },
        "burrow": {
          "base": 0,
          "total": 0,
          "run": 0
        },
        "fly": {
          "base": 150,
          "total": 150,
          "run": 600,
          "maneuverability": "average"
        }
      },
      "conditions": {
        "blind": false,
        "dazzled": false,
        "deaf": false,
        "entangled": false,
        "fatigued": false,
        "exhausted": false,
        "grappled": false,
        "helpless": false,
        "paralyzed": false,
        "pinned": false,
        "fear": false,
        "sickened": false,
        "stunned": false,
        "shaken": false,
        "polymorphed": false,
        "wildshaped": false,
        "prone": false,
        "dead": false,
        "dying": false,
        "disabled": false,
        "stable": false,
        "unconscious": false,
        "staggered": false,
        "invisible": false,
        "banished": false,
        "invisibility": false
      },
      "spells": {
        "concentration": {
          "bonus": 0,
          "context": ""
        },
        "spellbooks": {
          "primary": {
            "name": "Primary",
            "class": "",
            "cl": {
              "base": 0,
              "value": 0,
              "total": 0,
              "formula": ""
            },
            "concentration": 0,
            "bonusPrestigeCl": 0,
            "concentrationFormula": "",
            "concentrationNotes": "",
            "clNotes": "",
            "ability": "int",
            "spellslotAbility": "",
            "autoSpellLevels": true,
            "usePowerPoints": false,
            "autoSetup": true,
            "spellcastingType": null,
            "powerPointsFormula": "",
            "dailyPowerPointsFormula": "",
            "powerPoints": 0,
            "powerPointsTotal": 0,
            "maximumPowerPointLimit": "@cl",
            "arcaneSpellFailure": true,
            "baseDCFormula": "10 + @sl + @ablMod",
            "spontaneous": false,
            "hasSpecialSlot": false,
            "showOnlyPrepared": false,
            "specialSlots": {
              "level1": null,
              "level2": null,
              "level3": null,
              "level4": null,
              "level5": null,
              "level6": null,
              "level7": null,
              "level8": null,
              "level9": null
            },
            "maxPrestigeCl": 0,
            "allSpellsKnown": false,
            "hasPrestigeCl": false,
            "canAddPrestigeCl": false,
            "canRemovePrestigeCl": false,
            "powersKnown": 0,
            "powersMaxLevel": 0,
            "spells": {
              "spell0": {
                "value": 0,
                "max": 0,
                "base": 0,
                "known": 0,
                "maxKnown": 0,
                "bonus": 0,
                "classBase": 0
              },
              "spell1": {
                "value": 0,
                "max": 0,
                "base": 0,
                "known": 0,
                "maxKnown": 0,
                "bonus": 0,
                "classBase": 0
              },
              "spell2": {
                "value": 0,
                "max": 0,
                "base": 0,
                "known": 0,
                "maxKnown": 0,
                "bonus": 0,
                "classBase": 0
              },
              "spell3": {
                "value": 0,
                "max": 0,
                "base": 0,
                "known": 0,
                "maxKnown": 0,
                "bonus": 0,
                "classBase": 0
              },
              "spell4": {
                "value": 0,
                "max": 0,
                "base": 0,
                "known": 0,
                "maxKnown": 0,
                "bonus": 0,
                "classBase": 0
              },
              "spell5": {
                "value": 0,
                "max": 0,
                "base": 0,
                "known": 0,
                "maxKnown": 0,
                "bonus": 0,
                "classBase": 0
              },
              "spell6": {
                "value": 0,
                "max": 0,
                "base": 0,
                "known": 0,
                "maxKnown": 0,
                "bonus": 0,
                "classBase": 0
              },
              "spell7": {
                "value": 0,
                "max": 0,
                "base": 0,
                "known": 0,
                "maxKnown": 0,
                "bonus": 0,
                "classBase": 0
              },
              "spell8": {
                "value": 0,
                "max": 0,
                "base": 0,
                "known": 0,
                "maxKnown": 0,
                "bonus": 0,
                "classBase": 0
              },
              "spell9": {
                "value": 0,
                "max": 0,
                "base": 0,
                "known": 0,
                "maxKnown": 0,
                "bonus": 0,
                "classBase": 0
              }
            },
            "powerPointsValue": {
              "max": 0,
              "value": 0
            },
            "spellcastingAbilityBonus": 0
          },
          "secondary": {
            "name": "Secondary",
            "class": "",
            "cl": {
              "base": 0,
              "value": 0,
              "total": 0,
              "formula": ""
            },
            "concentration": 0,
            "bonusPrestigeCl": 0,
            "concentrationFormula": "",
            "concentrationNotes": "",
            "clNotes": "",
            "ability": "int",
            "spellslotAbility": "",
            "autoSpellLevels": true,
            "usePowerPoints": false,
            "autoSetup": true,
            "spellcastingType": null,
            "powerPointsFormula": "",
            "powerPoints": 0,
            "powerPointsTotal": 0,
            "maximumPowerPointLimit": "@cl",
            "dailyPowerPointsFormula": "",
            "arcaneSpellFailure": true,
            "baseDCFormula": "10 + @sl + @ablMod",
            "spontaneous": false,
            "hasSpecialSlot": false,
            "showOnlyPrepared": false,
            "specialSlots": {
              "level1": null,
              "level2": null,
              "level3": null,
              "level4": null,
              "level5": null,
              "level6": null,
              "level7": null,
              "level8": null,
              "level9": null
            },
            "maxPrestigeCl": 0,
            "allSpellsKnown": false,
            "hasPrestigeCl": false,
            "canAddPrestigeCl": false,
            "canRemovePrestigeCl": false,
            "powersKnown": 0,
            "powersMaxLevel": 0,
            "spells": {
              "spell0": {
                "value": 0,
                "max": 0,
                "base": 0,
                "known": 0,
                "maxKnown": 0,
                "bonus": 0,
                "classBase": 0
              },
              "spell1": {
                "value": 0,
                "max": 0,
                "base": 0,
                "known": 0,
                "maxKnown": 0,
                "bonus": 0,
                "classBase": 0
              },
              "spell2": {
                "value": 0,
                "max": 0,
                "base": 0,
                "known": 0,
                "maxKnown": 0,
                "bonus": 0,
                "classBase": 0
              },
              "spell3": {
                "value": 0,
                "max": 0,
                "base": 0,
                "known": 0,
                "maxKnown": 0,
                "bonus": 0,
                "classBase": 0
              },
              "spell4": {
                "value": 0,
                "max": 0,
                "base": 0,
                "known": 0,
                "maxKnown": 0,
                "bonus": 0,
                "classBase": 0
              },
              "spell5": {
                "value": 0,
                "max": 0,
                "base": 0,
                "known": 0,
                "maxKnown": 0,
                "bonus": 0,
                "classBase": 0
              },
              "spell6": {
                "value": 0,
                "max": 0,
                "base": 0,
                "known": 0,
                "maxKnown": 0,
                "bonus": 0,
                "classBase": 0
              },
              "spell7": {
                "value": 0,
                "max": 0,
                "base": 0,
                "known": 0,
                "maxKnown": 0,
                "bonus": 0,
                "classBase": 0
              },
              "spell8": {
                "value": 0,
                "max": 0,
                "base": 0,
                "known": 0,
                "maxKnown": 0,
                "bonus": 0,
                "classBase": 0
              },
              "spell9": {
                "value": 0,
                "max": 0,
                "base": 0,
                "known": 0,
                "maxKnown": 0,
                "bonus": 0,
                "classBase": 0
              }
            },
            "powerPointsValue": {
              "max": 0,
              "value": 0
            },
            "spellcastingAbilityBonus": 0
          },
          "tertiary": {
            "name": "Tertiary",
            "class": "",
            "cl": {
              "base": 0,
              "value": 0,
              "total": 0,
              "formula": ""
            },
            "concentration": 0,
            "bonusPrestigeCl": 0,
            "concentrationFormula": "",
            "concentrationNotes": "",
            "clNotes": "",
            "ability": "int",
            "spellslotAbility": "",
            "autoSpellLevels": true,
            "usePowerPoints": false,
            "autoSetup": true,
            "spellcastingType": null,
            "powerPointsFormula": "",
            "powerPoints": 0,
            "powerPointsTotal": 0,
            "maximumPowerPointLimit": "@cl",
            "dailyPowerPointsFormula": "",
            "arcaneSpellFailure": true,
            "baseDCFormula": "10 + @sl + @ablMod",
            "spontaneous": false,
            "hasSpecialSlot": false,
            "showOnlyPrepared": false,
            "specialSlots": {
              "level1": null,
              "level2": null,
              "level3": null,
              "level4": null,
              "level5": null,
              "level6": null,
              "level7": null,
              "level8": null,
              "level9": null
            },
            "maxPrestigeCl": 0,
            "allSpellsKnown": false,
            "hasPrestigeCl": false,
            "canAddPrestigeCl": false,
            "canRemovePrestigeCl": false,
            "powersKnown": 0,
            "powersMaxLevel": 0,
            "spells": {
              "spell0": {
                "value": 0,
                "max": 0,
                "base": 0,
                "known": 0,
                "maxKnown": 0,
                "bonus": 0,
                "classBase": 0
              },
              "spell1": {
                "value": 0,
                "max": 0,
                "base": 0,
                "known": 0,
                "maxKnown": 0,
                "bonus": 0,
                "classBase": 0
              },
              "spell2": {
                "value": 0,
                "max": 0,
                "base": 0,
                "known": 0,
                "maxKnown": 0,
                "bonus": 0,
                "classBase": 0
              },
              "spell3": {
                "value": 0,
                "max": 0,
                "base": 0,
                "known": 0,
                "maxKnown": 0,
                "bonus": 0,
                "classBase": 0
              },
              "spell4": {
                "value": 0,
                "max": 0,
                "base": 0,
                "known": 0,
                "maxKnown": 0,
                "bonus": 0,
                "classBase": 0
              },
              "spell5": {
                "value": 0,
                "max": 0,
                "base": 0,
                "known": 0,
                "maxKnown": 0,
                "bonus": 0,
                "classBase": 0
              },
              "spell6": {
                "value": 0,
                "max": 0,
                "base": 0,
                "known": 0,
                "maxKnown": 0,
                "bonus": 0,
                "classBase": 0
              },
              "spell7": {
                "value": 0,
                "max": 0,
                "base": 0,
                "known": 0,
                "maxKnown": 0,
                "bonus": 0,
                "classBase": 0
              },
              "spell8": {
                "value": 0,
                "max": 0,
                "base": 0,
                "known": 0,
                "maxKnown": 0,
                "bonus": 0,
                "classBase": 0
              },
              "spell9": {
                "value": 0,
                "max": 0,
                "base": 0,
                "known": 0,
                "maxKnown": 0,
                "bonus": 0,
                "classBase": 0
              }
            },
            "powerPointsValue": {
              "max": 0,
              "value": 0
            },
            "spellcastingAbilityBonus": 0
          },
          "spelllike": {
            "name": "Spell-likes",
            "class": "_hd",
            "cl": {
              "base": 0,
              "value": 0,
              "total": 12,
              "formula": ""
            },
            "concentration": 0,
            "bonusPrestigeCl": 0,
            "concentrationFormula": "",
            "concentrationNotes": "",
            "clNotes": "",
            "ability": "cha",
            "spellslotAbility": "",
            "autoSpellLevels": true,
            "usePowerPoints": false,
            "autoSetup": false,
            "spellcastingType": "None",
            "powerPointsFormula": "",
            "powerPoints": 0,
            "powerPointsTotal": 0,
            "maximumPowerPointLimit": "@cl",
            "dailyPowerPointsFormula": "",
            "arcaneSpellFailure": true,
            "baseDCFormula": "10 + @sl + @ablMod",
            "spontaneous": false,
            "hasSpecialSlot": false,
            "showOnlyPrepared": false,
            "specialSlots": {
              "level1": null,
              "level2": null,
              "level3": null,
              "level4": null,
              "level5": null,
              "level6": null,
              "level7": null,
              "level8": null,
              "level9": null
            },
            "maxPrestigeCl": 0,
            "allSpellsKnown": false,
            "hasPrestigeCl": false,
            "canAddPrestigeCl": false,
            "canRemovePrestigeCl": false,
            "powersKnown": 0,
            "powersMaxLevel": 0,
            "spells": {
              "spell0": {
                "value": 0,
                "max": 0,
                "base": 0,
                "known": 0,
                "maxKnown": 0,
                "bonus": 0,
                "classBase": 0
              },
              "spell1": {
                "value": 0,
                "max": 0,
                "base": 0,
                "known": 0,
                "maxKnown": 0,
                "bonus": 0,
                "classBase": 0
              },
              "spell2": {
                "value": 0,
                "max": 0,
                "base": 0,
                "known": 0,
                "maxKnown": 0,
                "bonus": 0,
                "classBase": 0
              },
              "spell3": {
                "value": 0,
                "max": 0,
                "base": 0,
                "known": 0,
                "maxKnown": 0,
                "bonus": 0,
                "classBase": 0
              },
              "spell4": {
                "value": 0,
                "max": 0,
                "base": 0,
                "known": 0,
                "maxKnown": 0,
                "bonus": 0,
                "classBase": 0
              },
              "spell5": {
                "value": 0,
                "max": 0,
                "base": 0,
                "known": 0,
                "maxKnown": 0,
                "bonus": 0,
                "classBase": 0
              },
              "spell6": {
                "value": 0,
                "max": 0,
                "base": 0,
                "known": 0,
                "maxKnown": 0,
                "bonus": 0,
                "classBase": 0
              },
              "spell7": {
                "value": 0,
                "max": 0,
                "base": 0,
                "known": 0,
                "maxKnown": 0,
                "bonus": 0,
                "classBase": 0
              },
              "spell8": {
                "value": 0,
                "max": 0,
                "base": 0,
                "known": 0,
                "maxKnown": 0,
                "bonus": 0,
                "classBase": 0
              },
              "spell9": {
                "value": 0,
                "max": 0,
                "base": 0,
                "known": 0,
                "maxKnown": 0,
                "bonus": 0,
                "classBase": 0
              }
            },
            "powerPointsValue": {
              "max": 0,
              "value": 0
            },
            "spellcastingAbilityBonus": 0
          }
        }
      },
      "cards": {
        "concentration": {
          "bonus": 0,
          "context": ""
        },
        "decks": {
          "primary": {
            "name": "Primary",
            "class": "",
            "cl": {
              "base": null,
              "value": 0,
              "total": 0,
              "formula": ""
            },
            "autoHandSize": false,
            "handSize": {
              "base": 0,
              "value": 0,
              "total": 0,
              "formula": ""
            },
            "drawRandom": false,
            "deckSize": {
              "base": 0,
              "value": 0,
              "total": 0,
              "formula": ""
            },
            "clNotes": "",
            "ability": "int",
            "spellslotAbility": "",
            "addHalfOtherLevels": false,
            "autoSetup": true,
            "baseDCFormula": "10 + @sl + @ablMod",
            "maxPrestigeCl": 0,
            "hasPrestigeCl": false,
            "canAddPrestigeCl": false,
            "canRemovePrestigeCl": false
          },
          "secondary": {
            "name": "Secondary",
            "class": "",
            "cl": {
              "base": null,
              "value": 0,
              "total": 0,
              "formula": ""
            },
            "autoHandSize": false,
            "handSize": {
              "base": 0,
              "value": 0,
              "total": 0,
              "formula": ""
            },
            "drawRandom": false,
            "deckSize": {
              "base": 0,
              "value": 0,
              "total": 0,
              "formula": ""
            },
            "clNotes": "",
            "ability": "int",
            "spellslotAbility": "",
            "addHalfOtherLevels": false,
            "autoSetup": true,
            "baseDCFormula": "10 + @sl + @ablMod",
            "maxPrestigeCl": 0,
            "hasPrestigeCl": false,
            "canAddPrestigeCl": false,
            "canRemovePrestigeCl": false
          }
        }
      },
      "spellcasting": {
        "_deprecated": true
      },
      "spelldc": {
        "_deprecated": true
      },
      "damageReduction": {
        "any": 0,
        "types": []
      },
      "energyResistance": [],
      "spellLevel": 0,
      "creatureType": "dragon",
      "mods": {
        "skills": {}
      },
      "runSpeedMultiplierModifier": 0,
      "speedMultiplier": 0
    },
    "details": {
      "level": {
        "value": 12,
        "min": 0,
        "max": 40,
        "available": 1
      },
      "breakDC": {
        "base": 0,
        "total": 0
      },
      "levelUpData": [
        {
          "level": 1,
          "id": "_level1",
          "classId": null,
          "class": null,
          "classImage": null,
          "skills": {},
          "hp": 0,
          "hasFeat": true,
          "hasAbility": false
        }
      ],
      "alignment": "Always lawful evil",
      "biography": {
        "value": "",
        "public": ""
      },
      "notes": {
        "value": "<div topic='Blue Dragon' level='4'><p><h4>Blue Dragon</h4></p><p/><p/><p/><p/><div topic='Dragon' level='8'><p><b>Dragon (Earth)</b></p></div><div topic='Environment' level='8'><p><b>Environment:</b> Temperate deserts</p></div><div topic='Organization' level='8'><p><b>Organization:</b> Wyrmling, very young, young, juvenile, and young adult: solitary or clutch (2-5); adult, mature adult, old, very old, ancient, wyrm, or great wyrm: solitary, pair, or family (1-2 and 2-5 offspring)</p></div><div topic='Challenge Ratings' level='8'><p><b>Challenge Ratings:</b> Wyrmling 3; very young 4; young 6; juvenile 8; young adult 11; adult 14; mature adult 16; old 18; very old 19; ancient 21; wyrm 23; great wyrm 25</p></div><div topic='Treasure' level='8'><p><b>Treasure:</b> Triple standard</p></div><div topic='Alignment' level='8'><p><b>Alignment:</b> Always lawful evil</p></div><div topic='Advancement' level='8'><p><b>Advancement:</b> Wyrmling 7-8 HD; very young 10-11 HD; young 13-14 HD; juvenile 16-17 HD; young adult 19-20 HD; adult 22-23 HD; mature adult 25-26 HD; old 28-29 HD; very old 31-32 HD; ancient 34-35 HD; wyrm 37-38 HD; great wyrm 40+ HD</p></div><div topic='Level Adjustment' level='8'><p><b>Level Adjustment:</b> Wyrmling +4; very young +4; young +5; others -</p><p/></div><div topic='Blue Dragons by Age' level='5'><p><h2>Blue Dragons by Age</h2></p><table class='table table-sm table-hover' width='100%' border='1' cellpadding='2' cellspacing='2' frame='VOID' rules='ROWS'><tr maxcol='17' curcol='17'><td><b>Age</b><br/></td><td><b>Size</b><br/></td><td><b>Hit Dice (hp)</b><br/></td><td><b>Str</b><br/></td><td><b>Dex</b><br/></td><td><b>Con</b><br/></td><td><b>Int</b><br/></td><td><b>Wis</b><br/></td><td><b>Cha</b><br/></td><td><b>Base Attack/</b><br/><b>Grapple</b><br/></td> <td><b>Attack</b><br/></td><td><b>Fort Save</b><br/></td><td><b>Ref Save</b><br/></td><td><b>Will Save</b><br/></td><td><b>Breath Weapon (DC)</b><br/></td><td><b>Frightful Presence DC</b><br/></td></tr><tr maxcol='17' curcol='17'><td>Wyrmling<br/></td><td>S<br/></td><td>6d12+6 (45)<br/></td><td>13<br/></td><td>10<br/></td><td>13<br/></td><td>10<br/></td><td>11<br/></td><td>10<br/></td><td>+6/+3<br/></td><td>+8<br/></td><td>+6<br/></td><td>+5<br/></td><td>+5<br/></td><td>2d8 (14)<br/></td><td>-<br/></td></tr><tr maxcol='17' curcol='17'><td>Very young<br/></td><td>M<br/></td><td>9d12+18 (76)<br/></td><td>15<br/></td><td>10<br/></td><td>15<br/></td><td>10<br/></td><td>11<br/></td><td>10<br/></td><td>+9/+11<br/></td><td>+11<br/></td><td>+8<br/></td><td>+6<br/></td><td>+6<br/></td><td>4d8 (16)<br/></td><td>-<br/></td></tr><tr maxcol='17' curcol='17'><td>Young<br/></td><td>M<br/></td><td>12d12+24 (102)<br/></td><td>17<br/></td><td>10<br/></td><td>15<br/></td><td>12<br/></td><td>13<br/></td><td>12<br/></td><td>+12/+15<br/></td><td>+15<br/></td><td>+10<br/></td><td>+8<br/></td><td>+9<br/></td><td>6d8 (18)<br/></td><td>-<br/></td></tr><tr maxcol='17' curcol='17'><td>Juvenile<br/></td><td>L<br/></td><td>15d12+45 (142)<br/></td><td>19<br/></td><td>10<br/></td><td>17<br/></td><td>14<br/></td><td>15<br/></td><td>14<br/></td><td>+15/+23<br/></td><td>+18<br/></td><td>+12<br/></td><td>+9<br/></td><td>+11<br/></td><td>8d8 (20)<br/></td><td>-<br/></td></tr><tr maxcol='17' curcol='17'><td>Young adult<br/></td><td>L<br/></td><td>18d12+72 (189)<br/></td><td>23<br/></td><td>10<br/></td><td>19<br/></td><td>14<br/></td><td>15<br/></td><td>14<br/></td><td>+18/+28<br/></td><td>+23<br/></td><td>+15<br/></td><td>+11<br/></td><td>+13<br/></td><td>10d8 (23)<br/></td><td>21<br/></td></tr><tr maxcol='17' curcol='17'><td>Adult<br/></td><td>H<br/></td><td>21d12+105 (241)<br/></td><td>27<br/></td><td>10<br/></td><td>21<br/></td><td>16<br/></td><td>17<br/></td><td>16<br/></td><td>+21/+37<br/></td><td>+27<br/></td><td>+17<br/></td><td>+12<br/></td><td>+15<br/></td><td>12d8 (25)<br/></td><td>23<br/></td></tr><tr maxcol='17' curcol='17'><td>Mature adult<br/></td><td>H<br/></td><td>24d12+120 (276)<br/></td><td>29<br/></td><td>10<br/></td><td>21<br/></td><td>16<br/></td><td>17<br/></td><td>16<br/></td><td>+24/+41<br/></td><td>+31<br/></td><td>+19<br/></td><td>+14<br/></td><td>+17<br/></td><td>14d8 (27)<br/></td><td>25<br/></td></tr><tr maxcol='17' curcol='17'><td>Old<br/></td><td>H<br/></td><td>27d12+162 (337)<br/></td><td>31<br/></td><td>10<br/></td><td>23<br/></td><td>18<br/></td><td>19<br/></td><td>18<br/></td><td>+27/+45<br/></td><td>+35<br/></td><td>+21<br/></td><td>+15<br/></td><td>+19<br/></td><td>16d8 (29)<br/></td><td>27<br/></td></tr><tr maxcol='17' curcol='17'><td>Very old<br/></td><td>H<br/></td><td>30d12+180 (375)<br/></td><td>33<br/></td><td>10<br/></td><td>23<br/></td><td>18<br/></td><td>19<br/></td><td>18<br/></td><td>+30/+49<br/></td><td>+39<br/></td><td>+23<br/></td><td>+17<br/></td><td>+21<br/></td><td>18d8 (31)<br/></td><td>29<br/></td></tr><tr maxcol='17' curcol='17'><td>Ancient<br/></td><td>G<br/></td><td>33d12+231 (445)<br/></td><td>35<br/></td><td>10<br/></td><td>25<br/></td><td>20<br/></td><td>21<br/></td><td>20<br/></td><td>+33/+57<br/></td><td>+41<br/></td><td>+25<br/></td><td>+18<br/></td><td>+23<br/></td><td>20d8 (33)<br/></td><td>31<br/></td></tr><tr maxcol='17' curcol='17'><td>Wyrm<br/></td><td>G<br/></td><td>36d12+288 (522)<br/></td><td>37<br/></td><td>10<br/></td><td>27<br/></td><td>20<br/></td><td>21<br/></td><td>20<br/></td><td>+36/+61<br/></td><td>+45<br/></td><td>+28<br/></td><td>+20<br/></td><td>+25<br/></td><td>22d8 (36)<br/></td><td>33<br/></td></tr><tr maxcol='17' curcol='17'><td>Great wyrm<br/></td><td>G<br/></td><td>39d12+312 (565)<br/></td><td>39<br/></td><td>10<br/></td><td>27<br/></td><td>22<br/></td><td>23<br/></td><td>22<br/></td><td>+39/+65<br/></td><td>+49<br/></td><td>+29<br/></td><td>+21<br/></td><td>+27<br/></td><td>24d8 (37)<br/></td><td>35<br/></td></tr></table><p/></div><div topic='Blue Dragon Abilities by Age' level='5'><p><h2>Blue Dragon Abilities by Age</h2></p><table class='table table-sm table-hover' width='100%' border='1' cellpadding='2' cellspacing='2' frame='VOID' rules='ROWS'><tr maxcol='8' curcol='8'><td><b>Age</b><br/></td><td><b>Speed</b><br/></td><td><b>Initiative</b><br/></td><td><b>AC</b><br/></td><td><b>Special Abilities</b><br/></td><td><b>Caster Level</b><br/></td><td><b>SR</b><br/></td></tr><tr maxcol='8' curcol='8'><td>Wyrmling<br/></td><td>40 ft., burrow 20 ft., fly 100 ft. (average)<br/></td><td>+0<br/></td><td>16 (+1 size, +5 natural), touch 11, flat-footed 16<br/></td><td>Immunity to electricity, <i>create/destroy water</i><br/></td><td>-<br/></td><td>-<br/></td></tr><tr maxcol='8' curcol='8'><td>Very young<br/></td><td>40 ft., burrow 20 ft., fly 150 ft. (poor)<br/></td><td>+0<br/></td><td>18 (+8 natural), touch 10, flat-footed 18<br/></td><td/><td>-<br/></td><td>-<br/></td></tr><tr maxcol='8' curcol='8'><td>Young<br/></td><td>40 ft., burrow 20 ft., fly 150 ft. (poor)<br/></td><td>+0<br/></td><td>21 (+11 natural), touch 10, flat-footed 21<br/></td><td/><td>-<br/></td><td>-<br/></td></tr><tr maxcol='8' curcol='8'><td>Juvenile<br/></td><td>40 ft., burrow 20 ft., fly 150 ft. (poor)<br/></td><td>+0<br/></td><td>23 (-1 size, +14 natural), touch 9, flat-footed 23<br/></td><td>Sound imitation<br/></td><td>1st<br/></td><td>-<br/></td></tr><tr maxcol='8' curcol='8'><td>Young adult<br/></td><td>40 ft., burrow 20 ft., fly 150 ft. (poor)<br/></td><td>+0<br/></td><td>26 (-1 size, +17 natural), touch 9, flat-footed 26<br/></td><td>Damage reduction 5/magic<br/></td><td>3rd<br/></td><td>19<br/></td></tr><tr maxcol='8' curcol='8'><td>Adult<br/></td><td>40 ft., burrow 20 ft., fly 150 ft. (poor)<br/></td><td>+0<br/></td><td>28 (-2 size, +20 natural), touch 8, flat-footed 28<br/></td><td><i>Ventriloquism</i><br/></td><td>5th<br/></td><td>21<br/></td></tr><tr maxcol='8' curcol='8'><td>Mature adult<br/></td><td>40 ft., burrow 20 ft., fly 150 ft. (poor)<br/></td><td>+0<br/></td><td>31 (-2 size, +23 natural), touch 8, flat-footed 31<br/></td><td>Damage reduction 10/magic<br/></td><td>7th<br/></td><td>22<br/></td></tr><tr maxcol='8' curcol='8'><td>Old<br/></td><td>40 ft., burrow 20 ft., fly 150 ft. (poor)<br/></td><td>+0<br/></td><td>34 (-2 size, +26 natural), touch 8, flat-footed 34<br/></td><td><i>hallucinatory terrain</i><br/></td><td>9th<br/></td><td>24<br/></td></tr><tr maxcol='8' curcol='8'><td>Very old<br/></td><td>40 ft., burrow 20 ft., fly 150 ft. (poor)<br/></td><td>+0<br/></td><td>37 (-2 size, +29 natural), touch 8, flat-footed 37<br/></td><td>Damage reduction 15/magic<br/></td><td>11th<br/></td><td>25<br/></td></tr><tr maxcol='8' curcol='8'><td>Ancient<br/></td><td>40 ft., burrow 20 ft., fly 200 ft. (clumsy)<br/></td><td>+0<br/></td><td>38 (-4 size, +32 natural), touch 6, flat-footed 38<br/></td><td><i>Veil</i><br/></td><td>13th<br/></td><td>27<br/></td></tr><tr maxcol='8' curcol='8'><td>Wyrm<br/></td><td>40 ft., burrow 20 ft., fly 200 ft. (clumsy)<br/></td><td>+0<br/></td><td>41 (-4 size, +35 natural), touch 6, flat-footed 41<br/></td><td>Damage reduction 20/magic<br/></td><td>15th<br/></td><td>29<br/></td></tr><tr maxcol='8' curcol='8'><td>Great wyrm<br/></td><td>40 ft., burrow 20 ft., fly 200 ft. (clumsy)<br/></td><td>+0<br/></td><td>44 (-4 size, +38 natural), touch 6, flat-footed 44<br/></td><td><i>Mirage arcana</i><br/></td><td>17th<br/></td><td>31<br/></td></tr><tr maxcol='8' curcol='2'><td colspan='7'>*Can also cast cleric spells and those from the Air, Evil, and Law domains as arcane spells.<br/></td></tr></table><p>A blue dragon's scales vary in color from an iridescent azure to a deep indigo, polished to a glossy finish by blowing desert sands. The size of its scales increases little as the dragon ages, although they do become thicker and harder. Its hide tends to hum and crackle faintly with built-up static electricity. These effects intensify when the dragon is angry or about to attack, giving off an odor of ozone and sand. Their vibrant color makes blue dragons easy to spot in barren desert surroundings. However, they often burrow into the sand so only part of their heads are exposed.</p><p>Blue dragons love to soar in the hot desert air, usually flying in the daytime when temperatures are highest. Some nearly match the color of the desert sky and use this coloration to their advantage.</p><p>Blue dragons lair in vast underground caverns, where they also store their treasure. Although they collect anything that looks valuable, they are most fond of gems-especially sapphires.</p></div><div topic='Combat' level='5'><p><h2>Combat</h2></p><p>Typically, blue dragons attack from above or burrow beneath the sands until opponents come within 100 feet. Older dragons use their special abilities, such as <i>hallucinatory terrain</i>, in concert with these tactics to mask the land and improve their chances to surprise the target. Blue dragons run from a fight only if they are severely damaged, since they view retreat as cowardly.</p><div topic='Breath Weapon' level='8'><p><b>Breath Weapon (Su):</b> A blue dragon has one type of breath weapon, a line of lightning.</p></div><div topic='Create/Destroy Water' level='8'><p><b><i>Create/Destroy Water</i> (Sp):</b> A blue dragon of any age can use this ability three times per day. It works like the <i>create water</i> spell, except that the dragon can decide to destroy water instead of creating it, which automatically spoils unattended liquids containing water. Magic items (such as potions) and items in a creature's possession must succeed on a Will save (DC equal to that of the dragon's frightful presence) or be ruined. This ability is the equivalent of a 1st-level spell.</p></div><div topic='Sound Imitation' level='8'><p><b>Sound Imitation (Ex):</b> A juvenile or older blue dragon can mimic any voice or sound it has heard, anytime it likes. Listeners must succeed on a Will save (DC equal to that of the dragon's frightful presence) to detect the ruse.</p></div><div topic='Other Spell-Like Abilities' level='8'><p><b>Other Spell-Like Abilities:</b> 3/day-<i>ventriloquism</i> (adult or older); 1/day-<i>hallucinatory terrain</i> (old or older), <i>veil</i> (ancient or older), <i>mirage arcana</i> (great wyrm).</p></div><div topic='Skills' level='8'><p><b>Skills:</b> Bluff, Hide, and Spellcraft are considered class skills for blue dragons.</p><p/></div></div></div>    ",
        "public": ""
      },
      "bonusSkillRankFormula": "",
      "type": "Earth",
      "environment": "",
      "cr": 6,
      "totalCr": 6,
      "xp": {
        "value": 10
      },
      "levelUpProgression": false,
      "advancement": {
        "hd": [
          {
            "lower": 13,
            "upper": 14,
            "size": "med"
          }
        ],
        "byClass": false,
        "none": false,
        "originalHD": 0
      }
    },
    "skills": {
      "apr": {
        "value": 0,
        "ability": "int",
        "rt": false,
        "acp": false,
        "rank": 0,
        "notes": "",
        "mod": 1,
        "background": false,
        "visibility": "default",
        "cs": true,
        "points": 0,
        "acpPenalty": 0,
        "energyDrainPenalty": 0,
        "abilityModifier": 1
      },
      "blc": {
        "value": 0,
        "ability": "dex",
        "rt": false,
        "acp": true,
        "rank": 0,
        "notes": "",
        "mod": 0,
        "background": false,
        "visibility": "default",
        "cs": false,
        "points": 0,
        "acpPenalty": 0,
        "energyDrainPenalty": 0,
        "abilityModifier": 0
      },
      "blf": {
        "value": 0,
        "ability": "cha",
        "rt": false,
        "acp": false,
        "rank": 5,
        "notes": "",
        "mod": 6,
        "background": false,
        "visibility": "default",
        "cs": true,
        "points": 5,
        "acpPenalty": 0,
        "energyDrainPenalty": 0,
        "abilityModifier": 1
      },
      "clm": {
        "value": 0,
        "ability": "str",
        "rt": false,
        "acp": true,
        "rank": 0,
        "notes": "",
        "mod": 3,
        "background": false,
        "visibility": "default",
        "cs": true,
        "points": 0,
        "acpPenalty": 0,
        "energyDrainPenalty": 0,
        "abilityModifier": 3
      },
      "coc": {
        "value": 0,
        "ability": "con",
        "rt": false,
        "acp": false,
        "rank": 5,
        "notes": "",
        "mod": 7,
        "background": false,
        "visibility": "default",
        "cs": true,
        "points": 5,
        "acpPenalty": 0,
        "energyDrainPenalty": 0,
        "abilityModifier": 2
      },
      "crf": {
        "value": 0,
        "ability": "int",
        "rt": false,
        "acp": false,
        "rank": 0,
        "notes": "",
        "mod": 1,
        "background": false,
        "visibility": "default",
        "cs": true,
        "subSkills": {},
        "namedSubSkills": {},
        "points": 0,
        "acpPenalty": 0,
        "energyDrainPenalty": 0,
        "abilityModifier": 1
      },
      "dsc": {
        "value": 0,
        "ability": "int",
        "rt": true,
        "acp": false,
        "rank": 0,
        "notes": "",
        "mod": 1,
        "background": false,
        "visibility": "default",
        "cs": false,
        "points": 0,
        "acpPenalty": 0,
        "energyDrainPenalty": 0,
        "abilityModifier": 1
      },
      "dip": {
        "value": 0,
        "ability": "cha",
        "rt": false,
        "acp": false,
        "rank": 5,
        "notes": "",
        "mod": 10,
        "background": false,
        "visibility": "default",
        "cs": true,
        "changeBonus": 4,
        "points": 5,
        "acpPenalty": 0,
        "energyDrainPenalty": 0,
        "abilityModifier": 1
      },
      "dev": {
        "value": 0,
        "ability": "dex",
        "rt": true,
        "acp": true,
        "rank": 0,
        "notes": "",
        "mod": 0,
        "background": false,
        "visibility": "default",
        "cs": false,
        "points": 0,
        "acpPenalty": 0,
        "energyDrainPenalty": 0,
        "abilityModifier": 0
      },
      "dis": {
        "value": 0,
        "ability": "cha",
        "rt": false,
        "acp": false,
        "rank": 0,
        "notes": "",
        "mod": 1,
        "background": false,
        "visibility": "default",
        "cs": false,
        "points": 0,
        "acpPenalty": 0,
        "energyDrainPenalty": 0,
        "abilityModifier": 1
      },
      "esc": {
        "value": 0,
        "ability": "dex",
        "rt": false,
        "acp": true,
        "rank": 5,
        "notes": "",
        "mod": 5,
        "background": false,
        "visibility": "default",
        "cs": true,
        "points": 5,
        "acpPenalty": 0,
        "energyDrainPenalty": 0,
        "abilityModifier": 0
      },
      "fog": {
        "value": 0,
        "ability": "int",
        "rt": false,
        "acp": false,
        "rank": 0,
        "notes": "",
        "mod": 1,
        "background": false,
        "visibility": "default",
        "cs": false,
        "points": 0,
        "acpPenalty": 0,
        "energyDrainPenalty": 0,
        "abilityModifier": 1
      },
      "gif": {
        "value": 0,
        "ability": "cha",
        "rt": false,
        "acp": false,
        "rank": 0,
        "notes": "",
        "mod": 1,
        "background": false,
        "visibility": "default",
        "cs": false,
        "points": 0,
        "acpPenalty": 0,
        "energyDrainPenalty": 0,
        "abilityModifier": 1
      },
      "han": {
        "value": 0,
        "ability": "cha",
        "rt": true,
        "acp": false,
        "rank": 0,
        "notes": "",
        "mod": 1,
        "background": false,
        "visibility": "default",
        "cs": false,
        "points": 0,
        "acpPenalty": 0,
        "energyDrainPenalty": 0,
        "abilityModifier": 1
      },
      "hea": {
        "value": 0,
        "ability": "wis",
        "rt": false,
        "acp": false,
        "rank": 0,
        "notes": "",
        "mod": 1,
        "background": false,
        "visibility": "default",
        "cs": true,
        "points": 0,
        "acpPenalty": 0,
        "energyDrainPenalty": 0,
        "abilityModifier": 1
      },
      "hid": {
        "value": 0,
        "ability": "dex",
        "rt": false,
        "acp": true,
        "rank": 5,
        "notes": "",
        "mod": 5,
        "background": false,
        "visibility": "default",
        "cs": true,
        "points": 5,
        "acpPenalty": 0,
        "energyDrainPenalty": 0,
        "abilityModifier": 0
      },
      "int": {
        "value": 0,
        "ability": "cha",
        "rt": false,
        "acp": false,
        "rank": 5,
        "notes": "",
        "mod": 8,
        "background": false,
        "visibility": "default",
        "cs": true,
        "changeBonus": 2,
        "points": 5,
        "acpPenalty": 0,
        "energyDrainPenalty": 0,
        "abilityModifier": 1
      },
      "jmp": {
        "value": 0,
        "ability": "str",
        "rt": false,
        "acp": true,
        "rank": 0,
        "notes": "",
        "mod": 3,
        "background": false,
        "visibility": "default",
        "cs": false,
        "points": 0,
        "acpPenalty": 0,
        "energyDrainPenalty": 0,
        "abilityModifier": 3
      },
      "kar": {
        "value": 0,
        "ability": "int",
        "rt": true,
        "acp": false,
        "rank": 0,
        "notes": "",
        "mod": 1,
        "background": false,
        "visibility": "default",
        "cs": true,
        "points": 0,
        "acpPenalty": 0,
        "energyDrainPenalty": 0,
        "abilityModifier": 1
      },
      "kdu": {
        "value": 0,
        "ability": "int",
        "rt": true,
        "acp": false,
        "rank": 0,
        "notes": "",
        "mod": 1,
        "background": false,
        "visibility": "default",
        "cs": true,
        "points": 0,
        "acpPenalty": 0,
        "energyDrainPenalty": 0,
        "abilityModifier": 1
      },
      "ken": {
        "value": 0,
        "ability": "int",
        "rt": true,
        "acp": false,
        "rank": 0,
        "notes": "",
        "mod": 1,
        "background": false,
        "visibility": "default",
        "cs": true,
        "points": 0,
        "acpPenalty": 0,
        "energyDrainPenalty": 0,
        "abilityModifier": 1
      },
      "kge": {
        "value": 0,
        "ability": "int",
        "rt": true,
        "acp": false,
        "rank": 0,
        "notes": "",
        "mod": 1,
        "background": false,
        "visibility": "default",
        "cs": true,
        "points": 0,
        "acpPenalty": 0,
        "energyDrainPenalty": 0,
        "abilityModifier": 1
      },
      "khi": {
        "value": 0,
        "ability": "int",
        "rt": true,
        "acp": false,
        "rank": 0,
        "notes": "",
        "mod": 1,
        "background": false,
        "visibility": "default",
        "cs": true,
        "points": 0,
        "acpPenalty": 0,
        "energyDrainPenalty": 0,
        "abilityModifier": 1
      },
      "klo": {
        "value": 0,
        "ability": "int",
        "rt": true,
        "acp": false,
        "rank": 0,
        "notes": "",
        "mod": 1,
        "background": false,
        "visibility": "default",
        "cs": true,
        "points": 0,
        "acpPenalty": 0,
        "energyDrainPenalty": 0,
        "abilityModifier": 1
      },
      "kna": {
        "value": 0,
        "ability": "int",
        "rt": true,
        "acp": false,
        "rank": 0,
        "notes": "",
        "mod": 1,
        "background": false,
        "visibility": "default",
        "cs": true,
        "points": 0,
        "acpPenalty": 0,
        "energyDrainPenalty": 0,
        "abilityModifier": 1
      },
      "kno": {
        "value": 0,
        "ability": "int",
        "rt": true,
        "acp": false,
        "rank": 0,
        "notes": "",
        "mod": 1,
        "background": true,
        "cs": true,
        "points": 0,
        "acpPenalty": 0,
        "energyDrainPenalty": 0,
        "abilityModifier": 1
      },
      "kpl": {
        "value": 0,
        "ability": "int",
        "rt": true,
        "acp": false,
        "rank": 0,
        "notes": "",
        "mod": 1,
        "background": false,
        "visibility": "default",
        "cs": true,
        "points": 0,
        "acpPenalty": 0,
        "energyDrainPenalty": 0,
        "abilityModifier": 1
      },
      "kre": {
        "value": 0,
        "ability": "int",
        "rt": true,
        "acp": false,
        "rank": 0,
        "notes": "",
        "mod": 1,
        "background": false,
        "visibility": "default",
        "cs": true,
        "points": 0,
        "acpPenalty": 0,
        "energyDrainPenalty": 0,
        "abilityModifier": 1
      },
      "lis": {
        "value": 0,
        "ability": "wis",
        "rt": false,
        "acp": false,
        "rank": 15,
        "notes": "",
        "mod": 18,
        "background": false,
        "visibility": "default",
        "cs": true,
        "changeBonus": 2,
        "points": 15,
        "acpPenalty": 0,
        "energyDrainPenalty": 0,
        "abilityModifier": 1
      },
      "mos": {
        "value": 0,
        "ability": "dex",
        "rt": false,
        "acp": true,
        "rank": 0,
        "notes": "",
        "mod": 0,
        "background": false,
        "visibility": "default",
        "cs": false,
        "points": 0,
        "acpPenalty": 0,
        "energyDrainPenalty": 0,
        "abilityModifier": 0
      },
      "opl": {
        "value": 0,
        "ability": "dex",
        "rt": true,
        "acp": false,
        "rank": 0,
        "notes": "",
        "mod": 0,
        "background": false,
        "visibility": "default",
        "cs": false,
        "points": 0,
        "acpPenalty": 0,
        "energyDrainPenalty": 0,
        "abilityModifier": 0
      },
      "prf": {
        "value": 0,
        "ability": "cha",
        "rt": false,
        "acp": false,
        "rank": 0,
        "notes": "",
        "mod": 1,
        "background": false,
        "visibility": "default",
        "cs": false,
        "subSkills": {},
        "namedSubSkills": {},
        "points": 0,
        "acpPenalty": 0,
        "energyDrainPenalty": 0,
        "abilityModifier": 1
      },
      "pro": {
        "value": 0,
        "ability": "wis",
        "rt": true,
        "acp": false,
        "rank": 0,
        "notes": "",
        "mod": 1,
        "background": false,
        "visibility": "default",
        "cs": false,
        "subSkills": {},
        "namedSubSkills": {},
        "points": 0,
        "acpPenalty": 0,
        "energyDrainPenalty": 0,
        "abilityModifier": 1
      },
      "rid": {
        "value": 0,
        "ability": "dex",
        "rt": false,
        "acp": true,
        "rank": 0,
        "notes": "",
        "mod": 0,
        "background": false,
        "visibility": "default",
        "cs": false,
        "points": 0,
        "acpPenalty": 0,
        "energyDrainPenalty": 0,
        "abilityModifier": 0
      },
      "src": {
        "value": 0,
        "ability": "int",
        "rt": false,
        "acp": false,
        "rank": 15,
        "notes": "",
        "mod": 16,
        "background": false,
        "visibility": "default",
        "cs": true,
        "points": 15,
        "acpPenalty": 0,
        "energyDrainPenalty": 0,
        "abilityModifier": 1
      },
      "sen": {
        "value": 0,
        "ability": "wis",
        "rt": false,
        "acp": false,
        "rank": 5,
        "notes": "",
        "mod": 6,
        "background": false,
        "visibility": "default",
        "cs": true,
        "points": 5,
        "acpPenalty": 0,
        "energyDrainPenalty": 0,
        "abilityModifier": 1
      },
      "slt": {
        "value": 0,
        "ability": "dex",
        "rt": true,
        "acp": true,
        "rank": 0,
        "notes": "",
        "mod": 2,
        "background": false,
        "visibility": "default",
        "cs": false,
        "changeBonus": 2,
        "points": 0,
        "acpPenalty": 0,
        "energyDrainPenalty": 0,
        "abilityModifier": 0
      },
      "spk": {
        "value": 0,
        "ability": "",
        "rt": true,
        "acp": false,
        "rank": 0,
        "notes": "",
        "mod": 0,
        "background": false,
        "visibility": "default",
        "points": 0,
        "cs": false,
        "acpPenalty": 0,
        "energyDrainPenalty": 0,
        "abilityModifier": 0
      },
      "spl": {
        "value": 0,
        "ability": "int",
        "rt": true,
        "acp": false,
        "rank": 5,
        "notes": "",
        "mod": 6,
        "background": false,
        "visibility": "default",
        "cs": true,
        "points": 5,
        "acpPenalty": 0,
        "energyDrainPenalty": 0,
        "abilityModifier": 1
      },
      "spt": {
        "value": 0,
        "ability": "wis",
        "rt": false,
        "acp": false,
        "rank": 15,
        "notes": "",
        "mod": 18,
        "background": false,
        "visibility": "default",
        "cs": true,
        "changeBonus": 2,
        "points": 15,
        "acpPenalty": 0,
        "energyDrainPenalty": 0,
        "abilityModifier": 1
      },
      "sur": {
        "value": 0,
        "ability": "wis",
        "rt": false,
        "acp": false,
        "rank": 0,
        "notes": "",
        "mod": 1,
        "background": false,
        "visibility": "default",
        "cs": true,
        "points": 0,
        "acpPenalty": 0,
        "energyDrainPenalty": 0,
        "abilityModifier": 1
      },
      "swm": {
        "value": 0,
        "ability": "str",
        "rt": false,
        "acp": true,
        "rank": 0,
        "notes": "",
        "mod": 3,
        "background": false,
        "visibility": "default",
        "cs": true,
        "points": 0,
        "acpPenalty": 0,
        "energyDrainPenalty": 0,
        "abilityModifier": 3
      },
      "tmb": {
        "value": 0,
        "ability": "dex",
        "rt": false,
        "acp": true,
        "rank": 0,
        "notes": "",
        "mod": 0,
        "background": false,
        "visibility": "default",
        "cs": false,
        "points": 0,
        "acpPenalty": 0,
        "energyDrainPenalty": 0,
        "abilityModifier": 0
      },
      "umd": {
        "value": 0,
        "ability": "cha",
        "rt": true,
        "acp": false,
        "rank": 5,
        "notes": "",
        "mod": 6,
        "background": false,
        "visibility": "default",
        "cs": true,
        "points": 5,
        "acpPenalty": 0,
        "energyDrainPenalty": 0,
        "abilityModifier": 1
      },
      "uro": {
        "value": 0,
        "ability": "dex",
        "rt": false,
        "acp": false,
        "rank": 0,
        "notes": "",
        "mod": 0,
        "background": false,
        "visibility": "default",
        "cs": false,
        "points": 0,
        "acpPenalty": 0,
        "energyDrainPenalty": 0,
        "abilityModifier": 0
      },
      "kps": {
        "value": 0,
        "ability": "int",
        "rt": false,
        "acp": false,
        "rank": 0,
        "notes": "",
        "mod": 1,
        "background": false,
        "visibility": "default",
        "cs": false,
        "points": 0,
        "acpPenalty": 0,
        "energyDrainPenalty": 0,
        "abilityModifier": 1
      },
      "aut": {
        "value": 0,
        "ability": "wis",
        "rt": true,
        "acp": false,
        "rank": 0,
        "notes": "",
        "mod": 3,
        "background": false,
        "visibility": "default",
        "cs": false,
        "changeBonus": 2,
        "points": 0,
        "acpPenalty": 0,
        "energyDrainPenalty": 0,
        "abilityModifier": 1
      },
      "psi": {
        "value": 0,
        "ability": "int",
        "rt": true,
        "acp": false,
        "rank": 0,
        "notes": "",
        "mod": 1,
        "background": false,
        "visibility": "default",
        "cs": false,
        "points": 0,
        "acpPenalty": 0,
        "energyDrainPenalty": 0,
        "abilityModifier": 1
      },
      "upd": {
        "value": 0,
        "ability": "cha",
        "rt": true,
        "acp": false,
        "rank": 0,
        "notes": "",
        "mod": 1,
        "background": false,
        "visibility": "default",
        "cs": false,
        "points": 0,
        "acpPenalty": 0,
        "energyDrainPenalty": 0,
        "abilityModifier": 1
      }
    },
    "customSkills": {},
    "traits": {
      "size": "med",
      "tokensize": "actor",
      "senses": "Darkvision 120 ft.",
      "dr": "",
      "incorporeal": false,
      "eres": "",
      "cres": "",
      "languages": {
        "value": [],
        "custom": ""
      },
      "di": {
        "value": [],
        "custom": ""
      },
      "dv": {
        "value": [],
        "custom": ""
      },
      "ci": {
        "value": [
          "sleep",
          "paralyze"
        ],
        "custom": ""
      },
      "perception": {
        "_deprecated": true
      },
      "actualSize": "med"
    },
    "currency": {
      "pp": 0,
      "gp": 0,
      "sp": 0,
      "cp": 0
    },
    "altCurrency": {
      "pp": 0,
      "gp": 0,
      "sp": 0,
      "cp": 0
    },
    "customCurrency": {},
    "noLightOverride": false,
    "noTokenOverride": false,
    "noSkillSynergy": false,
    "noBuffDisplay": false,
    "lockEditingByPlayers": false,
    "showCardSheet": false,
    "showSpellcastingSheet": true,
    "staticBonus": {
      "hp": 0,
      "ac": 0
    },
    "jumpSkillAdjust": false,
    "master": {
      "id": null,
      "img": null,
      "name": null,
      "data": {},
      "distance": 0
    },
    "noVisionOverride": true,
    "counters": {
      "feat": {
        "base": {
          "value": 5,
          "counted": 5
        }
      }
    },
    "classes": {
      "dragon": {
        "level": 12,
        "_id": "py0NhmuKGVMCosBy",
        "name": "Dragon*",
        "hd": 12,
        "bab": "high",
        "hp": false,
        "maxLevel": 20,
        "skillsPerLevel": 6,
        "isSpellcaster": false,
        "isPsionSpellcaster": false,
        "hasSpecialSlot": false,
        "isSpellcastingSpontaneus": false,
        "isArcane": false,
        "spellcastingType": null,
        "spellcastingAbility": "int",
        "allSpellsKnown": false,
        "savingThrows": {
          "fort": 8,
          "ref": 8,
          "will": 8
        },
        "fc": {
          "hp": 0,
          "skill": 0,
          "alt": 0
        },
        "spellsKnownPerLevel": [],
        "powersKnown": [],
        "powersMaxLevel": [],
        "spellslotAbility": "",
        "halfCasterLevel": false,
        "deckHandSizeFormula": "0",
        "knownCardsSizeFormula": "0",
        "deckPrestigeClass": false,
        "hasSpellbook": false,
        "spelllist": {}
      }
    },
    "damage": {
      "nonlethal": {
        "value": 0,
        "max": 102
      }
    },
    "senses": {
      "darkvision": 0,
      "blindsight": 0,
      "tremorsense": 0,
      "truesight": 0,
      "lowLight": false,
      "special": "",
      "modified": {},
      "lowLightMultiplier": 2
    },
    "totalNonEclLevels": 12,
    "classLevels": 0,
    "combinedResistances": [
      {
        "uid": "energy-electric",
        "value": 0,
        "vulnerable": false,
        "immunity": true,
        "lethal": false,
        "providedBy": "py0NhmuKGVMCosBy",
        "modified": true,
        "items": [
          "Dragon*"
        ]
      }
    ],
    "combinedDR": [],
    "shieldType": "none",
    "canLevelUp": false,
    "naturalAttackCount": 3
  },
  "ownership": {
    "default": 0,
    "gvVvJrAyZKOZnAuP": 3
  },
  "prototypeToken": {
    "flags": {
      "D35E": {
        "lowLightVision": false
      }
    },
    "name": "Blue Dragon, Young",
    "displayName": 20,
    "width": 1,
    "height": 1,
    "lockRotation": false,
    "rotation": 0,
    "actorLink": false,
    "disposition": -1,
    "displayBars": 40,
    "bar1": {
      "attribute": "attributes.hp"
    },
    "bar2": {
      "attribute": null
    },
    "randomImg": false,
    "alpha": 1,
    "light": {
      "alpha": 0,
      "angle": 360,
      "bright": 0,
      "coloration": 1,
      "dim": 0,
      "luminosity": 0.5,
      "saturation": 0,
      "contrast": 0,
      "shadows": 0,
      "animation": {
        "speed": 5,
        "intensity": 5,
        "type": null,
        "reverse": false
      },
      "darkness": {
        "min": 0,
        "max": 1
      },
      "color": "#000000",
      "attenuation": 0.5
    },
    "texture": {
      "src": "systems/D35E/icons/bestiary/token/dragon-blue.png",
      "tint": null,
      "scaleX": 1,
      "scaleY": 1,
      "offsetX": 0,
      "offsetY": 0,
      "rotation": 0
    },
    "sight": {
      "angle": 360,
      "enabled": true,
      "range": 120,
      "brightness": 1,
      "visionMode": "basic",
      "attenuation": 0.1,
      "saturation": 0,
      "contrast": 0
    },
    "appendNumber": false,
    "prependAdjective": false,
    "detectionModes": []
  },
  "_stats": {
    "systemId": "D35E",
    "systemVersion": "2.3.0",
    "coreVersion": "11.299",
    "createdTime": 1686244355415,
    "modifiedTime": 1686244355614,
    "lastModifiedBy": "cB3ob9BYxSFYX7sd"
  },
  "_key": "!actors!gE1kFuRWFj10DY3N"
}