{
  "_id": "6o50wTnm2s5WxgnC",
  "name": "Breath Weapon ()",
  "type": "attack",
  "data": {
    "originVersion": 0,
    "originPack": "",
    "originId": "",
    "possibleUpdate": false,
    "description": {
      "value": "<p>A creature attacking with a breath weapon is actually expelling something from its mouth (rather than conjuring it by means of a spell or some other magical effect). A breath weapon attack usually deals damage and is often based on some type of energy.</p>\n<p>Such breath weapons allow a Reflex save for half damage (DC 10 + 1/2 breathing creature&rsquo;s racial HD + breathing creature&rsquo;s Con modifier; the exact DC is given in the creature&rsquo;s descriptive text). Some breath weapons allow a Fortitude save or a Will save instead of a Reflex save. Most creatures with breath weapons are limited to a number of uses per day or by a minimum length of time that must pass between uses. Such creatures are usually smart enough to save their breath weapon until they really need it.</p>\n<ul>\n<li>Using a breath weapon is typically a standard action.</li>\n<li>No attack roll is necessary. The breath simply fills its stated area.</li>\n<li>Any character caught in the area must make the appropriate saving throw or suffer the breath weapon&rsquo;s full effect. In many cases, a character who succeeds on his saving throw still takes half damage or some other reduced effect.</li>\n<li>Breath weapons are supernatural abilities except where noted.</li>\n<li>Creatures are immune to their own breath weapons unless otherwise noted.</li>\n<li>Creatures unable to breathe can still use breath weapons. (The term is something of a misnomer.)</li>\n</ul>",
      "chat": "",
      "unidentified": ""
    },
    "epic": false,
    "psionic": "",
    "nameFormula": "",
    "nameFromFormula": false,
    "tags": [],
    "uniqueId": "",
    "linkId": "",
    "linkSourceId": "",
    "linkImported": false,
    "linkSourceName": "",
    "source": "",
    "classSource": "",
    "userNonRemovable": false,
    "customAttributes": {},
    "customAttributesLocked": false,
    "customTag": "",
    "createdBy": "",
    "activation": {
      "cost": 1,
      "type": "standard"
    },
    "duration": {
      "value": null,
      "units": ""
    },
    "target": {
      "value": ""
    },
    "range": {
      "value": null,
      "units": "ft"
    },
    "recharge": {
      "enabled": false,
      "formula": "",
      "current": 0
    },
    "uses": {
      "value": 0,
      "max": 0,
      "per": "",
      "autoDeductCharges": true,
      "allowMultipleUses": false,
      "chargesPerUse": 1,
      "maxPerUse": null,
      "maxPerUseFormula": "",
      "maxFormula": "",
      "rechargeFormula": null,
      "isResource": false,
      "canBeLinked": false
    },
    "requiresPsionicFocus": false,
    "linkedChargeItem": {
      "id": null,
      "img": null,
      "name": null
    },
    "measureTemplate": {
      "type": "ray",
      "size": 0,
      "overrideColor": false,
      "customColor": "",
      "overrideTexture": false,
      "customTexture": ""
    },
    "actionType": "save",
    "attackBonus": "",
    "critConfirmBonus": "",
    "damage": {
      "parts": [
        [
          "",
          null,
          "energy-force"
        ]
      ],
      "alternativeParts": []
    },
    "summon": [],
    "attackParts": [],
    "autoscaleAttackParts": "",
    "formula": "",
    "attackCountFormula": "",
    "maxDamageDice": 0,
    "maxDamageDiceFormula": "",
    "ability": {
      "attack": null,
      "damage": "",
      "damageMult": 1,
      "critRange": 20,
      "critMult": 2,
      "twoHandedOnly": false,
      "vsTouchAc": false
    },
    "save": {
      "dc": "0",
      "description": "",
      "ability": "",
      "type": "reflexhalf",
      "dcAutoType": "",
      "dcAutoAbility": ""
    },
    "baseCl": "0",
    "sr": false,
    "pr": false,
    "metamagicFeats": {
      "maximized": false,
      "empowered": false,
      "enlarged": false,
      "intensified": false,
      "enhanced": false,
      "enhancedHalf": false,
      "widened": false
    },
    "effectNotes": "",
    "attackNotes": "",
    "specialActions": [],
    "favorite": true,
    "rollTableDraw": {
      "formula": "",
      "name": "",
      "pack": "",
      "id": ""
    },
    "material": {
      "data": null
    },
    "associations": {
      "classes": []
    },
    "attackType": "misc",
    "autoScaleOption": "default",
    "weaponSubtype": "light",
    "masterwork": false,
    "threatRangeExtended": false,
    "finesseable": false,
    "enh": null,
    "incorporeal": false,
    "proficient": true,
    "primaryAttack": true,
    "showInQuickbar": true,
    "melded": false,
    "baseWeaponType": "",
    "nonLethal": false,
    "originalWeaponCreated": false,
    "originalWeaponId": null,
    "originalWeaponName": "",
    "originalWeaponImg": "",
    "originalWeaponProperties": {},
    "conditionals": [],
    "thrown": false,
    "returning": false,
    "magic": false,
    "alignment": {
      "good": false,
      "evil": false,
      "lawful": false,
      "chaotic": false
    },
    "customReferenceId": "",
    "attack": {
      "parts": []
    }
  },
  "sort": 200000,
  "flags": {},
  "img": "systems/D35E/icons/attack/monster/breath-ray.png",
  "effects": [],
  "folder": null,
  "permission": {
    "default": 0
  },
  "_key": "!actors.items!PX8bujFAAfTriADz.6o50wTnm2s5WxgnC"
}