{
  "_id": "60nxuzFwPumwk3Rp",
  "name": "Bronze Dragon, Young",
  "type": "npc",
  "img": "systems/D35E/icons/bestiary/token/dragon-bronze.png",
  "items": [
    "jR0LvvhIjWzeqrUG",
    "egN3UW0tgSUxEgH8",
    "OUYn5lIUTBWuAZmo",
    "T1OpHetZmF1GbeN3",
    "yGAxoPGjkMHi5LnS",
    "SOqGYculuyD41B4H",
    "7aemtYpEGlolnbxs",
    "Q374oYqCq98cNoEy",
    "4Hqu70UzfdsOJ0cc",
    "Z6FxpGY2rHQDMTVF",
    "ED0X9tRhRYABD5JO",
    "8bFFisrpUT4EQguw",
    "W6R1lvfTYUF8c9dm",
    "y1Ord5tdoSDmo6Pe",
    "QNsNjzHBwyDyg1TG",
    "SFQo1YByCzrW2g6h"
  ],
  "effects": [],
  "folder": null,
  "sort": 0,
  "flags": {
    "core": {
      "sourceId": "Compendium.D35E.bestiary.60nxuzFwPumwk3Rp"
    },
    "D35E": {
      "loseDexToAC": false,
      "noStr": false,
      "noDex": false,
      "noInt": false,
      "noCon": false,
      "oneInt": false,
      "oneWis": false,
      "oneCha": false,
      "noEncumbrance": false,
      "mediumArmorFullSpeed": false,
      "heavyArmorFullSpeed": false,
      "multiAttack": false,
      "multiweaponAttack": false,
      "uncannyDodge": false,
      "naturalAttackCount": 3
    }
  },
  "system": {
    "shapechangeImg": "icons/svg/mystery-man.svg",
    "tokenImg": "systems/D35E/icons/bestiary/token/dragon-bronze.png",
    "companionUuid": "",
    "companionPublicId": "",
    "companionUsePersonalKey": false,
    "companionAutosync": false,
    "companionLockGM": false,
    "abilities": {
      "str": {
        "total": 17,
        "mod": 3,
        "value": 17,
        "carryBonus": 0,
        "carryMultiplier": 1,
        "checkMod": 0,
        "damage": 0,
        "drain": 0,
        "penalty": 0,
        "userPenalty": 0,
        "origMod": 3,
        "origTotal": 17,
        "isZero": false
      },
      "dex": {
        "total": 10,
        "mod": 0,
        "value": 10,
        "checkMod": 0,
        "damage": 0,
        "drain": 0,
        "penalty": 0,
        "userPenalty": 0,
        "origMod": 0,
        "origTotal": 10,
        "isZero": false
      },
      "con": {
        "total": 15,
        "mod": 2,
        "value": 15,
        "checkMod": 0,
        "damage": 0,
        "drain": 0,
        "penalty": 0,
        "userPenalty": 0,
        "origMod": 2,
        "origTotal": 15,
        "isZero": false
      },
      "int": {
        "total": 16,
        "mod": 3,
        "value": 16,
        "checkMod": 0,
        "damage": 0,
        "drain": 0,
        "penalty": 0,
        "userPenalty": 0,
        "origMod": 3,
        "origTotal": 16,
        "isZero": false
      },
      "wis": {
        "total": 17,
        "mod": 3,
        "value": 17,
        "checkMod": 0,
        "damage": 0,
        "drain": 0,
        "penalty": 0,
        "userPenalty": 0,
        "origMod": 3,
        "origTotal": 17,
        "isZero": false
      },
      "cha": {
        "total": 16,
        "mod": 3,
        "value": 16,
        "checkMod": 0,
        "damage": 0,
        "drain": 0,
        "penalty": 0,
        "userPenalty": 0,
        "origMod": 3,
        "origTotal": 16,
        "isZero": false
      }
    },
    "resources": {
      "bite": {
        "max": 0,
        "_id": "W6R1lvfTYUF8c9dm"
      },
      "claw": {
        "max": 0,
        "_id": "y1Ord5tdoSDmo6Pe",
        "value": 0
      },
      "wing": {
        "max": 0,
        "_id": "QNsNjzHBwyDyg1TG",
        "value": 0
      }
    },
    "attributes": {
      "encumbrance": {
        "level": 0,
        "levels": {
          "light": 86,
          "medium": 173,
          "heavy": 260,
          "carry": 520,
          "drag": 1300
        },
        "carriedWeight": 0
      },
      "senses": {
        "darkvision": 0,
        "blindsight": 0,
        "tremorsense": 0,
        "truesight": 0,
        "lowLight": false,
        "lowLightMultiplier": 2,
        "special": ""
      },
      "hd": {
        "base": {
          "_deprecated": true,
          "value": 0
        },
        "total": 12,
        "max": {
          "_deprecated": true,
          "value": 0
        },
        "racialClass": 12
      },
      "naturalAC": 0,
      "naturalACTotal": 11,
      "fortification": {
        "value": 0,
        "total": 0
      },
      "ac": {
        "normal": {
          "value": 0,
          "total": 21
        },
        "touch": {
          "value": 0,
          "total": 10
        },
        "flatFooted": {
          "value": 0,
          "total": 21
        }
      },
      "concealment": {
        "value": 0,
        "total": 0
      },
      "bab": {
        "value": 0,
        "total": 12,
        "base": 12
      },
      "cmd": {
        "value": 0,
        "total": 25,
        "flatFootedTotal": 25
      },
      "cmb": {
        "value": 0,
        "total": 15
      },
      "sr": {
        "formula": "",
        "total": 0
      },
      "pr": {
        "formula": "",
        "total": 0
      },
      "hardness": {
        "formula": "",
        "total": 0
      },
      "cmbNotes": "",
      "saveNotes": "",
      "acNotes": "",
      "cmdNotes": "",
      "srNotes": "",
      "attack": {
        "general": 0,
        "melee": 0,
        "ranged": 0,
        "sunder": 0,
        "bullrush": 0
      },
      "damage": {
        "general": 0,
        "weapon": 0,
        "spell": 0
      },
      "maxDexBonus": 999,
      "maxDex": {
        "gear": null,
        "encumbrance": null,
        "total": 999
      },
      "acp": {
        "gear": 0,
        "encumbrance": 0,
        "total": 0
      },
      "energyDrain": 0,
      "quadruped": false,
      "savingThrows": {
        "fort": {
          "total": 10,
          "base": 8
        },
        "ref": {
          "total": 8,
          "base": 8
        },
        "will": {
          "total": 11,
          "base": 8
        }
      },
      "hp": {
        "value": 102,
        "min": -100,
        "base": 0,
        "max": 102,
        "temp": 0,
        "nonlethal": 0
      },
      "turnUndeadHdTotal": 0,
      "turnUndeadUsesBonusFormula": "",
      "turnUndeadUses": 0,
      "prestigeCl": {
        "psionic": {
          "max": 0,
          "value": 0,
          "total": 0
        },
        "arcane": {
          "max": 0,
          "value": 0,
          "total": 0
        },
        "divine": {
          "max": 0,
          "value": 0,
          "total": 0
        },
        "cards": {
          "max": 0,
          "value": 0
        }
      },
      "turnUndeadUsesTotal": 0,
      "sneakAttackDiceTotal": 0,
      "minionClassLevels": {
        "none": 0
      },
      "minionDistance": {},
      "spellPointsTotal": [],
      "powerPointsTotal": 0,
      "arcaneSpellFailure": 0,
      "psionicFocus": false,
      "wounds": {
        "min": 0,
        "value": 30,
        "max": 30
      },
      "vigor": {
        "min": 0,
        "value": 78,
        "temp": 0,
        "max": 78
      },
      "init": {
        "value": 0,
        "bonus": 0,
        "total": 4
      },
      "prof": 2,
      "speed": {
        "land": {
          "base": 40,
          "total": 40,
          "run": 160
        },
        "climb": {
          "base": 0,
          "total": 0,
          "run": 0
        },
        "swim": {
          "base": 60,
          "total": 60,
          "run": 240
        },
        "burrow": {
          "base": 0,
          "total": 0,
          "run": 0
        },
        "fly": {
          "base": 150,
          "total": 150,
          "run": 600,
          "maneuverability": "average"
        }
      },
      "conditions": {
        "blind": false,
        "dazzled": false,
        "deaf": false,
        "entangled": false,
        "fatigued": false,
        "exhausted": false,
        "grappled": false,
        "helpless": false,
        "paralyzed": false,
        "pinned": false,
        "fear": false,
        "sickened": false,
        "stunned": false,
        "shaken": false,
        "polymorphed": false,
        "wildshaped": false,
        "prone": false,
        "dead": false,
        "dying": false,
        "disabled": false,
        "stable": false,
        "unconscious": false,
        "staggered": false,
        "invisible": false,
        "banished": false,
        "invisibility": false
      },
      "spells": {
        "concentration": {
          "bonus": 0,
          "context": ""
        },
        "spellbooks": {
          "primary": {
            "name": "Primary",
            "class": "",
            "cl": {
              "base": 0,
              "value": 0,
              "total": 0,
              "formula": ""
            },
            "concentration": 0,
            "bonusPrestigeCl": 0,
            "concentrationFormula": "",
            "concentrationNotes": "",
            "clNotes": "",
            "ability": "int",
            "spellslotAbility": "",
            "autoSpellLevels": true,
            "usePowerPoints": false,
            "autoSetup": true,
            "spellcastingType": null,
            "powerPointsFormula": "",
            "dailyPowerPointsFormula": "",
            "powerPoints": 0,
            "powerPointsTotal": 0,
            "maximumPowerPointLimit": "@cl",
            "arcaneSpellFailure": true,
            "baseDCFormula": "10 + @sl + @ablMod",
            "spontaneous": false,
            "hasSpecialSlot": false,
            "showOnlyPrepared": false,
            "specialSlots": {
              "level1": null,
              "level2": null,
              "level3": null,
              "level4": null,
              "level5": null,
              "level6": null,
              "level7": null,
              "level8": null,
              "level9": null
            },
            "maxPrestigeCl": 0,
            "allSpellsKnown": false,
            "hasPrestigeCl": false,
            "canAddPrestigeCl": false,
            "canRemovePrestigeCl": false,
            "powersKnown": 0,
            "powersMaxLevel": 0,
            "spells": {
              "spell0": {
                "value": 0,
                "max": 0,
                "base": 0,
                "known": 0,
                "maxKnown": 0,
                "bonus": 0,
                "classBase": 0
              },
              "spell1": {
                "value": 0,
                "max": 0,
                "base": 0,
                "known": 0,
                "maxKnown": 0,
                "bonus": 0,
                "classBase": 0
              },
              "spell2": {
                "value": 0,
                "max": 0,
                "base": 0,
                "known": 0,
                "maxKnown": 0,
                "bonus": 0,
                "classBase": 0
              },
              "spell3": {
                "value": 0,
                "max": 0,
                "base": 0,
                "known": 0,
                "maxKnown": 0,
                "bonus": 0,
                "classBase": 0
              },
              "spell4": {
                "value": 0,
                "max": 0,
                "base": 0,
                "known": 0,
                "maxKnown": 0,
                "bonus": 0,
                "classBase": 0
              },
              "spell5": {
                "value": 0,
                "max": 0,
                "base": 0,
                "known": 0,
                "maxKnown": 0,
                "bonus": 0,
                "classBase": 0
              },
              "spell6": {
                "value": 0,
                "max": 0,
                "base": 0,
                "known": 0,
                "maxKnown": 0,
                "bonus": 0,
                "classBase": 0
              },
              "spell7": {
                "value": 0,
                "max": 0,
                "base": 0,
                "known": 0,
                "maxKnown": 0,
                "bonus": 0,
                "classBase": 0
              },
              "spell8": {
                "value": 0,
                "max": 0,
                "base": 0,
                "known": 0,
                "maxKnown": 0,
                "bonus": 0,
                "classBase": 0
              },
              "spell9": {
                "value": 0,
                "max": 0,
                "base": 0,
                "known": 0,
                "maxKnown": 0,
                "bonus": 0,
                "classBase": 0
              }
            },
            "powerPointsValue": {
              "max": 0,
              "value": 0
            },
            "spellcastingAbilityBonus": 0
          },
          "secondary": {
            "name": "Secondary",
            "class": "",
            "cl": {
              "base": 0,
              "value": 0,
              "total": 0,
              "formula": ""
            },
            "concentration": 0,
            "bonusPrestigeCl": 0,
            "concentrationFormula": "",
            "concentrationNotes": "",
            "clNotes": "",
            "ability": "int",
            "spellslotAbility": "",
            "autoSpellLevels": true,
            "usePowerPoints": false,
            "autoSetup": true,
            "spellcastingType": null,
            "powerPointsFormula": "",
            "powerPoints": 0,
            "powerPointsTotal": 0,
            "maximumPowerPointLimit": "@cl",
            "dailyPowerPointsFormula": "",
            "arcaneSpellFailure": true,
            "baseDCFormula": "10 + @sl + @ablMod",
            "spontaneous": false,
            "hasSpecialSlot": false,
            "showOnlyPrepared": false,
            "specialSlots": {
              "level1": null,
              "level2": null,
              "level3": null,
              "level4": null,
              "level5": null,
              "level6": null,
              "level7": null,
              "level8": null,
              "level9": null
            },
            "maxPrestigeCl": 0,
            "allSpellsKnown": false,
            "hasPrestigeCl": false,
            "canAddPrestigeCl": false,
            "canRemovePrestigeCl": false,
            "powersKnown": 0,
            "powersMaxLevel": 0,
            "spells": {
              "spell0": {
                "value": 0,
                "max": 0,
                "base": 0,
                "known": 0,
                "maxKnown": 0,
                "bonus": 0,
                "classBase": 0
              },
              "spell1": {
                "value": 0,
                "max": 0,
                "base": 0,
                "known": 0,
                "maxKnown": 0,
                "bonus": 0,
                "classBase": 0
              },
              "spell2": {
                "value": 0,
                "max": 0,
                "base": 0,
                "known": 0,
                "maxKnown": 0,
                "bonus": 0,
                "classBase": 0
              },
              "spell3": {
                "value": 0,
                "max": 0,
                "base": 0,
                "known": 0,
                "maxKnown": 0,
                "bonus": 0,
                "classBase": 0
              },
              "spell4": {
                "value": 0,
                "max": 0,
                "base": 0,
                "known": 0,
                "maxKnown": 0,
                "bonus": 0,
                "classBase": 0
              },
              "spell5": {
                "value": 0,
                "max": 0,
                "base": 0,
                "known": 0,
                "maxKnown": 0,
                "bonus": 0,
                "classBase": 0
              },
              "spell6": {
                "value": 0,
                "max": 0,
                "base": 0,
                "known": 0,
                "maxKnown": 0,
                "bonus": 0,
                "classBase": 0
              },
              "spell7": {
                "value": 0,
                "max": 0,
                "base": 0,
                "known": 0,
                "maxKnown": 0,
                "bonus": 0,
                "classBase": 0
              },
              "spell8": {
                "value": 0,
                "max": 0,
                "base": 0,
                "known": 0,
                "maxKnown": 0,
                "bonus": 0,
                "classBase": 0
              },
              "spell9": {
                "value": 0,
                "max": 0,
                "base": 0,
                "known": 0,
                "maxKnown": 0,
                "bonus": 0,
                "classBase": 0
              }
            },
            "powerPointsValue": {
              "max": 0,
              "value": 0
            },
            "spellcastingAbilityBonus": 0
          },
          "tertiary": {
            "name": "Tertiary",
            "class": "",
            "cl": {
              "base": 0,
              "value": 0,
              "total": 0,
              "formula": ""
            },
            "concentration": 0,
            "bonusPrestigeCl": 0,
            "concentrationFormula": "",
            "concentrationNotes": "",
            "clNotes": "",
            "ability": "int",
            "spellslotAbility": "",
            "autoSpellLevels": true,
            "usePowerPoints": false,
            "autoSetup": true,
            "spellcastingType": null,
            "powerPointsFormula": "",
            "powerPoints": 0,
            "powerPointsTotal": 0,
            "maximumPowerPointLimit": "@cl",
            "dailyPowerPointsFormula": "",
            "arcaneSpellFailure": true,
            "baseDCFormula": "10 + @sl + @ablMod",
            "spontaneous": false,
            "hasSpecialSlot": false,
            "showOnlyPrepared": false,
            "specialSlots": {
              "level1": null,
              "level2": null,
              "level3": null,
              "level4": null,
              "level5": null,
              "level6": null,
              "level7": null,
              "level8": null,
              "level9": null
            },
            "maxPrestigeCl": 0,
            "allSpellsKnown": false,
            "hasPrestigeCl": false,
            "canAddPrestigeCl": false,
            "canRemovePrestigeCl": false,
            "powersKnown": 0,
            "powersMaxLevel": 0,
            "spells": {
              "spell0": {
                "value": 0,
                "max": 0,
                "base": 0,
                "known": 0,
                "maxKnown": 0,
                "bonus": 0,
                "classBase": 0
              },
              "spell1": {
                "value": 0,
                "max": 0,
                "base": 0,
                "known": 0,
                "maxKnown": 0,
                "bonus": 0,
                "classBase": 0
              },
              "spell2": {
                "value": 0,
                "max": 0,
                "base": 0,
                "known": 0,
                "maxKnown": 0,
                "bonus": 0,
                "classBase": 0
              },
              "spell3": {
                "value": 0,
                "max": 0,
                "base": 0,
                "known": 0,
                "maxKnown": 0,
                "bonus": 0,
                "classBase": 0
              },
              "spell4": {
                "value": 0,
                "max": 0,
                "base": 0,
                "known": 0,
                "maxKnown": 0,
                "bonus": 0,
                "classBase": 0
              },
              "spell5": {
                "value": 0,
                "max": 0,
                "base": 0,
                "known": 0,
                "maxKnown": 0,
                "bonus": 0,
                "classBase": 0
              },
              "spell6": {
                "value": 0,
                "max": 0,
                "base": 0,
                "known": 0,
                "maxKnown": 0,
                "bonus": 0,
                "classBase": 0
              },
              "spell7": {
                "value": 0,
                "max": 0,
                "base": 0,
                "known": 0,
                "maxKnown": 0,
                "bonus": 0,
                "classBase": 0
              },
              "spell8": {
                "value": 0,
                "max": 0,
                "base": 0,
                "known": 0,
                "maxKnown": 0,
                "bonus": 0,
                "classBase": 0
              },
              "spell9": {
                "value": 0,
                "max": 0,
                "base": 0,
                "known": 0,
                "maxKnown": 0,
                "bonus": 0,
                "classBase": 0
              }
            },
            "powerPointsValue": {
              "max": 0,
              "value": 0
            },
            "spellcastingAbilityBonus": 0
          },
          "spelllike": {
            "name": "Spell-likes",
            "class": "_hd",
            "cl": {
              "base": 0,
              "value": 0,
              "total": 12,
              "formula": ""
            },
            "concentration": 0,
            "bonusPrestigeCl": 0,
            "concentrationFormula": "",
            "concentrationNotes": "",
            "clNotes": "",
            "ability": "cha",
            "spellslotAbility": "",
            "autoSpellLevels": true,
            "usePowerPoints": false,
            "autoSetup": false,
            "spellcastingType": "None",
            "powerPointsFormula": "",
            "powerPoints": 0,
            "powerPointsTotal": 0,
            "maximumPowerPointLimit": "@cl",
            "dailyPowerPointsFormula": "",
            "arcaneSpellFailure": true,
            "baseDCFormula": "10 + @sl + @ablMod",
            "spontaneous": false,
            "hasSpecialSlot": false,
            "showOnlyPrepared": false,
            "specialSlots": {
              "level1": null,
              "level2": null,
              "level3": null,
              "level4": null,
              "level5": null,
              "level6": null,
              "level7": null,
              "level8": null,
              "level9": null
            },
            "maxPrestigeCl": 0,
            "allSpellsKnown": false,
            "hasPrestigeCl": false,
            "canAddPrestigeCl": false,
            "canRemovePrestigeCl": false,
            "powersKnown": 0,
            "powersMaxLevel": 0,
            "spells": {
              "spell0": {
                "value": 0,
                "max": 0,
                "base": 0,
                "known": 0,
                "maxKnown": 0,
                "bonus": 0,
                "classBase": 0
              },
              "spell1": {
                "value": 0,
                "max": 0,
                "base": 0,
                "known": 0,
                "maxKnown": 0,
                "bonus": 0,
                "classBase": 0
              },
              "spell2": {
                "value": 0,
                "max": 0,
                "base": 0,
                "known": 0,
                "maxKnown": 0,
                "bonus": 0,
                "classBase": 0
              },
              "spell3": {
                "value": 0,
                "max": 0,
                "base": 0,
                "known": 0,
                "maxKnown": 0,
                "bonus": 0,
                "classBase": 0
              },
              "spell4": {
                "value": 0,
                "max": 0,
                "base": 0,
                "known": 0,
                "maxKnown": 0,
                "bonus": 0,
                "classBase": 0
              },
              "spell5": {
                "value": 0,
                "max": 0,
                "base": 0,
                "known": 0,
                "maxKnown": 0,
                "bonus": 0,
                "classBase": 0
              },
              "spell6": {
                "value": 0,
                "max": 0,
                "base": 0,
                "known": 0,
                "maxKnown": 0,
                "bonus": 0,
                "classBase": 0
              },
              "spell7": {
                "value": 0,
                "max": 0,
                "base": 0,
                "known": 0,
                "maxKnown": 0,
                "bonus": 0,
                "classBase": 0
              },
              "spell8": {
                "value": 0,
                "max": 0,
                "base": 0,
                "known": 0,
                "maxKnown": 0,
                "bonus": 0,
                "classBase": 0
              },
              "spell9": {
                "value": 0,
                "max": 0,
                "base": 0,
                "known": 0,
                "maxKnown": 0,
                "bonus": 0,
                "classBase": 0
              }
            },
            "powerPointsValue": {
              "max": 0,
              "value": 0
            },
            "spellcastingAbilityBonus": 0
          }
        }
      },
      "cards": {
        "concentration": {
          "bonus": 0,
          "context": ""
        },
        "decks": {
          "primary": {
            "name": "Primary",
            "class": "",
            "cl": {
              "base": null,
              "value": 0,
              "total": 0,
              "formula": ""
            },
            "autoHandSize": false,
            "handSize": {
              "base": 0,
              "value": 0,
              "total": 0,
              "formula": ""
            },
            "drawRandom": false,
            "deckSize": {
              "base": 0,
              "value": 0,
              "total": 0,
              "formula": ""
            },
            "clNotes": "",
            "ability": "int",
            "spellslotAbility": "",
            "addHalfOtherLevels": false,
            "autoSetup": true,
            "baseDCFormula": "10 + @sl + @ablMod",
            "maxPrestigeCl": 0,
            "hasPrestigeCl": false,
            "canAddPrestigeCl": false,
            "canRemovePrestigeCl": false
          },
          "secondary": {
            "name": "Secondary",
            "class": "",
            "cl": {
              "base": null,
              "value": 0,
              "total": 0,
              "formula": ""
            },
            "autoHandSize": false,
            "handSize": {
              "base": 0,
              "value": 0,
              "total": 0,
              "formula": ""
            },
            "drawRandom": false,
            "deckSize": {
              "base": 0,
              "value": 0,
              "total": 0,
              "formula": ""
            },
            "clNotes": "",
            "ability": "int",
            "spellslotAbility": "",
            "addHalfOtherLevels": false,
            "autoSetup": true,
            "baseDCFormula": "10 + @sl + @ablMod",
            "maxPrestigeCl": 0,
            "hasPrestigeCl": false,
            "canAddPrestigeCl": false,
            "canRemovePrestigeCl": false
          }
        }
      },
      "spellcasting": {
        "_deprecated": true
      },
      "spelldc": {
        "_deprecated": true
      },
      "damageReduction": {
        "any": 0,
        "types": []
      },
      "energyResistance": [],
      "spellLevel": 0,
      "creatureType": "dragon",
      "mods": {
        "skills": {}
      },
      "runSpeedMultiplierModifier": 0,
      "speedMultiplier": 0
    },
    "details": {
      "level": {
        "value": 12,
        "min": 0,
        "max": 40,
        "available": 1
      },
      "breakDC": {
        "base": 0,
        "total": 0
      },
      "levelUpData": [
        {
          "level": 1,
          "id": "_level1",
          "classId": null,
          "class": null,
          "classImage": null,
          "skills": {},
          "hp": 0,
          "hasFeat": true,
          "hasAbility": false
        }
      ],
      "alignment": "Always lawful good",
      "biography": {
        "value": "",
        "public": ""
      },
      "notes": {
        "value": "<div topic='Bronze Dragon' level='4'><p><h4>Bronze Dragon</h4></p><p/><p/><p/><p/><div topic='Dragon' level='8'><p><b>Dragon (Water)</b></p></div><div topic='Environment' level='8'><p><b>Environment:</b> Temperate hills</p></div><div topic='Organization' level='8'><p><b>Organization:</b> Wyrmling, very young, young, juvenile, and young adult: solitary or clutch (2-5); adult, mature adult, old, very old, ancient, wyrm, or great wyrm: solitary, pair, or family (1-2 and 2-5 offspring)</p></div><div topic='Challenge Ratings' level='8'><p><b>Challenge Ratings:</b> Wyrmling 3; very young 5; young 7; juvenile 9; young adult 12; adult 15; mature adult 17; old 19; very old 20; ancient 22; wyrm 23; great wyrm 25</p></div><div topic='Treasure' level='8'><p><b>Treasure:</b> Triple standard</p></div><div topic='Alignment' level='8'><p><b>Alignment:</b> Always lawful good</p></div><div topic='Advancement' level='8'><p><b>Advancement:</b> Wyrmling 7-8 HD; very young 10-11 HD; young 13-14 HD; juvenile 16-17 HD; young adult 19-20 HD; adult 22-23 HD; mature adult 25-26 HD; old 28-29 HD; very old 31-32 HD; ancient 34-35 HD; wyrm 37-38 HD; great wyrm 40+ HD</p></div><div topic='Level Adjustment' level='8'><p><b>Level Adjustment:</b> Wyrmling +4; very young +4; young +6; others -</p><p/></div><div topic='Bronze Dragons by Age' level='5'><p><h2>Bronze Dragons by Age</h2></p><table class='table table-sm table-hover' width='100%' border='1' cellpadding='2' cellspacing='2' frame='VOID' rules='ROWS'><tr maxcol='17' curcol='17'><td><b>Age</b><br/></td><td><b>Size</b><br/></td><td><b>Hit Dice (hp)</b><br/></td><td><b>Str</b><br/></td><td><b>Dex</b><br/></td><td><b>Con</b><br/></td><td><b>Int</b><br/></td><td><b>Wis</b><br/></td><td><b>Cha</b><br/></td><td><b>Base Attack/</b><br/><b>Grapple</b><br/></td> <td><b>Attack</b><br/></td><td><b>Fort Save</b><br/></td><td><b>Ref Save</b><br/></td><td><b>Will Save</b><br/></td><td><b>Breath Weapon (DC)</b><br/></td><td><b>Frightful Presence DC</b><br/></td></tr><tr maxcol='17' curcol='17'><td>Wyrmling<br/></td><td>S<br/></td><td>6d12+6 (45)<br/></td><td>13<br/></td><td>10<br/></td><td>13<br/></td><td>14<br/></td><td>15<br/></td><td>14<br/></td><td>+6/+3<br/></td><td>+8<br/></td><td>+6<br/></td><td>+5<br/></td><td>+7<br/></td><td>2d6 (14)<br/></td><td>-<br/></td></tr><tr maxcol='17' curcol='17'><td>Very young<br/></td><td>M<br/></td><td>9d12+18 (76)<br/></td><td>15<br/></td><td>10<br/></td><td>15<br/></td><td>14<br/></td><td>15<br/></td><td>14<br/></td><td>+9/+11<br/></td><td>+11<br/></td><td>+8<br/></td><td>+6<br/></td><td>+8<br/></td><td>4d6 (16)<br/></td><td>-<br/></td></tr><tr maxcol='17' curcol='17'><td>Young<br/></td><td>M<br/></td><td>12d12+24 (102)<br/></td><td>17<br/></td><td>10<br/></td><td>15<br/></td><td>16<br/></td><td>17<br/></td><td>16<br/></td><td>+12/+15<br/></td><td>+15<br/></td><td>+10<br/></td><td>+8<br/></td><td>+11<br/></td><td>6d6 (18)<br/></td><td>-<br/></td></tr><tr maxcol='17' curcol='17'><td>Juvenile<br/></td><td>L<br/></td><td>15d12+45 (142)<br/></td><td>19<br/></td><td>10<br/></td><td>17<br/></td><td>18<br/></td><td>19<br/></td><td>18<br/></td><td>+15/+23<br/></td><td>+18<br/></td><td>+12<br/></td><td>+9<br/></td><td>+13<br/></td><td>8d6 (20)<br/></td><td>-<br/></td></tr><tr maxcol='17' curcol='17'><td>Young adult<br/></td><td>L<br/></td><td>18d12+72 (189)<br/></td><td>23<br/></td><td>10<br/></td><td>19<br/></td><td>18<br/></td><td>19<br/></td><td>18<br/></td><td>+18/+28<br/></td><td>+23<br/></td><td>+15<br/></td><td>+11<br/></td><td>+15<br/></td><td>10d6 (23)<br/></td><td>23<br/></td></tr><tr maxcol='17' curcol='17'><td>Adult<br/></td><td>H<br/></td><td>21d12+105 (241)<br/></td><td>27<br/></td><td>10<br/></td><td>21<br/></td><td>20<br/></td><td>21<br/></td><td>20<br/></td><td>+21/+37<br/></td><td>+27<br/></td><td>+17<br/></td><td>+12<br/></td><td>+17<br/></td><td>12d6 (25)<br/></td><td>25<br/></td></tr><tr maxcol='17' curcol='17'><td>Mature adult<br/></td><td>H<br/></td><td>24d12+120 (276)<br/></td><td>29<br/></td><td>10<br/></td><td>21<br/></td><td>20<br/></td><td>21<br/></td><td>20<br/></td><td>+24/+41<br/></td><td>+31<br/></td><td>+19<br/></td><td>+14<br/></td><td>+19<br/></td><td>14d6 (27)<br/></td><td>27<br/></td></tr><tr maxcol='17' curcol='17'><td>Old<br/></td><td>H<br/></td><td>27d12+162 (337)<br/></td><td>31<br/></td><td>10<br/></td><td>23<br/></td><td>22<br/></td><td>23<br/></td><td>22<br/></td><td>+27/+45<br/></td><td>+35<br/></td><td>+21<br/></td><td>+15<br/></td><td>+21<br/></td><td>16d6 (29)<br/></td><td>29<br/></td></tr><tr maxcol='17' curcol='17'><td>Very old<br/></td><td>H<br/></td><td>30d12+180 (375)<br/></td><td>33<br/></td><td>10<br/></td><td>23<br/></td><td>22<br/></td><td>23<br/></td><td>22<br/></td><td>+30/+49<br/></td><td>+39<br/></td><td>+23<br/></td><td>+17<br/></td><td>+23<br/></td><td>18d6 (31)<br/></td><td>31<br/></td></tr><tr maxcol='17' curcol='17'><td>Ancient<br/></td><td>G<br/></td><td>33d12+231 (445)<br/></td><td>35<br/></td><td>10<br/></td><td>25<br/></td><td>24<br/></td><td>25<br/></td><td>24<br/></td><td>+33/+57<br/></td><td>+41<br/></td><td>+25<br/></td><td>+18<br/></td><td>+25<br/></td><td>20d6 (33)<br/></td><td>33<br/></td></tr><tr maxcol='17' curcol='17'><td>Wyrm<br/></td><td>G<br/></td><td>36d12+288 (522)<br/></td><td>37<br/></td><td>10<br/></td><td>27<br/></td><td>26<br/></td><td>27<br/></td><td>26<br/></td><td>+36/+61<br/></td><td>+45<br/></td><td>+28<br/></td><td>+20<br/></td><td>+28<br/></td><td>22d6 (36)<br/></td><td>36<br/></td></tr><tr maxcol='17' curcol='17'><td>Great wyrm<br/></td><td>G<br/></td><td>39d12+312 (565)<br/></td><td>39<br/></td><td>10<br/></td><td>27<br/></td><td>26<br/></td><td>27<br/></td><td>26<br/></td><td>+39/+65<br/></td><td>+49<br/></td><td>+29<br/></td><td>+21<br/></td><td>+29<br/></td><td>24d6 (37)<br/></td><td>37<br/></td></tr></table><p/></div><div topic='Bronze Dragon Abilities by Age' level='5'><p><h2>Bronze Dragon Abilities by Age</h2></p><table class='table table-sm table-hover' width='100%' border='1' cellpadding='2' cellspacing='2' frame='VOID' rules='ROWS'><tr maxcol='8' curcol='8'><td><b>Age</b><br/></td><td><b>Speed</b><br/></td><td><b>Initiative</b><br/></td><td><b>AC</b><br/></td><td><b>Special Abilities</b><br/></td><td><b>Caster Level</b><br/></td><td><b>SR</b><br/></td></tr><tr maxcol='8' curcol='8'><td>Wyrmling<br/></td><td>40 ft., fly 100 ft. (average), swim 60 ft.<br/></td><td>+0<br/></td><td>16 (+1 size, +5 natural), touch 11, flat-footed 16<br/></td><td>Immunity to electricity, water breathing, <i>speak with animals</i><br/></td><td>-<br/></td><td>-<br/></td></tr><tr maxcol='8' curcol='8'><td>Very young<br/></td><td>40 ft., fly 150 ft. (poor), swim 60 ft.<br/></td><td>+0<br/></td><td>18 (+8 natural), touch 10, flat-footed 18<br/></td><td/><td>-<br/></td><td>-<br/></td></tr><tr maxcol='8' curcol='8'><td>Young<br/></td><td>40 ft., fly 150 ft. (poor), swim 60 ft.<br/></td><td>+0<br/></td><td>21 (+11 natural), touch 10, flat-footed 21<br/></td><td>Alternate form<br/></td><td>1st<br/></td><td>-<br/></td></tr><tr maxcol='8' curcol='8'><td>Juvenile<br/></td><td>40 ft., fly 150 ft. (poor), swim 60 ft.<br/></td><td>+0<br/></td><td>23 (-1 size, +14 natural), touch 9, flat-footed 23<br/></td><td/><td>3rd<br/></td><td>-<br/></td></tr><tr maxcol='8' curcol='8'><td>Young adult<br/></td><td>40 ft., fly 150 ft. (poor), swim 60 ft.<br/></td><td>+0<br/></td><td>26 (-1 size, +17 natural), touch 9, flat-footed 26<br/></td><td>Damage reduction 5/magic<br/></td><td>5th<br/></td><td>20<br/></td></tr><tr maxcol='8' curcol='8'><td>Adult<br/></td><td>40 ft., fly 150 ft. (poor), swim 60 ft.<br/></td><td>+0<br/></td><td>28 (-2 size, +20 natural), touch 8, flat-footed 28<br/></td><td><i>Create food and water</i>,  <i>fog cloud</i><br/></td><td>7th<br/></td><td>22<br/></td></tr><tr maxcol='8' curcol='8'><td>Mature adult<br/></td><td>40 ft., fly 150 ft. (poor), swim 60 ft.<br/></td><td>+0<br/></td><td>31 (-2 size, +23 natural), touch 8, flat-footed 31<br/></td><td>Damage reduction 10/magic<br/></td><td>9th<br/></td><td>23<br/></td></tr><tr maxcol='8' curcol='8'><td>Old<br/></td><td>40 ft., fly 150 ft. (poor), swim 60 ft.<br/></td><td>+0<br/></td><td>34 (-2 size, +26 natural), touch 8, flat-footed 34<br/></td><td><i>Detect thoughts</i><br/></td><td>11th<br/></td><td>25<br/></td></tr><tr maxcol='8' curcol='8'><td>Very old<br/></td><td>40 ft., fly 150 ft. (poor), swim 60 ft.<br/></td><td>+0<br/></td><td>37 (-2 size, +29 natural), touch 8, flat-footed 37<br/></td><td>Damage reduction 15/magic<br/></td><td>13th<br/></td><td>26<br/></td></tr><tr maxcol='8' curcol='8'><td>Ancient<br/></td><td>40 ft., fly 200 ft. (clumsy), swim 60 ft.<br/></td><td>+0<br/></td><td>38 (-4 size, +32 natural), touch 6, flat-footed 38<br/></td><td><i>Control water</i><br/></td><td>15th<br/></td><td>28<br/></td></tr><tr maxcol='8' curcol='8'><td>Wyrm<br/></td><td>40 ft., fly 200 ft. (clumsy), swim 60 ft.<br/></td><td>+0<br/></td><td>41 (-4 size, +35 natural), touch 6, flat-footed 41<br/></td><td>Damage reduction 20/magic<br/></td><td>17th<br/></td><td>29<br/></td></tr><tr maxcol='8' curcol='8'><td>Great wyrm<br/></td><td>40 ft., fly 200 ft. (clumsy), swim 60 ft.<br/></td><td>+0<br/></td><td>44 (-4 size, +38 natural), touch 6, flat-footed 44<br/></td><td><i>Control weather</i><br/></td><td>19th<br/></td><td>31<br/></td></tr><tr maxcol='8' curcol='2'><td colspan='7'>*Can also cast cleric spells and those from the Animal, Law, and Water domains as arcane spells.<br/></td></tr></table><p>A bronze wyrmling's scales are yellow tinged with green, showing only a hint of bronze. As the dragon approaches adulthood, its color deepens slowly to a darker, rich bronze tone. Very old dragons develop a blue-black tint to the edges of their scales. Powerful swimmers, they have webbed feet and smooth, flat scales. The pupils of its eyes fade as a dragon ages, until in the oldest the eyes resemble glowing green orbs.</p></div><div topic='Combat' level='5'><p><h2>Combat</h2></p><p>Bronze dragons dislike killing animals and would rather bribe them (perhaps with food) or force them away magically. They use <i>detect thoughts</i> to learn intelligent creatures' intentions.</p><p>When attacking they blind their opponents with <i>fog cloud</i> and then charge or, if flying, snatch them up. Against seafaring opponents they conjure up a storm or use their tails to smash the vessels' hulls. If a dragon is inclined to be lenient, ships might be merely becalmed, fogbound, or broken-masted.</p><div topic='Breath Weapon' level='8'><p><b>Breath Weapon (Su):</b> Bronze dragons have two types of breath weapon, a line of lightning and a cone of <i>repulsion</i> gas. Creatures within the cone must succeed on a Will save or be compelled to do nothing but move away from the dragon for 1d6 rounds plus 1 round per age category of the dragon. This is a mind-affecting compulsion enchantment effect.</p></div><div topic='Water Breathing' level='8'><p><b>Water Breathing (Ex):</b> A bronze dragon can breathe underwater indefinitely and can freely use its breath weapon, spells, and other abilities while submerged.</p></div><div topic='Alternate Form' level='8'><p><b>Alternate Form (Su):</b> A young or older bronze dragon can assume any animal or humanoid form of Medium size or smaller as a standard action three times per day. This ability functions as a <i>polymorph</i> spell cast on itself at its caster level, except that the dragon does not regain hit points for changing form and can only assume the form of an animal or humanoid. The dragon can remain in its animal or humanoid form until it chooses to assume a new one or return to its natural form.</p></div><div topic='Spell-Like Abilities' level='8'><p><b>Spell-Like Abilities:</b> At will-<i>speak with animals</i>; 3/day-<i>create food and water</i> (adult or older), <i>fog cloud</i> (adult or older), <i>detect thoughts</i> (old or older), <i>control water</i> (ancient or older); 1/day-<i>control weather</i> (great wyrm).</p></div><div topic='Skills' level='8'><p><b>Skills:</b> Disguise, Swim, and Survival are considered class skills for bronze dragons.</p><p/></div></div></div>    ",
        "public": ""
      },
      "bonusSkillRankFormula": "",
      "type": "Water",
      "environment": "",
      "cr": 7,
      "totalCr": 7,
      "xp": {
        "value": 10
      },
      "levelUpProgression": false,
      "advancement": {
        "hd": [
          {
            "lower": 13,
            "upper": 14,
            "size": "med"
          }
        ],
        "byClass": false,
        "none": false,
        "originalHD": 0
      }
    },
    "skills": {
      "apr": {
        "value": 0,
        "ability": "int",
        "rt": false,
        "acp": false,
        "rank": 0,
        "notes": "",
        "mod": 3,
        "background": false,
        "visibility": "default",
        "cs": true,
        "points": 0,
        "acpPenalty": 0,
        "energyDrainPenalty": 0,
        "abilityModifier": 3
      },
      "blc": {
        "value": 0,
        "ability": "dex",
        "rt": false,
        "acp": true,
        "rank": 0,
        "notes": "",
        "mod": 0,
        "background": false,
        "visibility": "default",
        "cs": false,
        "points": 0,
        "acpPenalty": 0,
        "energyDrainPenalty": 0,
        "abilityModifier": 0
      },
      "blf": {
        "value": 0,
        "ability": "cha",
        "rt": false,
        "acp": false,
        "rank": 0,
        "notes": "",
        "mod": 3,
        "background": false,
        "visibility": "default",
        "cs": true,
        "points": 0,
        "acpPenalty": 0,
        "energyDrainPenalty": 0,
        "abilityModifier": 3
      },
      "clm": {
        "value": 0,
        "ability": "str",
        "rt": false,
        "acp": true,
        "rank": 0,
        "notes": "",
        "mod": 3,
        "background": false,
        "visibility": "default",
        "cs": true,
        "points": 0,
        "acpPenalty": 0,
        "energyDrainPenalty": 0,
        "abilityModifier": 3
      },
      "coc": {
        "value": 0,
        "ability": "con",
        "rt": false,
        "acp": false,
        "rank": 8,
        "notes": "",
        "mod": 10,
        "background": false,
        "visibility": "default",
        "cs": true,
        "points": 8,
        "acpPenalty": 0,
        "energyDrainPenalty": 0,
        "abilityModifier": 2
      },
      "crf": {
        "value": 0,
        "ability": "int",
        "rt": false,
        "acp": false,
        "rank": 0,
        "notes": "",
        "mod": 3,
        "background": false,
        "visibility": "default",
        "cs": true,
        "subSkills": {},
        "namedSubSkills": {},
        "points": 0,
        "acpPenalty": 0,
        "energyDrainPenalty": 0,
        "abilityModifier": 3
      },
      "dsc": {
        "value": 0,
        "ability": "int",
        "rt": true,
        "acp": false,
        "rank": 0,
        "notes": "",
        "mod": 3,
        "background": false,
        "visibility": "default",
        "cs": false,
        "points": 0,
        "acpPenalty": 0,
        "energyDrainPenalty": 0,
        "abilityModifier": 3
      },
      "dip": {
        "value": 0,
        "ability": "cha",
        "rt": false,
        "acp": false,
        "rank": 8,
        "notes": "",
        "mod": 13,
        "background": false,
        "visibility": "default",
        "cs": true,
        "changeBonus": 2,
        "points": 8,
        "acpPenalty": 0,
        "energyDrainPenalty": 0,
        "abilityModifier": 3
      },
      "dev": {
        "value": 0,
        "ability": "dex",
        "rt": true,
        "acp": true,
        "rank": 0,
        "notes": "",
        "mod": 0,
        "background": false,
        "visibility": "default",
        "cs": false,
        "points": 0,
        "acpPenalty": 0,
        "energyDrainPenalty": 0,
        "abilityModifier": 0
      },
      "dis": {
        "value": 0,
        "ability": "cha",
        "rt": false,
        "acp": false,
        "rank": 8,
        "notes": "",
        "mod": 11,
        "background": false,
        "visibility": "default",
        "cs": true,
        "points": 8,
        "acpPenalty": 0,
        "energyDrainPenalty": 0,
        "abilityModifier": 3
      },
      "esc": {
        "value": 0,
        "ability": "dex",
        "rt": false,
        "acp": true,
        "rank": 8,
        "notes": "",
        "mod": 8,
        "background": false,
        "visibility": "default",
        "cs": true,
        "points": 8,
        "acpPenalty": 0,
        "energyDrainPenalty": 0,
        "abilityModifier": 0
      },
      "fog": {
        "value": 0,
        "ability": "int",
        "rt": false,
        "acp": false,
        "rank": 0,
        "notes": "",
        "mod": 3,
        "background": false,
        "visibility": "default",
        "cs": false,
        "points": 0,
        "acpPenalty": 0,
        "energyDrainPenalty": 0,
        "abilityModifier": 3
      },
      "gif": {
        "value": 0,
        "ability": "cha",
        "rt": false,
        "acp": false,
        "rank": 0,
        "notes": "",
        "mod": 3,
        "background": false,
        "visibility": "default",
        "cs": false,
        "points": 0,
        "acpPenalty": 0,
        "energyDrainPenalty": 0,
        "abilityModifier": 3
      },
      "han": {
        "value": 0,
        "ability": "cha",
        "rt": true,
        "acp": false,
        "rank": 0,
        "notes": "",
        "mod": 3,
        "background": false,
        "visibility": "default",
        "cs": false,
        "points": 0,
        "acpPenalty": 0,
        "energyDrainPenalty": 0,
        "abilityModifier": 3
      },
      "hea": {
        "value": 0,
        "ability": "wis",
        "rt": false,
        "acp": false,
        "rank": 0,
        "notes": "",
        "mod": 3,
        "background": false,
        "visibility": "default",
        "cs": true,
        "points": 0,
        "acpPenalty": 0,
        "energyDrainPenalty": 0,
        "abilityModifier": 3
      },
      "hid": {
        "value": 0,
        "ability": "dex",
        "rt": false,
        "acp": true,
        "rank": 0,
        "notes": "",
        "mod": 0,
        "background": false,
        "visibility": "default",
        "cs": false,
        "points": 0,
        "acpPenalty": 0,
        "energyDrainPenalty": 0,
        "abilityModifier": 0
      },
      "int": {
        "value": 0,
        "ability": "cha",
        "rt": false,
        "acp": false,
        "rank": 8,
        "notes": "",
        "mod": 11,
        "background": false,
        "visibility": "default",
        "cs": true,
        "points": 8,
        "acpPenalty": 0,
        "energyDrainPenalty": 0,
        "abilityModifier": 3
      },
      "jmp": {
        "value": 0,
        "ability": "str",
        "rt": false,
        "acp": true,
        "rank": 0,
        "notes": "",
        "mod": 3,
        "background": false,
        "visibility": "default",
        "cs": false,
        "points": 0,
        "acpPenalty": 0,
        "energyDrainPenalty": 0,
        "abilityModifier": 3
      },
      "kar": {
        "value": 0,
        "ability": "int",
        "rt": true,
        "acp": false,
        "rank": 0,
        "notes": "",
        "mod": 3,
        "background": false,
        "visibility": "default",
        "cs": true,
        "points": 0,
        "acpPenalty": 0,
        "energyDrainPenalty": 0,
        "abilityModifier": 3
      },
      "kdu": {
        "value": 0,
        "ability": "int",
        "rt": true,
        "acp": false,
        "rank": 0,
        "notes": "",
        "mod": 3,
        "background": false,
        "visibility": "default",
        "cs": true,
        "points": 0,
        "acpPenalty": 0,
        "energyDrainPenalty": 0,
        "abilityModifier": 3
      },
      "ken": {
        "value": 0,
        "ability": "int",
        "rt": true,
        "acp": false,
        "rank": 0,
        "notes": "",
        "mod": 3,
        "background": false,
        "visibility": "default",
        "cs": true,
        "points": 0,
        "acpPenalty": 0,
        "energyDrainPenalty": 0,
        "abilityModifier": 3
      },
      "kge": {
        "value": 0,
        "ability": "int",
        "rt": true,
        "acp": false,
        "rank": 0,
        "notes": "",
        "mod": 3,
        "background": false,
        "visibility": "default",
        "cs": true,
        "points": 0,
        "acpPenalty": 0,
        "energyDrainPenalty": 0,
        "abilityModifier": 3
      },
      "khi": {
        "value": 0,
        "ability": "int",
        "rt": true,
        "acp": false,
        "rank": 0,
        "notes": "",
        "mod": 3,
        "background": false,
        "visibility": "default",
        "cs": true,
        "points": 0,
        "acpPenalty": 0,
        "energyDrainPenalty": 0,
        "abilityModifier": 3
      },
      "klo": {
        "value": 0,
        "ability": "int",
        "rt": true,
        "acp": false,
        "rank": 0,
        "notes": "",
        "mod": 3,
        "background": false,
        "visibility": "default",
        "cs": true,
        "points": 0,
        "acpPenalty": 0,
        "energyDrainPenalty": 0,
        "abilityModifier": 3
      },
      "kna": {
        "value": 0,
        "ability": "int",
        "rt": true,
        "acp": false,
        "rank": 0,
        "notes": "",
        "mod": 5,
        "background": false,
        "visibility": "default",
        "cs": true,
        "changeBonus": 2,
        "points": 0,
        "acpPenalty": 0,
        "energyDrainPenalty": 0,
        "abilityModifier": 3
      },
      "kno": {
        "value": 0,
        "ability": "int",
        "rt": true,
        "acp": false,
        "rank": 0,
        "notes": "",
        "mod": 3,
        "background": true,
        "cs": true,
        "points": 0,
        "acpPenalty": 0,
        "energyDrainPenalty": 0,
        "abilityModifier": 3
      },
      "kpl": {
        "value": 0,
        "ability": "int",
        "rt": true,
        "acp": false,
        "rank": 0,
        "notes": "",
        "mod": 3,
        "background": false,
        "visibility": "default",
        "cs": true,
        "points": 0,
        "acpPenalty": 0,
        "energyDrainPenalty": 0,
        "abilityModifier": 3
      },
      "kre": {
        "value": 0,
        "ability": "int",
        "rt": true,
        "acp": false,
        "rank": 0,
        "notes": "",
        "mod": 3,
        "background": false,
        "visibility": "default",
        "cs": true,
        "points": 0,
        "acpPenalty": 0,
        "energyDrainPenalty": 0,
        "abilityModifier": 3
      },
      "lis": {
        "value": 0,
        "ability": "wis",
        "rt": false,
        "acp": false,
        "rank": 15,
        "notes": "",
        "mod": 20,
        "background": false,
        "visibility": "default",
        "cs": true,
        "changeBonus": 2,
        "points": 15,
        "acpPenalty": 0,
        "energyDrainPenalty": 0,
        "abilityModifier": 3
      },
      "mos": {
        "value": 0,
        "ability": "dex",
        "rt": false,
        "acp": true,
        "rank": 0,
        "notes": "",
        "mod": 0,
        "background": false,
        "visibility": "default",
        "cs": false,
        "points": 0,
        "acpPenalty": 0,
        "energyDrainPenalty": 0,
        "abilityModifier": 0
      },
      "opl": {
        "value": 0,
        "ability": "dex",
        "rt": true,
        "acp": false,
        "rank": 0,
        "notes": "",
        "mod": 0,
        "background": false,
        "visibility": "default",
        "cs": false,
        "points": 0,
        "acpPenalty": 0,
        "energyDrainPenalty": 0,
        "abilityModifier": 0
      },
      "prf": {
        "value": 0,
        "ability": "cha",
        "rt": false,
        "acp": false,
        "rank": 0,
        "notes": "",
        "mod": 3,
        "background": false,
        "visibility": "default",
        "cs": false,
        "subSkills": {},
        "namedSubSkills": {},
        "points": 0,
        "acpPenalty": 0,
        "energyDrainPenalty": 0,
        "abilityModifier": 3
      },
      "pro": {
        "value": 0,
        "ability": "wis",
        "rt": true,
        "acp": false,
        "rank": 0,
        "notes": "",
        "mod": 3,
        "background": false,
        "visibility": "default",
        "cs": false,
        "subSkills": {},
        "namedSubSkills": {},
        "points": 0,
        "acpPenalty": 0,
        "energyDrainPenalty": 0,
        "abilityModifier": 3
      },
      "rid": {
        "value": 0,
        "ability": "dex",
        "rt": false,
        "acp": true,
        "rank": 0,
        "notes": "",
        "mod": 0,
        "background": false,
        "visibility": "default",
        "cs": false,
        "points": 0,
        "acpPenalty": 0,
        "energyDrainPenalty": 0,
        "abilityModifier": 0
      },
      "src": {
        "value": 0,
        "ability": "int",
        "rt": false,
        "acp": false,
        "rank": 15,
        "notes": "",
        "mod": 18,
        "background": false,
        "visibility": "default",
        "cs": true,
        "points": 15,
        "acpPenalty": 0,
        "energyDrainPenalty": 0,
        "abilityModifier": 3
      },
      "sen": {
        "value": 0,
        "ability": "wis",
        "rt": false,
        "acp": false,
        "rank": 8,
        "notes": "",
        "mod": 11,
        "background": false,
        "visibility": "default",
        "cs": true,
        "points": 8,
        "acpPenalty": 0,
        "energyDrainPenalty": 0,
        "abilityModifier": 3
      },
      "slt": {
        "value": 0,
        "ability": "dex",
        "rt": true,
        "acp": true,
        "rank": 0,
        "notes": "",
        "mod": 0,
        "background": false,
        "visibility": "default",
        "cs": false,
        "points": 0,
        "acpPenalty": 0,
        "energyDrainPenalty": 0,
        "abilityModifier": 0
      },
      "spk": {
        "value": 0,
        "ability": "",
        "rt": true,
        "acp": false,
        "rank": 0,
        "notes": "",
        "mod": 0,
        "background": false,
        "visibility": "default",
        "points": 0,
        "cs": false,
        "acpPenalty": 0,
        "energyDrainPenalty": 0,
        "abilityModifier": 0
      },
      "spl": {
        "value": 0,
        "ability": "int",
        "rt": true,
        "acp": false,
        "rank": 0,
        "notes": "",
        "mod": 3,
        "background": false,
        "visibility": "default",
        "cs": true,
        "points": 0,
        "acpPenalty": 0,
        "energyDrainPenalty": 0,
        "abilityModifier": 3
      },
      "spt": {
        "value": 0,
        "ability": "wis",
        "rt": false,
        "acp": false,
        "rank": 15,
        "notes": "",
        "mod": 20,
        "background": false,
        "visibility": "default",
        "cs": true,
        "changeBonus": 2,
        "points": 15,
        "acpPenalty": 0,
        "energyDrainPenalty": 0,
        "abilityModifier": 3
      },
      "sur": {
        "value": 0,
        "ability": "wis",
        "rt": false,
        "acp": false,
        "rank": 7,
        "notes": "",
        "mod": 10,
        "background": false,
        "visibility": "default",
        "cs": true,
        "points": 7,
        "acpPenalty": 0,
        "energyDrainPenalty": 0,
        "abilityModifier": 3
      },
      "swm": {
        "value": 0,
        "ability": "str",
        "rt": false,
        "acp": true,
        "rank": 8,
        "notes": "",
        "mod": 19,
        "background": false,
        "visibility": "default",
        "cs": true,
        "changeBonus": 8,
        "points": 8,
        "acpPenalty": 0,
        "energyDrainPenalty": 0,
        "abilityModifier": 3
      },
      "tmb": {
        "value": 0,
        "ability": "dex",
        "rt": false,
        "acp": true,
        "rank": 0,
        "notes": "",
        "mod": 0,
        "background": false,
        "visibility": "default",
        "cs": false,
        "points": 0,
        "acpPenalty": 0,
        "energyDrainPenalty": 0,
        "abilityModifier": 0
      },
      "umd": {
        "value": 0,
        "ability": "cha",
        "rt": true,
        "acp": false,
        "rank": 8,
        "notes": "",
        "mod": 11,
        "background": false,
        "visibility": "default",
        "cs": true,
        "points": 8,
        "acpPenalty": 0,
        "energyDrainPenalty": 0,
        "abilityModifier": 3
      },
      "uro": {
        "value": 0,
        "ability": "dex",
        "rt": false,
        "acp": false,
        "rank": 0,
        "notes": "",
        "mod": 0,
        "background": false,
        "visibility": "default",
        "cs": false,
        "points": 0,
        "acpPenalty": 0,
        "energyDrainPenalty": 0,
        "abilityModifier": 0
      },
      "kps": {
        "value": 0,
        "ability": "int",
        "rt": false,
        "acp": false,
        "rank": 0,
        "notes": "",
        "mod": 3,
        "background": false,
        "visibility": "default",
        "cs": false,
        "points": 0,
        "acpPenalty": 0,
        "energyDrainPenalty": 0,
        "abilityModifier": 3
      },
      "aut": {
        "value": 0,
        "ability": "wis",
        "rt": true,
        "acp": false,
        "rank": 0,
        "notes": "",
        "mod": 5,
        "background": false,
        "visibility": "default",
        "cs": false,
        "changeBonus": 2,
        "points": 0,
        "acpPenalty": 0,
        "energyDrainPenalty": 0,
        "abilityModifier": 3
      },
      "psi": {
        "value": 0,
        "ability": "int",
        "rt": true,
        "acp": false,
        "rank": 0,
        "notes": "",
        "mod": 3,
        "background": false,
        "visibility": "default",
        "cs": false,
        "points": 0,
        "acpPenalty": 0,
        "energyDrainPenalty": 0,
        "abilityModifier": 3
      },
      "upd": {
        "value": 0,
        "ability": "cha",
        "rt": true,
        "acp": false,
        "rank": 0,
        "notes": "",
        "mod": 3,
        "background": false,
        "visibility": "default",
        "cs": false,
        "points": 0,
        "acpPenalty": 0,
        "energyDrainPenalty": 0,
        "abilityModifier": 3
      }
    },
    "customSkills": {},
    "traits": {
      "size": "med",
      "tokensize": "actor",
      "senses": "Darkvision 120 ft.",
      "dr": "",
      "incorporeal": false,
      "eres": "",
      "cres": "",
      "languages": {
        "value": [],
        "custom": ""
      },
      "di": {
        "value": [],
        "custom": ""
      },
      "dv": {
        "value": [],
        "custom": ""
      },
      "ci": {
        "value": [
          "sleep",
          "paralyze"
        ],
        "custom": ""
      },
      "perception": {
        "_deprecated": true
      },
      "actualSize": "med"
    },
    "currency": {
      "pp": 0,
      "gp": 0,
      "sp": 0,
      "cp": 0
    },
    "altCurrency": {
      "pp": 0,
      "gp": 0,
      "sp": 0,
      "cp": 0
    },
    "customCurrency": {},
    "noLightOverride": false,
    "noTokenOverride": false,
    "noSkillSynergy": false,
    "noBuffDisplay": false,
    "lockEditingByPlayers": false,
    "showCardSheet": false,
    "showSpellcastingSheet": true,
    "staticBonus": {
      "hp": 0,
      "ac": 0
    },
    "jumpSkillAdjust": false,
    "master": {
      "id": null,
      "img": null,
      "name": null,
      "data": {},
      "distance": 0
    },
    "noVisionOverride": true,
    "counters": {
      "feat": {
        "base": {
          "value": 5,
          "counted": 5
        }
      }
    },
    "classes": {
      "dragon": {
        "level": 12,
        "_id": "jR0LvvhIjWzeqrUG",
        "name": "Dragon*",
        "hd": 12,
        "bab": "high",
        "hp": false,
        "maxLevel": 20,
        "skillsPerLevel": 6,
        "isSpellcaster": false,
        "isPsionSpellcaster": false,
        "hasSpecialSlot": false,
        "isSpellcastingSpontaneus": false,
        "isArcane": false,
        "spellcastingType": null,
        "spellcastingAbility": "int",
        "allSpellsKnown": false,
        "savingThrows": {
          "fort": 8,
          "ref": 8,
          "will": 8
        },
        "fc": {
          "hp": 0,
          "skill": 0,
          "alt": 0
        },
        "spellsKnownPerLevel": [],
        "powersKnown": [],
        "powersMaxLevel": [],
        "spellslotAbility": "",
        "halfCasterLevel": false,
        "deckHandSizeFormula": "0",
        "knownCardsSizeFormula": "0",
        "deckPrestigeClass": false,
        "hasSpellbook": false,
        "spelllist": {}
      }
    },
    "damage": {
      "nonlethal": {
        "value": 0,
        "max": 102
      }
    },
    "senses": {
      "darkvision": 0,
      "blindsight": 0,
      "tremorsense": 0,
      "truesight": 0,
      "lowLight": false,
      "special": "",
      "modified": {},
      "lowLightMultiplier": 2
    },
    "totalNonEclLevels": 12,
    "classLevels": 0,
    "combinedResistances": [
      {
        "uid": "energy-electric",
        "value": 0,
        "vulnerable": false,
        "immunity": true,
        "lethal": false,
        "providedBy": "jR0LvvhIjWzeqrUG",
        "modified": true,
        "items": [
          "Dragon*"
        ]
      }
    ],
    "combinedDR": [],
    "shieldType": "none",
    "canLevelUp": false,
    "naturalAttackCount": 3
  },
  "ownership": {
    "default": 0,
    "gvVvJrAyZKOZnAuP": 3
  },
  "prototypeToken": {
    "flags": {
      "D35E": {
        "lowLightVision": false
      }
    },
    "name": "Bronze Dragon, Young",
    "displayName": 20,
    "width": 1,
    "height": 1,
    "lockRotation": false,
    "rotation": 0,
    "actorLink": false,
    "disposition": -1,
    "displayBars": 40,
    "bar1": {
      "attribute": "attributes.hp"
    },
    "bar2": {
      "attribute": null
    },
    "randomImg": false,
    "alpha": 1,
    "light": {
      "alpha": 0,
      "angle": 360,
      "bright": 0,
      "coloration": 1,
      "dim": 0,
      "luminosity": 0.5,
      "saturation": 0,
      "contrast": 0,
      "shadows": 0,
      "animation": {
        "speed": 5,
        "intensity": 5,
        "type": null,
        "reverse": false
      },
      "darkness": {
        "min": 0,
        "max": 1
      },
      "color": "#000000",
      "attenuation": 0.5
    },
    "texture": {
      "src": "systems/D35E/icons/bestiary/token/dragon-bronze.png",
      "tint": null,
      "scaleX": 1,
      "scaleY": 1,
      "offsetX": 0,
      "offsetY": 0,
      "rotation": 0
    },
    "sight": {
      "angle": 360,
      "enabled": true,
      "range": 120,
      "brightness": 1,
      "visionMode": "basic",
      "attenuation": 0.1,
      "saturation": 0,
      "contrast": 0
    },
    "appendNumber": false,
    "prependAdjective": false,
    "detectionModes": []
  },
  "_stats": {
    "systemId": "D35E",
    "systemVersion": "2.3.0",
    "coreVersion": "11.299",
    "createdTime": 1686244124382,
    "modifiedTime": 1686244124550,
    "lastModifiedBy": "cB3ob9BYxSFYX7sd"
  },
  "_key": "!actors!60nxuzFwPumwk3Rp"
}