{
  "_id": "mpwru3P7ngALSWJu",
  "name": "Cat's Grace",
  "type": "spell",
  "data": {
    "originVersion": 0,
    "originPack": "",
    "originId": "",
    "possibleUpdate": false,
    "description": {
      "value": "<div class=\"spell-description\">\n  <p>\n      <strong>School:</strong>&nbsp;transmutation;\n    <br>\n    <strong>Level:</strong>&nbsp;Assassin 2, Bard 2, Druid 2, Ranger 2, Sorcerer 2, Wizard 2;\n    \n    \n    \n    \n    <br>\n    <strong>Components:</strong>&nbsp;V, S, M (a pinch of cat fur)<br>\n    \n      <strong>Casting Time:</strong>&nbsp;1 standard action<br>\n    <strong>Range:</strong>&nbsp;touch<br>\n    \n    <strong>Target:</strong>&nbsp;creature touched<br>\n    \n    <strong>Duration:</strong>&nbsp;1 min./level<br>\n    \n        <strong>Saving Throw:</strong>&nbsp;Will negates (harmless)\n        <br>\n        <strong>Spell Resistance:</strong>&nbsp;yes<br>\n  </p>\n  <h2>Description</h2>\n  \n\n\n<p>\nThe transmuted creature becomes more graceful, agile, and coordinated. The spell grants a +4 enhancement bonus to Dexterity, adding the usual benefits to AC, Reflex saves, and other uses of the Dexterity modifier.\n</p><p><i>Material Component: </i>A pinch of cat fur.\n</p>\n<hr/>\n\n\n\n</div>\n",
      "chat": "",
      "unidentified": ""
    },
    "epic": "",
    "psionic": "",
    "nameFormula": "",
    "nameFromFormula": false,
    "tags": [],
    "uniqueId": "",
    "linkId": "",
    "linkSourceId": "",
    "linkImported": false,
    "linkSourceName": "",
    "source": "",
    "classSource": "",
    "userNonRemovable": false,
    "customAttributes": {},
    "customAttributesLocked": false,
    "customTag": "",
    "createdBy": "",
    "activation": {
      "cost": 1,
      "type": "standard"
    },
    "duration": {
      "value": null,
      "units": ""
    },
    "target": {
      "value": "creature touched"
    },
    "range": {
      "value": null,
      "units": "touch",
      "long": null
    },
    "recharge": {
      "enabled": false,
      "formula": "",
      "current": 0
    },
    "uses": {
      "value": 0,
      "max": 0,
      "per": "",
      "autoDeductCharges": true,
      "allowMultipleUses": false,
      "chargesPerUse": 1,
      "maxPerUse": null,
      "maxPerUseFormula": "",
      "maxFormula": "",
      "rechargeFormula": null,
      "isResource": false,
      "canBeLinked": false
    },
    "requiresPsionicFocus": false,
    "linkedChargeItem": {
      "id": null,
      "img": null,
      "name": null
    },
    "measureTemplate": {
      "type": "",
      "size": 0,
      "overrideColor": false,
      "customColor": "",
      "overrideTexture": false,
      "customTexture": ""
    },
    "actionType": "special",
    "attackBonus": "",
    "critConfirmBonus": "",
    "damage": {
      "parts": [],
      "alternativeParts": []
    },
    "summon": [],
    "attackParts": [],
    "autoscaleAttackParts": "",
    "formula": "",
    "attackCountFormula": "",
    "maxDamageDice": 0,
    "maxDamageDiceFormula": "",
    "ability": {
      "attack": "",
      "damage": "",
      "damageMult": 1,
      "critRange": 20,
      "critMult": 2,
      "twoHandedOnly": false,
      "vsTouchAc": false
    },
    "save": {
      "dc": "0",
      "description": "Will negates (harmless)",
      "ability": "",
      "type": "",
      "dcAutoType": "",
      "dcAutoAbility": ""
    },
    "baseCl": "0",
    "sr": true,
    "pr": false,
    "metamagicFeats": {
      "maximized": false,
      "empowered": false,
      "enlarged": false,
      "intensified": false,
      "enhanced": false,
      "enhancedHalf": false,
      "widened": false
    },
    "effectNotes": "",
    "attackNotes": "",
    "specialActions": [
      {
        "name": "Cat’s Grace",
        "action": "Create unique \"Cat's Grace\" from D35E.commonbuffs on target;Activate buff \"Cat's Grace\" on target; Set buff \"Cat's Grace\" field data.level to max(3,(@cl)) on target;",
        "condition": "",
        "img": "systems/D35E/icons/buffs/cats-grace.png"
      }
    ],
    "favorite": false,
    "rollTableDraw": {
      "formula": "",
      "name": "",
      "pack": "",
      "id": ""
    },
    "learnedAt": {
      "class": [
        [
          "Assassin",
          2
        ],
        [
          "Bard",
          2
        ],
        [
          "Druid",
          2
        ],
        [
          "Ranger",
          2
        ],
        [
          "Wizard",
          2
        ],
        [
          "Sorcerer",
          2
        ]
      ],
      "domain": [],
      "subDomain": [],
      "elementalSchool": [],
      "bloodline": []
    },
    "level": 2,
    "clOffset": 0,
    "slOffset": 0,
    "school": "trs",
    "subschool": "",
    "types": "",
    "components": {
      "value": "",
      "verbal": true,
      "somatic": true,
      "material": true,
      "focus": false,
      "divineFocus": 0
    },
    "castTime": "",
    "conditionals": [],
    "materials": {
      "value": "a pinch of cat fur",
      "consumed": {
        "value": false,
        "_deprecated": true
      },
      "focus": ""
    },
    "isSpellSpontaneousReplacement": false,
    "spellbook": "primary",
    "preparation": {
      "preparedAmount": 0,
      "maxAmount": 0,
      "autoDeductCharges": true,
      "mode": "prepared"
    },
    "atWill": false,
    "powerPointsCost": 0,
    "display": "",
    "isPower": false,
    "shortDescription": "\n\n\n<p>\nThe transmuted creature becomes more graceful, agile, and coordinated. The spell grants a +4 enhancement bonus to Dexterity, adding the usual benefits to AC, Reflex saves, and other uses of the Dexterity modifier.\n</p><p><i>Material Component: </i>A pinch of cat fur.\n</p>\n<hr/>\n\n\n",
    "snip": "Subject gains +4 to Dex for 1 min./level.",
    "spellDuration": "1 min./level",
    "spellEffect": "",
    "spellArea": "",
    "spellType": {
      "value": "",
      "_deprecated": true
    },
    "showInQuickbar": false,
    "specialPrepared": false,
    "isDomainSpell": false,
    "specialId": null,
    "customReferenceId": "",
    "attack": {
      "parts": []
    }
  },
  "sort": 600000,
  "flags": {},
  "img": "systems/D35E/icons/spells/named-spells/cats-grace.png",
  "effects": [],
  "folder": null,
  "permission": {
    "default": 0
  },
  "_key": "!actors.items!qDMtXTrwCwthMQBT.mpwru3P7ngALSWJu"
}