{
  "_id": "ZZKlRZ9D5HbFK4vL",
  "name": "Clairaudience/Clairvoyance",
  "type": "spell",
  "data": {
    "originVersion": 0,
    "originPack": "",
    "originId": "",
    "possibleUpdate": false,
    "description": {
      "value": "<div class=\"spell-description\">\n  <p>\n      <strong>School:</strong>&nbsp;divination&nbsp;(scrying);\n    <br>\n    <strong>Level:</strong>&nbsp;Assassin 4, Bard 3, Sorcerer 3, Wizard 3;\n    <strong>Domain:</strong>&nbsp;Knowledge 3;\n    \n    \n    \n    <br>\n    <strong>Components:</strong>&nbsp;V, S, F/DF (a small horn (for hearing) or a glass eye (for seeing))<br>\n    \n      <strong>Casting Time:</strong>&nbsp;10 minutes<br>\n    <strong>Range:</strong>&nbsp;long (400 ft. + 40 ft./level)<br>\n    \n    \n    <strong>Effect:</strong>&nbsp;Magical sensor<br>\n    <strong>Duration:</strong>&nbsp;1 min./level (D)<br>\n    \n        <strong>Saving Throw:</strong>&nbsp;None\n        <br>\n        <strong>Spell Resistance:</strong>&nbsp;no<br>\n  </p>\n  <h2>Description</h2>\n  \n\n\n<p>\n<i>Clairaudience/clairvoyance </i>creates an invisible magical sensor at a specific location that enables you to hear or see (your choice) almost as if you were there. You don’t need line of sight or line of effect, but the locale must be known—a place familiar to you or an obvious one. Once you have selected the locale, the sensor doesn’t move, but you can rotate it in all directions to view the area as desired. Unlike other scrying spells, this spell does not allow magically or supernaturally enhanced senses to work through it. If the chosen locale is magically dark, you see nothing. If it is naturally pitch black, you can see in a 10- foot radius around the center of the spell’s effect. <i>Clairaudience/clairvoyance </i>functions only on the plane of existence you are currently occupying.\n</p><p><i>Arcane Focus: </i>A small horn (for hearing) or a glass eye (for seeing).\n</p>\n<hr/>\n\n\n\n</div>\n",
      "chat": "",
      "unidentified": ""
    },
    "epic": "",
    "psionic": "",
    "nameFormula": "",
    "nameFromFormula": false,
    "tags": [],
    "uniqueId": "",
    "linkId": "",
    "linkSourceId": "",
    "linkImported": false,
    "linkSourceName": "",
    "source": "",
    "classSource": "",
    "userNonRemovable": false,
    "customAttributes": {},
    "customAttributesLocked": false,
    "customTag": "",
    "createdBy": "",
    "activation": {
      "cost": 10,
      "type": "minute"
    },
    "duration": {
      "value": null,
      "units": ""
    },
    "target": {
      "value": ""
    },
    "range": {
      "value": null,
      "units": "long",
      "long": null
    },
    "recharge": {
      "enabled": false,
      "formula": "",
      "current": 0
    },
    "uses": {
      "value": 0,
      "max": 0,
      "per": "",
      "autoDeductCharges": true,
      "allowMultipleUses": false,
      "chargesPerUse": 1,
      "maxPerUse": null,
      "maxPerUseFormula": "",
      "maxFormula": "",
      "rechargeFormula": null,
      "isResource": false,
      "canBeLinked": false
    },
    "requiresPsionicFocus": false,
    "linkedChargeItem": {
      "id": null,
      "img": null,
      "name": null
    },
    "measureTemplate": {
      "type": "",
      "size": 0,
      "overrideColor": false,
      "customColor": "",
      "overrideTexture": false,
      "customTexture": ""
    },
    "actionType": "other",
    "attackBonus": "",
    "critConfirmBonus": "",
    "damage": {
      "parts": [],
      "alternativeParts": []
    },
    "summon": [],
    "attackParts": [],
    "autoscaleAttackParts": "",
    "formula": "",
    "attackCountFormula": "",
    "maxDamageDice": 0,
    "maxDamageDiceFormula": "",
    "ability": {
      "attack": "",
      "damage": "",
      "damageMult": 1,
      "critRange": 20,
      "critMult": 2,
      "twoHandedOnly": false,
      "vsTouchAc": false
    },
    "save": {
      "dc": "0",
      "description": "None",
      "ability": "",
      "type": "",
      "dcAutoType": "",
      "dcAutoAbility": ""
    },
    "baseCl": "0",
    "sr": false,
    "pr": false,
    "metamagicFeats": {
      "maximized": false,
      "empowered": false,
      "enlarged": false,
      "intensified": false,
      "enhanced": false,
      "enhancedHalf": false,
      "widened": false
    },
    "effectNotes": "",
    "attackNotes": "",
    "specialActions": [],
    "favorite": false,
    "rollTableDraw": {
      "formula": "",
      "name": "",
      "pack": "",
      "id": ""
    },
    "learnedAt": {
      "class": [
        [
          "Assassin",
          4
        ],
        [
          "Bard",
          3
        ],
        [
          "Wizard",
          3
        ],
        [
          "Sorcerer",
          3
        ]
      ],
      "domain": [
        [
          "Knowledge",
          3
        ]
      ],
      "subDomain": [],
      "elementalSchool": [],
      "bloodline": []
    },
    "level": 0,
    "clOffset": 0,
    "slOffset": 0,
    "school": "div",
    "subschool": "scrying",
    "types": "",
    "components": {
      "value": "",
      "verbal": true,
      "somatic": true,
      "material": false,
      "focus": true,
      "divineFocus": 3
    },
    "castTime": "",
    "conditionals": [],
    "materials": {
      "value": "",
      "consumed": {
        "value": false,
        "_deprecated": true
      },
      "focus": "a small horn (for hearing) or a glass eye (for seeing)"
    },
    "isSpellSpontaneousReplacement": false,
    "spellbook": "spelllike",
    "preparation": {
      "preparedAmount": 0,
      "maxAmount": 0,
      "autoDeductCharges": true,
      "mode": "prepared"
    },
    "atWill": true,
    "powerPointsCost": 0,
    "display": "",
    "isPower": false,
    "shortDescription": "\n\n\n<p>\n<i>Clairaudience/clairvoyance </i>creates an invisible magical sensor at a specific location that enables you to hear or see (your choice) almost as if you were there. You don’t need line of sight or line of effect, but the locale must be known—a place familiar to you or an obvious one. Once you have selected the locale, the sensor doesn’t move, but you can rotate it in all directions to view the area as desired. Unlike other scrying spells, this spell does not allow magically or supernaturally enhanced senses to work through it. If the chosen locale is magically dark, you see nothing. If it is naturally pitch black, you can see in a 10- foot radius around the center of the spell’s effect. <i>Clairaudience/clairvoyance </i>functions only on the plane of existence you are currently occupying.\n</p><p><i>Arcane Focus: </i>A small horn (for hearing) or a glass eye (for seeing).\n</p>\n<hr/>\n\n\n",
    "snip": "Hear or see at a distance for 1 min./level.",
    "spellDuration": "1 min./level (D)",
    "spellEffect": "Magical sensor",
    "spellArea": "",
    "spellType": {
      "value": "",
      "_deprecated": true
    },
    "showInQuickbar": false,
    "specialPrepared": false,
    "isDomainSpell": false,
    "specialId": null,
    "customReferenceId": "",
    "attack": {
      "parts": []
    }
  },
  "sort": 600000,
  "flags": {},
  "img": "systems/D35E/icons/spells/named-spells/clairaudience.png",
  "effects": [],
  "folder": null,
  "permission": {
    "default": 0
  },
  "_key": "!actors.items!7JfbYedphE3G3xf6.ZZKlRZ9D5HbFK4vL"
}