{
  "_id": "WhYm0NrGlIzxwo1R",
  "name": "Claw",
  "type": "attack",
  "data": {
    "originVersion": 0,
    "originPack": "",
    "originId": "",
    "possibleUpdate": false,
    "description": {
      "value": "<p>The creature rips with a sharp appendage, dealing piercing and slashing damage.</p>",
      "chat": "",
      "unidentified": ""
    },
    "epic": false,
    "psionic": "",
    "nameFormula": "",
    "nameFromFormula": false,
    "tags": [],
    "uniqueId": "",
    "linkId": "",
    "linkSourceId": "",
    "linkImported": false,
    "linkSourceName": "",
    "source": "",
    "classSource": "",
    "userNonRemovable": false,
    "customAttributes": {},
    "customAttributesLocked": false,
    "customTag": "",
    "createdBy": "",
    "activation": {
      "cost": 1,
      "type": "standard"
    },
    "duration": {
      "value": null,
      "units": ""
    },
    "target": {
      "value": ""
    },
    "range": {
      "value": null,
      "units": "",
      "long": null
    },
    "recharge": {
      "enabled": false,
      "formula": "",
      "current": 0
    },
    "uses": {
      "value": 0,
      "max": 0,
      "per": "",
      "autoDeductCharges": true,
      "allowMultipleUses": false,
      "chargesPerUse": 1,
      "maxPerUse": null,
      "maxPerUseFormula": "",
      "maxFormula": "",
      "rechargeFormula": null,
      "isResource": false,
      "canBeLinked": false
    },
    "requiresPsionicFocus": false,
    "linkedChargeItem": {
      "id": null,
      "img": null,
      "name": null
    },
    "measureTemplate": {
      "type": "",
      "size": 0,
      "overrideColor": false,
      "customColor": "",
      "overrideTexture": false,
      "customTexture": ""
    },
    "actionType": "mwak",
    "attackBonus": "",
    "critConfirmBonus": "",
    "damage": {
      "parts": [
        [
          "1d6",
          null,
          "damage-piercing-or-slashing"
        ]
      ],
      "alternativeParts": []
    },
    "summon": [],
    "attackParts": [],
    "autoscaleAttackParts": "",
    "formula": "",
    "attackCountFormula": "",
    "maxDamageDice": 0,
    "maxDamageDiceFormula": "",
    "ability": {
      "attack": "str",
      "damage": "str",
      "damageMult": 1,
      "critRange": 20,
      "critMult": 2,
      "twoHandedOnly": false,
      "vsTouchAc": false
    },
    "save": {
      "dc": "0",
      "description": "",
      "ability": "",
      "type": "",
      "dcAutoType": "",
      "dcAutoAbility": ""
    },
    "baseCl": "0",
    "sr": false,
    "pr": false,
    "metamagicFeats": {
      "maximized": false,
      "empowered": false,
      "enlarged": false,
      "intensified": false,
      "enhanced": false,
      "enhancedHalf": false,
      "widened": false
    },
    "effectNotes": "",
    "attackNotes": "",
    "specialActions": [],
    "favorite": true,
    "rollTableDraw": {
      "formula": "",
      "name": "",
      "pack": "",
      "id": ""
    },
    "material": {
      "data": null
    },
    "associations": {
      "classes": []
    },
    "attackType": "natural",
    "autoScaleOption": "default",
    "weaponSubtype": "light",
    "masterwork": false,
    "threatRangeExtended": false,
    "finesseable": false,
    "enh": null,
    "incorporeal": false,
    "proficient": true,
    "primaryAttack": false,
    "showInQuickbar": true,
    "melded": false,
    "baseWeaponType": "Claw",
    "nonLethal": false,
    "originalWeaponCreated": false,
    "originalWeaponId": null,
    "originalWeaponName": "",
    "originalWeaponImg": "",
    "originalWeaponProperties": {},
    "conditionals": [],
    "thrown": false,
    "returning": false,
    "magic": false,
    "alignment": {
      "good": false,
      "evil": false,
      "lawful": false,
      "chaotic": false
    },
    "customReferenceId": "",
    "attack": {
      "parts": []
    }
  },
  "sort": 1500000,
  "flags": {},
  "img": "systems/D35E/icons/attack/monster/claw.png",
  "effects": [],
  "folder": null,
  "permission": {
    "default": 0
  },
  "_key": "!actors.items!KwsO2vQziDcAxTLa.WhYm0NrGlIzxwo1R"
}