{
  "_id": "MbGGx0nM4334pB1i",
  "name": "Club",
  "type": "weapon",
  "data": {
    "originVersion": 0,
    "originPack": "",
    "originId": "",
    "possibleUpdate": false,
    "description": {
      "value": "<p>A wooden club is so easy to find and fashion that it has no cost.</p>",
      "chat": "",
      "unidentified": ""
    },
    "epic": "",
    "psionic": "",
    "nameFormula": "",
    "nameFromFormula": false,
    "tags": [],
    "uniqueId": "",
    "linkId": "",
    "linkSourceId": "",
    "linkImported": false,
    "linkSourceName": "",
    "source": "",
    "classSource": "",
    "userNonRemovable": false,
    "customAttributes": {},
    "customAttributesLocked": false,
    "customTag": "",
    "createdBy": "",
    "quantity": 1,
    "weight": 3,
    "constantWeight": false,
    "price": 0,
    "resalePrice": "",
    "brokenResalePrice": "",
    "fullResalePrice": false,
    "identified": true,
    "identifiedCurse": false,
    "cursed": false,
    "curseActive": false,
    "hp": {
      "max": 5,
      "value": 5
    },
    "hardness": 5,
    "carried": true,
    "unidentified": {
      "price": 0,
      "name": ""
    },
    "identifiedName": "Club",
    "container": "None",
    "containerId": "none",
    "containerWeightless": false,
    "equippedWeightless": false,
    "changes": [],
    "changeFlags": {
      "loseDexToAC": false,
      "noStr": false,
      "noDex": false,
      "noInt": false,
      "noCon": false,
      "oneInt": false,
      "oneWis": false,
      "oneCha": false,
      "noEncumbrance": false,
      "mediumArmorFullSpeed": false,
      "heavyArmorFullSpeed": false,
      "multiAttack": false,
      "multiweaponAttack": false,
      "uncannyDodge": false
    },
    "conditionFlags": {
      "dazzled": false,
      "wildshaped": false,
      "polymorphed": false
    },
    "combatChanges": [],
    "combatChangesRange": {
      "maxFormula": "",
      "max": 0
    },
    "combatChangesAdditionalRanges": {
      "hasAdditionalRanges": false,
      "slider1": {
        "maxFormula": "",
        "max": 0,
        "name": ""
      },
      "slider2": {
        "maxFormula": "",
        "max": 0,
        "name": ""
      },
      "slider3": {
        "maxFormula": "",
        "max": 0,
        "name": ""
      }
    },
    "combatChangesUsesCost": "chargesPerUse",
    "combatChangesApplySpecialActionsOnce": true,
    "combatChangeCustomDisplayName": "",
    "combatChangeCustomReferenceName": "",
    "sizeOverride": "",
    "counterName": "",
    "resistances": [],
    "damageReduction": [],
    "requirements": [],
    "creationChanges": [],
    "contextNotes": [],
    "enhancements": {
      "uses": {
        "value": 0,
        "max": 0,
        "per": null,
        "rechargeFormula": null,
        "autoDeductCharges": true,
        "allowMultipleUses": false,
        "commonPool": false
      },
      "automation": {
        "updateName": false,
        "updatePrice": false
      },
      "clFormula": "",
      "spellcastingAbility": "",
      "items": []
    },
    "light": {
      "color": "",
      "radius": 0,
      "opacity": 0,
      "alpha": 0.5,
      "lightAngle": 360,
      "type": "",
      "animationSpeed": "",
      "animationIntensity": "",
      "dimRadius": "",
      "emitLight": false
    },
    "material": {
      "data": null
    },
    "equipped": true,
    "masterwork": false,
    "weaponType": "simple",
    "weaponSubtype": "1h",
    "properties": {
      "blc": false,
      "brc": false,
      "dbl": false,
      "dis": false,
      "fin": false,
      "frg": false,
      "imp": false,
      "mnk": false,
      "nnl": false,
      "prf": false,
      "rch": false,
      "thr": true,
      "trp": false,
      "grp": false,
      "snd": false
    },
    "linkedItems": [],
    "enh": null,
    "melded": false,
    "weaponData": {
      "damageRoll": "1d6",
      "damageType": "B",
      "damageTypeId": "",
      "critRange": 20,
      "critMult": 2,
      "range": 10,
      "attackFormula": "",
      "damageFormula": "",
      "size": "med",
      "alignment": {
        "good": false,
        "evil": false,
        "lawful": false,
        "chaotic": false
      }
    },
    "attackNotes": "",
    "effectNotes": "",
    "bonus": {
      "value": 0,
      "_deprecated": true
    },
    "damageType": {
      "value": "",
      "_deprecated": true
    },
    "damage2": {
      "value": "",
      "_deprecated": true
    },
    "damage2Type": {
      "value": "",
      "_deprecated": true
    },
    "customReferenceId": "",
    "damage": {
      "parts": []
    },
    "threatRangeExtended": false,
    "finesseable": false
  },
  "sort": 700000,
  "flags": {},
  "img": "systems/D35E/icons/items/weapons/Club_v2_02.png",
  "effects": [],
  "folder": null,
  "permission": {
    "default": 0
  },
  "_key": "!actors.items!urZER2ZqQYpRioas.MbGGx0nM4334pB1i"
}