{
  "_id": "0OulUw9OPCwEmvi1",
  "name": "Composite Longbow",
  "type": "weapon",
  "data": {
    "originVersion": 0,
    "originPack": "",
    "originId": "",
    "possibleUpdate": false,
    "description": {
      "value": "<p>You need at least two hands to use a bow, regardless of its size. You can use a composite longbow while mounted. Composite bows are made from laminated horn, wood, or bone and built with a recurve, meaning that the bow remains bowshaped even when unstrung. All composite bows are made with a particular strength rating (that is, each requires a minimum Strength modifier to use with proficiency). If your Strength bonus is less than the strength rating of the composite bow, you can’t effectively use it, so you take a –2 penalty on attacks with it. The default composite longbow requires a Strength modifier of +0 or higher to use with proficiency. A composite longbow can be made with a high strength rating (representing an especially heavy pull) to take advantage of an above-average Strength score; this feature allows you to add your Strength bonus to damage, up to the maximum bonus indicated for the bow. Each point of Strength bonus granted by the bow adds 100 gp to its cost. For instance, a composite longbow (+1 Str bonus) costs 200 gp, while a composite longbow (+4 Str bonus) costs 500 gp. For example, Tordek has a +2 Strength bonus. With a regular composite longbow, he gets no modifier on damage rolls. For 200 gp, he can buy a composite longbow (+1 Str bonus), which lets him add +1 to his damage rolls. For 300 gp, he can buy one that lets him add his entire +2 Strength bonus. Even if he paid 400 gp for a composite longbow (+3 Str bonus), he would still get only a +2 bonus on damage rolls and takes a –2 penalty on attacks with it because his Strength is insufficient to use the weapon to best advantage. The bow can’t grant him a higher bonus than he already has.</p>\n<p>For purposes of weapon proficiency and similar feats, a composite longbow is treated as if it were a longbow. Thus, if you have Weapon Focus (longbow), that feat applies both to longbows and composite longbows.</p>",
      "chat": "",
      "unidentified": ""
    },
    "epic": "",
    "psionic": "",
    "nameFormula": "",
    "nameFromFormula": false,
    "tags": [],
    "uniqueId": "",
    "linkId": "",
    "linkSourceId": "",
    "linkImported": false,
    "linkSourceName": "",
    "source": "",
    "classSource": "",
    "userNonRemovable": false,
    "customAttributes": {},
    "customAttributesLocked": false,
    "customTag": "",
    "createdBy": "",
    "quantity": 1,
    "weight": 3,
    "constantWeight": false,
    "price": 100,
    "resalePrice": "",
    "brokenResalePrice": "",
    "fullResalePrice": false,
    "identified": true,
    "identifiedCurse": false,
    "cursed": false,
    "curseActive": false,
    "hp": {
      "max": 5,
      "value": 5
    },
    "hardness": 5,
    "carried": true,
    "unidentified": {
      "price": 0,
      "name": ""
    },
    "identifiedName": "Composite Longbow",
    "container": "None",
    "containerId": "none",
    "containerWeightless": false,
    "equippedWeightless": false,
    "changes": [],
    "changeFlags": {
      "loseDexToAC": false,
      "noStr": false,
      "noDex": false,
      "noInt": false,
      "noCon": false,
      "oneInt": false,
      "oneWis": false,
      "oneCha": false,
      "noEncumbrance": false,
      "mediumArmorFullSpeed": false,
      "heavyArmorFullSpeed": false,
      "multiAttack": false,
      "multiweaponAttack": false,
      "uncannyDodge": false
    },
    "conditionFlags": {
      "dazzled": false,
      "wildshaped": false,
      "polymorphed": false
    },
    "combatChanges": [],
    "combatChangesRange": {
      "maxFormula": "",
      "max": 0
    },
    "combatChangesAdditionalRanges": {
      "hasAdditionalRanges": false,
      "slider1": {
        "maxFormula": "",
        "max": 0,
        "name": ""
      },
      "slider2": {
        "maxFormula": "",
        "max": 0,
        "name": ""
      },
      "slider3": {
        "maxFormula": "",
        "max": 0,
        "name": ""
      }
    },
    "combatChangesUsesCost": "chargesPerUse",
    "combatChangesApplySpecialActionsOnce": true,
    "combatChangeCustomDisplayName": "",
    "combatChangeCustomReferenceName": "",
    "sizeOverride": "",
    "counterName": "",
    "resistances": [],
    "damageReduction": [],
    "requirements": [],
    "creationChanges": [],
    "contextNotes": [],
    "enhancements": {
      "uses": {
        "value": 0,
        "max": 0,
        "per": null,
        "rechargeFormula": null,
        "autoDeductCharges": true,
        "allowMultipleUses": false,
        "commonPool": false
      },
      "automation": {
        "updateName": false,
        "updatePrice": false
      },
      "clFormula": "",
      "spellcastingAbility": "",
      "items": []
    },
    "light": {
      "color": "",
      "radius": 0,
      "opacity": 0,
      "alpha": 0.5,
      "lightAngle": 360,
      "type": "",
      "animationSpeed": "",
      "animationIntensity": "",
      "dimRadius": "",
      "emitLight": false
    },
    "material": {
      "data": null
    },
    "equipped": true,
    "masterwork": false,
    "weaponType": "martial",
    "weaponSubtype": "ranged",
    "properties": {
      "blc": false,
      "brc": false,
      "dbl": false,
      "dis": false,
      "fin": false,
      "frg": false,
      "imp": false,
      "mnk": false,
      "nnl": false,
      "prf": false,
      "rch": false,
      "thr": false,
      "trp": false,
      "grp": false,
      "snd": false
    },
    "linkedItems": [],
    "enh": null,
    "melded": false,
    "weaponData": {
      "damageRoll": "1d8",
      "damageType": "P",
      "damageTypeId": "",
      "critRange": 20,
      "critMult": 2,
      "range": 110,
      "attackFormula": "",
      "damageFormula": "",
      "size": "med",
      "alignment": {
        "good": false,
        "evil": false,
        "lawful": false,
        "chaotic": false
      }
    },
    "attackNotes": "",
    "effectNotes": "",
    "bonus": {
      "value": 0,
      "_deprecated": true
    },
    "damageType": {
      "value": "",
      "_deprecated": true
    },
    "damage2": {
      "value": "",
      "_deprecated": true
    },
    "damage2Type": {
      "value": "",
      "_deprecated": true
    },
    "customReferenceId": "",
    "damage": {
      "parts": []
    },
    "threatRangeExtended": false,
    "finesseable": false
  },
  "sort": 800000,
  "flags": {},
  "img": "systems/D35E/icons/items/weapons/Bow_09.png",
  "effects": [],
  "folder": null,
  "permission": {
    "default": 0
  },
  "_key": "!actors.items!TfqwyhmRvohV1BWy.0OulUw9OPCwEmvi1"
}