{
  "_id": "docc9k0nPlLZ1Wn9",
  "name": "Create Greater Undead",
  "type": "spell",
  "data": {
    "originVersion": 0,
    "originPack": "",
    "originId": "",
    "possibleUpdate": false,
    "description": {
      "value": "<div class=\"spell-description\">\n  <p>\n      <strong>School:</strong>&nbsp;necromancy&nbsp;[evil];\n    <br>\n    <strong>Level:</strong>&nbsp;Cleric 8, Sorcerer 8, Wizard 8;\n    <strong>Domain:</strong>&nbsp;Death 8;\n    \n    \n    \n    <br>\n    <strong>Components:</strong>&nbsp;V, S, M (a clay pot filled with grave dirt and another filled with brackish water  the spell must be cast on a dead body  you must place a black onyx gem worth at least 50 gp per hd of the undead to be created into the mouth or eye socket of each corpse  the magic of the spell turns these gems into worthless shells)<br>\n    \n      <strong>Casting Time:</strong>&nbsp;1 hour<br>\n    <strong>Range:</strong>&nbsp;close (25 ft. + 5 ft./2 levels)<br>\n    \n    <strong>Target:</strong>&nbsp;one corpse<br>\n    \n    <strong>Duration:</strong>&nbsp;Instantaneous<br>\n    \n        <strong>Saving Throw:</strong>&nbsp;None\n        <br>\n        <strong>Spell Resistance:</strong>&nbsp;no<br>\n  </p>\n  <h2>Description</h2>\n  \n\n\n<p>\nA much more potent spell than <i>animate dead</i>, this evil spell allows you to create more powerful sorts of undead: shadows, wraiths, spectres, and devourers. The type or types of undead you can create is based on your caster level, as shown on the table below.\n</p>\n\n<p>You may create less powerful undead than your level would allow if you choose. Created undead are not automatically under the control of their animator. If you are capable of commanding undead, you may attempt to command the undead creature as it forms.\n</p><p>This spell must be cast at night.\n</p><p><i>Material Component: </i>A clay pot filled with grave dirt and another filled with brackish water. The spell must be cast on a dead body. You must place a black onyx gem worth at least 50 gp per HD of the undead to be created into the mouth or eye socket of each corpse. The magic of the spell turns these gems into worthless shells.\n</p>\n<hr/>\n\n\n\n</div>\n",
      "chat": "",
      "unidentified": ""
    },
    "epic": "",
    "psionic": "",
    "nameFormula": "",
    "nameFromFormula": false,
    "tags": [],
    "uniqueId": "",
    "linkId": "",
    "linkSourceId": "",
    "linkImported": false,
    "linkSourceName": "",
    "source": "",
    "classSource": "",
    "userNonRemovable": false,
    "customAttributes": {},
    "customAttributesLocked": false,
    "customTag": "",
    "createdBy": "",
    "activation": {
      "cost": 1,
      "type": "hour"
    },
    "duration": {
      "value": null,
      "units": ""
    },
    "target": {
      "value": "one corpse"
    },
    "range": {
      "value": null,
      "units": "close",
      "long": null
    },
    "recharge": {
      "enabled": false,
      "formula": "",
      "current": 0
    },
    "uses": {
      "value": 0,
      "max": 0,
      "per": "",
      "autoDeductCharges": true,
      "allowMultipleUses": false,
      "chargesPerUse": 1,
      "maxPerUse": null,
      "maxPerUseFormula": "",
      "maxFormula": "",
      "rechargeFormula": null,
      "isResource": false,
      "canBeLinked": false
    },
    "requiresPsionicFocus": false,
    "linkedChargeItem": {
      "id": null,
      "img": null,
      "name": null
    },
    "measureTemplate": {
      "type": "",
      "size": 0,
      "overrideColor": false,
      "customColor": "",
      "overrideTexture": false,
      "customTexture": ""
    },
    "actionType": "other",
    "attackBonus": "",
    "critConfirmBonus": "",
    "damage": {
      "parts": [],
      "alternativeParts": []
    },
    "summon": [],
    "attackParts": [],
    "autoscaleAttackParts": "",
    "formula": "",
    "attackCountFormula": "",
    "maxDamageDice": 0,
    "maxDamageDiceFormula": "",
    "ability": {
      "attack": "",
      "damage": "",
      "damageMult": 1,
      "critRange": 20,
      "critMult": 2,
      "twoHandedOnly": false,
      "vsTouchAc": false
    },
    "save": {
      "dc": "0",
      "description": "None",
      "ability": "",
      "type": "",
      "dcAutoType": "",
      "dcAutoAbility": ""
    },
    "baseCl": "0",
    "sr": false,
    "pr": false,
    "metamagicFeats": {
      "maximized": false,
      "empowered": false,
      "enlarged": false,
      "intensified": false,
      "enhanced": false,
      "enhancedHalf": false,
      "widened": false
    },
    "effectNotes": "",
    "attackNotes": "",
    "specialActions": [],
    "favorite": false,
    "rollTableDraw": {
      "formula": "",
      "name": "",
      "pack": "",
      "id": ""
    },
    "learnedAt": {
      "class": [
        [
          "Cleric",
          8
        ],
        [
          "Wizard",
          8
        ],
        [
          "Sorcerer",
          8
        ]
      ],
      "domain": [
        [
          "Death",
          8
        ]
      ],
      "subDomain": [],
      "elementalSchool": [],
      "bloodline": []
    },
    "level": 0,
    "clOffset": 0,
    "slOffset": 0,
    "school": "nec",
    "subschool": "",
    "types": "evil",
    "components": {
      "value": "",
      "verbal": true,
      "somatic": true,
      "material": true,
      "focus": false,
      "divineFocus": 0
    },
    "castTime": "",
    "conditionals": [],
    "materials": {
      "value": "a clay pot filled with grave dirt and another filled with brackish water  the spell must be cast on a dead body  you must place a black onyx gem worth at least 50 gp per hd of the undead to be created into the mouth or eye socket of each corpse  the magic of the spell turns these gems into worthless shells",
      "consumed": {
        "value": false,
        "_deprecated": true
      },
      "focus": ""
    },
    "isSpellSpontaneousReplacement": false,
    "spellbook": "spelllike",
    "preparation": {
      "preparedAmount": 0,
      "maxAmount": 0,
      "autoDeductCharges": true,
      "mode": "prepared"
    },
    "atWill": true,
    "powerPointsCost": 0,
    "display": "",
    "isPower": false,
    "shortDescription": "\n\n\n<p>\nA much more potent spell than <i>animate dead</i>, this evil spell allows you to create more powerful sorts of undead: shadows, wraiths, spectres, and devourers. The type or types of undead you can create is based on your caster level, as shown on the table below.\n</p>\n\n<p>You may create less powerful undead than your level would allow if you choose. Created undead are not automatically under the control of their animator. If you are capable of commanding undead, you may attempt to command the undead creature as it forms.\n</p><p>This spell must be cast at night.\n</p><p><i>Material Component: </i>A clay pot filled with grave dirt and another filled with brackish water. The spell must be cast on a dead body. You must place a black onyx gem worth at least 50 gp per HD of the undead to be created into the mouth or eye socket of each corpse. The magic of the spell turns these gems into worthless shells.\n</p>\n<hr/>\n\n\n",
    "snip": "Create shadows, wraiths, spectres, or devourers.",
    "spellDuration": "Instantaneous",
    "spellEffect": "",
    "spellArea": "",
    "spellType": {
      "value": "",
      "_deprecated": true
    },
    "showInQuickbar": false,
    "specialPrepared": false,
    "isDomainSpell": false,
    "specialId": null,
    "customReferenceId": "",
    "attack": {
      "parts": []
    }
  },
  "sort": 600000,
  "flags": {},
  "img": "systems/D35E/icons/spells/named-spells/create-undead.png",
  "effects": [],
  "folder": null,
  "permission": {
    "default": 0
  },
  "_key": "!actors.items!S4VxcOFLuOXFoGDy.docc9k0nPlLZ1Wn9"
}