{
  "_id": "ABkTf9pblnTegq0M",
  "name": "Crushing Hand",
  "type": "spell",
  "data": {
    "originVersion": 0,
    "originPack": "",
    "originId": "",
    "possibleUpdate": false,
    "description": {
      "value": "<div class=\"spell-description\">\n  <p>\n      <strong>School:</strong>&nbsp;evocation&nbsp;[force];\n    <br>\n    <strong>Level:</strong>&nbsp;Sorcerer 9, Wizard 9;\n    <strong>Domain:</strong>&nbsp;Strength 9;\n    \n    \n    \n    <br>\n    <strong>Components:</strong>&nbsp;V, S, M (the shell of an egg), F/DF (a glove of snakeskin)<br>\n    \n      <strong>Casting Time:</strong>&nbsp;1 round<br>\n    <strong>Range:</strong>&nbsp;touch<br>\n    \n    \n    \n    <strong>Duration:</strong>&nbsp;instantaneous<br>\n    \n        <strong>Saving Throw:</strong>&nbsp;none\n        <br>\n        <strong>Spell Resistance:</strong>&nbsp;no<br>\n  </p>\n  <h2>Description</h2>\n  \n\n\n<p>\nThis spell functions like <i>interposing hand, </i>except that the hand can interpose itself, push, or crush one opponent that you select.\n</p><p>The <i>crushing hand</i> can grapple an opponent like <i>grasping hand</i> does. Its grapple bonus equals your caster level + your Intelligence, Wisdom, or Charisma modifier (for a wizard, cleric, or sorcerer, respectively), +12 for the hand's Strength score (35), +4 for being Large. The hand deals 2d6+12 points of damage (lethal, not nonlethal) on each successful grapple check against an opponent.\n</p><p>The <i>crushing hand</i> can also interpose itself as <i>interposing hand</i> does, or it can bull rush an opponent as <i>forceful hand</i> does, but at a +18 bonus.\n</p><p>Directing the spell to a new target is a move action.\n</p><p>Clerics who cast this spell name it for their deities.\n</p><p><i>Arcane Material Component:</i> The shell of an egg.\n</p><p><i>Arcane Focus:</i> A glove of snakeskin.\n</p>\n<hr/>\n\n\n\n</div>\n",
      "chat": "",
      "unidentified": ""
    },
    "epic": "",
    "psionic": "",
    "nameFormula": "",
    "nameFromFormula": false,
    "tags": [],
    "uniqueId": "",
    "linkId": "",
    "linkSourceId": "",
    "linkImported": false,
    "linkSourceName": "",
    "source": "",
    "classSource": "",
    "userNonRemovable": false,
    "customAttributes": {},
    "customAttributesLocked": false,
    "customTag": "",
    "createdBy": "",
    "activation": {
      "cost": 1,
      "type": "round"
    },
    "duration": {
      "value": null,
      "units": ""
    },
    "target": {
      "value": ""
    },
    "range": {
      "value": null,
      "units": "touch",
      "long": null
    },
    "recharge": {
      "enabled": false,
      "formula": "",
      "current": 0
    },
    "uses": {
      "value": 0,
      "max": 0,
      "per": "",
      "autoDeductCharges": true,
      "allowMultipleUses": false,
      "chargesPerUse": 1,
      "maxPerUse": null,
      "maxPerUseFormula": "",
      "maxFormula": "",
      "rechargeFormula": null,
      "isResource": false,
      "canBeLinked": false
    },
    "requiresPsionicFocus": false,
    "linkedChargeItem": {
      "id": null,
      "img": null,
      "name": null
    },
    "measureTemplate": {
      "type": "",
      "size": 0,
      "overrideColor": false,
      "customColor": "",
      "overrideTexture": false,
      "customTexture": ""
    },
    "actionType": "other",
    "attackBonus": "",
    "critConfirmBonus": "",
    "damage": {
      "parts": [],
      "alternativeParts": []
    },
    "summon": [],
    "attackParts": [],
    "autoscaleAttackParts": "",
    "formula": "",
    "attackCountFormula": "",
    "maxDamageDice": 0,
    "maxDamageDiceFormula": "",
    "ability": {
      "attack": "",
      "damage": "",
      "damageMult": 1,
      "critRange": 20,
      "critMult": 2,
      "twoHandedOnly": false,
      "vsTouchAc": false
    },
    "save": {
      "dc": "0",
      "description": "",
      "ability": "",
      "type": "",
      "dcAutoType": "",
      "dcAutoAbility": ""
    },
    "baseCl": "0",
    "sr": false,
    "pr": false,
    "metamagicFeats": {
      "maximized": false,
      "empowered": false,
      "enlarged": false,
      "intensified": false,
      "enhanced": false,
      "enhancedHalf": false,
      "widened": false
    },
    "effectNotes": "",
    "attackNotes": "",
    "specialActions": [],
    "favorite": false,
    "rollTableDraw": {
      "formula": "",
      "name": "",
      "pack": "",
      "id": ""
    },
    "learnedAt": {
      "class": [
        [
          "Wizard",
          9
        ],
        [
          "Sorcerer",
          9
        ]
      ],
      "domain": [
        [
          "Strength",
          9
        ]
      ],
      "subDomain": [],
      "elementalSchool": [],
      "bloodline": []
    },
    "level": 9,
    "clOffset": 0,
    "slOffset": 0,
    "school": "evo",
    "subschool": "",
    "types": "force",
    "components": {
      "value": "",
      "verbal": true,
      "somatic": true,
      "material": true,
      "focus": true,
      "divineFocus": 3
    },
    "castTime": "",
    "conditionals": [],
    "materials": {
      "value": "the shell of an egg",
      "consumed": {
        "value": false,
        "_deprecated": true
      },
      "focus": "a glove of snakeskin"
    },
    "isSpellSpontaneousReplacement": false,
    "spellbook": "spelllike",
    "preparation": {
      "preparedAmount": 1,
      "maxAmount": 1,
      "autoDeductCharges": true,
      "mode": "prepared"
    },
    "atWill": false,
    "powerPointsCost": 0,
    "display": "",
    "isPower": false,
    "shortDescription": "\n\n\n<p>\nThis spell functions like <i>interposing hand, </i>except that the hand can interpose itself, push, or crush one opponent that you select.\n</p><p>The <i>crushing hand</i> can grapple an opponent like <i>grasping hand</i> does. Its grapple bonus equals your caster level + your Intelligence, Wisdom, or Charisma modifier (for a wizard, cleric, or sorcerer, respectively), +12 for the hand's Strength score (35), +4 for being Large. The hand deals 2d6+12 points of damage (lethal, not nonlethal) on each successful grapple check against an opponent.\n</p><p>The <i>crushing hand</i> can also interpose itself as <i>interposing hand</i> does, or it can bull rush an opponent as <i>forceful hand</i> does, but at a +18 bonus.\n</p><p>Directing the spell to a new target is a move action.\n</p><p>Clerics who cast this spell name it for their deities.\n</p><p><i>Arcane Material Component:</i> The shell of an egg.\n</p><p><i>Arcane Focus:</i> A glove of snakeskin.\n</p>\n<hr/>\n\n\n",
    "snip": "Large hand provides cover, pushes, or crushes your foes.",
    "spellDuration": "instantaneous",
    "spellEffect": "",
    "spellArea": "",
    "spellType": {
      "value": "",
      "_deprecated": true
    },
    "showInQuickbar": false,
    "specialPrepared": false,
    "isDomainSpell": false,
    "specialId": null,
    "customReferenceId": "",
    "attack": {
      "parts": []
    }
  },
  "sort": 600000,
  "flags": {},
  "img": "systems/D35E/icons/spells/named-spells/crushing-hand.png",
  "effects": [],
  "folder": null,
  "permission": {
    "default": 0
  },
  "_key": "!actors.items!51wTcMzDBAsEiiNp.ABkTf9pblnTegq0M"
}