{
  "_id": "XcVKA63ulPbVf8nk",
  "name": "Crush",
  "type": "attack",
  "data": {
    "originVersion": 0,
    "originPack": "",
    "originId": "",
    "possibleUpdate": false,
    "description": {
      "value": "<p>This special attack allows a flying or jumping dragon of at least Huge size to land on opponents as a standard action, using its whole body to crush them. Crush attacks are effective only against opponents three or more size categories smaller than the dragon (though it can attempt normal overrun or grapple attacks against larger opponents).</p>\n<p>A crush attack affects as many creatures as can fit under the dragon&rsquo;s body. Creatures in the affected area must succeed on a Reflex save (DC equal to that of the dragon&rsquo;s breath weapon) or be pinned, automatically taking bludgeoning damage during the next round unless the dragon moves off them. If the dragon chooses to maintain the pin, treat it as a normal grapple attack. Pinned opponents take damage from the crush each round if they don&rsquo;t escape.</p>\n<p>A crush attack deals the indicated damage plus 1&frac12; times the dragon&rsquo;s Strength bonus (round down).</p>",
      "chat": "",
      "unidentified": ""
    },
    "epic": false,
    "psionic": "",
    "nameFormula": "",
    "nameFromFormula": false,
    "tags": [],
    "uniqueId": "",
    "linkId": "",
    "linkSourceId": "",
    "linkImported": false,
    "linkSourceName": "",
    "source": "",
    "classSource": "",
    "userNonRemovable": false,
    "customAttributes": {},
    "customAttributesLocked": false,
    "customTag": "",
    "createdBy": "",
    "activation": {
      "cost": 1,
      "type": "standard"
    },
    "duration": {
      "value": null,
      "units": ""
    },
    "target": {
      "value": ""
    },
    "range": {
      "value": null,
      "units": "",
      "long": null
    },
    "recharge": {
      "enabled": false,
      "formula": "",
      "current": 0
    },
    "uses": {
      "value": 0,
      "max": 0,
      "per": "",
      "autoDeductCharges": true,
      "allowMultipleUses": false,
      "chargesPerUse": 1,
      "maxPerUse": null,
      "maxPerUseFormula": "",
      "maxFormula": "",
      "rechargeFormula": null,
      "isResource": false,
      "canBeLinked": false
    },
    "requiresPsionicFocus": false,
    "linkedChargeItem": {
      "id": null,
      "img": null,
      "name": null
    },
    "measureTemplate": {
      "type": "",
      "size": 0,
      "overrideColor": false,
      "customColor": "",
      "overrideTexture": false,
      "customTexture": ""
    },
    "actionType": "save",
    "attackBonus": "",
    "critConfirmBonus": "",
    "damage": {
      "parts": [
        [
          "${this.size > 3 ? '4d8' : (this.size > 2 ? '4d6' : '2d8')}",
          null,
          "damage-bludg"
        ]
      ],
      "alternativeParts": []
    },
    "summon": [],
    "attackParts": [],
    "autoscaleAttackParts": "",
    "formula": "",
    "attackCountFormula": "",
    "maxDamageDice": 0,
    "maxDamageDiceFormula": "",
    "ability": {
      "attack": null,
      "damage": "str",
      "damageMult": 1.5,
      "critRange": 20,
      "critMult": 2,
      "twoHandedOnly": false,
      "vsTouchAc": false
    },
    "save": {
      "dc": "28",
      "description": "",
      "ability": "",
      "type": "reflexhalf",
      "dcAutoType": "",
      "dcAutoAbility": ""
    },
    "baseCl": "0",
    "sr": false,
    "pr": false,
    "metamagicFeats": {
      "maximized": false,
      "empowered": false,
      "enlarged": false,
      "intensified": false,
      "enhanced": false,
      "enhancedHalf": false,
      "widened": false
    },
    "effectNotes": "",
    "attackNotes": "",
    "specialActions": [],
    "favorite": true,
    "rollTableDraw": {
      "formula": "",
      "name": "",
      "pack": "",
      "id": ""
    },
    "material": {
      "data": null
    },
    "associations": {
      "classes": []
    },
    "attackType": "natural",
    "autoScaleOption": "default",
    "weaponSubtype": "light",
    "masterwork": false,
    "threatRangeExtended": false,
    "finesseable": false,
    "enh": null,
    "incorporeal": false,
    "proficient": true,
    "primaryAttack": true,
    "showInQuickbar": true,
    "melded": false,
    "baseWeaponType": "",
    "nonLethal": false,
    "originalWeaponCreated": false,
    "originalWeaponId": null,
    "originalWeaponName": "",
    "originalWeaponImg": "",
    "originalWeaponProperties": {},
    "conditionals": [],
    "thrown": false,
    "returning": false,
    "magic": false,
    "alignment": {
      "good": false,
      "evil": false,
      "lawful": false,
      "chaotic": false
    },
    "customReferenceId": "",
    "attack": {
      "parts": []
    }
  },
  "sort": 600000,
  "flags": {},
  "img": "systems/D35E/icons/special-abilities/crush.png",
  "effects": [],
  "folder": null,
  "permission": {
    "default": 0
  },
  "_key": "!actors.items!11WdwibhddlETiiz.XcVKA63ulPbVf8nk"
}