{
  "_id": "Cn5efCGABbkItQtP",
  "name": "Dancing chains",
  "type": "feat",
  "data": {
    "originVersion": 0,
    "originPack": "",
    "originId": "",
    "possibleUpdate": false,
    "description": {
      "value": "<p><em>This ability was imported automatically does not have actions or changes.</em></p><div level=\"8\" topic=\"Dancing Chains\"><p> A chain devil's most awesome attack is its ability to control up to four chains within 20 feet as a standard action, making the chains dance or move as it wishes. In addition, a chain devil can increase these chains' length by up to 15 feet and cause them to sprout razor-edged barbs. These chains attack as effectively as the devil itself. If a chain is in another creature's possession, the creature can attempt a DC 15 Will save to break the chain devil's power over that chain. If the save is successful, the kyton cannot attempt to control that particular chain again for 24 hours or until the chain leaves the creature's possession. The save DC is Charisma-based.</p><p>A chain devil can climb chains it controls at its normal speed without making Climb checks.</p></div>",
      "chat": "",
      "unidentified": ""
    },
    "epic": "",
    "psionic": "",
    "nameFormula": "",
    "nameFromFormula": false,
    "tags": [],
    "uniqueId": "",
    "linkId": "",
    "linkSourceId": "",
    "linkImported": false,
    "linkSourceName": "",
    "source": "",
    "classSource": "",
    "userNonRemovable": false,
    "customAttributes": {},
    "customAttributesLocked": false,
    "customTag": "",
    "createdBy": "",
    "activation": {
      "cost": 1,
      "type": ""
    },
    "duration": {
      "value": null,
      "units": ""
    },
    "target": {
      "value": ""
    },
    "range": {
      "value": null,
      "units": "",
      "long": null
    },
    "recharge": {
      "enabled": false,
      "formula": "",
      "current": 0,
      "value": null,
      "charged": false,
      "_deprecated": true
    },
    "uses": {
      "value": 0,
      "max": 0,
      "per": null,
      "autoDeductCharges": true,
      "allowMultipleUses": false,
      "chargesPerUse": 1,
      "maxPerUse": null,
      "maxPerUseFormula": "",
      "maxFormula": "",
      "rechargeFormula": null,
      "isResource": false,
      "canBeLinked": false
    },
    "requiresPsionicFocus": false,
    "linkedChargeItem": {
      "id": null,
      "img": null,
      "name": null
    },
    "measureTemplate": {
      "type": "",
      "size": 0,
      "overrideColor": false,
      "customColor": "",
      "overrideTexture": false,
      "customTexture": ""
    },
    "actionType": "",
    "attackBonus": "",
    "critConfirmBonus": "",
    "damage": {
      "parts": [],
      "alternativeParts": []
    },
    "summon": [],
    "attackParts": [],
    "autoscaleAttackParts": "",
    "formula": "",
    "attackCountFormula": "",
    "maxDamageDice": 0,
    "maxDamageDiceFormula": "",
    "ability": {
      "attack": null,
      "damage": null,
      "damageMult": 1,
      "critRange": 20,
      "critMult": 2,
      "twoHandedOnly": false,
      "vsTouchAc": false
    },
    "save": {
      "dc": 0,
      "description": "",
      "ability": "",
      "type": "",
      "dcAutoType": "",
      "dcAutoAbility": ""
    },
    "baseCl": "0",
    "sr": false,
    "pr": false,
    "metamagicFeats": {
      "maximized": false,
      "empowered": false,
      "enlarged": false,
      "intensified": false,
      "enhanced": false,
      "enhancedHalf": false,
      "widened": false
    },
    "effectNotes": "",
    "attackNotes": "",
    "specialActions": [],
    "favorite": false,
    "rollTableDraw": {
      "formula": "",
      "name": "",
      "pack": "",
      "id": ""
    },
    "changes": [],
    "changeFlags": {
      "loseDexToAC": false,
      "noStr": false,
      "noDex": false,
      "noInt": false,
      "noCon": false,
      "oneInt": false,
      "oneWis": false,
      "oneCha": false,
      "noEncumbrance": false,
      "mediumArmorFullSpeed": false,
      "heavyArmorFullSpeed": false,
      "multiAttack": false,
      "multiweaponAttack": false,
      "uncannyDodge": false
    },
    "conditionFlags": {
      "dazzled": false,
      "wildshaped": false,
      "polymorphed": false
    },
    "combatChanges": [],
    "combatChangesRange": {
      "maxFormula": "",
      "max": 0
    },
    "combatChangesAdditionalRanges": {
      "hasAdditionalRanges": false,
      "slider1": {
        "maxFormula": "",
        "max": 0,
        "name": ""
      },
      "slider2": {
        "maxFormula": "",
        "max": 0,
        "name": ""
      },
      "slider3": {
        "maxFormula": "",
        "max": 0,
        "name": ""
      }
    },
    "combatChangesUsesCost": "chargesPerUse",
    "combatChangesApplySpecialActionsOnce": true,
    "combatChangeCustomDisplayName": "",
    "combatChangeCustomReferenceName": "",
    "sizeOverride": "",
    "counterName": "",
    "resistances": [],
    "damageReduction": [],
    "requirements": [],
    "creationChanges": [],
    "contextNotes": [],
    "featType": "trait",
    "abilityType": "",
    "associations": {
      "classes": []
    },
    "crOffset": "",
    "spellSpecializationName": "",
    "spellSpecializationForbiddenNames": "",
    "linkedItems": [],
    "metamagic": {
      "enabled": false,
      "shortDesc": "",
      "code": ""
    },
    "spellSpecialization": {
      "isDomain": false,
      "spells": {
        "level1": {
          "level": 1,
          "name": "",
          "img": "",
          "pack": null,
          "id": null
        },
        "level2": {
          "level": 2,
          "name": "",
          "img": "",
          "pack": null,
          "id": null
        },
        "level3": {
          "level": 3,
          "name": "",
          "img": "",
          "pack": null,
          "id": null
        },
        "level4": {
          "level": 4,
          "name": "",
          "img": "",
          "pack": null,
          "id": null
        },
        "level5": {
          "level": 5,
          "name": "",
          "img": "",
          "pack": null,
          "id": null
        },
        "level6": {
          "level": 6,
          "name": "",
          "img": "",
          "pack": null,
          "id": null
        },
        "level7": {
          "level": 7,
          "name": "",
          "img": "",
          "pack": null,
          "id": null
        },
        "level8": {
          "level": 8,
          "name": "",
          "img": "",
          "pack": null,
          "id": null
        },
        "level9": {
          "level": 9,
          "name": "",
          "img": "",
          "pack": null,
          "id": null
        }
      }
    },
    "showInQuickbar": false,
    "links": {
      "charges": []
    },
    "customReferenceId": "",
    "attack": {
      "parts": []
    }
  },
  "sort": 200000,
  "flags": {},
  "img": "systems/D35E/icons/special-abilities/imported.png",
  "effects": [],
  "folder": null,
  "permission": {
    "default": 0
  },
  "_key": "!actors.items!8CxQSBufozuOCK1o.Cn5efCGABbkItQtP"
}