{
  "_id": "S4VxcOFLuOXFoGDy",
  "name": "Demilich",
  "type": "npc",
  "img": "systems/D35E/icons/bestiary/token/lich.png",
  "items": [
    "is2FhUwriXodyg6H",
    "PMHPYaTBRjURpHaW",
    "J8ffKZu0YjrhkWhF",
    "gJur7ggoyqRhGxfX",
    "CClXlqvZWQgHod9V",
    "lFMCP9mdGr2J9d1n",
    "WrSB3JHzTzK6hkkk",
    "Esh16MZ8D1wYgPc1",
    "lDkKbkXnCDD8IvpJ",
    "VayF6CDhbLKR4FDf",
    "ZcTFCvt8drlOxAs6",
    "UtXRAJhNoYEqdDaO",
    "a3FyO02x78R2SlRs",
    "rDrjRoOXInr7vVrO",
    "4WBeJuoUVRY8gYO3",
    "u7xJWH992dDPbwKD",
    "8oaY150DCXtfcU1A",
    "dpMs6mDfnrLmXcNy",
    "QwdFpsuSG2ZC8iLl",
    "obYxb13FlxzUw6se",
    "7JYkr3jwXUNA21Af",
    "X03YYgsxNKIgoB8p",
    "IyHZH7eLBQAAgzbA",
    "docc9k0nPlLZ1Wn9",
    "sWTzFIAcJPvTop5z",
    "b7HvQoXShR3ffkhC",
    "m2NuxEibTpfI3cg2",
    "pVAb4vWt4nycq8Sl",
    "8iCucd4qfN0Gfxlz",
    "5K1xWC05d79KQele",
    "UvVF6cyqILmtY24j",
    "I7EeFoy0S0L78pmx",
    "0eYVHoeMopdtnGJl",
    "8inOjFq3QEvAta7T",
    "8wqWBw3Cf673RCqU",
    "ECCHGyPi7jh9u0O0",
    "uoOHbovcEX0AQ1Ec",
    "H068IzsGY0emFF6Q",
    "KdiXONnNZwiB6RUp",
    "P1ghr4sUQD0Dl3Zt",
    "2bGFqT43ZtYFfTaM",
    "nNbodrBm0RGH1J6L",
    "rYXYI05sojDnw1r8",
    "EE5324E1h6mtrxYO",
    "daE8kFjktFHEsQrT",
    "rhfL1aqyurYMi9yS",
    "eMNJFXrWHQRjfT6L",
    "TyZeNtPcKShoXxni",
    "1dhspdMPi4cYDpl9"
  ],
  "effects": [],
  "folder": null,
  "sort": 0,
  "flags": {
    "core": {
      "sourceId": "Compendium.D35E.bestiary.S4VxcOFLuOXFoGDy"
    },
    "D35E": {
      "loseDexToAC": false,
      "noStr": false,
      "noDex": false,
      "noInt": false,
      "noCon": true,
      "oneInt": false,
      "oneWis": false,
      "oneCha": false,
      "noEncumbrance": false,
      "mediumArmorFullSpeed": false,
      "heavyArmorFullSpeed": false,
      "multiAttack": false,
      "multiweaponAttack": false,
      "uncannyDodge": false,
      "naturalAttackCount": 0
    }
  },
  "system": {
    "shapechangeImg": "icons/svg/mystery-man.svg",
    "tokenImg": "systems/D35E/icons/bestiary/token/lich.png",
    "companionUuid": "",
    "companionPublicId": "",
    "companionUsePersonalKey": false,
    "companionAutosync": false,
    "companionLockGM": false,
    "abilities": {
      "str": {
        "total": 10,
        "mod": 0,
        "value": 10,
        "carryBonus": 0,
        "carryMultiplier": 1,
        "checkMod": 0,
        "damage": 0,
        "drain": 0,
        "penalty": 0,
        "userPenalty": 0,
        "origMod": 0,
        "origTotal": 10,
        "isZero": false
      },
      "dex": {
        "total": 16,
        "mod": 3,
        "value": 16,
        "checkMod": 0,
        "damage": 0,
        "drain": 0,
        "penalty": 0,
        "userPenalty": 0,
        "origMod": 3,
        "origTotal": 16,
        "isZero": false
      },
      "con": {
        "total": 0,
        "mod": 0,
        "value": 0,
        "checkMod": 0,
        "damage": 0,
        "drain": 0,
        "penalty": 0,
        "userPenalty": 0,
        "origMod": 0,
        "origTotal": 0,
        "isZero": true
      },
      "int": {
        "total": 39,
        "mod": 14,
        "value": 39,
        "checkMod": 0,
        "damage": 0,
        "drain": 0,
        "penalty": 0,
        "userPenalty": 0,
        "origMod": 14,
        "origTotal": 39,
        "isZero": false
      },
      "wis": {
        "total": 24,
        "mod": 7,
        "value": 24,
        "checkMod": 0,
        "damage": 0,
        "drain": 0,
        "penalty": 0,
        "userPenalty": 0,
        "origMod": 7,
        "origTotal": 24,
        "isZero": false
      },
      "cha": {
        "total": 20,
        "mod": 5,
        "value": 20,
        "checkMod": 0,
        "damage": 0,
        "drain": 0,
        "penalty": 0,
        "userPenalty": 0,
        "origMod": 5,
        "origTotal": 20,
        "isZero": false
      }
    },
    "resources": {},
    "attributes": {
      "encumbrance": {
        "level": 0,
        "levels": {
          "light": 8,
          "medium": 16,
          "heavy": 25,
          "carry": 50,
          "drag": 125
        },
        "carriedWeight": 0
      },
      "senses": {
        "darkvision": 0,
        "blindsight": 0,
        "tremorsense": 0,
        "truesight": 0,
        "lowLight": false,
        "lowLightMultiplier": 2,
        "special": ""
      },
      "hd": {
        "base": {
          "_deprecated": true,
          "value": 0
        },
        "total": 21,
        "max": {
          "_deprecated": true,
          "value": 0
        },
        "racialClass": 21
      },
      "naturalAC": 0,
      "naturalACTotal": 5,
      "fortification": {
        "value": 0,
        "total": 100
      },
      "ac": {
        "normal": {
          "value": 0,
          "total": 43
        },
        "touch": {
          "value": 0,
          "total": 38
        },
        "flatFooted": {
          "value": 0,
          "total": 40
        }
      },
      "concealment": {
        "value": 0,
        "total": 0
      },
      "bab": {
        "value": 0,
        "total": 10,
        "base": 10
      },
      "cmd": {
        "value": 0,
        "total": 11,
        "flatFootedTotal": 8
      },
      "cmb": {
        "value": 0,
        "total": -2
      },
      "sr": {
        "formula": "",
        "total": 0
      },
      "pr": {
        "formula": "",
        "total": 0
      },
      "hardness": {
        "formula": "",
        "total": 0
      },
      "cmbNotes": "",
      "saveNotes": "",
      "acNotes": "",
      "cmdNotes": "",
      "srNotes": "",
      "attack": {
        "general": 0,
        "melee": 0,
        "ranged": 0,
        "sunder": 0,
        "bullrush": 0
      },
      "damage": {
        "general": 0,
        "weapon": 0,
        "spell": 0
      },
      "maxDexBonus": 999,
      "maxDex": {
        "gear": null,
        "encumbrance": null,
        "total": 999
      },
      "acp": {
        "gear": 0,
        "encumbrance": 0,
        "total": 0
      },
      "energyDrain": 0,
      "quadruped": false,
      "savingThrows": {
        "fort": {
          "total": 12,
          "base": 7
        },
        "ref": {
          "total": 12,
          "base": 7
        },
        "will": {
          "total": 19,
          "base": 12
        }
      },
      "hp": {
        "value": 139,
        "min": -100,
        "base": 0,
        "max": 139,
        "temp": 0,
        "nonlethal": 0
      },
      "turnUndeadHdTotal": 0,
      "turnUndeadUsesBonusFormula": "",
      "turnUndeadUses": 0,
      "prestigeCl": {
        "psionic": {
          "max": 0,
          "value": 0,
          "total": 0
        },
        "arcane": {
          "max": 0,
          "value": 0,
          "total": 0
        },
        "divine": {
          "max": 0,
          "value": 0,
          "total": 0
        },
        "cards": {
          "max": 0,
          "value": 0
        }
      },
      "turnUndeadUsesTotal": 0,
      "sneakAttackDiceTotal": 0,
      "minionClassLevels": {},
      "minionDistance": {},
      "spellPointsTotal": [],
      "powerPointsTotal": 0,
      "arcaneSpellFailure": 0,
      "psionicFocus": false,
      "wounds": {
        "min": 0,
        "value": 0,
        "max": 0
      },
      "vigor": {
        "min": 0,
        "value": 136,
        "temp": 0,
        "max": 136
      },
      "init": {
        "value": 0,
        "bonus": 0,
        "total": 7
      },
      "prof": 2,
      "speed": {
        "land": {
          "base": 180,
          "total": 180,
          "run": 720
        },
        "climb": {
          "base": 0,
          "total": 0,
          "run": 0
        },
        "swim": {
          "base": 0,
          "total": 0,
          "run": 0
        },
        "burrow": {
          "base": 0,
          "total": 0,
          "run": 0
        },
        "fly": {
          "base": 0,
          "total": 0,
          "run": 0,
          "maneuverability": "average"
        }
      },
      "conditions": {
        "blind": false,
        "dazzled": false,
        "deaf": false,
        "entangled": false,
        "fatigued": false,
        "exhausted": false,
        "grappled": false,
        "helpless": false,
        "paralyzed": false,
        "pinned": false,
        "fear": false,
        "sickened": false,
        "stunned": false,
        "shaken": false,
        "polymorphed": false,
        "wildshaped": false,
        "prone": false,
        "dead": false,
        "dying": false,
        "disabled": false,
        "stable": false,
        "unconscious": false,
        "staggered": false,
        "invisible": false,
        "banished": false,
        "invisibility": false
      },
      "spells": {
        "concentration": {
          "bonus": 0,
          "context": ""
        },
        "spellbooks": {
          "primary": {
            "name": "Primary",
            "class": "",
            "cl": {
              "base": 0,
              "value": 0,
              "total": 0,
              "formula": ""
            },
            "concentration": 0,
            "bonusPrestigeCl": 0,
            "concentrationFormula": "",
            "concentrationNotes": "",
            "clNotes": "",
            "ability": "int",
            "spellslotAbility": "",
            "autoSpellLevels": true,
            "usePowerPoints": false,
            "autoSetup": true,
            "spellcastingType": null,
            "powerPointsFormula": "",
            "dailyPowerPointsFormula": "",
            "powerPoints": 0,
            "powerPointsTotal": 0,
            "maximumPowerPointLimit": "@cl",
            "arcaneSpellFailure": true,
            "baseDCFormula": "10 + @sl + @ablMod",
            "spontaneous": false,
            "hasSpecialSlot": false,
            "showOnlyPrepared": false,
            "specialSlots": {
              "level1": null,
              "level2": null,
              "level3": null,
              "level4": null,
              "level5": null,
              "level6": null,
              "level7": null,
              "level8": null,
              "level9": null
            },
            "maxPrestigeCl": 0,
            "allSpellsKnown": false,
            "hasPrestigeCl": false,
            "canAddPrestigeCl": false,
            "canRemovePrestigeCl": false,
            "powersKnown": 0,
            "powersMaxLevel": 0,
            "spells": {
              "spell0": {
                "value": 0,
                "max": 0,
                "base": 0,
                "known": 0,
                "maxKnown": 0,
                "bonus": 0,
                "classBase": 0
              },
              "spell1": {
                "value": 0,
                "max": 0,
                "base": 0,
                "known": 0,
                "maxKnown": 0,
                "bonus": 0,
                "classBase": 0
              },
              "spell2": {
                "value": 0,
                "max": 0,
                "base": 0,
                "known": 0,
                "maxKnown": 0,
                "bonus": 0,
                "classBase": 0
              },
              "spell3": {
                "value": 0,
                "max": 0,
                "base": 0,
                "known": 0,
                "maxKnown": 0,
                "bonus": 0,
                "classBase": 0
              },
              "spell4": {
                "value": 0,
                "max": 0,
                "base": 0,
                "known": 0,
                "maxKnown": 0,
                "bonus": 0,
                "classBase": 0
              },
              "spell5": {
                "value": 0,
                "max": 0,
                "base": 0,
                "known": 0,
                "maxKnown": 0,
                "bonus": 0,
                "classBase": 0
              },
              "spell6": {
                "value": 0,
                "max": 0,
                "base": 0,
                "known": 0,
                "maxKnown": 0,
                "bonus": 0,
                "classBase": 0
              },
              "spell7": {
                "value": 0,
                "max": 0,
                "base": 0,
                "known": 0,
                "maxKnown": 0,
                "bonus": 0,
                "classBase": 0
              },
              "spell8": {
                "value": 0,
                "max": 0,
                "base": 0,
                "known": 0,
                "maxKnown": 0,
                "bonus": 0,
                "classBase": 0
              },
              "spell9": {
                "value": 0,
                "max": 0,
                "base": 0,
                "known": 0,
                "maxKnown": 0,
                "bonus": 0,
                "classBase": 0
              }
            },
            "powerPointsValue": {
              "max": 0,
              "value": 0
            },
            "spellcastingAbilityBonus": 0
          },
          "secondary": {
            "name": "Secondary",
            "class": "",
            "cl": {
              "base": 0,
              "value": 0,
              "total": 0,
              "formula": ""
            },
            "concentration": 0,
            "bonusPrestigeCl": 0,
            "concentrationFormula": "",
            "concentrationNotes": "",
            "clNotes": "",
            "ability": "int",
            "spellslotAbility": "",
            "autoSpellLevels": true,
            "usePowerPoints": false,
            "autoSetup": true,
            "spellcastingType": null,
            "powerPointsFormula": "",
            "powerPoints": 0,
            "powerPointsTotal": 0,
            "maximumPowerPointLimit": "@cl",
            "dailyPowerPointsFormula": "",
            "arcaneSpellFailure": true,
            "baseDCFormula": "10 + @sl + @ablMod",
            "spontaneous": false,
            "hasSpecialSlot": false,
            "showOnlyPrepared": false,
            "specialSlots": {
              "level1": null,
              "level2": null,
              "level3": null,
              "level4": null,
              "level5": null,
              "level6": null,
              "level7": null,
              "level8": null,
              "level9": null
            },
            "maxPrestigeCl": 0,
            "allSpellsKnown": false,
            "hasPrestigeCl": false,
            "canAddPrestigeCl": false,
            "canRemovePrestigeCl": false,
            "powersKnown": 0,
            "powersMaxLevel": 0,
            "spells": {
              "spell0": {
                "value": 0,
                "max": 0,
                "base": 0,
                "known": 0,
                "maxKnown": 0,
                "bonus": 0,
                "classBase": 0
              },
              "spell1": {
                "value": 0,
                "max": 0,
                "base": 0,
                "known": 0,
                "maxKnown": 0,
                "bonus": 0,
                "classBase": 0
              },
              "spell2": {
                "value": 0,
                "max": 0,
                "base": 0,
                "known": 0,
                "maxKnown": 0,
                "bonus": 0,
                "classBase": 0
              },
              "spell3": {
                "value": 0,
                "max": 0,
                "base": 0,
                "known": 0,
                "maxKnown": 0,
                "bonus": 0,
                "classBase": 0
              },
              "spell4": {
                "value": 0,
                "max": 0,
                "base": 0,
                "known": 0,
                "maxKnown": 0,
                "bonus": 0,
                "classBase": 0
              },
              "spell5": {
                "value": 0,
                "max": 0,
                "base": 0,
                "known": 0,
                "maxKnown": 0,
                "bonus": 0,
                "classBase": 0
              },
              "spell6": {
                "value": 0,
                "max": 0,
                "base": 0,
                "known": 0,
                "maxKnown": 0,
                "bonus": 0,
                "classBase": 0
              },
              "spell7": {
                "value": 0,
                "max": 0,
                "base": 0,
                "known": 0,
                "maxKnown": 0,
                "bonus": 0,
                "classBase": 0
              },
              "spell8": {
                "value": 0,
                "max": 0,
                "base": 0,
                "known": 0,
                "maxKnown": 0,
                "bonus": 0,
                "classBase": 0
              },
              "spell9": {
                "value": 0,
                "max": 0,
                "base": 0,
                "known": 0,
                "maxKnown": 0,
                "bonus": 0,
                "classBase": 0
              }
            },
            "powerPointsValue": {
              "max": 0,
              "value": 0
            },
            "spellcastingAbilityBonus": 0
          },
          "tertiary": {
            "name": "Tertiary",
            "class": "",
            "cl": {
              "base": 0,
              "value": 0,
              "total": 0,
              "formula": ""
            },
            "concentration": 0,
            "bonusPrestigeCl": 0,
            "concentrationFormula": "",
            "concentrationNotes": "",
            "clNotes": "",
            "ability": "int",
            "spellslotAbility": "",
            "autoSpellLevels": true,
            "usePowerPoints": false,
            "autoSetup": true,
            "spellcastingType": null,
            "powerPointsFormula": "",
            "powerPoints": 0,
            "powerPointsTotal": 0,
            "maximumPowerPointLimit": "@cl",
            "dailyPowerPointsFormula": "",
            "arcaneSpellFailure": true,
            "baseDCFormula": "10 + @sl + @ablMod",
            "spontaneous": false,
            "hasSpecialSlot": false,
            "showOnlyPrepared": false,
            "specialSlots": {
              "level1": null,
              "level2": null,
              "level3": null,
              "level4": null,
              "level5": null,
              "level6": null,
              "level7": null,
              "level8": null,
              "level9": null
            },
            "maxPrestigeCl": 0,
            "allSpellsKnown": false,
            "hasPrestigeCl": false,
            "canAddPrestigeCl": false,
            "canRemovePrestigeCl": false,
            "powersKnown": 0,
            "powersMaxLevel": 0,
            "spells": {
              "spell0": {
                "value": 0,
                "max": 0,
                "base": 0,
                "known": 0,
                "maxKnown": 0,
                "bonus": 0,
                "classBase": 0
              },
              "spell1": {
                "value": 0,
                "max": 0,
                "base": 0,
                "known": 0,
                "maxKnown": 0,
                "bonus": 0,
                "classBase": 0
              },
              "spell2": {
                "value": 0,
                "max": 0,
                "base": 0,
                "known": 0,
                "maxKnown": 0,
                "bonus": 0,
                "classBase": 0
              },
              "spell3": {
                "value": 0,
                "max": 0,
                "base": 0,
                "known": 0,
                "maxKnown": 0,
                "bonus": 0,
                "classBase": 0
              },
              "spell4": {
                "value": 0,
                "max": 0,
                "base": 0,
                "known": 0,
                "maxKnown": 0,
                "bonus": 0,
                "classBase": 0
              },
              "spell5": {
                "value": 0,
                "max": 0,
                "base": 0,
                "known": 0,
                "maxKnown": 0,
                "bonus": 0,
                "classBase": 0
              },
              "spell6": {
                "value": 0,
                "max": 0,
                "base": 0,
                "known": 0,
                "maxKnown": 0,
                "bonus": 0,
                "classBase": 0
              },
              "spell7": {
                "value": 0,
                "max": 0,
                "base": 0,
                "known": 0,
                "maxKnown": 0,
                "bonus": 0,
                "classBase": 0
              },
              "spell8": {
                "value": 0,
                "max": 0,
                "base": 0,
                "known": 0,
                "maxKnown": 0,
                "bonus": 0,
                "classBase": 0
              },
              "spell9": {
                "value": 0,
                "max": 0,
                "base": 0,
                "known": 0,
                "maxKnown": 0,
                "bonus": 0,
                "classBase": 0
              }
            },
            "powerPointsValue": {
              "max": 0,
              "value": 0
            },
            "spellcastingAbilityBonus": 0
          },
          "spelllike": {
            "name": "Spell-likes",
            "class": "_hd",
            "cl": {
              "base": 0,
              "value": 0,
              "total": 21,
              "formula": ""
            },
            "concentration": 0,
            "bonusPrestigeCl": 0,
            "concentrationFormula": "",
            "concentrationNotes": "",
            "clNotes": "",
            "ability": "cha",
            "spellslotAbility": "",
            "autoSpellLevels": true,
            "usePowerPoints": false,
            "autoSetup": false,
            "spellcastingType": "None",
            "powerPointsFormula": "",
            "powerPoints": 0,
            "powerPointsTotal": 0,
            "maximumPowerPointLimit": "@cl",
            "dailyPowerPointsFormula": "",
            "arcaneSpellFailure": true,
            "baseDCFormula": "10 + @sl + @ablMod",
            "spontaneous": false,
            "hasSpecialSlot": false,
            "showOnlyPrepared": false,
            "specialSlots": {
              "level1": null,
              "level2": null,
              "level3": null,
              "level4": null,
              "level5": null,
              "level6": null,
              "level7": null,
              "level8": null,
              "level9": null
            },
            "maxPrestigeCl": 0,
            "allSpellsKnown": false,
            "hasPrestigeCl": false,
            "canAddPrestigeCl": false,
            "canRemovePrestigeCl": false,
            "powersKnown": 0,
            "powersMaxLevel": 0,
            "spells": {
              "spell0": {
                "value": 0,
                "max": 0,
                "base": 0,
                "known": 0,
                "maxKnown": 0,
                "bonus": 0,
                "classBase": 0
              },
              "spell1": {
                "value": 0,
                "max": 0,
                "base": 0,
                "known": 0,
                "maxKnown": 0,
                "bonus": 0,
                "classBase": 0
              },
              "spell2": {
                "value": 0,
                "max": 0,
                "base": 0,
                "known": 0,
                "maxKnown": 0,
                "bonus": 0,
                "classBase": 0
              },
              "spell3": {
                "value": 0,
                "max": 0,
                "base": 0,
                "known": 0,
                "maxKnown": 0,
                "bonus": 0,
                "classBase": 0
              },
              "spell4": {
                "value": 0,
                "max": 0,
                "base": 0,
                "known": 0,
                "maxKnown": 0,
                "bonus": 0,
                "classBase": 0
              },
              "spell5": {
                "value": 0,
                "max": 0,
                "base": 0,
                "known": 0,
                "maxKnown": 0,
                "bonus": 0,
                "classBase": 0
              },
              "spell6": {
                "value": 0,
                "max": 0,
                "base": 0,
                "known": 0,
                "maxKnown": 0,
                "bonus": 0,
                "classBase": 0
              },
              "spell7": {
                "value": 0,
                "max": 0,
                "base": 0,
                "known": 0,
                "maxKnown": 0,
                "bonus": 0,
                "classBase": 0
              },
              "spell8": {
                "value": 0,
                "max": 0,
                "base": 0,
                "known": 0,
                "maxKnown": 0,
                "bonus": 0,
                "classBase": 0
              },
              "spell9": {
                "value": 0,
                "max": 0,
                "base": 0,
                "known": 0,
                "maxKnown": 0,
                "bonus": 0,
                "classBase": 0
              }
            },
            "powerPointsValue": {
              "max": 0,
              "value": 0
            },
            "spellcastingAbilityBonus": 0
          }
        }
      },
      "cards": {
        "concentration": {
          "bonus": 0,
          "context": ""
        },
        "decks": {
          "primary": {
            "name": "Primary",
            "class": "",
            "cl": {
              "base": null,
              "value": 0,
              "total": 0,
              "formula": ""
            },
            "autoHandSize": false,
            "handSize": {
              "base": 0,
              "value": 0,
              "total": 0,
              "formula": ""
            },
            "drawRandom": false,
            "deckSize": {
              "base": 0,
              "value": 0,
              "total": 0,
              "formula": ""
            },
            "clNotes": "",
            "ability": "int",
            "spellslotAbility": "",
            "addHalfOtherLevels": false,
            "autoSetup": true,
            "baseDCFormula": "10 + @sl + @ablMod",
            "maxPrestigeCl": 0,
            "hasPrestigeCl": false,
            "canAddPrestigeCl": false,
            "canRemovePrestigeCl": false
          },
          "secondary": {
            "name": "Secondary",
            "class": "",
            "cl": {
              "base": null,
              "value": 0,
              "total": 0,
              "formula": ""
            },
            "autoHandSize": false,
            "handSize": {
              "base": 0,
              "value": 0,
              "total": 0,
              "formula": ""
            },
            "drawRandom": false,
            "deckSize": {
              "base": 0,
              "value": 0,
              "total": 0,
              "formula": ""
            },
            "clNotes": "",
            "ability": "int",
            "spellslotAbility": "",
            "addHalfOtherLevels": false,
            "autoSetup": true,
            "baseDCFormula": "10 + @sl + @ablMod",
            "maxPrestigeCl": 0,
            "hasPrestigeCl": false,
            "canAddPrestigeCl": false,
            "canRemovePrestigeCl": false
          }
        }
      },
      "spellcasting": {
        "_deprecated": true
      },
      "spelldc": {
        "_deprecated": true
      },
      "damageReduction": {
        "any": 0,
        "types": []
      },
      "energyResistance": [],
      "spellLevel": 0,
      "creatureType": "undead",
      "mods": {
        "skills": {}
      },
      "runSpeedMultiplierModifier": 0,
      "speedMultiplier": 0
    },
    "details": {
      "level": {
        "value": 21,
        "min": 0,
        "max": 40,
        "available": 1
      },
      "breakDC": {
        "base": 0,
        "total": 0
      },
      "levelUpData": [
        {
          "level": 1,
          "id": "_level1",
          "classId": null,
          "class": null,
          "classImage": null,
          "skills": {},
          "hp": 0,
          "hasFeat": true,
          "hasAbility": false
        }
      ],
      "alignment": "Neutral evil",
      "biography": {
        "value": "",
        "public": ""
      },
      "notes": {
        "value": "<div topic='Demilich' level='2'><p>Demiliches speak the languages they knew as liches and as living creatures.</p><p>A demilich's natural weapons are treated as epic for the purpose of overcoming damage reduction.</p><div topic='Combat' level='5'><p><h2>Combat</h2></p><div topic='Trap the Soul' level='8'><p><b>Trap the Soul (Su):</b> A demilich can trap the souls of up to eight living creatures per day. To use this power, it selects any target it can see within 300 feet. The target is allowed a Fortitude saving throw (DC 36). If the target makes its saving throw, it gains four negative levels (this does not count as a use of trap the soul). If the target fails its save, the soul of the target is instantly drawn from its body and trapped within one of the gems incorporated into the demilich's form. The gem gleams for 24 hours, indicating the captive soul within. The soulless body collapses in a mass of corruption and molders in a single round, reduced to dust. If left to its own devices, the demilich slowly devours the soul over 24 hours-at the end of that time the soul is completely absorbed, and the victim is forever gone. If the demilich is overcome before the soul is eaten, crushing the gem releases the soul, after which time it is free to seek the afterlife or be returned to its body by the use of either <i>resurrection</i>, <i>true resurrection</i>,  <i>clone</i>,  or <i>miracle</i>. A potential victim protected by a <i>death ward</i> spell is not immune to trap the soul, but receives a +5 bonus on its Fortitude saving throw and is effective against the level loss on a successful save. The DC is Charisma-based</p></div><div topic='Fear Aura' level='8'><p><b>Fear Aura (Su):</b> Demiliches are shrouded in a dreadful aura of death and evil. Creatures of less than 5 HD in a 60-foot radius that look at the demilich must succeed at a Will save (DC 19) or be affected as though by <i>fear</i> as cast by a 21st-level caster. The DC is Charisma-based.</p></div><div topic='Paralyzing Touch' level='8'><p><b>Paralyzing Touch (Su):</b> Any living creature a demilich touches must succeed at a Fortitude save (DC 36) or be permanently paralyzed. <i>Remove paralysis</i> or any spell that can remove a curse can free the victim. The effect cannot be dispelled. Anyone paralyzed by a demilich seems dead, though a successful Spot check (DC 20) or Heal check (DC 15) reveals that the victim is still alive.</p></div><div topic='Spells' level='8'><p><b>Spells:</b> The demilich can cast any spells it could cast as a lich. This sample demilich was a 21st-level wizard (spells per day: 4/12/8/7/7/7/7/6/6/6/3). The last three spell slots are 10th-level slots and available for 0-9th level metamagic spells.</p></div><div topic='Perfect Automatic Still Spell' level='8'><p><b>Perfect Automatic Still Spell (Ex):</b> A demilich can cast all the spells it knows without gestures.</p></div><div topic='Spell-Like Abilities' level='8'><p><b>Spell-Like Abilities:</b> At will-<i>alter self</i>,  <i>astral projection</i>,  <i>create greater undead</i>,  <i>create undead</i>,  <i>death knell</i>,  <i>enervation</i>,  <i>greater dispel magic</i>,  <i>harm</i> (usually used to heal itself ), <i>summon monster I-IX</i>,  <i>telekinesis</i>,  <i>weird</i>; 2/day-<i>greater planar ally</i>. Demiliches use these abilities as casters of a level equal to their spellcaster level, but the save DCs are all 36. The DC is Charisma-based.</p></div><div topic='Magic Immunity' level='8'><p><b>Magic Immunity (Ex):</b> Demiliches are immune to all magical and supernatural effects, except as follows. A <i>shatter</i> spell affects a demilich as if it were a crystalline creature, but deals half the damage normally indicated. A <i>dispel evil</i> spell deals 3d6 points of damage (Fort save for half damage). <i>Holy smite</i> spells affect demiliches normally.</p></div><div topic='Phylactery Transference' level='8'><p><b>Phylactery Transference (Su):</b> Headbands, belts, rings, cloaks, and other wearable items kept in close association with the demilich's phylactery transfer all their benefits to the demilich no matter how far apart the demilich and the phylactery are located. The standard limits on types of items utilized simultaneously still apply. The sample demilich 'wears' <i>bracers of armor +8</i>,  <i>headband of intellect +6</i>,  <i>pink Ioun stone</i>,  <i>ring of wizardry</i> I, <i>ring of protection +2</i>,  and <i>gloves of Dexterity +2</i>. </p></div><div topic='Undead Traits' level='8'><p><b>Undead Traits:</b> Immune to poison, <i>sleep</i>,  paralysis, stunning, disease, death, effects, necromantic effects, mind-affecting effects, and any effect requiring a Fortitude save unless it also works on objects. Not subject to critical hits, subdual damage, ability damage, ability drain, or energy drain. Negative energy heals. Not at risk of death from massive dam-age, but destroyed at 0 hit points or less. Darkvision 60 ft. Cannot be raised; resurrection works only if creature is willing.</p></div><div topic='Immunities' level='8'><p><b>Immunities (Ex):</b> Demiliches are immune to cold, electricity, polymorph, and mind-affecting attacks.</p><p/></div></div><div topic='Creating A Demilich' level='3'><p><h4>Creating A Demilich</h4></p><p>'Demilich' is a tem-plate that can be added to any lich. It uses all the lich's statistics and special abilities except as noted here. A demilich's form is concentrated into a single portion of its original body, usually its skull. Part of the process of becoming a demilich includes the incorporation of costly gems into the retained body part; see Creating Soul Gems, below.</p><p>Size: Medium-size and Large liches become Diminutive demiliches, Huge liches become Small demiliches, Gargantuan liches become Medium-size demiliches, and Colossal liches become Large demiliches.</p><div topic='Hit Dice' level='8'><p><b>Hit Dice:</b> As lich.</p></div><div topic='Speed' level='8'><p><b>Speed:</b> Replace with fly 180 ft. (perfect) or the lich's supernatural (not natural) fly speed, whichever is better.</p><p><b>AC:</b> The demilich retains the lich's +5 natural armor bonus and gains an insight bonus equal to AC equal to its Hit Dice, as well as a probable size adjustment to AC.</p></div><div topic='Attack' level='8'><p><b>Attack:</b> The demilich gains an insight bonus equal to its Hit Dice as a bonus on its touch attacks.</p></div><div topic='Damage' level='8'><p><b>Damage:</b> The demilich gains an enhanced touch attack over that of its previous lich form (it now uses its entire flying skull to make the touch attack), including paralyzing touch. The demilich's touch attack uses negative energy to deal 10d6+20 points of damage to living creatures (no saving throw). Liches with other natural attacks lose them.</p></div><div topic='Special Attacks' level='8'><p><b>Special Attacks:</b> The demilich retains all the lich's special attacks and also gains those described below.</p></div><div topic='Trap the Soul' level='8'><p><b><i>Trap the Soul (Su):</i></b> A demilich can trap the souls of up to eight living creatures per day. To use this power, it selects any target it can see within 300 feet. The target is allowed a Fort saving throw (DC 10 + demilich's HD + demilich's Cha modifier). If the target makes its saving throw, it gains four negative levels (this does not count as a use of trap the soul). If the target fails its save, the soul of the target is instantly drawn from its body and trapped within one of the gems incorporated into the demilich's form. The gem gleams wickedly for 24 hours, indicating the captive soul within. The soulless body collapses in a mass of corruption and molders in a single round, reduced to dust. If left to its own devices, the demilich slowly devours the soul over 24 hours-at the end of that time the soul is completely absorbed, and the victim is forever gone. If the demilich is overcome before the soul is eaten, crushing the gem releases the soul, after which time it is free to seek the afterlife or be returned to its body by the use of either <i>resurrection</i>, <i>true resurrection</i>,  <i>clone</i>,  or <i>miracle</i>. If the demilich is overcome before the soul is eaten, crushing the gem releases the soul, after which time it is free to seek the afterlife or be returned to its body by the use of either <i>resurrection</i>, <i>true resurrection</i>,  <i>clone</i>,  or <i>miracle</i>. A potential victim protected by a <i>death ward</i> spell is not immune to trap the soul, but receives a +5 bonus on its Fortitude saving throw and is effective against the level loss on a successful save.</p><p><b><i>Fear Aura (Su):</i> </b>Demiliches are shrouded in a dreadful aura of death and evil. Creatures of less than 5 HD in a 60- foot radius that look at the demilich must succeed at a Will save (DC 14 + demilich's Cha modifier) or be affected as though by <i>fear</i> as cast by a 21st-level caster.</p><p><b><i>Paralyzing Touch (Su):</i> </b>Any living creature a demilich touches must succeed at a Fortitude save (DC 10 + demilich's HD + demilich's Cha modifier) or be permanently paralyzed. <i>Remove paralysis</i> or any spell that can remove a curse can free the victim. The effect cannot be dispelled. Anyone paralyzed by a demilich seems dead, though a successful Spot check (DC 20) or Heal check (DC 15) reveals that the victim is still alive.</p><p>Spells: The demilich can cast any spells it could cast as a lich.</p><p><i>Perfect Automatic Still Spell:</i> The demilich can cast all the spells it knows without gestures.</p></div><div topic='Spell-Like Abilities' level='8'><p><b>Spell-Like Abilities:</b> At will-<i>alter self</i>,  <i>astral projection</i>,  <i>create greater undead</i>,  <i>create undead</i>,  <i>death knell</i>,  <i>enervation</i>,  <i>greater dispel magic</i>,  <i>harm</i> (usually used to heal itself ), <i>summon monster I-IX</i>,  <i>telekinesis</i>,  and <i>weird</i>; 2/day- <i>greater planar ally</i>. Demiliches use these abilities as casters of a level equal to their spellcaster level, but the save DCs are equal to 10 + the demilich's HD + the demilich's Charisma modifier.</p></div><div topic='Special Qualities' level='8'><p><b>Special Qualities:</b> The demilich retains all the lich's special qualities and also has those described below.</p></div><div topic='Magic Immunity' level='8'><p><b><i>Magic Immunity (Ex):</i></b> Demiliches are immune to all magical and supernatural effects, except as follows. A <i>shatter</i> spell affects a demilich as if it were a crystalline creature, but deals half the damage normally indicated. A <i>dispel evil</i> spell deals 3d6 points of damage (Fort save for half damage). <i>Holy smite</i> spells affect demiliches normally.</p></div><div topic='Phylactery Transference' level='8'><p><b><i>Phylactery Transference (Su):</i></b> Headbands, belts, rings, cloaks, and other wearable items kept in close association with the demilich's phylactery transfer all their benefits to the demilich no matter how far apart the demilich and the phylactery are located. The standard limits on types of items utilized simultaneously still apply.</p></div><div topic='Undead Traits' level='8'><p><b><i>Undead Traits:</i></b> Immune to poison, <i>sleep</i>,  paralysis, stunning, disease, death, effects, necromantic effects, mind-affecting effects, and any effect requiring a Fortitude save unless it also works on objects. Not subject to critical hits, subdual damage, ability damage, ability drain, or energy drain. Negative energy heals. Not at risk of death from massive damage, but destroyed at 0 hit points or less. Darkvision 60 ft. Cannot be raised; resurrection works only if creature is willing.</p></div><div topic='Immunities' level='8'><p><b><i>Immunities (Ex):</i></b> Demiliches are immune to cold, electricity, polymorph, and mind-affecting attacks.</p><p><b><i>Turn Resistance (Ex):</i> </b>A demilich has turn resistance +20.</p></div><div topic='Damage Reduction' level='8'><p><b><i>Damage Reduction (Su):</i></b> A demilich loses any previous damage reduction and instead has damage reduction 15/Epic and bludgeoning (15  points of damage is subtracted from all melee attacks unless the weapon used is both an epic and a bludgeoning weapon). Vorpal weapons, no matter their enhancement bonus, ignore this damage reduction but do only half damage to a demilich (demiliches cannot be beheaded).</p></div><div topic='Resistances' level='8'><p><b><i>Resistances (Ex):</i></b> Demiliches have acid resistance 20, fire resistance 20, and sonic resistance 20.</p></div><div topic='Saves' level='8'><p><b>Saves:</b> Same as the lich.</p></div><div topic='Abilities' level='8'><p><b>Abilities:</b> A demilich gains +10 to Intelligence, Wisdom, and Charisma.</p></div><div topic='Skills' level='8'><p><b>Skills:</b> Demiliches receive a +20 racial bonus on Hide, Listen, Move Silently, Search, Sense Motive, and Spot checks. Otherwise same as the lich (this overlaps with the previous racial bonus gained by the lich; it does not stack).</p></div><div topic='Feats' level='8'><p><b>Feats:</b> Same as the lich.</p></div><div topic='Epic Feats' level='8'><p><b>Epic Feats:</b> Demiliches gain the feats Blinding Speed, Tenacious Magic, and Automatic Quicken Spell.</p></div><div topic='Environment' level='8'><p><b>Environment:</b> Same as the lich.</p></div><div topic='Organization' level='8'><p><b>Organization:</b> Solitary or consistory (1 demilich and 3-6 liches).</p></div><div topic='Challenge Rating' level='8'><p><b>Challenge Rating:</b> Same as the lich + 6.</p></div><div topic='Treasure' level='8'><p><b>Treasure:</b> Same as the lich.</p></div><div topic='Alignment' level='8'><p><b>Alignment:</b> Any evil.</p></div><div topic='Advancement' level='8'><p><b>Advancement:</b> By character class.</p><p/></div></div><div topic='Demilich Characters' level='3'><p><h4>Demilich Characters</h4></p><p>The process of becoming a demilich can be undertaken only by a lich acting of its own free will. The demilich retains all class abilities it had as a lich.</p><p/></div><div topic='Creating Soul Gems' level='3'><p><h4>Creating Soul Gems</h4></p><p>Liches have phylacteries that allow them to reappear 1d10 days after their apparent death, as do demiliches. Demiliches also have eight soul gems, each of which acts like a phylactery in its own right. If all the soul gems, as well as the demilich's phylactery, are not destroyed after a demilich is downed, the demilich reappears 1d10 days after its apparent death. The soul gems also allow the demilich to use its most devastating ability, trap the soul (see above). Each demilich must make its own soul gems, which requires the Craft Wondrous Item feat. The lich must be a sorcerer, wizard, or cleric of at least 21st level. Each soul gem costs 120,000 gp and 4,800 XP to create and has a caster level equal to that of its creator at the time of creation. Soul gems appear as egg-shaped gems of wondrous quality. They are always incorporated directly into the concentrated form of the demilich.</p><p/></div></div>    ",
        "public": ""
      },
      "bonusSkillRankFormula": "",
      "type": "None",
      "environment": "",
      "cr": 29,
      "totalCr": 29,
      "xp": {
        "value": 10
      },
      "levelUpProgression": false,
      "advancement": {
        "hd": [],
        "byClass": true,
        "none": false,
        "originalHD": 0
      }
    },
    "skills": {
      "apr": {
        "value": 0,
        "ability": "int",
        "rt": false,
        "acp": false,
        "rank": 0,
        "notes": "",
        "mod": 14,
        "background": false,
        "visibility": "default",
        "cs": false,
        "points": 0,
        "acpPenalty": 0,
        "energyDrainPenalty": 0,
        "abilityModifier": 14
      },
      "blc": {
        "value": 0,
        "ability": "dex",
        "rt": false,
        "acp": true,
        "rank": 0,
        "notes": "",
        "mod": 3,
        "background": false,
        "visibility": "default",
        "cs": false,
        "points": 0,
        "acpPenalty": 0,
        "energyDrainPenalty": 0,
        "abilityModifier": 3
      },
      "blf": {
        "value": 0,
        "ability": "cha",
        "rt": false,
        "acp": false,
        "rank": 0,
        "notes": "",
        "mod": 5,
        "background": false,
        "visibility": "default",
        "cs": false,
        "points": 0,
        "acpPenalty": 0,
        "energyDrainPenalty": 0,
        "abilityModifier": 5
      },
      "clm": {
        "value": 0,
        "ability": "str",
        "rt": false,
        "acp": true,
        "rank": 0,
        "notes": "",
        "mod": 0,
        "background": false,
        "visibility": "default",
        "cs": true,
        "points": 0,
        "acpPenalty": 0,
        "energyDrainPenalty": 0,
        "abilityModifier": 0
      },
      "coc": {
        "value": 0,
        "ability": "cha",
        "rt": false,
        "acp": false,
        "rank": 30,
        "notes": "",
        "mod": 35,
        "background": false,
        "visibility": "default",
        "cs": true,
        "points": 30,
        "acpPenalty": 0,
        "energyDrainPenalty": 0,
        "abilityModifier": 5
      },
      "crf": {
        "value": 0,
        "ability": "int",
        "rt": false,
        "acp": false,
        "rank": 0,
        "notes": "",
        "mod": 14,
        "background": false,
        "visibility": "default",
        "cs": false,
        "subSkills": {},
        "namedSubSkills": {},
        "points": 0,
        "acpPenalty": 0,
        "energyDrainPenalty": 0,
        "abilityModifier": 14
      },
      "dsc": {
        "value": 0,
        "ability": "int",
        "rt": true,
        "acp": false,
        "rank": 0,
        "notes": "",
        "mod": 14,
        "background": false,
        "visibility": "default",
        "cs": false,
        "points": 0,
        "acpPenalty": 0,
        "energyDrainPenalty": 0,
        "abilityModifier": 14
      },
      "dip": {
        "value": 0,
        "ability": "cha",
        "rt": false,
        "acp": false,
        "rank": 0,
        "notes": "",
        "mod": 7,
        "background": false,
        "visibility": "default",
        "cs": false,
        "changeBonus": 2,
        "points": 0,
        "acpPenalty": 0,
        "energyDrainPenalty": 0,
        "abilityModifier": 5
      },
      "dev": {
        "value": 0,
        "ability": "dex",
        "rt": true,
        "acp": true,
        "rank": 0,
        "notes": "",
        "mod": 3,
        "background": false,
        "visibility": "default",
        "cs": false,
        "points": 0,
        "acpPenalty": 0,
        "energyDrainPenalty": 0,
        "abilityModifier": 3
      },
      "dis": {
        "value": 0,
        "ability": "cha",
        "rt": false,
        "acp": false,
        "rank": 0,
        "notes": "",
        "mod": 5,
        "background": false,
        "visibility": "default",
        "cs": true,
        "points": 0,
        "acpPenalty": 0,
        "energyDrainPenalty": 0,
        "abilityModifier": 5
      },
      "esc": {
        "value": 0,
        "ability": "dex",
        "rt": false,
        "acp": true,
        "rank": 0,
        "notes": "",
        "mod": 3,
        "background": false,
        "visibility": "default",
        "cs": false,
        "points": 0,
        "acpPenalty": 0,
        "energyDrainPenalty": 0,
        "abilityModifier": 3
      },
      "fog": {
        "value": 0,
        "ability": "int",
        "rt": false,
        "acp": false,
        "rank": 0,
        "notes": "",
        "mod": 14,
        "background": false,
        "visibility": "default",
        "cs": false,
        "points": 0,
        "acpPenalty": 0,
        "energyDrainPenalty": 0,
        "abilityModifier": 14
      },
      "gif": {
        "value": 0,
        "ability": "cha",
        "rt": false,
        "acp": false,
        "rank": 0,
        "notes": "",
        "mod": 5,
        "background": false,
        "visibility": "default",
        "cs": false,
        "points": 0,
        "acpPenalty": 0,
        "energyDrainPenalty": 0,
        "abilityModifier": 5
      },
      "han": {
        "value": 0,
        "ability": "cha",
        "rt": true,
        "acp": false,
        "rank": 0,
        "notes": "",
        "mod": 5,
        "background": false,
        "visibility": "default",
        "cs": false,
        "points": 0,
        "acpPenalty": 0,
        "energyDrainPenalty": 0,
        "abilityModifier": 5
      },
      "hea": {
        "value": 0,
        "ability": "wis",
        "rt": false,
        "acp": false,
        "rank": 0,
        "notes": "",
        "mod": 7,
        "background": false,
        "visibility": "default",
        "cs": false,
        "points": 0,
        "acpPenalty": 0,
        "energyDrainPenalty": 0,
        "abilityModifier": 7
      },
      "hid": {
        "value": 0,
        "ability": "dex",
        "rt": false,
        "acp": true,
        "rank": 20,
        "notes": "",
        "mod": 35,
        "background": false,
        "visibility": "default",
        "cs": true,
        "changeBonus": 12,
        "points": 20,
        "acpPenalty": 0,
        "energyDrainPenalty": 0,
        "abilityModifier": 3
      },
      "int": {
        "value": 0,
        "ability": "cha",
        "rt": false,
        "acp": false,
        "rank": 0,
        "notes": "",
        "mod": 5,
        "background": false,
        "visibility": "default",
        "cs": true,
        "points": 0,
        "acpPenalty": 0,
        "energyDrainPenalty": 0,
        "abilityModifier": 5
      },
      "jmp": {
        "value": 0,
        "ability": "str",
        "rt": false,
        "acp": true,
        "rank": 0,
        "notes": "",
        "mod": 0,
        "background": false,
        "visibility": "default",
        "cs": false,
        "points": 0,
        "acpPenalty": 0,
        "energyDrainPenalty": 0,
        "abilityModifier": 0
      },
      "kar": {
        "value": 0,
        "ability": "int",
        "rt": true,
        "acp": false,
        "rank": 0,
        "notes": "",
        "mod": 14,
        "background": false,
        "visibility": "default",
        "cs": true,
        "points": 0,
        "acpPenalty": 0,
        "energyDrainPenalty": 0,
        "abilityModifier": 14
      },
      "kdu": {
        "value": 0,
        "ability": "int",
        "rt": true,
        "acp": false,
        "rank": 0,
        "notes": "",
        "mod": 14,
        "background": false,
        "visibility": "default",
        "cs": false,
        "points": 0,
        "acpPenalty": 0,
        "energyDrainPenalty": 0,
        "abilityModifier": 14
      },
      "ken": {
        "value": 0,
        "ability": "int",
        "rt": true,
        "acp": false,
        "rank": 0,
        "notes": "",
        "mod": 14,
        "background": false,
        "visibility": "default",
        "cs": false,
        "points": 0,
        "acpPenalty": 0,
        "energyDrainPenalty": 0,
        "abilityModifier": 14
      },
      "kge": {
        "value": 0,
        "ability": "int",
        "rt": true,
        "acp": false,
        "rank": 0,
        "notes": "",
        "mod": 14,
        "background": false,
        "visibility": "default",
        "cs": false,
        "points": 0,
        "acpPenalty": 0,
        "energyDrainPenalty": 0,
        "abilityModifier": 14
      },
      "khi": {
        "value": 0,
        "ability": "int",
        "rt": true,
        "acp": false,
        "rank": 12,
        "notes": "",
        "mod": 26,
        "background": false,
        "visibility": "default",
        "cs": true,
        "points": 12,
        "acpPenalty": 0,
        "energyDrainPenalty": 0,
        "abilityModifier": 14
      },
      "klo": {
        "value": 0,
        "ability": "int",
        "rt": true,
        "acp": false,
        "rank": 0,
        "notes": "",
        "mod": 14,
        "background": false,
        "visibility": "default",
        "cs": false,
        "points": 0,
        "acpPenalty": 0,
        "energyDrainPenalty": 0,
        "abilityModifier": 14
      },
      "kna": {
        "value": 0,
        "ability": "int",
        "rt": true,
        "acp": false,
        "rank": 0,
        "notes": "",
        "mod": 14,
        "background": false,
        "visibility": "default",
        "cs": false,
        "points": 0,
        "acpPenalty": 0,
        "energyDrainPenalty": 0,
        "abilityModifier": 14
      },
      "kno": {
        "value": 0,
        "ability": "int",
        "rt": true,
        "acp": false,
        "rank": 0,
        "notes": "",
        "mod": 14,
        "background": true,
        "cs": false,
        "points": 0,
        "acpPenalty": 0,
        "energyDrainPenalty": 0,
        "abilityModifier": 14
      },
      "kpl": {
        "value": 0,
        "ability": "int",
        "rt": true,
        "acp": false,
        "rank": 0,
        "notes": "",
        "mod": 14,
        "background": false,
        "visibility": "default",
        "cs": false,
        "points": 0,
        "acpPenalty": 0,
        "energyDrainPenalty": 0,
        "abilityModifier": 14
      },
      "kre": {
        "value": 0,
        "ability": "int",
        "rt": true,
        "acp": false,
        "rank": 0,
        "notes": "",
        "mod": 14,
        "background": false,
        "visibility": "default",
        "cs": true,
        "points": 0,
        "acpPenalty": 0,
        "energyDrainPenalty": 0,
        "abilityModifier": 14
      },
      "lis": {
        "value": 0,
        "ability": "wis",
        "rt": false,
        "acp": false,
        "rank": 20,
        "notes": "",
        "mod": 27,
        "background": false,
        "visibility": "default",
        "cs": true,
        "points": 20,
        "acpPenalty": 0,
        "energyDrainPenalty": 0,
        "abilityModifier": 7
      },
      "mos": {
        "value": 0,
        "ability": "dex",
        "rt": false,
        "acp": true,
        "rank": 20,
        "notes": "",
        "mod": 23,
        "background": false,
        "visibility": "default",
        "cs": true,
        "points": 20,
        "acpPenalty": 0,
        "energyDrainPenalty": 0,
        "abilityModifier": 3
      },
      "opl": {
        "value": 0,
        "ability": "dex",
        "rt": true,
        "acp": false,
        "rank": 0,
        "notes": "",
        "mod": 3,
        "background": false,
        "visibility": "default",
        "cs": false,
        "points": 0,
        "acpPenalty": 0,
        "energyDrainPenalty": 0,
        "abilityModifier": 3
      },
      "prf": {
        "value": 0,
        "ability": "cha",
        "rt": false,
        "acp": false,
        "rank": 0,
        "notes": "",
        "mod": 5,
        "background": false,
        "visibility": "default",
        "cs": false,
        "subSkills": {},
        "namedSubSkills": {},
        "points": 0,
        "acpPenalty": 0,
        "energyDrainPenalty": 0,
        "abilityModifier": 5
      },
      "pro": {
        "value": 0,
        "ability": "wis",
        "rt": true,
        "acp": false,
        "rank": 0,
        "notes": "",
        "mod": 7,
        "background": false,
        "visibility": "default",
        "cs": false,
        "subSkills": {},
        "namedSubSkills": {},
        "points": 0,
        "acpPenalty": 0,
        "energyDrainPenalty": 0,
        "abilityModifier": 7
      },
      "rid": {
        "value": 0,
        "ability": "dex",
        "rt": false,
        "acp": true,
        "rank": 0,
        "notes": "",
        "mod": 3,
        "background": false,
        "visibility": "default",
        "cs": false,
        "points": 0,
        "acpPenalty": 0,
        "energyDrainPenalty": 0,
        "abilityModifier": 3
      },
      "src": {
        "value": 0,
        "ability": "int",
        "rt": false,
        "acp": false,
        "rank": 20,
        "notes": "",
        "mod": 34,
        "background": false,
        "visibility": "default",
        "cs": true,
        "points": 20,
        "acpPenalty": 0,
        "energyDrainPenalty": 0,
        "abilityModifier": 14
      },
      "sen": {
        "value": 0,
        "ability": "wis",
        "rt": false,
        "acp": false,
        "rank": 20,
        "notes": "",
        "mod": 27,
        "background": false,
        "visibility": "default",
        "cs": true,
        "points": 20,
        "acpPenalty": 0,
        "energyDrainPenalty": 0,
        "abilityModifier": 7
      },
      "slt": {
        "value": 0,
        "ability": "dex",
        "rt": true,
        "acp": true,
        "rank": 0,
        "notes": "",
        "mod": 3,
        "background": false,
        "visibility": "default",
        "cs": false,
        "points": 0,
        "acpPenalty": 0,
        "energyDrainPenalty": 0,
        "abilityModifier": 3
      },
      "spk": {
        "value": 0,
        "ability": "",
        "rt": true,
        "acp": false,
        "rank": 0,
        "notes": "",
        "mod": 0,
        "background": false,
        "visibility": "default",
        "points": 0,
        "cs": false,
        "acpPenalty": 0,
        "energyDrainPenalty": 0,
        "abilityModifier": 0
      },
      "spl": {
        "value": 0,
        "ability": "int",
        "rt": true,
        "acp": false,
        "rank": 22,
        "notes": "",
        "mod": 36,
        "background": false,
        "visibility": "default",
        "cs": true,
        "points": 22,
        "acpPenalty": 0,
        "energyDrainPenalty": 0,
        "abilityModifier": 14
      },
      "spt": {
        "value": 0,
        "ability": "wis",
        "rt": false,
        "acp": false,
        "rank": 20,
        "notes": "",
        "mod": 27,
        "background": false,
        "visibility": "default",
        "cs": true,
        "points": 20,
        "acpPenalty": 0,
        "energyDrainPenalty": 0,
        "abilityModifier": 7
      },
      "sur": {
        "value": 0,
        "ability": "wis",
        "rt": false,
        "acp": false,
        "rank": 0,
        "notes": "",
        "mod": 7,
        "background": false,
        "visibility": "default",
        "cs": false,
        "points": 0,
        "acpPenalty": 0,
        "energyDrainPenalty": 0,
        "abilityModifier": 7
      },
      "swm": {
        "value": 0,
        "ability": "str",
        "rt": false,
        "acp": true,
        "rank": 0,
        "notes": "",
        "mod": 0,
        "background": false,
        "visibility": "default",
        "cs": false,
        "points": 0,
        "acpPenalty": 0,
        "energyDrainPenalty": 0,
        "abilityModifier": 0
      },
      "tmb": {
        "value": 0,
        "ability": "dex",
        "rt": false,
        "acp": true,
        "rank": 0,
        "notes": "",
        "mod": 3,
        "background": false,
        "visibility": "default",
        "cs": false,
        "points": 0,
        "acpPenalty": 0,
        "energyDrainPenalty": 0,
        "abilityModifier": 3
      },
      "umd": {
        "value": 0,
        "ability": "cha",
        "rt": true,
        "acp": false,
        "rank": 0,
        "notes": "",
        "mod": 5,
        "background": false,
        "visibility": "default",
        "cs": false,
        "points": 0,
        "acpPenalty": 0,
        "energyDrainPenalty": 0,
        "abilityModifier": 5
      },
      "uro": {
        "value": 0,
        "ability": "dex",
        "rt": false,
        "acp": false,
        "rank": 0,
        "notes": "",
        "mod": 3,
        "background": false,
        "visibility": "default",
        "cs": false,
        "points": 0,
        "acpPenalty": 0,
        "energyDrainPenalty": 0,
        "abilityModifier": 3
      },
      "kps": {
        "value": 0,
        "ability": "int",
        "rt": false,
        "acp": false,
        "rank": 0,
        "notes": "",
        "mod": 14,
        "background": false,
        "visibility": "default",
        "cs": false,
        "points": 0,
        "acpPenalty": 0,
        "energyDrainPenalty": 0,
        "abilityModifier": 14
      },
      "aut": {
        "value": 0,
        "ability": "wis",
        "rt": true,
        "acp": false,
        "rank": 0,
        "notes": "",
        "mod": 9,
        "background": false,
        "visibility": "default",
        "cs": false,
        "changeBonus": 2,
        "points": 0,
        "acpPenalty": 0,
        "energyDrainPenalty": 0,
        "abilityModifier": 7
      },
      "psi": {
        "value": 0,
        "ability": "int",
        "rt": true,
        "acp": false,
        "rank": 0,
        "notes": "",
        "mod": 14,
        "background": false,
        "visibility": "default",
        "cs": false,
        "points": 0,
        "acpPenalty": 0,
        "energyDrainPenalty": 0,
        "abilityModifier": 14
      },
      "upd": {
        "value": 0,
        "ability": "cha",
        "rt": true,
        "acp": false,
        "rank": 0,
        "notes": "",
        "mod": 5,
        "background": false,
        "visibility": "default",
        "cs": false,
        "points": 0,
        "acpPenalty": 0,
        "energyDrainPenalty": 0,
        "abilityModifier": 5
      }
    },
    "customSkills": {},
    "traits": {
      "size": "dim",
      "tokensize": "actor",
      "senses": "",
      "dr": "",
      "incorporeal": false,
      "eres": "",
      "cres": "",
      "languages": {
        "value": [],
        "custom": ""
      },
      "di": {
        "value": [],
        "custom": ""
      },
      "dv": {
        "value": [],
        "custom": ""
      },
      "ci": {
        "value": [
          "mindAffecting"
        ],
        "custom": "polymorph"
      },
      "perception": {
        "_deprecated": true
      },
      "actualSize": "dim"
    },
    "currency": {
      "pp": 0,
      "gp": 0,
      "sp": 0,
      "cp": 0
    },
    "altCurrency": {
      "pp": 0,
      "gp": 0,
      "sp": 0,
      "cp": 0
    },
    "customCurrency": {},
    "noLightOverride": false,
    "noTokenOverride": false,
    "noSkillSynergy": false,
    "noBuffDisplay": false,
    "lockEditingByPlayers": false,
    "showCardSheet": false,
    "showSpellcastingSheet": true,
    "staticBonus": {
      "hp": 0,
      "ac": 0
    },
    "jumpSkillAdjust": false,
    "master": {
      "id": null,
      "img": null,
      "name": null,
      "data": {},
      "distance": 0
    },
    "noVisionOverride": true,
    "counters": {
      "feat": {
        "base": {
          "value": 8,
          "counted": 16
        }
      }
    },
    "classes": {
      "undead": {
        "level": 21,
        "_id": "is2FhUwriXodyg6H",
        "name": "Undead*",
        "hd": 12,
        "bab": "low",
        "hp": false,
        "maxLevel": null,
        "skillsPerLevel": 4,
        "isSpellcaster": false,
        "isPsionSpellcaster": false,
        "hasSpecialSlot": false,
        "isSpellcastingSpontaneus": false,
        "isArcane": false,
        "spellcastingType": "none",
        "spellcastingAbility": "int",
        "allSpellsKnown": false,
        "savingThrows": {
          "fort": 7,
          "ref": 7,
          "will": 12
        },
        "fc": {
          "hp": 0,
          "skill": 0,
          "alt": 0
        },
        "spellsKnownPerLevel": [],
        "powersKnown": [],
        "powersMaxLevel": [],
        "spellslotAbility": "",
        "halfCasterLevel": false,
        "deckHandSizeFormula": "0",
        "knownCardsSizeFormula": "0",
        "deckPrestigeClass": false,
        "hasSpellbook": false,
        "spelllist": {}
      }
    },
    "damage": {
      "nonlethal": {
        "value": 0,
        "max": 139
      }
    },
    "senses": {
      "darkvision": 0,
      "blindsight": 0,
      "tremorsense": 0,
      "truesight": 0,
      "lowLight": false,
      "special": "",
      "modified": {},
      "lowLightMultiplier": 2
    },
    "totalNonEclLevels": 21,
    "classLevels": 0,
    "combinedResistances": [
      {
        "uid": "energy-acid",
        "value": 20,
        "vulnerable": false,
        "immunity": false,
        "lethal": false,
        "providedBy": "is2FhUwriXodyg6H",
        "modified": true,
        "items": [
          "Undead*"
        ]
      },
      {
        "uid": "energy-fire",
        "value": 20,
        "vulnerable": false,
        "immunity": false,
        "lethal": false,
        "providedBy": "is2FhUwriXodyg6H",
        "modified": true,
        "items": [
          "Undead*"
        ]
      },
      {
        "uid": "energy-sonic",
        "value": 20,
        "vulnerable": false,
        "immunity": false,
        "lethal": false,
        "providedBy": "is2FhUwriXodyg6H",
        "modified": true,
        "items": [
          "Undead*"
        ]
      },
      {
        "uid": "energy-cold",
        "value": 0,
        "vulnerable": false,
        "immunity": true,
        "lethal": false,
        "providedBy": "is2FhUwriXodyg6H",
        "modified": true,
        "items": [
          "Undead*"
        ]
      },
      {
        "uid": "energy-electric",
        "value": 0,
        "vulnerable": false,
        "immunity": true,
        "lethal": false,
        "providedBy": "is2FhUwriXodyg6H",
        "modified": true,
        "items": [
          "Undead*"
        ]
      }
    ],
    "combinedDR": [],
    "shieldType": "none",
    "canLevelUp": false,
    "naturalAttackCount": 0
  },
  "ownership": {
    "default": 0,
    "gvVvJrAyZKOZnAuP": 3
  },
  "prototypeToken": {
    "flags": {
      "D35E": {
        "lowLightVision": false
      }
    },
    "name": "Demilich",
    "displayName": 20,
    "width": 1,
    "height": 1,
    "lockRotation": false,
    "rotation": 0,
    "actorLink": false,
    "disposition": -1,
    "displayBars": 40,
    "bar1": {
      "attribute": "attributes.hp"
    },
    "bar2": {
      "attribute": null
    },
    "randomImg": false,
    "alpha": 1,
    "light": {
      "alpha": 0,
      "angle": 360,
      "bright": 0,
      "coloration": 1,
      "dim": 0,
      "luminosity": 0.5,
      "saturation": 0,
      "contrast": 0,
      "shadows": 0,
      "animation": {
        "speed": 5,
        "intensity": 5,
        "type": null,
        "reverse": false
      },
      "darkness": {
        "min": 0,
        "max": 1
      },
      "color": "#000000",
      "attenuation": 0.5
    },
    "texture": {
      "src": "systems/D35E/icons/bestiary/token/lich.png",
      "tint": null,
      "scaleX": 0.4,
      "scaleY": 0.4,
      "offsetX": 0,
      "offsetY": 0,
      "rotation": 0
    },
    "sight": {
      "angle": 360,
      "enabled": true,
      "range": 0,
      "brightness": 1,
      "visionMode": "basic",
      "attenuation": 0.1,
      "saturation": 0,
      "contrast": 0
    },
    "appendNumber": false,
    "prependAdjective": false,
    "detectionModes": []
  },
  "_stats": {
    "systemId": "D35E",
    "systemVersion": "2.3.0",
    "coreVersion": "11.299",
    "createdTime": 1686244319743,
    "modifiedTime": 1686244320077,
    "lastModifiedBy": "cB3ob9BYxSFYX7sd"
  },
  "_key": "!actors!S4VxcOFLuOXFoGDy"
}