{
  "_id": "Q6sIbO986AAYaaWr",
  "name": "Detect Magic",
  "type": "spell",
  "data": {
    "originVersion": 0,
    "originPack": "",
    "originId": "",
    "possibleUpdate": false,
    "description": {
      "value": "<div class=\"spell-description\">\n  <p>\n      <strong>School:</strong>&nbsp;divination;\n    <br>\n    <strong>Level:</strong>&nbsp;Bard 0, Cleric 0, Druid 0, Sorcerer 0, Wizard 0;\n    \n    \n    \n    \n    <br>\n    <strong>Components:</strong>&nbsp;V, S<br>\n    \n      <strong>Casting Time:</strong>&nbsp;1 standard action<br>\n    <strong>Range:</strong>&nbsp;60 feet<br>\n    <strong>Area:</strong>&nbsp;cone-shaped emanation\n<br>\n    \n    \n    <strong>Duration:</strong>&nbsp;Concentration, up to 1 min./level (D)\n<br>\n    \n        <strong>Saving Throw:</strong>&nbsp;None\n\n        <br>\n        <strong>Spell Resistance:</strong>&nbsp;no<br>\n  </p>\n  <h2>Description</h2>\n  \n\n\n<p>\nYou detect magical auras. The amount of information revealed depends on how long you study a particular area or subject.\n</p><p><i>1st Round: </i>Presence or absence of magical auras.\n</p><p><i>2nd Round: </i>Number of different magical auras and the power of the most potent aura.\n</p><p><i>3rd Round: </i>The strength and location of each aura. If the items or creatures bearing the auras are in line of sight, you can make Spellcraft skill checks to determine the school of magic involved in each. (Make one check per aura; DC 15 + spell level, or 15 + half caster level for a nonspell effect.)\n</p><p>Magical areas, multiple types of magic, or strong local magical emanations may distort or conceal weaker auras.\n</p><p><i>Aura Strength: </i>An aura’s power depends on a spell’s functioning spell level or an item’s caster level. If an aura falls into more than one category, <i>detect magic </i>indicates the stronger of the two.\n</p>\n\n<p><i>Lingering Aura: </i>A magical aura lingers after its original source dissipates (in the case of a spell) or is destroyed (in the case of a magic item). If <i>detect magic </i>is cast and directed at such a location, the spell indicates an aura strength of dim (even weaker than a faint aura). How long the aura lingers at this dim level depends on its original power:\n</p>\n\n<p>Outsiders and elementals are not magical in themselves, but if they are summoned, the conjuration spell registers.\n</p><p>Each round, you can turn to detect magic in a new area. The spell can penetrate barriers, but 1 foot of stone, 1 inch of common metal, a thin sheet of lead, or 3 feet of wood or dirt blocks it.\n</p><p><i>Detect magic </i>can be made permanent with a <i>permanency</i> spell.\n</p>\n<hr/>\n\n\n\n</div>\n",
      "chat": "",
      "unidentified": ""
    },
    "epic": "",
    "psionic": "",
    "nameFormula": "",
    "nameFromFormula": false,
    "tags": [],
    "uniqueId": "",
    "linkId": "",
    "linkSourceId": "",
    "linkImported": false,
    "linkSourceName": "",
    "source": "",
    "classSource": "",
    "userNonRemovable": false,
    "customAttributes": {},
    "customAttributesLocked": false,
    "customTag": "",
    "createdBy": "",
    "activation": {
      "cost": 1,
      "type": "standard"
    },
    "duration": {
      "value": null,
      "units": ""
    },
    "target": {
      "value": ""
    },
    "range": {
      "value": 60,
      "units": "ft",
      "long": null
    },
    "recharge": {
      "enabled": false,
      "formula": "",
      "current": 0
    },
    "uses": {
      "value": 0,
      "max": 0,
      "per": "",
      "autoDeductCharges": true,
      "allowMultipleUses": false,
      "chargesPerUse": 1,
      "maxPerUse": null,
      "maxPerUseFormula": "",
      "maxFormula": "",
      "rechargeFormula": null,
      "isResource": false,
      "canBeLinked": false
    },
    "requiresPsionicFocus": false,
    "linkedChargeItem": {
      "id": null,
      "img": null,
      "name": null
    },
    "measureTemplate": {
      "type": "cone",
      "size": 60,
      "overrideColor": false,
      "customColor": "",
      "overrideTexture": false,
      "customTexture": ""
    },
    "actionType": "other",
    "attackBonus": "",
    "critConfirmBonus": "",
    "damage": {
      "parts": [],
      "alternativeParts": []
    },
    "summon": [],
    "attackParts": [],
    "autoscaleAttackParts": "",
    "formula": "",
    "attackCountFormula": "",
    "maxDamageDice": 0,
    "maxDamageDiceFormula": "",
    "ability": {
      "attack": "",
      "damage": "",
      "damageMult": 1,
      "critRange": 20,
      "critMult": 2,
      "twoHandedOnly": false,
      "vsTouchAc": false
    },
    "save": {
      "dc": "0",
      "description": "None\n",
      "ability": "",
      "type": "",
      "dcAutoType": "",
      "dcAutoAbility": ""
    },
    "baseCl": "0",
    "sr": false,
    "pr": false,
    "metamagicFeats": {
      "maximized": false,
      "empowered": false,
      "enlarged": false,
      "intensified": false,
      "enhanced": false,
      "enhancedHalf": false,
      "widened": false
    },
    "effectNotes": "",
    "attackNotes": "",
    "specialActions": [],
    "favorite": false,
    "rollTableDraw": {
      "formula": "",
      "name": "",
      "pack": "",
      "id": ""
    },
    "learnedAt": {
      "class": [
        [
          "Bard",
          0
        ],
        [
          "Cleric",
          0
        ],
        [
          "Druid",
          0
        ],
        [
          "Wizard",
          0
        ],
        [
          "Sorcerer",
          0
        ]
      ],
      "domain": [],
      "subDomain": [],
      "elementalSchool": [],
      "bloodline": []
    },
    "level": 0,
    "clOffset": 0,
    "slOffset": 0,
    "school": "div",
    "subschool": "",
    "types": "",
    "components": {
      "value": "",
      "verbal": true,
      "somatic": true,
      "material": false,
      "focus": false,
      "divineFocus": 0
    },
    "castTime": "",
    "conditionals": [],
    "materials": {
      "value": "",
      "consumed": {
        "value": false,
        "_deprecated": true
      },
      "focus": ""
    },
    "isSpellSpontaneousReplacement": false,
    "spellbook": "spelllike",
    "preparation": {
      "preparedAmount": 0,
      "maxAmount": 0,
      "autoDeductCharges": true,
      "mode": "prepared"
    },
    "atWill": true,
    "powerPointsCost": 0,
    "display": "",
    "isPower": false,
    "shortDescription": "\n\n\n<p>\nYou detect magical auras. The amount of information revealed depends on how long you study a particular area or subject.\n</p><p><i>1st Round: </i>Presence or absence of magical auras.\n</p><p><i>2nd Round: </i>Number of different magical auras and the power of the most potent aura.\n</p><p><i>3rd Round: </i>The strength and location of each aura. If the items or creatures bearing the auras are in line of sight, you can make Spellcraft skill checks to determine the school of magic involved in each. (Make one check per aura; DC 15 + spell level, or 15 + half caster level for a nonspell effect.)\n</p><p>Magical areas, multiple types of magic, or strong local magical emanations may distort or conceal weaker auras.\n</p><p><i>Aura Strength: </i>An aura’s power depends on a spell’s functioning spell level or an item’s caster level. If an aura falls into more than one category, <i>detect magic </i>indicates the stronger of the two.\n</p>\n\n<p><i>Lingering Aura: </i>A magical aura lingers after its original source dissipates (in the case of a spell) or is destroyed (in the case of a magic item). If <i>detect magic </i>is cast and directed at such a location, the spell indicates an aura strength of dim (even weaker than a faint aura). How long the aura lingers at this dim level depends on its original power:\n</p>\n\n<p>Outsiders and elementals are not magical in themselves, but if they are summoned, the conjuration spell registers.\n</p><p>Each round, you can turn to detect magic in a new area. The spell can penetrate barriers, but 1 foot of stone, 1 inch of common metal, a thin sheet of lead, or 3 feet of wood or dirt blocks it.\n</p><p><i>Detect magic </i>can be made permanent with a <i>permanency</i> spell.\n</p>\n<hr/>\n\n\n",
    "snip": "Detects spells and magic items within 60 ft.",
    "spellDuration": "Concentration, up to 1 min./level (D)\n",
    "spellEffect": "",
    "spellArea": "cone-shaped emanation\n",
    "spellType": {
      "value": "",
      "_deprecated": true
    },
    "showInQuickbar": false,
    "specialPrepared": false,
    "isDomainSpell": false,
    "specialId": null,
    "customReferenceId": "",
    "attack": {
      "parts": []
    }
  },
  "sort": 600000,
  "flags": {},
  "img": "systems/D35E/icons/spells/school/div.png",
  "effects": [],
  "folder": null,
  "permission": {
    "default": 0
  },
  "_key": "!actors.items!4kW9uh6eguA6gvDv.Q6sIbO986AAYaaWr"
}