{
  "_id": "poAtot1rYDcJTgWK",
  "name": "Detect Snares and Pits",
  "type": "spell",
  "data": {
    "originVersion": 0,
    "originPack": "",
    "originId": "",
    "possibleUpdate": false,
    "description": {
      "value": "<div class=\"spell-description\">\n  <p>\n      <strong>School:</strong>&nbsp;divination;\n    <br>\n    <strong>Level:</strong>&nbsp;Druid 1, Ranger 1;\n    \n    \n    \n    \n    <br>\n    <strong>Components:</strong>&nbsp;V, S<br>\n    \n      <strong>Casting Time:</strong>&nbsp;1 standard action<br>\n    <strong>Range:</strong>&nbsp;60 feet<br>\n    <strong>Area:</strong>&nbsp;cone-shaped emanation\n<br>\n    \n    \n    <strong>Duration:</strong>&nbsp;Concentration, up to 10 min./level (D)\n<br>\n    \n        <strong>Saving Throw:</strong>&nbsp;None\n\n        <br>\n        <strong>Spell Resistance:</strong>&nbsp;no<br>\n  </p>\n  <h2>Description</h2>\n  \n\n\n<p>\nYou can detect simple pits, deadfalls, and snares as well as mechanical traps constructed of natural materials. The spell does not detect complex traps, including trapdoor traps.\n</p><p><i>Detect snares and pits </i>does detect certain natural hazards—quicksand (a snare), a sinkhole (a pit), or unsafe walls of natural rock (a deadfall). However, it does not reveal other potentially dangerous conditions. The spell does not detect magic traps (except those that operate by pit, deadfall, or snaring; see the spell <i>snare</i>), nor mechanically complex ones, nor those that have been rendered safe or inactive.\n</p><p>The amount of information revealed depends on how long you study a particular area.\n</p><p><i>1st Round: </i>Presence or absence of hazards.\n</p><p><i>2nd Round: </i>Number of hazards and the location of each. If a hazard is outside your line of sight, then you discern its direction but not its exact location.\n</p><p><i>Each Additional Round: </i>The general type and trigger for one particular hazard closely examined by you.\n</p><p>Each round, you can turn to detect snares and pits in a new area. The spell can penetrate barriers, but 1 foot of stone, 1 inch of common metal, a thin sheet of lead, or 3 feet of wood or dirt blocks it.\n</p>\n<hr/>\n\n\n\n</div>\n",
      "chat": "",
      "unidentified": ""
    },
    "epic": "",
    "psionic": "",
    "nameFormula": "",
    "nameFromFormula": false,
    "tags": [],
    "uniqueId": "",
    "linkId": "",
    "linkSourceId": "",
    "linkImported": false,
    "linkSourceName": "",
    "source": "",
    "classSource": "",
    "userNonRemovable": false,
    "customAttributes": {},
    "customAttributesLocked": false,
    "customTag": "",
    "createdBy": "",
    "activation": {
      "cost": 1,
      "type": "standard"
    },
    "duration": {
      "value": null,
      "units": ""
    },
    "target": {
      "value": ""
    },
    "range": {
      "value": 60,
      "units": "ft",
      "long": null
    },
    "recharge": {
      "enabled": false,
      "formula": "",
      "current": 0
    },
    "uses": {
      "value": 0,
      "max": 0,
      "per": "",
      "autoDeductCharges": true,
      "allowMultipleUses": false,
      "chargesPerUse": 1,
      "maxPerUse": null,
      "maxPerUseFormula": "",
      "maxFormula": "",
      "rechargeFormula": null,
      "isResource": false,
      "canBeLinked": false
    },
    "requiresPsionicFocus": false,
    "linkedChargeItem": {
      "id": null,
      "img": null,
      "name": null
    },
    "measureTemplate": {
      "type": "cone",
      "size": 60,
      "overrideColor": false,
      "customColor": "",
      "overrideTexture": false,
      "customTexture": ""
    },
    "actionType": "other",
    "attackBonus": "",
    "critConfirmBonus": "",
    "damage": {
      "parts": [],
      "alternativeParts": []
    },
    "summon": [],
    "attackParts": [],
    "autoscaleAttackParts": "",
    "formula": "",
    "attackCountFormula": "",
    "maxDamageDice": 0,
    "maxDamageDiceFormula": "",
    "ability": {
      "attack": "",
      "damage": "",
      "damageMult": 1,
      "critRange": 20,
      "critMult": 2,
      "twoHandedOnly": false,
      "vsTouchAc": false
    },
    "save": {
      "dc": "0",
      "description": "None\n",
      "ability": "",
      "type": "",
      "dcAutoType": "",
      "dcAutoAbility": ""
    },
    "baseCl": "0",
    "sr": false,
    "pr": false,
    "metamagicFeats": {
      "maximized": false,
      "empowered": false,
      "enlarged": false,
      "intensified": false,
      "enhanced": false,
      "enhancedHalf": false,
      "widened": false
    },
    "effectNotes": "",
    "attackNotes": "",
    "specialActions": [],
    "favorite": false,
    "rollTableDraw": {
      "formula": "",
      "name": "",
      "pack": "",
      "id": ""
    },
    "learnedAt": {
      "class": [
        [
          "Druid",
          1
        ],
        [
          "Ranger",
          1
        ]
      ],
      "domain": [],
      "subDomain": [],
      "elementalSchool": [],
      "bloodline": []
    },
    "level": 1,
    "clOffset": 0,
    "slOffset": 0,
    "school": "div",
    "subschool": "",
    "types": "",
    "components": {
      "value": "",
      "verbal": true,
      "somatic": true,
      "material": false,
      "focus": false,
      "divineFocus": 0
    },
    "castTime": "",
    "conditionals": [],
    "materials": {
      "value": "",
      "consumed": {
        "value": false,
        "_deprecated": true
      },
      "focus": ""
    },
    "isSpellSpontaneousReplacement": false,
    "spellbook": "spelllike",
    "preparation": {
      "preparedAmount": 1,
      "maxAmount": 1,
      "autoDeductCharges": true,
      "mode": "prepared"
    },
    "atWill": false,
    "powerPointsCost": 0,
    "display": "",
    "isPower": false,
    "shortDescription": "\n\n\n<p>\nYou can detect simple pits, deadfalls, and snares as well as mechanical traps constructed of natural materials. The spell does not detect complex traps, including trapdoor traps.\n</p><p><i>Detect snares and pits </i>does detect certain natural hazards—quicksand (a snare), a sinkhole (a pit), or unsafe walls of natural rock (a deadfall). However, it does not reveal other potentially dangerous conditions. The spell does not detect magic traps (except those that operate by pit, deadfall, or snaring; see the spell <i>snare</i>), nor mechanically complex ones, nor those that have been rendered safe or inactive.\n</p><p>The amount of information revealed depends on how long you study a particular area.\n</p><p><i>1st Round: </i>Presence or absence of hazards.\n</p><p><i>2nd Round: </i>Number of hazards and the location of each. If a hazard is outside your line of sight, then you discern its direction but not its exact location.\n</p><p><i>Each Additional Round: </i>The general type and trigger for one particular hazard closely examined by you.\n</p><p>Each round, you can turn to detect snares and pits in a new area. The spell can penetrate barriers, but 1 foot of stone, 1 inch of common metal, a thin sheet of lead, or 3 feet of wood or dirt blocks it.\n</p>\n<hr/>\n\n\n",
    "snip": "Reveals natural or primitive traps.",
    "spellDuration": "Concentration, up to 10 min./level (D)\n",
    "spellEffect": "",
    "spellArea": "cone-shaped emanation\n",
    "spellType": {
      "value": "",
      "_deprecated": true
    },
    "showInQuickbar": false,
    "specialPrepared": false,
    "isDomainSpell": false,
    "specialId": null,
    "customReferenceId": "",
    "attack": {
      "parts": []
    }
  },
  "sort": 600000,
  "flags": {},
  "img": "systems/D35E/icons/spells/school/div.png",
  "effects": [],
  "folder": null,
  "permission": {
    "default": 0
  },
  "_key": "!actors.items!pjlwOBLsdc4O3896.poAtot1rYDcJTgWK"
}