{
  "_id": "ovPHbOZj6u7nleeP",
  "name": "Detect Law",
  "type": "spell",
  "data": {
    "originVersion": 0,
    "originPack": "",
    "originId": "",
    "possibleUpdate": false,
    "description": {
      "value": "<div class=\"spell-description\">\n  <p>\n      <strong>School:</strong>&nbsp;divination;\n    <br>\n    <strong>Level:</strong>&nbsp;Cleric 1;\n    \n    \n    \n    \n    <br>\n    <strong>Components:</strong>&nbsp;V, S, F, DF<br>\n    \n      <strong>Casting Time:</strong>&nbsp;1 standard action<br>\n    <strong>Range:</strong>&nbsp;60 feet<br>\n    <strong>Area:</strong>&nbsp;cone-shaped emanation<br>\n    \n    \n    <strong>Duration:</strong>&nbsp;Concentration, up to 10 min./ level (D)<br>\n    \n        <strong>Saving Throw:</strong>&nbsp;None\n        <br>\n        <strong>Spell Resistance:</strong>&nbsp;no<br>\n  </p>\n  <h2>Description</h2>\n  \n\n\n<p>\nYou can sense the presence of law. The amount of information revealed depends on how long you study a particular area or subject.\n</p><p><i>1st Round: </i>Presence or absence of law.\n</p><p><i>2nd Round: </i>Number of lawful auras (creatures, objects, or spells) in the area and the power of the most potent lawful aura present.\n</p><p>If you are of chaotic alignment, and the strongest lawful aura’s power is overwhelming (see below), and the HD or level of the aura’s source is at least twice your character level, you are stunned for 1 round and the spell ends.\n</p><p><i>3rd Round: </i>The power and location of each aura. If an aura is outside your line of sight, then you discern its direction but not its exact location.\n</p><p><i>Aura Power: </i>An lawful aura’s power depends on the type of lawful creature or object that you’re detecting and its HD, caster level, or (in the case of a cleric) class level; see the accompanying table. If an aura falls into more than one strength category, the spell indicates the stronger of the two.\n</p>\n\n<p><i>Lingering Aura: </i>A lawful aura lingers after its original source dissipates (in the case of a spell) or is destroyed (in the case of a creature or magic item). If <i>detect law</i> is cast and directed at such a location, the spell indicates an aura strength of dim (even weaker than a faint aura). How long the aura lingers at this dim level depends on its original power:\n</p>\n\n<p>Animals, traps, poisons, and other potential perils are not lawful, and as such this spell does not detect them.\n</p><p>Each round, you can turn to detect lawful in a new area. The spell can penetrate barriers, but 1 foot of stone, 1 inch of common metal, a thin sheet of lead, or 3 feet of wood or dirt blocks it.\n</p>\n<hr/>\n\n\n\n</div>\n",
      "chat": "",
      "unidentified": ""
    },
    "epic": "",
    "psionic": "",
    "nameFormula": "",
    "nameFromFormula": false,
    "tags": [],
    "uniqueId": "",
    "linkId": "",
    "linkSourceId": "",
    "linkImported": false,
    "linkSourceName": "",
    "source": "",
    "classSource": "",
    "userNonRemovable": false,
    "customAttributes": {},
    "customAttributesLocked": false,
    "customTag": "",
    "createdBy": "",
    "activation": {
      "cost": 1,
      "type": "standard"
    },
    "duration": {
      "value": null,
      "units": ""
    },
    "target": {
      "value": ""
    },
    "range": {
      "value": "60",
      "units": "ft",
      "long": null
    },
    "recharge": {
      "enabled": false,
      "formula": "",
      "current": 0
    },
    "uses": {
      "value": 0,
      "max": 0,
      "per": "",
      "autoDeductCharges": true,
      "allowMultipleUses": false,
      "chargesPerUse": 1,
      "maxPerUse": null,
      "maxPerUseFormula": "",
      "maxFormula": "",
      "rechargeFormula": null,
      "isResource": false,
      "canBeLinked": false
    },
    "requiresPsionicFocus": false,
    "linkedChargeItem": {
      "id": null,
      "img": null,
      "name": null
    },
    "measureTemplate": {
      "type": "cone",
      "size": 60,
      "overrideColor": false,
      "customColor": "",
      "overrideTexture": false,
      "customTexture": ""
    },
    "actionType": "other",
    "attackBonus": "",
    "critConfirmBonus": "",
    "damage": {
      "parts": [],
      "alternativeParts": []
    },
    "summon": [],
    "attackParts": [],
    "autoscaleAttackParts": "",
    "formula": "",
    "attackCountFormula": "",
    "maxDamageDice": 0,
    "maxDamageDiceFormula": "",
    "ability": {
      "attack": "",
      "damage": "",
      "damageMult": 1,
      "critRange": 20,
      "critMult": 2,
      "twoHandedOnly": false,
      "vsTouchAc": false
    },
    "save": {
      "dc": "0",
      "description": "None",
      "ability": "",
      "type": "",
      "dcAutoType": "",
      "dcAutoAbility": ""
    },
    "baseCl": "0",
    "sr": false,
    "pr": false,
    "metamagicFeats": {
      "maximized": false,
      "empowered": false,
      "enlarged": false,
      "intensified": false,
      "enhanced": false,
      "enhancedHalf": false,
      "widened": false
    },
    "effectNotes": "",
    "attackNotes": "",
    "specialActions": [],
    "favorite": false,
    "rollTableDraw": {
      "formula": "",
      "name": "",
      "pack": "",
      "id": ""
    },
    "learnedAt": {
      "class": [
        [
          "Cleric",
          1
        ]
      ],
      "domain": [],
      "subDomain": [],
      "elementalSchool": [],
      "bloodline": []
    },
    "level": 1,
    "clOffset": 0,
    "slOffset": 0,
    "school": "div",
    "subschool": "",
    "types": "",
    "components": {
      "value": "",
      "verbal": true,
      "somatic": true,
      "material": false,
      "focus": true,
      "divineFocus": 1
    },
    "castTime": "",
    "conditionals": [],
    "materials": {
      "value": "",
      "consumed": {
        "value": false,
        "_deprecated": true
      },
      "focus": ""
    },
    "isSpellSpontaneousReplacement": false,
    "spellbook": "spelllike",
    "preparation": {
      "preparedAmount": 1,
      "maxAmount": 1,
      "autoDeductCharges": true,
      "mode": "prepared"
    },
    "atWill": false,
    "powerPointsCost": 0,
    "display": "",
    "isPower": false,
    "shortDescription": "\n\n\n<p>\nYou can sense the presence of law. The amount of information revealed depends on how long you study a particular area or subject.\n</p><p><i>1st Round: </i>Presence or absence of law.\n</p><p><i>2nd Round: </i>Number of lawful auras (creatures, objects, or spells) in the area and the power of the most potent lawful aura present.\n</p><p>If you are of chaotic alignment, and the strongest lawful aura’s power is overwhelming (see below), and the HD or level of the aura’s source is at least twice your character level, you are stunned for 1 round and the spell ends.\n</p><p><i>3rd Round: </i>The power and location of each aura. If an aura is outside your line of sight, then you discern its direction but not its exact location.\n</p><p><i>Aura Power: </i>An lawful aura’s power depends on the type of lawful creature or object that you’re detecting and its HD, caster level, or (in the case of a cleric) class level; see the accompanying table. If an aura falls into more than one strength category, the spell indicates the stronger of the two.\n</p>\n\n<p><i>Lingering Aura: </i>A lawful aura lingers after its original source dissipates (in the case of a spell) or is destroyed (in the case of a creature or magic item). If <i>detect law</i> is cast and directed at such a location, the spell indicates an aura strength of dim (even weaker than a faint aura). How long the aura lingers at this dim level depends on its original power:\n</p>\n\n<p>Animals, traps, poisons, and other potential perils are not lawful, and as such this spell does not detect them.\n</p><p>Each round, you can turn to detect lawful in a new area. The spell can penetrate barriers, but 1 foot of stone, 1 inch of common metal, a thin sheet of lead, or 3 feet of wood or dirt blocks it.\n</p>\n<hr/>\n\n\n",
    "snip": "Reveals creatures, spells, or objects of selected alignment.",
    "spellDuration": "Concentration, up to 10 min./ level (D)",
    "spellEffect": "",
    "spellArea": "cone-shaped emanation",
    "spellType": {
      "value": "",
      "_deprecated": true
    },
    "showInQuickbar": false,
    "specialPrepared": false,
    "isDomainSpell": false,
    "specialId": null,
    "customReferenceId": "",
    "attack": {
      "parts": []
    }
  },
  "sort": 600000,
  "flags": {},
  "img": "systems/D35E/icons/spells/named-spells/detect-law.png",
  "effects": [],
  "folder": null,
  "permission": {
    "default": 0
  },
  "_key": "!actors.items!P7qq2WUZ1vTTSWVv.ovPHbOZj6u7nleeP"
}