{
  "_id": "8z7aJ5ma9acwCDle",
  "name": "Detect Thoughts",
  "type": "spell",
  "data": {
    "originVersion": 0,
    "originPack": "",
    "originId": "",
    "possibleUpdate": false,
    "description": {
      "value": "<div class=\"spell-description\">\n  <p>\n      <strong>School:</strong>&nbsp;divination&nbsp;[mind-affecting];\n    <br>\n    <strong>Level:</strong>&nbsp;Bard 2, Sorcerer 2, Wizard 2;\n    <strong>Domain:</strong>&nbsp;Knowledge 2;\n    \n    \n    \n    <br>\n    <strong>Components:</strong>&nbsp;V, S, F/DF (a copper piece)<br>\n    \n      <strong>Casting Time:</strong>&nbsp;1 standard action<br>\n    <strong>Range:</strong>&nbsp;60 feet<br>\n    <strong>Area:</strong>&nbsp;cone-shaped emanation<br>\n    \n    \n    <strong>Duration:</strong>&nbsp;Concentration, up to 1 min./level (D)<br>\n    \n        <strong>Saving Throw:</strong>&nbsp;Will negates; see text\n        <br>\n        <strong>Spell Resistance:</strong>&nbsp;no<br>\n  </p>\n  <h2>Description</h2>\n  \n\n\n<p>\nYou detect surface thoughts. The amount of information revealed depends on how long you study a particular area or subject.\n</p><p><i>1st Round: </i>Presence or absence of thoughts (from conscious creatures with Intelligence scores of 1 or higher).\n</p><p><i>2nd Round: </i>Number of thinking minds and the Intelligence score of each. If the highest Intelligence is 26 or higher (and at least 10 points higher than your own Intelligence score), you are stunned for 1 round and the spell ends. This spell does not let you determine the location of the thinking minds if you can’t see the creatures whose thoughts you are detecting.\n</p><p><i>3rd Round: </i>Surface thoughts of any mind in the area. A target’s Will save prevents you from reading its thoughts, and you must cast <i>detect thoughts </i>again to have another chance. Creatures of animal intelligence (Int 1 or 2) have simple, instinctual thoughts that you can pick up.\n</p><p>Each round, you can turn to detect thoughts in a new area. The spell can penetrate barriers, but 1 foot of stone, 1 inch of common metal, a thin sheet of lead, or 3 feet of wood or dirt blocks it.\n</p><p><i>Arcane Focus: </i>A copper piece.\n</p>\n<hr/>\n\n\n\n</div>\n",
      "chat": "",
      "unidentified": ""
    },
    "epic": "",
    "psionic": "",
    "nameFormula": "",
    "nameFromFormula": false,
    "tags": [],
    "uniqueId": "",
    "linkId": "",
    "linkSourceId": "",
    "linkImported": false,
    "linkSourceName": "",
    "source": "",
    "classSource": "",
    "userNonRemovable": false,
    "customAttributes": {},
    "customAttributesLocked": false,
    "customTag": "",
    "createdBy": "",
    "activation": {
      "cost": 1,
      "type": "standard"
    },
    "duration": {
      "value": null,
      "units": ""
    },
    "target": {
      "value": ""
    },
    "range": {
      "value": "60",
      "units": "ft",
      "long": null
    },
    "recharge": {
      "enabled": false,
      "formula": "",
      "current": 0
    },
    "uses": {
      "value": 0,
      "max": 0,
      "per": "",
      "autoDeductCharges": true,
      "allowMultipleUses": false,
      "chargesPerUse": 1,
      "maxPerUse": null,
      "maxPerUseFormula": "",
      "maxFormula": "",
      "rechargeFormula": null,
      "isResource": false,
      "canBeLinked": false
    },
    "requiresPsionicFocus": false,
    "linkedChargeItem": {
      "id": null,
      "img": null,
      "name": null
    },
    "measureTemplate": {
      "type": "cone",
      "size": 60,
      "overrideColor": false,
      "customColor": "",
      "overrideTexture": false,
      "customTexture": ""
    },
    "actionType": "other",
    "attackBonus": "",
    "critConfirmBonus": "",
    "damage": {
      "parts": [],
      "alternativeParts": []
    },
    "summon": [],
    "attackParts": [],
    "autoscaleAttackParts": "",
    "formula": "",
    "attackCountFormula": "",
    "maxDamageDice": 0,
    "maxDamageDiceFormula": "",
    "ability": {
      "attack": "",
      "damage": "",
      "damageMult": 1,
      "critRange": 20,
      "critMult": 2,
      "twoHandedOnly": false,
      "vsTouchAc": false
    },
    "save": {
      "dc": "0",
      "description": "Will negates; see text",
      "ability": "",
      "type": "",
      "dcAutoType": "",
      "dcAutoAbility": ""
    },
    "baseCl": "0",
    "sr": false,
    "pr": false,
    "metamagicFeats": {
      "maximized": false,
      "empowered": false,
      "enlarged": false,
      "intensified": false,
      "enhanced": false,
      "enhancedHalf": false,
      "widened": false
    },
    "effectNotes": "",
    "attackNotes": "",
    "specialActions": [],
    "favorite": false,
    "rollTableDraw": {
      "formula": "",
      "name": "",
      "pack": "",
      "id": ""
    },
    "learnedAt": {
      "class": [
        [
          "Bard",
          2
        ],
        [
          "Wizard",
          2
        ],
        [
          "Sorcerer",
          2
        ]
      ],
      "domain": [
        [
          "Knowledge",
          2
        ]
      ],
      "subDomain": [],
      "elementalSchool": [],
      "bloodline": []
    },
    "level": 0,
    "clOffset": 0,
    "slOffset": 0,
    "school": "div",
    "subschool": "",
    "types": "mind-affecting",
    "components": {
      "value": "",
      "verbal": true,
      "somatic": true,
      "material": false,
      "focus": true,
      "divineFocus": 3
    },
    "castTime": "",
    "conditionals": [],
    "materials": {
      "value": "",
      "consumed": {
        "value": false,
        "_deprecated": true
      },
      "focus": "a copper piece"
    },
    "isSpellSpontaneousReplacement": false,
    "spellbook": "spelllike",
    "preparation": {
      "preparedAmount": 0,
      "maxAmount": 0,
      "autoDeductCharges": true,
      "mode": "prepared"
    },
    "atWill": true,
    "powerPointsCost": 0,
    "display": "",
    "isPower": false,
    "shortDescription": "\n\n\n<p>\nYou detect surface thoughts. The amount of information revealed depends on how long you study a particular area or subject.\n</p><p><i>1st Round: </i>Presence or absence of thoughts (from conscious creatures with Intelligence scores of 1 or higher).\n</p><p><i>2nd Round: </i>Number of thinking minds and the Intelligence score of each. If the highest Intelligence is 26 or higher (and at least 10 points higher than your own Intelligence score), you are stunned for 1 round and the spell ends. This spell does not let you determine the location of the thinking minds if you can’t see the creatures whose thoughts you are detecting.\n</p><p><i>3rd Round: </i>Surface thoughts of any mind in the area. A target’s Will save prevents you from reading its thoughts, and you must cast <i>detect thoughts </i>again to have another chance. Creatures of animal intelligence (Int 1 or 2) have simple, instinctual thoughts that you can pick up.\n</p><p>Each round, you can turn to detect thoughts in a new area. The spell can penetrate barriers, but 1 foot of stone, 1 inch of common metal, a thin sheet of lead, or 3 feet of wood or dirt blocks it.\n</p><p><i>Arcane Focus: </i>A copper piece.\n</p>\n<hr/>\n\n\n",
    "snip": "Allows “listening” to surface thoughts.",
    "spellDuration": "Concentration, up to 1 min./level (D)",
    "spellEffect": "",
    "spellArea": "cone-shaped emanation",
    "spellType": {
      "value": "",
      "_deprecated": true
    },
    "showInQuickbar": false,
    "specialPrepared": false,
    "isDomainSpell": false,
    "specialId": null,
    "customReferenceId": "",
    "attack": {
      "parts": []
    }
  },
  "sort": 600000,
  "flags": {},
  "img": "systems/D35E/icons/spells/named-spells/detect-thoughts.png",
  "effects": [],
  "folder": null,
  "permission": {
    "default": 0
  },
  "_key": "!actors.items!33obHnNVCLQU4HxJ.8z7aJ5ma9acwCDle"
}