{
  "_id": "B7Y9cnnWyfRPHdCm",
  "name": "Dictum",
  "type": "spell",
  "data": {
    "originVersion": 0,
    "originPack": "",
    "originId": "",
    "possibleUpdate": false,
    "description": {
      "value": "<div class=\"spell-description\">\n  <p>\n      <strong>School:</strong>&nbsp;evocation&nbsp;[lawful, sonic];\n    <br>\n    <strong>Level:</strong>&nbsp;Cleric 7;\n    <strong>Domain:</strong>&nbsp;Law 7;\n    \n    \n    \n    <br>\n    <strong>Components:</strong>&nbsp;V<br>\n    \n      <strong>Casting Time:</strong>&nbsp;1 standard action<br>\n    <strong>Range:</strong>&nbsp;40 feet<br>\n    <strong>Area:</strong>&nbsp;nonlawful creatures in a 40-ft.-radius spread centered on you<br>\n    \n    \n    <strong>Duration:</strong>&nbsp;Instantaneous<br>\n    \n        <strong>Saving Throw:</strong>&nbsp;None or Will negates; see text\n        <br>\n        <strong>Spell Resistance:</strong>&nbsp;yes<br>\n  </p>\n  <h2>Description</h2>\n  \n\n\n<p>\nAny nonlawful creature within the area of a <i>dictum </i>spell suffers the following ill effects.\n</p>\n\n<p>The effects are cumulative and concurrent. No saving throw is allowed against these effects.\n</p><p><i>Deafened: </i>The creature is deafened for 1d4 rounds.\n</p><p><i>Slowed: </i>The creature is <i>slowed, </i>as by the <i>slow </i>spell, for 2d4 rounds.\n</p><p><i>Paralyzed: </i>The creature is paralyzed and helpless for 1d10 minutes.\n</p><p><i>Killed: </i>Living creatures die. Undead creatures are destroyed.\n</p><p>Furthermore, if you are on your home plane when you cast this spell, nonlawful extraplanar creatures within the area are instantly banished back to their home planes. Creatures so banished cannot return for at least 24 hours. This effect takes place regardless of whether the creatures hear the <i>dictum. </i>The banishment effect allows a Will save (at a –4 penalty) to negate.\n</p><p>Creatures whose HD exceed your caster level are unaffected by <i>dictum.</i>\n</p>\n<hr/>\n\n\n\n</div>\n",
      "chat": "",
      "unidentified": ""
    },
    "epic": "",
    "psionic": "",
    "nameFormula": "",
    "nameFromFormula": false,
    "tags": [],
    "uniqueId": "",
    "linkId": "",
    "linkSourceId": "",
    "linkImported": false,
    "linkSourceName": "",
    "source": "",
    "classSource": "",
    "userNonRemovable": false,
    "customAttributes": {},
    "customAttributesLocked": false,
    "customTag": "",
    "createdBy": "",
    "activation": {
      "cost": 1,
      "type": "standard"
    },
    "duration": {
      "value": null,
      "units": ""
    },
    "target": {
      "value": ""
    },
    "range": {
      "value": "40",
      "units": "ft",
      "long": null
    },
    "recharge": {
      "enabled": false,
      "formula": "",
      "current": 0
    },
    "uses": {
      "value": 0,
      "max": 0,
      "per": "",
      "autoDeductCharges": true,
      "allowMultipleUses": false,
      "chargesPerUse": 1,
      "maxPerUse": null,
      "maxPerUseFormula": "",
      "maxFormula": "",
      "rechargeFormula": null,
      "isResource": false,
      "canBeLinked": false
    },
    "requiresPsionicFocus": false,
    "linkedChargeItem": {
      "id": null,
      "img": null,
      "name": null
    },
    "measureTemplate": {
      "type": "circle",
      "size": 40,
      "overrideColor": false,
      "customColor": "",
      "overrideTexture": false,
      "customTexture": ""
    },
    "actionType": "other",
    "attackBonus": "",
    "critConfirmBonus": "",
    "damage": {
      "parts": [],
      "alternativeParts": []
    },
    "summon": [],
    "attackParts": [],
    "autoscaleAttackParts": "",
    "formula": "",
    "attackCountFormula": "",
    "maxDamageDice": 0,
    "maxDamageDiceFormula": "",
    "ability": {
      "attack": "",
      "damage": "",
      "damageMult": 1,
      "critRange": 20,
      "critMult": 2,
      "twoHandedOnly": false,
      "vsTouchAc": false
    },
    "save": {
      "dc": "0",
      "description": "None or Will negates; see text",
      "ability": "",
      "type": "",
      "dcAutoType": "",
      "dcAutoAbility": ""
    },
    "baseCl": "0",
    "sr": true,
    "pr": false,
    "metamagicFeats": {
      "maximized": false,
      "empowered": false,
      "enlarged": false,
      "intensified": false,
      "enhanced": false,
      "enhancedHalf": false,
      "widened": false
    },
    "effectNotes": "",
    "attackNotes": "",
    "specialActions": [],
    "favorite": false,
    "rollTableDraw": {
      "formula": "",
      "name": "",
      "pack": "",
      "id": ""
    },
    "learnedAt": {
      "class": [
        [
          "Cleric",
          7
        ]
      ],
      "domain": [
        [
          "Law",
          7
        ]
      ],
      "subDomain": [],
      "elementalSchool": [],
      "bloodline": []
    },
    "level": 7,
    "clOffset": 0,
    "slOffset": 0,
    "school": "evo",
    "subschool": "",
    "types": "lawful, sonic",
    "components": {
      "value": "",
      "verbal": true,
      "somatic": false,
      "material": false,
      "focus": false,
      "divineFocus": 0
    },
    "castTime": "",
    "conditionals": [],
    "materials": {
      "value": "",
      "consumed": {
        "value": false,
        "_deprecated": true
      },
      "focus": ""
    },
    "isSpellSpontaneousReplacement": false,
    "spellbook": "primary",
    "preparation": {
      "preparedAmount": 0,
      "maxAmount": 0,
      "autoDeductCharges": true,
      "mode": "prepared"
    },
    "atWill": false,
    "powerPointsCost": 0,
    "display": "",
    "isPower": false,
    "shortDescription": "\n\n\n<p>\nAny nonlawful creature within the area of a <i>dictum </i>spell suffers the following ill effects.\n</p>\n\n<p>The effects are cumulative and concurrent. No saving throw is allowed against these effects.\n</p><p><i>Deafened: </i>The creature is deafened for 1d4 rounds.\n</p><p><i>Slowed: </i>The creature is <i>slowed, </i>as by the <i>slow </i>spell, for 2d4 rounds.\n</p><p><i>Paralyzed: </i>The creature is paralyzed and helpless for 1d10 minutes.\n</p><p><i>Killed: </i>Living creatures die. Undead creatures are destroyed.\n</p><p>Furthermore, if you are on your home plane when you cast this spell, nonlawful extraplanar creatures within the area are instantly banished back to their home planes. Creatures so banished cannot return for at least 24 hours. This effect takes place regardless of whether the creatures hear the <i>dictum. </i>The banishment effect allows a Will save (at a –4 penalty) to negate.\n</p><p>Creatures whose HD exceed your caster level are unaffected by <i>dictum.</i>\n</p>\n<hr/>\n\n\n",
    "snip": "Kills, paralyzes, slows, or deafens nonlawful subjects.",
    "spellDuration": "Instantaneous",
    "spellEffect": "",
    "spellArea": "nonlawful creatures in a 40-ft.-radius spread centered on you",
    "spellType": {
      "value": "",
      "_deprecated": true
    },
    "showInQuickbar": false,
    "specialPrepared": false,
    "isDomainSpell": false,
    "specialId": null,
    "customReferenceId": "",
    "attack": {
      "parts": []
    }
  },
  "sort": 600000,
  "flags": {},
  "img": "systems/D35E/icons/spells/named-spells/dictum.png",
  "effects": [],
  "folder": null,
  "permission": {
    "default": 0
  },
  "_key": "!actors.items!pjlwOBLsdc4O3896.B7Y9cnnWyfRPHdCm"
}