{
  "_id": "YjwAF9GYR3bh35QV",
  "name": "Dispel Magic",
  "type": "spell",
  "data": {
    "originVersion": 0,
    "originPack": "",
    "originId": "",
    "possibleUpdate": false,
    "description": {
      "value": "<div class=\"spell-description\">\n  <p>\n      <strong>School:</strong>&nbsp;abjuration;\n    <br>\n    <strong>Level:</strong>&nbsp;Bard 3, Cleric 3, Druid 4, Paladin 3, Sorcerer 3, Wizard 3;\n    <strong>Domain:</strong>&nbsp;Magic 3;\n    \n    \n    \n    <br>\n    <strong>Components:</strong>&nbsp;V, S<br>\n    \n      <strong>Casting Time:</strong>&nbsp;1 standard action<br>\n    <strong>Range:</strong>&nbsp;medium (100 ft. + 10 ft./level)<br>\n    <strong>Area:</strong>&nbsp;one spellcaster, creature, or object; or 20-ft.-radius burst<br>\n    <strong>Target:</strong>&nbsp;one spellcaster, creature, or object; or 20-ft.-radius burst<br>\n    \n    <strong>Duration:</strong>&nbsp;Instantaneous<br>\n    \n        <strong>Saving Throw:</strong>&nbsp;None\n        <br>\n        <strong>Spell Resistance:</strong>&nbsp;no<br>\n  </p>\n  <h2>Description</h2>\n  \n\n\n<p>\nYou can use <i>dispel magic </i>to end ongoing spells that have been cast on a creature or object, to temporarily suppress the magical abilities of a magic item, to end ongoing spells (or at least their effects) within an area, or to counter another spellcaster’s spell. A dispelled spell ends as if its duration had expired. Some spells, as detailed in their descriptions, can’t be defeated by <i>dispel magic</i>. <i>Dispel magic </i>can dispel (but not counter) spell-like effects just as it does spells.\n</p><p><i>Note: </i>The effect of a spell with an instantaneous duration can’t be dispelled, because the magical effect is already over before the <i>dispel magic </i>can take effect.\n</p><p>You choose to use <i>dispel magic </i>in one of three ways: a targeted dispel, an area dispel, or a counterspell:\n</p><p><i>Targeted Dispel: </i>One object, creature, or spell is the target of the <i>dispel magic </i>spell. You make a dispel check (1d20 + your caster level, maximum +10) against the spell or against each ongoing spell currently in effect on the object or creature. The DC for this dispel check is 11 + the spell’s caster level. If you succeed on a particular check, that spell is dispelled; if you fail, that spell remains in effect.\n</p><p>If you target an object or creature that is the effect of an ongoing spell (such as a monster summoned by <i>monster summoning</i>), you make a dispel check to end the spell that conjured the object or creature.\n</p><p>If the object that you target is a magic item, you make a dispel check against the item’s caster level. If you succeed, all the item’s magical properties are suppressed for 1d4 rounds, after which the item recovers on its own. A suppressed item becomes nonmagical for the duration of the effect. An interdimensional interface (such as a <i>bag of holding</i>) is temporarily closed. A magic item’s physical properties are unchanged: A suppressed magic sword is still a sword (a masterwork sword, in fact). Artifacts and deities are unaffected by mortal magic such as this.\n</p><p>You automatically succeed on your dispel check against any spell that you cast yourself.\n</p><p><i>Area Dispel: </i>When <i>dispel magic </i>is used in this way, the spell affects everything within a 20-foot radius.\n</p><p>For each creature within the area that is the subject of one or more spells, you make a dispel check against the spell with the highest caster level. If that check fails, you make dispel checks against progressively weaker spells until you dispel one spell (which discharges the <i>dispel magic </i>spell so far as that target is concerned) or until you fail all your checks. The creature’s magic items are not affected.\n</p><p>For each object within the area that is the target of one or more spells, you make dispel checks as with creatures. Magic items are not affected by an area dispel.\n</p><p>For each ongoing area or effect spell whose point of origin is within the area of the <i>dispel magic </i>spell, you can make a dispel check to dispel the spell.\n</p><p>For each ongoing spell whose area overlaps that of the <i>dispel magic </i>spell, you can make a dispel check to end the effect, but only within the overlapping area.\n</p><p>If an object or creature that is the effect of an ongoing spell (such as a monster summoned by <i>monster summoning</i>) is in the area, you can make a dispel check to end the spell that conjured that object or creature (returning it whence it came) in addition to attempting to dispel spells targeting the creature or object.\n</p><p>You may choose to automatically succeed on dispel checks against any spell that you have cast.\n</p><p><i>Counterspell: </i>When <i>dispel magic </i>is used in this way, the spell targets a spellcaster and is cast as a counterspell. Unlike a true counterspell, however, <i>dispel magic </i>may not work; you must make a dispel check to counter the other spellcaster’s spell.\n</p>\n<hr/>\n\n\n\n</div>\n",
      "chat": "",
      "unidentified": ""
    },
    "epic": "",
    "psionic": "",
    "nameFormula": "",
    "nameFromFormula": false,
    "tags": [],
    "uniqueId": "",
    "linkId": "",
    "linkSourceId": "",
    "linkImported": false,
    "linkSourceName": "",
    "source": "",
    "classSource": "",
    "userNonRemovable": false,
    "customAttributes": {},
    "customAttributesLocked": false,
    "customTag": "",
    "createdBy": "",
    "activation": {
      "cost": 1,
      "type": "standard"
    },
    "duration": {
      "value": null,
      "units": ""
    },
    "target": {
      "value": "one spellcaster, creature, or object; or 20-ft.-radius burst"
    },
    "range": {
      "value": null,
      "units": "medium",
      "long": null
    },
    "recharge": {
      "enabled": false,
      "formula": "",
      "current": 0
    },
    "uses": {
      "value": 0,
      "max": 0,
      "per": "",
      "autoDeductCharges": true,
      "allowMultipleUses": false,
      "chargesPerUse": 1,
      "maxPerUse": null,
      "maxPerUseFormula": "",
      "maxFormula": "",
      "rechargeFormula": null,
      "isResource": false,
      "canBeLinked": false
    },
    "requiresPsionicFocus": false,
    "linkedChargeItem": {
      "id": null,
      "img": null,
      "name": null
    },
    "measureTemplate": {
      "type": "circle",
      "size": 0,
      "overrideColor": false,
      "customColor": "",
      "overrideTexture": false,
      "customTexture": ""
    },
    "actionType": "other",
    "attackBonus": "",
    "critConfirmBonus": "",
    "damage": {
      "parts": [],
      "alternativeParts": []
    },
    "summon": [],
    "attackParts": [],
    "autoscaleAttackParts": "",
    "formula": "",
    "attackCountFormula": "",
    "maxDamageDice": 0,
    "maxDamageDiceFormula": "",
    "ability": {
      "attack": "",
      "damage": "",
      "damageMult": 1,
      "critRange": 20,
      "critMult": 2,
      "twoHandedOnly": false,
      "vsTouchAc": false
    },
    "save": {
      "dc": "0",
      "description": "None",
      "ability": "",
      "type": "",
      "dcAutoType": "",
      "dcAutoAbility": ""
    },
    "baseCl": "0",
    "sr": false,
    "pr": false,
    "metamagicFeats": {
      "maximized": false,
      "empowered": false,
      "enlarged": false,
      "intensified": false,
      "enhanced": false,
      "enhancedHalf": false,
      "widened": false
    },
    "effectNotes": "",
    "attackNotes": "",
    "specialActions": [],
    "favorite": false,
    "rollTableDraw": {
      "formula": "",
      "name": "",
      "pack": "",
      "id": ""
    },
    "learnedAt": {
      "class": [
        [
          "Bard",
          3
        ],
        [
          "Cleric",
          3
        ],
        [
          "Druid",
          4
        ],
        [
          "Paladin",
          3
        ],
        [
          "Wizard",
          3
        ],
        [
          "Sorcerer",
          3
        ]
      ],
      "domain": [
        [
          "Magic",
          3
        ]
      ],
      "subDomain": [],
      "elementalSchool": [],
      "bloodline": []
    },
    "level": 3,
    "clOffset": 0,
    "slOffset": 0,
    "school": "abj",
    "subschool": "",
    "types": "",
    "components": {
      "value": "",
      "verbal": true,
      "somatic": true,
      "material": false,
      "focus": false,
      "divineFocus": 0
    },
    "castTime": "",
    "conditionals": [],
    "materials": {
      "value": "",
      "consumed": {
        "value": false,
        "_deprecated": true
      },
      "focus": ""
    },
    "isSpellSpontaneousReplacement": false,
    "spellbook": "primary",
    "preparation": {
      "preparedAmount": 0,
      "maxAmount": 0,
      "autoDeductCharges": true,
      "mode": "prepared"
    },
    "atWill": false,
    "powerPointsCost": 0,
    "display": "",
    "isPower": false,
    "shortDescription": "\n\n\n<p>\nYou can use <i>dispel magic </i>to end ongoing spells that have been cast on a creature or object, to temporarily suppress the magical abilities of a magic item, to end ongoing spells (or at least their effects) within an area, or to counter another spellcaster’s spell. A dispelled spell ends as if its duration had expired. Some spells, as detailed in their descriptions, can’t be defeated by <i>dispel magic</i>. <i>Dispel magic </i>can dispel (but not counter) spell-like effects just as it does spells.\n</p><p><i>Note: </i>The effect of a spell with an instantaneous duration can’t be dispelled, because the magical effect is already over before the <i>dispel magic </i>can take effect.\n</p><p>You choose to use <i>dispel magic </i>in one of three ways: a targeted dispel, an area dispel, or a counterspell:\n</p><p><i>Targeted Dispel: </i>One object, creature, or spell is the target of the <i>dispel magic </i>spell. You make a dispel check (1d20 + your caster level, maximum +10) against the spell or against each ongoing spell currently in effect on the object or creature. The DC for this dispel check is 11 + the spell’s caster level. If you succeed on a particular check, that spell is dispelled; if you fail, that spell remains in effect.\n</p><p>If you target an object or creature that is the effect of an ongoing spell (such as a monster summoned by <i>monster summoning</i>), you make a dispel check to end the spell that conjured the object or creature.\n</p><p>If the object that you target is a magic item, you make a dispel check against the item’s caster level. If you succeed, all the item’s magical properties are suppressed for 1d4 rounds, after which the item recovers on its own. A suppressed item becomes nonmagical for the duration of the effect. An interdimensional interface (such as a <i>bag of holding</i>) is temporarily closed. A magic item’s physical properties are unchanged: A suppressed magic sword is still a sword (a masterwork sword, in fact). Artifacts and deities are unaffected by mortal magic such as this.\n</p><p>You automatically succeed on your dispel check against any spell that you cast yourself.\n</p><p><i>Area Dispel: </i>When <i>dispel magic </i>is used in this way, the spell affects everything within a 20-foot radius.\n</p><p>For each creature within the area that is the subject of one or more spells, you make a dispel check against the spell with the highest caster level. If that check fails, you make dispel checks against progressively weaker spells until you dispel one spell (which discharges the <i>dispel magic </i>spell so far as that target is concerned) or until you fail all your checks. The creature’s magic items are not affected.\n</p><p>For each object within the area that is the target of one or more spells, you make dispel checks as with creatures. Magic items are not affected by an area dispel.\n</p><p>For each ongoing area or effect spell whose point of origin is within the area of the <i>dispel magic </i>spell, you can make a dispel check to dispel the spell.\n</p><p>For each ongoing spell whose area overlaps that of the <i>dispel magic </i>spell, you can make a dispel check to end the effect, but only within the overlapping area.\n</p><p>If an object or creature that is the effect of an ongoing spell (such as a monster summoned by <i>monster summoning</i>) is in the area, you can make a dispel check to end the spell that conjured that object or creature (returning it whence it came) in addition to attempting to dispel spells targeting the creature or object.\n</p><p>You may choose to automatically succeed on dispel checks against any spell that you have cast.\n</p><p><i>Counterspell: </i>When <i>dispel magic </i>is used in this way, the spell targets a spellcaster and is cast as a counterspell. Unlike a true counterspell, however, <i>dispel magic </i>may not work; you must make a dispel check to counter the other spellcaster’s spell.\n</p>\n<hr/>\n\n\n",
    "snip": "Cancels magical spells and effects.",
    "spellDuration": "Instantaneous",
    "spellEffect": "",
    "spellArea": "one spellcaster, creature, or object; or 20-ft.-radius burst",
    "spellType": {
      "value": "",
      "_deprecated": true
    },
    "showInQuickbar": false,
    "specialPrepared": false,
    "isDomainSpell": false,
    "specialId": null,
    "customReferenceId": "",
    "attack": {
      "parts": []
    }
  },
  "sort": 600000,
  "flags": {},
  "img": "systems/D35E/icons/spells/named-spells/dispel-magic.png",
  "effects": [],
  "folder": null,
  "permission": {
    "default": 0
  },
  "_key": "!actors.items!TKerPEguCYjH8jVB.YjwAF9GYR3bh35QV"
}