{
  "_id": "6ASABx5QlCTRF4XF",
  "name": "Flaming Sphere",
  "type": "spell",
  "data": {
    "originVersion": 0,
    "originPack": "",
    "originId": "",
    "possibleUpdate": false,
    "description": {
      "value": "<div class=\"spell-description\">\n  <p>\n      <strong>School:</strong>&nbsp;evocation&nbsp;[fire];\n    <br>\n    <strong>Level:</strong>&nbsp;Druid 2, Sorcerer 2, Wizard 2;\n    \n    \n    \n    \n    <br>\n    <strong>Components:</strong>&nbsp;V, S, M/DF (a bit of tallow, a pinch of brimstone, and a dusting of powdered iron), F<br>\n    \n      <strong>Casting Time:</strong>&nbsp;1 standard action<br>\n    <strong>Range:</strong>&nbsp;medium (100 ft. + 10 ft./level)<br>\n    \n    \n    <strong>Effect:</strong>&nbsp;5-ft.-diameter sphere\n<br>\n    <strong>Duration:</strong>&nbsp;1 round/level\n<br>\n    \n        <strong>Saving Throw:</strong>&nbsp;Reflex negates\n\n        <br>\n        <strong>Spell Resistance:</strong>&nbsp;yes<br>\n  </p>\n  <h2>Description</h2>\n  \n\n\n<p>\nA burning globe of fire rolls in whichever direction you point and burns those it strikes. It moves 30 feet per round. As part of this movement, it can ascend or jump up to 30 feet to strike a target. If it enters a space with a creature, it stops moving for the round and deals 2d6 points of fire damage to that creature, though a successful Reflex save negates that damage. A <i>flaming sphere </i>rolls over barriers less than 4 feet tall. It ignites flammable substances it touches and illuminates the same area as a torch would.\n</p><p>The sphere moves as long as you actively direct it (a move action for you); otherwise, it merely stays at rest and burns. It can be extinguished by any means that would put out a normal fire of its size. The surface of the sphere has a spongy, yielding consistency and so does not cause damage except by its flame. It cannot push aside unwilling creatures or batter down large obstacles. A <i>flaming sphere </i>winks out if it exceeds the spell’s range.\n</p><p><i>Arcane Material Component: </i>A bit of tallow, a pinch of brimstone, and a dusting of powdered iron.\n</p>\n<hr/>\n\n\n\n</div>\n",
      "chat": "",
      "unidentified": ""
    },
    "epic": "",
    "psionic": "",
    "nameFormula": "",
    "nameFromFormula": false,
    "tags": [],
    "uniqueId": "",
    "linkId": "",
    "linkSourceId": "",
    "linkImported": false,
    "linkSourceName": "",
    "source": "",
    "classSource": "",
    "userNonRemovable": false,
    "customAttributes": {},
    "customAttributesLocked": false,
    "customTag": "",
    "createdBy": "",
    "activation": {
      "cost": 1,
      "type": "standard"
    },
    "duration": {
      "value": null,
      "units": ""
    },
    "target": {
      "value": ""
    },
    "range": {
      "value": null,
      "units": "medium",
      "long": null
    },
    "recharge": {
      "enabled": false,
      "formula": "",
      "current": 0
    },
    "uses": {
      "value": 0,
      "max": 0,
      "per": "",
      "autoDeductCharges": true,
      "allowMultipleUses": false,
      "chargesPerUse": 1,
      "maxPerUse": null,
      "maxPerUseFormula": "",
      "maxFormula": "",
      "rechargeFormula": null,
      "isResource": false,
      "canBeLinked": false
    },
    "requiresPsionicFocus": false,
    "linkedChargeItem": {
      "id": null,
      "img": null,
      "name": null
    },
    "measureTemplate": {
      "type": "",
      "size": 0,
      "overrideColor": false,
      "customColor": "",
      "overrideTexture": false,
      "customTexture": ""
    },
    "actionType": "other",
    "attackBonus": "",
    "critConfirmBonus": "",
    "damage": {
      "parts": [],
      "alternativeParts": []
    },
    "summon": [],
    "attackParts": [],
    "autoscaleAttackParts": "",
    "formula": "",
    "attackCountFormula": "",
    "maxDamageDice": 0,
    "maxDamageDiceFormula": "",
    "ability": {
      "attack": "",
      "damage": "",
      "damageMult": 1,
      "critRange": 20,
      "critMult": 2,
      "twoHandedOnly": false,
      "vsTouchAc": false
    },
    "save": {
      "dc": "0",
      "description": "Reflex negates\n",
      "ability": "",
      "type": "",
      "dcAutoType": "",
      "dcAutoAbility": ""
    },
    "baseCl": "0",
    "sr": true,
    "pr": false,
    "metamagicFeats": {
      "maximized": false,
      "empowered": false,
      "enlarged": false,
      "intensified": false,
      "enhanced": false,
      "enhancedHalf": false,
      "widened": false
    },
    "effectNotes": "",
    "attackNotes": "",
    "specialActions": [],
    "favorite": false,
    "rollTableDraw": {
      "formula": "",
      "name": "",
      "pack": "",
      "id": ""
    },
    "learnedAt": {
      "class": [
        [
          "Druid",
          2
        ],
        [
          "Wizard",
          2
        ],
        [
          "Sorcerer",
          2
        ]
      ],
      "domain": [],
      "subDomain": [],
      "elementalSchool": [],
      "bloodline": []
    },
    "level": 2,
    "clOffset": 0,
    "slOffset": 0,
    "school": "evo",
    "subschool": "",
    "types": "fire",
    "components": {
      "value": "",
      "verbal": true,
      "somatic": true,
      "material": true,
      "focus": true,
      "divineFocus": 2
    },
    "castTime": "",
    "conditionals": [],
    "materials": {
      "value": "a bit of tallow, a pinch of brimstone, and a dusting of powdered iron",
      "consumed": {
        "value": false,
        "_deprecated": true
      },
      "focus": ""
    },
    "isSpellSpontaneousReplacement": false,
    "spellbook": "spelllike",
    "preparation": {
      "preparedAmount": 3,
      "maxAmount": 3,
      "autoDeductCharges": true,
      "mode": "prepared"
    },
    "atWill": false,
    "powerPointsCost": 0,
    "display": "",
    "isPower": false,
    "shortDescription": "\n\n\n<p>\nA burning globe of fire rolls in whichever direction you point and burns those it strikes. It moves 30 feet per round. As part of this movement, it can ascend or jump up to 30 feet to strike a target. If it enters a space with a creature, it stops moving for the round and deals 2d6 points of fire damage to that creature, though a successful Reflex save negates that damage. A <i>flaming sphere </i>rolls over barriers less than 4 feet tall. It ignites flammable substances it touches and illuminates the same area as a torch would.\n</p><p>The sphere moves as long as you actively direct it (a move action for you); otherwise, it merely stays at rest and burns. It can be extinguished by any means that would put out a normal fire of its size. The surface of the sphere has a spongy, yielding consistency and so does not cause damage except by its flame. It cannot push aside unwilling creatures or batter down large obstacles. A <i>flaming sphere </i>winks out if it exceeds the spell’s range.\n</p><p><i>Arcane Material Component: </i>A bit of tallow, a pinch of brimstone, and a dusting of powdered iron.\n</p>\n<hr/>\n\n\n",
    "snip": "Creates rolling ball of fire, 2d6 damage, lasts 1 round/level.",
    "spellDuration": "1 round/level\n",
    "spellEffect": "5-ft.-diameter sphere\n",
    "spellArea": "",
    "spellType": {
      "value": "",
      "_deprecated": true
    },
    "showInQuickbar": false,
    "specialPrepared": false,
    "isDomainSpell": false,
    "specialId": null,
    "customReferenceId": "",
    "attack": {
      "parts": []
    }
  },
  "sort": 600000,
  "flags": {},
  "img": "systems/D35E/icons/spells/named-spells/flaming-sphere.png",
  "effects": [],
  "folder": null,
  "permission": {
    "default": 0
  },
  "_key": "!actors.items!1BAwN4i7xiMqPqMI.6ASABx5QlCTRF4XF"
}