{
  "_id": "jgpbO8tNNKqjUiAc",
  "name": "Force Dragon, Ancient",
  "type": "npc",
  "img": "systems/D35E/icons/bestiary/token/force-dragon.png",
  "items": [
    "8jK6JoUh0ttaTeiA",
    "iekcmZy1dtItJFTD",
    "bDnLYx9Dh4Hq4x4t",
    "VLr9BQrrX5Wo82g1",
    "yxJyvE0RSaYJ09tS",
    "Kui0c0GZgZYCLTlb",
    "JmD2dK5HTGDa8dHX",
    "O17V0O1iGRyCvcvI",
    "65hue29dmSukk36k",
    "k32o7shVT9JSwHmC",
    "zyu0DatxlMLKxlw5",
    "ohiD8P0q5BXJlL21",
    "MrKjgeciDlQuPFlX",
    "pVIMby99ZukFLz5z",
    "XPO1jXxSP4gegeOO",
    "DDt5a94xM454ddGH",
    "8N53YnE62H2xZJK6",
    "IMDfAPzotALRI3zP",
    "Uvytg3gd2uceqjLi",
    "rSP1qcg8lYGJ2A1u",
    "LbA1NfUEVQcZYz9k",
    "m5N8nyEJwnu497Kp",
    "G2xmKnTDipRXlFY6",
    "MOnUffNAAFqWDAEz",
    "GZ4oWo5dcogjAuIw",
    "2F5Jrr2Hu8PHFPCz",
    "LWt3cUBdaicQDlh5",
    "eJPyu0pNxzLTxbyn",
    "yuIVsfg8EvavRaIK",
    "lINslqfCk7WIKVA2",
    "9bVyZE9zcjDvpCHu",
    "0YJVhoxcSTb72GOf",
    "jwxUpy0G7GhWY2aP",
    "4sZUif720P80iAPu",
    "1mZsWUUMFG3ER7Pk",
    "0CiC1wyum9dHPAlx"
  ],
  "effects": [],
  "folder": null,
  "sort": 0,
  "flags": {
    "core": {
      "sourceId": "Compendium.D35E.bestiary.jgpbO8tNNKqjUiAc"
    },
    "D35E": {
      "loseDexToAC": false,
      "noStr": false,
      "noDex": false,
      "noInt": false,
      "noCon": false,
      "oneInt": false,
      "oneWis": false,
      "oneCha": false,
      "noEncumbrance": false,
      "mediumArmorFullSpeed": false,
      "heavyArmorFullSpeed": false,
      "multiAttack": false,
      "multiweaponAttack": false,
      "uncannyDodge": false,
      "naturalAttackCount": 6
    }
  },
  "system": {
    "shapechangeImg": "icons/svg/mystery-man.svg",
    "tokenImg": "systems/D35E/icons/bestiary/token/force-dragon.png",
    "companionUuid": "",
    "companionPublicId": "",
    "companionUsePersonalKey": false,
    "companionAutosync": false,
    "companionLockGM": false,
    "abilities": {
      "str": {
        "total": 67,
        "mod": 28,
        "value": 67,
        "carryBonus": 0,
        "carryMultiplier": 1,
        "checkMod": 0,
        "damage": null,
        "drain": 0,
        "penalty": 0,
        "userPenalty": null,
        "origMod": 28,
        "origTotal": 67,
        "isZero": false
      },
      "dex": {
        "total": 10,
        "mod": 0,
        "value": 10,
        "checkMod": 0,
        "damage": null,
        "drain": 0,
        "penalty": 0,
        "userPenalty": null,
        "origMod": 0,
        "origTotal": 10,
        "isZero": false
      },
      "con": {
        "total": 53,
        "mod": 21,
        "value": 53,
        "checkMod": 0,
        "damage": null,
        "drain": 0,
        "penalty": 0,
        "userPenalty": null,
        "origMod": 21,
        "origTotal": 53,
        "isZero": false
      },
      "int": {
        "total": 54,
        "mod": 22,
        "value": 54,
        "checkMod": 0,
        "damage": null,
        "drain": 0,
        "penalty": 0,
        "userPenalty": null,
        "origMod": 22,
        "origTotal": 54,
        "isZero": false
      },
      "wis": {
        "total": 55,
        "mod": 22,
        "value": 55,
        "checkMod": 0,
        "damage": null,
        "drain": 0,
        "penalty": 0,
        "userPenalty": null,
        "origMod": 22,
        "origTotal": 55,
        "isZero": false
      },
      "cha": {
        "total": 54,
        "mod": 22,
        "value": 54,
        "checkMod": 0,
        "damage": null,
        "drain": 0,
        "penalty": 0,
        "userPenalty": null,
        "origMod": 22,
        "origTotal": 54,
        "isZero": false
      }
    },
    "resources": {
      "crush": {
        "max": 0,
        "_id": "yxJyvE0RSaYJ09tS"
      },
      "frightfulPresence": {
        "max": 0,
        "_id": "Kui0c0GZgZYCLTlb"
      },
      "tailSweep": {
        "max": 0,
        "_id": "JmD2dK5HTGDa8dHX"
      },
      "tail": {
        "max": 0,
        "_id": "0YJVhoxcSTb72GOf"
      },
      "bite": {
        "max": 0,
        "_id": "jwxUpy0G7GhWY2aP",
        "value": 0
      },
      "claw": {
        "max": 0,
        "_id": "4sZUif720P80iAPu",
        "value": 0
      },
      "wing": {
        "max": 0,
        "_id": "1mZsWUUMFG3ER7Pk",
        "value": 0
      }
    },
    "attributes": {
      "encumbrance": {
        "level": 0,
        "levels": {
          "light": 1419946,
          "medium": 2839893,
          "heavy": 4259840,
          "carry": 8519680,
          "drag": 21299200
        },
        "carriedWeight": 0
      },
      "senses": {
        "darkvision": 0,
        "blindsight": 0,
        "tremorsense": 0,
        "truesight": 0,
        "lowLight": false,
        "lowLightMultiplier": 2,
        "special": ""
      },
      "hd": {
        "base": {
          "_deprecated": true,
          "value": 0
        },
        "total": 65,
        "max": {
          "_deprecated": true,
          "value": 0
        },
        "racialClass": 65
      },
      "naturalAC": "",
      "naturalACTotal": 64,
      "fortification": {
        "value": null,
        "total": 0
      },
      "ac": {
        "normal": {
          "value": 0,
          "total": 88
        },
        "touch": {
          "value": 0,
          "total": 24
        },
        "flatFooted": {
          "value": 0,
          "total": 88
        }
      },
      "concealment": {
        "value": 0,
        "total": 0
      },
      "bab": {
        "value": 0,
        "total": 65,
        "base": 65
      },
      "cmd": {
        "value": 0,
        "total": 141,
        "flatFootedTotal": 141
      },
      "cmb": {
        "value": 0,
        "total": 109
      },
      "sr": {
        "formula": "",
        "total": 51
      },
      "pr": {
        "formula": "",
        "total": 0
      },
      "hardness": {
        "formula": "",
        "total": 0
      },
      "cmbNotes": "",
      "saveNotes": "",
      "acNotes": "",
      "cmdNotes": "",
      "srNotes": "",
      "attack": {
        "general": 0,
        "melee": 0,
        "ranged": 0,
        "sunder": 0,
        "bullrush": 0
      },
      "damage": {
        "general": 0,
        "weapon": 0,
        "spell": 0
      },
      "maxDexBonus": 999,
      "maxDex": {
        "gear": null,
        "encumbrance": null,
        "total": 999
      },
      "acp": {
        "gear": 0,
        "encumbrance": 0,
        "total": 0
      },
      "energyDrain": null,
      "quadruped": false,
      "savingThrows": {
        "fort": {
          "total": 55,
          "base": 34
        },
        "ref": {
          "total": 34,
          "base": 34
        },
        "will": {
          "total": 56,
          "base": 34
        }
      },
      "hp": {
        "value": 1787,
        "min": -100,
        "base": 0,
        "max": 1787,
        "temp": null,
        "nonlethal": null
      },
      "turnUndeadHdTotal": 0,
      "turnUndeadUsesBonusFormula": "",
      "turnUndeadUses": 0,
      "prestigeCl": {
        "psionic": {
          "max": 0,
          "value": 0,
          "total": 0
        },
        "arcane": {
          "max": 0,
          "value": 0,
          "total": 0
        },
        "divine": {
          "max": 0,
          "value": 0,
          "total": 0
        },
        "cards": {
          "max": 0,
          "value": 0
        }
      },
      "turnUndeadUsesTotal": 0,
      "sneakAttackDiceTotal": 0,
      "minionClassLevels": {
        "none": 0
      },
      "minionDistance": {},
      "spellPointsTotal": [],
      "powerPointsTotal": 0,
      "arcaneSpellFailure": 0,
      "psionicFocus": false,
      "wounds": {
        "min": 0,
        "value": 106,
        "max": 106
      },
      "vigor": {
        "min": 0,
        "value": 422,
        "temp": 0,
        "max": 422
      },
      "init": {
        "value": 0,
        "bonus": 0,
        "total": 4
      },
      "prof": 2,
      "speed": {
        "land": {
          "base": 60,
          "total": 60,
          "run": 240
        },
        "climb": {
          "base": null,
          "total": 0,
          "run": 0
        },
        "swim": {
          "base": null,
          "total": 0,
          "run": 0
        },
        "burrow": {
          "base": null,
          "total": 0,
          "run": 0
        },
        "fly": {
          "base": 300,
          "total": 300,
          "run": 1200,
          "maneuverability": "average"
        }
      },
      "conditions": {
        "blind": false,
        "dazzled": false,
        "deaf": false,
        "entangled": false,
        "fatigued": false,
        "exhausted": false,
        "grappled": false,
        "helpless": false,
        "paralyzed": false,
        "pinned": false,
        "fear": false,
        "sickened": false,
        "stunned": false,
        "shaken": false,
        "polymorphed": false,
        "wildshaped": false,
        "prone": false,
        "dead": false,
        "dying": false,
        "disabled": false,
        "stable": false,
        "unconscious": false,
        "staggered": false,
        "invisible": false,
        "banished": false,
        "invisibility": false
      },
      "spells": {
        "concentration": {
          "bonus": 0,
          "context": ""
        },
        "spellbooks": {
          "primary": {
            "name": "Primary",
            "class": "",
            "cl": {
              "base": 0,
              "value": 0,
              "total": 0,
              "formula": ""
            },
            "concentration": 0,
            "bonusPrestigeCl": 0,
            "concentrationFormula": "",
            "concentrationNotes": "",
            "clNotes": "",
            "ability": "int",
            "spellslotAbility": "",
            "autoSpellLevels": true,
            "usePowerPoints": false,
            "autoSetup": true,
            "spellcastingType": null,
            "powerPointsFormula": "",
            "dailyPowerPointsFormula": "",
            "powerPoints": 0,
            "powerPointsTotal": 0,
            "maximumPowerPointLimit": "@cl",
            "arcaneSpellFailure": true,
            "baseDCFormula": "10 + @sl + @ablMod",
            "spontaneous": false,
            "hasSpecialSlot": false,
            "showOnlyPrepared": false,
            "specialSlots": {
              "level1": null,
              "level2": null,
              "level3": null,
              "level4": null,
              "level5": null,
              "level6": null,
              "level7": null,
              "level8": null,
              "level9": null
            },
            "maxPrestigeCl": 0,
            "allSpellsKnown": false,
            "hasPrestigeCl": false,
            "canAddPrestigeCl": false,
            "canRemovePrestigeCl": false,
            "powersKnown": 0,
            "powersMaxLevel": 0,
            "spells": {
              "spell0": {
                "value": 0,
                "max": 0,
                "base": 0,
                "known": 0,
                "maxKnown": 0,
                "bonus": 0,
                "classBase": 0
              },
              "spell1": {
                "value": 0,
                "max": 0,
                "base": 0,
                "known": 0,
                "maxKnown": 0,
                "bonus": 0,
                "classBase": 0
              },
              "spell2": {
                "value": 0,
                "max": 0,
                "base": 0,
                "known": 0,
                "maxKnown": 0,
                "bonus": 0,
                "classBase": 0
              },
              "spell3": {
                "value": 0,
                "max": 0,
                "base": 0,
                "known": 0,
                "maxKnown": 0,
                "bonus": 0,
                "classBase": 0
              },
              "spell4": {
                "value": 0,
                "max": 0,
                "base": 0,
                "known": 0,
                "maxKnown": 0,
                "bonus": 0,
                "classBase": 0
              },
              "spell5": {
                "value": 0,
                "max": 0,
                "base": 0,
                "known": 0,
                "maxKnown": 0,
                "bonus": 0,
                "classBase": 0
              },
              "spell6": {
                "value": 0,
                "max": 0,
                "base": 0,
                "known": 0,
                "maxKnown": 0,
                "bonus": 0,
                "classBase": 0
              },
              "spell7": {
                "value": 0,
                "max": 0,
                "base": 0,
                "known": 0,
                "maxKnown": 0,
                "bonus": 0,
                "classBase": 0
              },
              "spell8": {
                "value": 0,
                "max": 0,
                "base": 0,
                "known": 0,
                "maxKnown": 0,
                "bonus": 0,
                "classBase": 0
              },
              "spell9": {
                "value": 0,
                "max": 0,
                "base": 0,
                "known": 0,
                "maxKnown": 0,
                "bonus": 0,
                "classBase": 0
              }
            },
            "powerPointsValue": {
              "max": 0,
              "value": 0
            },
            "spellcastingAbilityBonus": 0
          },
          "secondary": {
            "name": "Secondary",
            "class": "",
            "cl": {
              "base": 0,
              "value": 0,
              "total": 0,
              "formula": ""
            },
            "concentration": 0,
            "bonusPrestigeCl": 0,
            "concentrationFormula": "",
            "concentrationNotes": "",
            "clNotes": "",
            "ability": "int",
            "spellslotAbility": "",
            "autoSpellLevels": true,
            "usePowerPoints": false,
            "autoSetup": true,
            "spellcastingType": null,
            "powerPointsFormula": "",
            "powerPoints": 0,
            "powerPointsTotal": 0,
            "maximumPowerPointLimit": "@cl",
            "dailyPowerPointsFormula": "",
            "arcaneSpellFailure": true,
            "baseDCFormula": "10 + @sl + @ablMod",
            "spontaneous": false,
            "hasSpecialSlot": false,
            "showOnlyPrepared": false,
            "specialSlots": {
              "level1": null,
              "level2": null,
              "level3": null,
              "level4": null,
              "level5": null,
              "level6": null,
              "level7": null,
              "level8": null,
              "level9": null
            },
            "maxPrestigeCl": 0,
            "allSpellsKnown": false,
            "hasPrestigeCl": false,
            "canAddPrestigeCl": false,
            "canRemovePrestigeCl": false,
            "powersKnown": 0,
            "powersMaxLevel": 0,
            "spells": {
              "spell0": {
                "value": 0,
                "max": 0,
                "base": 0,
                "known": 0,
                "maxKnown": 0,
                "bonus": 0,
                "classBase": 0
              },
              "spell1": {
                "value": 0,
                "max": 0,
                "base": 0,
                "known": 0,
                "maxKnown": 0,
                "bonus": 0,
                "classBase": 0
              },
              "spell2": {
                "value": 0,
                "max": 0,
                "base": 0,
                "known": 0,
                "maxKnown": 0,
                "bonus": 0,
                "classBase": 0
              },
              "spell3": {
                "value": 0,
                "max": 0,
                "base": 0,
                "known": 0,
                "maxKnown": 0,
                "bonus": 0,
                "classBase": 0
              },
              "spell4": {
                "value": 0,
                "max": 0,
                "base": 0,
                "known": 0,
                "maxKnown": 0,
                "bonus": 0,
                "classBase": 0
              },
              "spell5": {
                "value": 0,
                "max": 0,
                "base": 0,
                "known": 0,
                "maxKnown": 0,
                "bonus": 0,
                "classBase": 0
              },
              "spell6": {
                "value": 0,
                "max": 0,
                "base": 0,
                "known": 0,
                "maxKnown": 0,
                "bonus": 0,
                "classBase": 0
              },
              "spell7": {
                "value": 0,
                "max": 0,
                "base": 0,
                "known": 0,
                "maxKnown": 0,
                "bonus": 0,
                "classBase": 0
              },
              "spell8": {
                "value": 0,
                "max": 0,
                "base": 0,
                "known": 0,
                "maxKnown": 0,
                "bonus": 0,
                "classBase": 0
              },
              "spell9": {
                "value": 0,
                "max": 0,
                "base": 0,
                "known": 0,
                "maxKnown": 0,
                "bonus": 0,
                "classBase": 0
              }
            },
            "powerPointsValue": {
              "max": 0,
              "value": 0
            },
            "spellcastingAbilityBonus": 0
          },
          "tertiary": {
            "name": "Tertiary",
            "class": "",
            "cl": {
              "base": 0,
              "value": 0,
              "total": 0,
              "formula": ""
            },
            "concentration": 0,
            "bonusPrestigeCl": 0,
            "concentrationFormula": "",
            "concentrationNotes": "",
            "clNotes": "",
            "ability": "int",
            "spellslotAbility": "",
            "autoSpellLevels": true,
            "usePowerPoints": false,
            "autoSetup": true,
            "spellcastingType": null,
            "powerPointsFormula": "",
            "powerPoints": 0,
            "powerPointsTotal": 0,
            "maximumPowerPointLimit": "@cl",
            "dailyPowerPointsFormula": "",
            "arcaneSpellFailure": true,
            "baseDCFormula": "10 + @sl + @ablMod",
            "spontaneous": false,
            "hasSpecialSlot": false,
            "showOnlyPrepared": false,
            "specialSlots": {
              "level1": null,
              "level2": null,
              "level3": null,
              "level4": null,
              "level5": null,
              "level6": null,
              "level7": null,
              "level8": null,
              "level9": null
            },
            "maxPrestigeCl": 0,
            "allSpellsKnown": false,
            "hasPrestigeCl": false,
            "canAddPrestigeCl": false,
            "canRemovePrestigeCl": false,
            "powersKnown": 0,
            "powersMaxLevel": 0,
            "spells": {
              "spell0": {
                "value": 0,
                "max": 0,
                "base": 0,
                "known": 0,
                "maxKnown": 0,
                "bonus": 0,
                "classBase": 0
              },
              "spell1": {
                "value": 0,
                "max": 0,
                "base": 0,
                "known": 0,
                "maxKnown": 0,
                "bonus": 0,
                "classBase": 0
              },
              "spell2": {
                "value": 0,
                "max": 0,
                "base": 0,
                "known": 0,
                "maxKnown": 0,
                "bonus": 0,
                "classBase": 0
              },
              "spell3": {
                "value": 0,
                "max": 0,
                "base": 0,
                "known": 0,
                "maxKnown": 0,
                "bonus": 0,
                "classBase": 0
              },
              "spell4": {
                "value": 0,
                "max": 0,
                "base": 0,
                "known": 0,
                "maxKnown": 0,
                "bonus": 0,
                "classBase": 0
              },
              "spell5": {
                "value": 0,
                "max": 0,
                "base": 0,
                "known": 0,
                "maxKnown": 0,
                "bonus": 0,
                "classBase": 0
              },
              "spell6": {
                "value": 0,
                "max": 0,
                "base": 0,
                "known": 0,
                "maxKnown": 0,
                "bonus": 0,
                "classBase": 0
              },
              "spell7": {
                "value": 0,
                "max": 0,
                "base": 0,
                "known": 0,
                "maxKnown": 0,
                "bonus": 0,
                "classBase": 0
              },
              "spell8": {
                "value": 0,
                "max": 0,
                "base": 0,
                "known": 0,
                "maxKnown": 0,
                "bonus": 0,
                "classBase": 0
              },
              "spell9": {
                "value": 0,
                "max": 0,
                "base": 0,
                "known": 0,
                "maxKnown": 0,
                "bonus": 0,
                "classBase": 0
              }
            },
            "powerPointsValue": {
              "max": 0,
              "value": 0
            },
            "spellcastingAbilityBonus": 0
          },
          "spelllike": {
            "name": "Spell-likes",
            "class": "_hd",
            "cl": {
              "base": 0,
              "value": 0,
              "total": 65,
              "formula": ""
            },
            "concentration": 0,
            "bonusPrestigeCl": 0,
            "concentrationFormula": "",
            "concentrationNotes": "",
            "clNotes": "",
            "ability": "cha",
            "spellslotAbility": "",
            "autoSpellLevels": true,
            "usePowerPoints": false,
            "autoSetup": false,
            "spellcastingType": "None",
            "powerPointsFormula": "",
            "powerPoints": 0,
            "powerPointsTotal": 0,
            "maximumPowerPointLimit": "@cl",
            "dailyPowerPointsFormula": "",
            "arcaneSpellFailure": true,
            "baseDCFormula": "10 + @sl + @ablMod",
            "spontaneous": false,
            "hasSpecialSlot": false,
            "showOnlyPrepared": false,
            "specialSlots": {
              "level1": null,
              "level2": null,
              "level3": null,
              "level4": null,
              "level5": null,
              "level6": null,
              "level7": null,
              "level8": null,
              "level9": null
            },
            "maxPrestigeCl": 0,
            "allSpellsKnown": false,
            "hasPrestigeCl": false,
            "canAddPrestigeCl": false,
            "canRemovePrestigeCl": false,
            "powersKnown": 0,
            "powersMaxLevel": 0,
            "spells": {
              "spell0": {
                "value": 0,
                "max": 0,
                "base": 0,
                "known": 0,
                "maxKnown": 0,
                "bonus": 0,
                "classBase": 0
              },
              "spell1": {
                "value": 0,
                "max": 0,
                "base": 0,
                "known": 0,
                "maxKnown": 0,
                "bonus": 0,
                "classBase": 0
              },
              "spell2": {
                "value": 0,
                "max": 0,
                "base": 0,
                "known": 0,
                "maxKnown": 0,
                "bonus": 0,
                "classBase": 0
              },
              "spell3": {
                "value": 0,
                "max": 0,
                "base": 0,
                "known": 0,
                "maxKnown": 0,
                "bonus": 0,
                "classBase": 0
              },
              "spell4": {
                "value": 0,
                "max": 0,
                "base": 0,
                "known": 0,
                "maxKnown": 0,
                "bonus": 0,
                "classBase": 0
              },
              "spell5": {
                "value": 0,
                "max": 0,
                "base": 0,
                "known": 0,
                "maxKnown": 0,
                "bonus": 0,
                "classBase": 0
              },
              "spell6": {
                "value": 0,
                "max": 0,
                "base": 0,
                "known": 0,
                "maxKnown": 0,
                "bonus": 0,
                "classBase": 0
              },
              "spell7": {
                "value": 0,
                "max": 0,
                "base": 0,
                "known": 0,
                "maxKnown": 0,
                "bonus": 0,
                "classBase": 0
              },
              "spell8": {
                "value": 0,
                "max": 0,
                "base": 0,
                "known": 0,
                "maxKnown": 0,
                "bonus": 0,
                "classBase": 0
              },
              "spell9": {
                "value": 0,
                "max": 0,
                "base": 0,
                "known": 0,
                "maxKnown": 0,
                "bonus": 0,
                "classBase": 0
              }
            },
            "powerPointsValue": {
              "max": 0,
              "value": 0
            },
            "spellcastingAbilityBonus": 0
          }
        }
      },
      "cards": {
        "concentration": {
          "bonus": 0,
          "context": ""
        },
        "decks": {
          "primary": {
            "name": "Primary",
            "class": "",
            "cl": {
              "base": null,
              "value": 0,
              "total": 0,
              "formula": ""
            },
            "autoHandSize": false,
            "handSize": {
              "base": 0,
              "value": 0,
              "total": 0,
              "formula": ""
            },
            "drawRandom": false,
            "deckSize": {
              "base": 0,
              "value": 0,
              "total": 0,
              "formula": ""
            },
            "clNotes": "",
            "ability": "int",
            "spellslotAbility": "",
            "addHalfOtherLevels": false,
            "autoSetup": true,
            "baseDCFormula": "10 + @sl + @ablMod",
            "maxPrestigeCl": 0,
            "hasPrestigeCl": false,
            "canAddPrestigeCl": false,
            "canRemovePrestigeCl": false
          },
          "secondary": {
            "name": "Secondary",
            "class": "",
            "cl": {
              "base": null,
              "value": 0,
              "total": 0,
              "formula": ""
            },
            "autoHandSize": false,
            "handSize": {
              "base": 0,
              "value": 0,
              "total": 0,
              "formula": ""
            },
            "drawRandom": false,
            "deckSize": {
              "base": 0,
              "value": 0,
              "total": 0,
              "formula": ""
            },
            "clNotes": "",
            "ability": "int",
            "spellslotAbility": "",
            "addHalfOtherLevels": false,
            "autoSetup": true,
            "baseDCFormula": "10 + @sl + @ablMod",
            "maxPrestigeCl": 0,
            "hasPrestigeCl": false,
            "canAddPrestigeCl": false,
            "canRemovePrestigeCl": false
          }
        }
      },
      "spellcasting": {
        "_deprecated": true
      },
      "spelldc": {
        "_deprecated": true
      },
      "damageReduction": {
        "any": 0,
        "types": []
      },
      "energyResistance": [],
      "spellLevel": 0,
      "creatureType": "dragon",
      "mods": {
        "skills": {}
      },
      "runSpeedMultiplierModifier": 0,
      "speedMultiplier": 0
    },
    "details": {
      "level": {
        "value": 65,
        "min": 0,
        "max": 40,
        "available": 1
      },
      "breakDC": {
        "base": 0,
        "total": 0
      },
      "levelUpData": [
        {
          "level": 1,
          "id": "_level1",
          "classId": null,
          "class": null,
          "classImage": null,
          "skills": {},
          "hp": 0,
          "hasFeat": true,
          "hasAbility": false
        }
      ],
      "alignment": "Usually neutral",
      "biography": {
        "value": "",
        "public": ""
      },
      "notes": {
        "value": "<div topic='Force Dragon' level='3'><p><h4>Force Dragon</h4></p><p/><p/><p/><p/><div topic='Dragon' level='8'><p><b>Dragon (Force)</b></p></div><div topic='Environment' level='8'><p><b>Environment:</b> Any land and underground</p></div><div topic='Organization' level='8'><p><b>Organization:</b> Wyrmling, very young, young, juvenile and young adult: solitary or clutch (2-5); adult, mature adult, old, very old, ancient, wyrm, or great wyrm: solitary, pair, or family (1-2 and 2-5 offspring)</p></div><div topic='Challenge Rating' level='8'><p><b>Challenge Rating:</b> Wyrmling 13; very young 19; young 21; juvenile 25; young adult 28; adult 31; mature adult 35; old 37; very old 39; ancient 43; wyrm 50; great wyrm 59</p></div><div topic='Treasure' level='8'><p><b>Treasure:</b> Double standard</p></div><div topic='Alignment' level='8'><p><b>Alignment:</b> Usually neutral</p></div><div topic='Advancement' level='8'><p><b>Advancement:</b> Wyrmling 21-24 HD (Huge); very young 26-29 HD (Huge); young 31-34 HD (Gargantuan); juvenile 36-39 HD (Gargantuan); young adult 41-44 HD (Gargantuan); adult 46-49 HD (Gargantuan); mature adult 51-54 HD (Colossal); old 56-59 HD (Colossal); very old 61-64 HD (Colossal); ancient 66-69 HD (Colossal); wyrm 71-74 HD (Colossal+); great wyrm 76+ HD (Colossal+)</p><p/></div><div topic='Force Dragons by Age' level='5'><p><h2><b>Force Dragons by Age</b> </h2></p><table class='table table-sm table-hover' width='100%' border='1' cellpadding='2' cellspacing='2' frame='VOID' rules='ROWS'><tr maxcol='17' curcol='17'><td><b>Age</b> <br/></td><td><b>Size</b><br/></td><td><b>Hit Dice (hp)</b><br/></td><td><b>Str</b><br/></td><td><b>Dex</b><br/></td><td><b>Con</b><br/></td><td><b>Int</b><br/></td><td><b>Wis</b><br/></td><td><b>Cha</b><br/></td><td><b>Base Attack/</b><br/><b>Grapple</b><br/></td> <td><b>Attack</b><br/></td><td><b>Fort Save</b><br/></td><td><b>Ref Save</b><br/></td><td><b>Will Save</b><br/></td><td><b>Breath Weapon (DC)</b><br/></td><td><b>Frightful Presence DC</b><br/></td></tr><tr maxcol='17' curcol='17'><td>Wyrmling<br/></td><td>H<br/></td><td>20d12+100 (230)<br/></td><td>31<br/></td><td>10<br/></td><td>21<br/></td><td>18<br/></td><td>19<br/></td><td>18<br/></td><td>+20/+38<br/></td><td>+28<br/></td><td>+17<br/></td><td>+12<br/></td><td>+16<br/></td><td>5d12 (25)<br/></td><td>24<br/></td></tr><tr maxcol='17' curcol='17'><td>Very young<br/></td><td>H<br/></td><td>25d12+150 (312)<br/></td><td>35<br/></td><td>10<br/></td><td>23<br/></td><td>22<br/></td><td>23<br/></td><td>22<br/></td><td>+25/+45<br/></td><td>+35<br/></td><td>+20<br/></td><td>+14<br/></td><td>+20<br/></td><td>10d12 (28)<br/></td><td>28<br/></td></tr><tr maxcol='17' curcol='17'><td>Young<br/></td><td>G<br/></td><td>30d12+210 (405)<br/></td><td>39<br/></td><td>10<br/></td><td>25<br/></td><td>26<br/></td><td>27<br/></td><td>26<br/></td><td>+30/+56<br/></td><td>+40<br/></td><td>+24<br/></td><td>+17<br/></td><td>+25<br/></td><td>15d12 (32)<br/></td><td>33<br/></td></tr><tr maxcol='17' curcol='17'><td>Juvenile<br/></td><td>G<br/></td><td>35d12+315 (542)<br/></td><td>43<br/></td><td>10<br/></td><td>29<br/></td><td>30<br/></td><td>31<br/></td><td>30<br/></td><td>+35/+63<br/></td><td>+47<br/></td><td>+28<br/></td><td>+19<br/></td><td>+29<br/></td><td>20d12 (36)<br/></td><td>37<br/></td></tr><tr maxcol='17' curcol='17'><td>Young adult<br/></td><td>G<br/></td><td>40d12+440 (700)<br/></td><td>47<br/></td><td>10<br/></td><td>33<br/></td><td>34<br/></td><td>35<br/></td><td>34<br/></td><td>+40/+70<br/></td><td>+54<br/></td><td>+33<br/></td><td>+22<br/></td><td>+34<br/></td><td>25d12 (41)<br/></td><td>42<br/></td></tr><tr maxcol='17' curcol='17'><td>Adult<br/></td><td>G<br/></td><td>45d12+585 (877)<br/></td><td>51<br/></td><td>10<br/></td><td>37<br/></td><td>38<br/></td><td>39<br/></td><td>38<br/></td><td>+45/+77<br/></td><td>+61<br/></td><td>+37<br/></td><td>+24<br/></td><td>+38<br/></td><td>30d12 (45)<br/></td><td>46<br/></td></tr><tr maxcol='17' curcol='17'><td>Mature adult<br/></td><td>C<br/></td><td>50d12+750 (1,075)<br/></td><td>55<br/></td><td>10<br/></td><td>41<br/></td><td>42<br/></td><td>43<br/></td><td>42<br/></td><td>+50/+88<br/></td><td>+64<br/></td><td>+42<br/></td><td>+27<br/></td><td>+43<br/></td><td>35d12 (50)<br/></td><td>51<br/></td></tr><tr maxcol='17' curcol='17'><td>Old<br/></td><td>C<br/></td><td>55d12+935 (1,292)<br/></td><td>59<br/></td><td>10<br/></td><td>45<br/></td><td>46<br/></td><td>47<br/></td><td>46<br/></td><td>+55/+95<br/></td><td>+71<br/></td><td>+46<br/></td><td>+29<br/></td><td>+47<br/></td><td>40d12 (54)<br/></td><td>55<br/></td></tr><tr maxcol='17' curcol='17'><td>Very old<br/></td><td>C<br/></td><td>60d12+1,140 (1,530)<br/></td><td>63<br/></td><td>10<br/></td><td>49<br/></td><td>50<br/></td><td>51<br/></td><td>50<br/></td><td>+60/+102<br/></td><td>+78<br/></td><td>+51<br/></td><td>+32<br/></td><td>+52<br/></td><td>45d12 (59)<br/></td><td>60<br/></td></tr><tr maxcol='17' curcol='17'><td>Ancient<br/></td><td>C<br/></td><td>65d12+1,365 (1,787)<br/></td><td>67<br/></td><td>10<br/></td><td>53<br/></td><td>54<br/></td><td>55<br/></td><td>54<br/></td><td>+65/+109<br/></td><td>+85<br/></td><td>+55<br/></td><td>+34<br/></td><td>+56<br/></td><td>50d12 (63)<br/></td><td>64<br/></td></tr><tr maxcol='17' curcol='17'><td>Wyrm<br/></td><td>C+<br/></td><td>70d12+1,610 (2,065)<br/></td><td>71<br/></td><td>10<br/></td><td>57<br/></td><td>58<br/></td><td>59<br/></td><td>58<br/></td><td>+70/+116<br/></td><td>+92<br/></td><td>+60<br/></td><td>+37<br/></td><td>+61<br/></td><td>55d12 (68)<br/></td><td>69<br/></td></tr><tr maxcol='17' curcol='17'><td>Great wyrm<br/></td><td>C+<br/></td><td>75d12+1,875 (2,362)<br/></td><td>75<br/></td><td>10<br/></td><td>61<br/></td><td>62<br/></td><td>63<br/></td><td>62<br/></td><td>+75/+123<br/></td><td>+99<br/></td><td>+64<br/></td><td>+39<br/></td><td>+65<br/></td><td>60d12 (72)<br/></td><td>73<br/></td></tr></table><p/></div><div topic='Force Dragon Abilities by Age' level='5'><p><h2><b>Force Dragon Abilities by Age</b> </h2></p><table class='table table-sm table-hover' width='100%' border='1' cellpadding='2' cellspacing='2' frame='VOID' rules='ROWS'><tr maxcol='8' curcol='8'><td><b>Age</b> <br/></td> <td><b>Speed</b> <br/></td><td><b>Initiative</b><br/></td><td><b>AC</b> <br/></td><td><b>Special Abilities</b> <br/></td><td><b>Caster Level</b><br/></td><td><b>SR</b><br/></td></tr><tr maxcol='8' curcol='8'><td>Wyrmling<br/></td><td>60 ft., fly 250 ft. (poor)<br/></td><td>+0<br/></td><td>31 (-2 size, +4 deflection, +19 natural), touch 12, flat-footed 31<br/></td><td>Damage reduction 10/magic, deflecting force, immune to force<br/></td><td>3rd<br/></td><td>24<br/></td></tr><tr maxcol='8' curcol='8'><td>Very young<br/></td><td>60 ft., fly 250 ft. (poor)<br/></td><td>+0<br/></td><td>38 (-2 size, +6 deflection, +24 natural), touch 14, flat-footed 38<br/></td><td/><td>6th<br/></td><td>27<br/></td></tr><tr maxcol='8' curcol='8'><td>Young<br/></td><td>60 ft., fly 300 ft. (clumsy)<br/></td><td>+0<br/></td><td>43 (-4 size, +8 deflection, +29 natural), touch 14, flat-footed 43<br/></td><td>Damage reduction 15/magic<br/></td><td>9th<br/></td><td>30<br/></td></tr><tr maxcol='8' curcol='8'><td>Juvenile<br/></td><td>60 ft., fly 300 ft. (clumsy)<br/></td><td>+0<br/></td><td>50 (-4 size, +10 deflection, +34 natural), touch 16, flat-footed 50<br/></td><td><i>resilient sphere</i>,  blur<br/></td><td>12th<br/></td><td>33<br/></td></tr><tr maxcol='8' curcol='8'><td>Young adult<br/></td><td>60 ft., fly 300 ft. (clumsy)<br/></td><td>+0<br/></td><td>57 (-4 size, +12 deflection, +39 natural), touch 18, flat-footed 57<br/></td><td>Damage reduction 15/epic<br/></td><td>15th<br/></td><td>36<br/></td></tr><tr maxcol='8' curcol='8'><td>Adult<br/></td><td>60 ft., fly 300 ft. (clumsy)<br/></td><td>+0<br/></td><td>64 (-4 size, +14 deflection, +44 natural), touch 20, flat-footed 64<br/></td><td><i>Wall of force</i> <br/></td><td>18th<br/></td><td>39<br/></td></tr><tr maxcol='8' curcol='8'><td>Mature adult<br/></td><td>60 ft., fly 300 ft. (clumsy)<br/></td><td>+0<br/></td><td>67 (-8 size, +16 deflection, +49 natural), touch 18, flat-footed 67<br/></td><td>Damage reduction 20/epic<br/></td><td>21st<br/></td><td>42<br/></td></tr><tr maxcol='8' curcol='8'><td>Old<br/></td><td>60 ft., fly 300 ft. (clumsy)<br/></td><td>+0<br/></td><td>74 (-8 size, +18 deflection, +54 natural), touch 20, flat-footed 74<br/></td><td><i>Forcecage</i>,  displacement<br/></td><td>24th<br/></td><td>45<br/></td></tr><tr maxcol='8' curcol='8'><td>Very old<br/></td><td>60 ft., fly 300 ft. (clumsy)<br/></td><td>+0<br/></td><td>81 (-8 size, +20 deflection, +59 natural), touch 22, flat-footed 81<br/></td><td>Damage reduction 25/epic<br/></td><td>27th<br/></td><td>48<br/></td></tr><tr maxcol='8' curcol='8'><td>Ancient<br/></td><td>60 ft., fly 300 ft. (clumsy)<br/></td><td>+0<br/></td><td>88 (-8 size, +22 deflection, +64 natural), touch 24, flat-footed 88<br/></td><td><i>Maze</i><br/></td><td>30th<br/></td><td>51<br/></td></tr><tr maxcol='8' curcol='8'><td>Wyrm<br/></td><td>60 ft., fly 350 ft. (clumsy)<br/></td><td>+0<br/></td><td>95 (-8 size, +24 deflection, +69 natural), touch 26, flat-footed 95<br/></td><td/><td>33rd<br/></td><td>54<br/></td></tr><tr maxcol='8' curcol='8'><td>Great wyrm<br/></td><td>60 ft., fly 350 ft. (clumsy)<br/></td><td>+0<br/></td><td>102 (-8 size, +26 deflection, +74 natural), touch 28, flat-footed 102<br/></td><td><i>telekinetic sphere</i>,  invisibility<br/></td><td>36th<br/></td><td>57<br/></td></tr></table><p>A force dragon's natural weapons are treated as magic (wyrmling - juvenile) or epic (young adult - great wyrm) for the purpose of overcoming damage reduction.</p></div><div topic='Combat' level='5'><p><h2>Combat</h2></p><div topic='Breath Weapon' level='8'><p><b>Breath Weapon (Su):</b> A force dragon has one type of breath weapon, a cone of force that tears through creatures and objects in its area to devastating effect.</p></div><div topic='Immune to Force' level='8'><p><b>Immune to Force (Ex):</b> A force dragon cannot be harmed by any force effect, including <i>magic missiles</i>,  <i>explosive runes</i>,  <i>mage's sword</i>,  the <i>sphere</i> spells, or any other spell or effect with the Force descriptor. It can move freely through barriers made of force, such as a <i>wall of force</i>.</p></div><div topic='Deflecting Force' level='8'><p><b>Deflecting Force (Su):</b> A force dragon is protected by a shield of force that provides a deflection bonus to its AC. The deflection bonus is equal to the dragon's Charisma bonus.</p></div><div topic='Blur' level='8'><p><b>Blur (Su):</b> When a force dragon reaches juvenile age, the force surrounding its body distorts the light around it so that it is hard to discern the dragon's exact location. This functions as a continuous <i>blur</i> spell, giving the dragon concealment (20% miss chance).</p></div><div topic='Displacement' level='8'><p><b>Displacement (Su):</b> An old force dragon's deflecting force bends light even more ex-tremely, giving the dragon the benefit of the <i>displacement</i> spell (50% miss chance). This supersedes its <i>blur</i> ability.</p></div><div topic='Invisibility' level='8'><p><b>Invisibility (Su):</b> A great wyrm force dragon is a creature of pure force, and is completely invisible (as though protected by <i>greater invisibility</i>). A creature that can see invisible creatures must still contend with the dragon's <i>displacement</i> ability.</p></div><div topic='Spell-Like Abilities' level='8'><p><b>Spell-Like Abilities:</b> 3/day-<i>forcecage</i>,  <i>maze</i>,  <i>resilient sphere</i>,  <i>telekinetic sphere</i>,  <i>wall of force</i>. The DCs are Charisma-based.</p><p/></div></div><div topic='Sample Force Dragon, Adult' level='5'><p><h2><b>Sample Force Dragon, Adult</b> </h2></p><p>Gargantuan Dragon (Force)</p><p><b>Hit Dice:</b> 45d12+585 (877 hp)</p><p><b>Initiative:</b> +0</p><p><b>Speed:</b> 60 ft., fly 300 ft. (clumsy)</p><p><b>AC:</b> 64 (-4 size, +14 deflection, +44 natural)</p><p><b>Base Attack/Grapple:</b> +45/+77</p><p><b>Attack:</b>  Bite +61 (4d6+20/19-20) melee</p><p><b>Full Attack:</b> Bite +61 (4d6+20/19-20) melee, 2 claws +56 (2d6+10/19-20) melee, 2 wings +56 (2d6+10/19-20) melee, tail slap +56 (2d8+30/19-20) melee</p><p><b>Space/Reach:</b> 20 ft./15 ft.</p><p><b>Special Attacks:</b> Crush 4d6+30 (DC 45), tail sweep 2d6+30 (DC 45), breath weapon, frightful presence (DC 46), spells (caster level 18th), spell-like abilities</p><p><b>Special Qualities:</b> Immunities, damage reduction 15/epic, spell resistance 39, blindsense 60 ft., keen senses, deflecting force, blur (20% miss chance)</p><p><b>Saves:</b> Fort +37, Ref +24, Will +38</p><p><b>Abilities:</b> Str 51, Dex 10, Con 37, Int 38, Wis 39, Cha 38</p><p><b>Skills:</b> Appraise +50, Bluff +62, Concentration +61, Craft (alchemy) +50, Diplomacy +74, Escape Artist +48, Gather Information +20, Intimidate +68, Jump +32, Knowledge (all) +56, Listen +64, Search +72, Sense Motive +50, Spellcraft +68, Spot +74</p><p><b>Feats:</b> Alertness, Cleave, Combat Reflexes, Empower Spell-Like Ability, Flyby Attack, Hover, Improved Critical (bite), Improved Critical (claws), Improved Critical (wings), Improved Critical (tail slap), Improved Initiative, Improved Sunder, Maximize Spell-Like Ability, Power Attack, Spell Knowledge, Wingover</p><p><b>Environment:</b> Any land and underground</p><p><b>Organization:</b> Solitary, pair, or family (1-2 and 2-5 offspring)</p><p><b>Challenge Rating:</b> 31</p><p><b>Treasure:</b> Double standard</p><p><b>Alignment:</b> Usually neutral</p><p><b>Advancement:</b> 46-49 HD (Gargantuan)</p><p>A force dragon's natural weapons are treated as epic for the purpose of overcoming damage reduction.</p><p><b>Breath Weapon (Su):</b> Cone of force, 60 ft., damage 30d12, Ref half (DC 45). The DC is Constitution-based.</p><p><b>Spell-Like Abilities:</b> 3/day-<i>resilient sphere</i>,  <i>wall of force</i>. Caster level 18th; save DC 24 + spell level.</p><p><b>Immunities (Ex):</b> Immune to <i>sleep</i> and paralysis, immune to force effects.</p><p><b><i>Sorcerer Spells Known</i></b> (6/10/10/9/9/9/9/8/7/5; base DC 24 + spell level): <i>0-arcane mark</i>,  <i>dancing lights</i>,  <i>detect magic</i>,  <i>flare</i>,  <i>ghost sound</i>,  <i>light</i>,  <i>mending</i>,  <i>open/close</i>,  <i>read magic</i>; 1st-<i>disguise self</i>,  <i>comprehend languages</i>,  <i>detect secret doors</i>,  <i>magic missile</i>,  <i>true strike</i>; 2nd- <i>bull's strength</i>,  <i>cat's grace</i>,  <i>darkness</i>,  <i>locate object</i>,  <i>mirror image</i>; 3rd-<i>clairaudience/clairvoyance</i>,  <i>fireball</i>,  <i>haste</i>,  <i>lightning bolt</i>; 4th-<i>charm monster</i>,  <i>greater invisibility</i>,  <i>scrying</i>,  <i>stoneskin</i>; 5th-<i>contact other plane</i>,  <i>dream</i>,  <i>hold monster</i>,  <i>teleport</i>; 6th-<i>analyze dweomer</i>,  <i>greater dispel magic</i>,  <i>true seeing</i>; 7th-<i>forcecage</i>,  <i>spell turning</i>,  <i>summon monster VII</i>; 8th-<i>polymorph any object</i>,  <i>protection from spells</i>; 9th- <i>time stop</i>. </p><p><i>Possessions: Crystal ball with true seeing</i>,  <i>circlet of eyes*</i>,  <i>pearl of power</i> (7th-level spell), 8,000 gp. *Variant of <i>robe of eyes</i>; benefit included in Search and Spot skill modifiers.</p><p/></div></div>    ",
        "public": ""
      },
      "bonusSkillRankFormula": "",
      "type": "Force",
      "environment": "",
      "cr": 43,
      "totalCr": 43,
      "xp": {
        "value": 10
      },
      "levelUpProgression": false,
      "advancement": {
        "hd": [
          {
            "lower": 66,
            "upper": 69,
            "size": "col"
          }
        ],
        "byClass": false,
        "none": false,
        "originalHD": 0
      }
    },
    "skills": {
      "apr": {
        "value": 0,
        "ability": "int",
        "rt": false,
        "acp": false,
        "rank": 27,
        "notes": "",
        "mod": 49,
        "background": false,
        "visibility": "default",
        "cs": true,
        "points": 27,
        "acpPenalty": 0,
        "energyDrainPenalty": 0,
        "abilityModifier": 22
      },
      "blc": {
        "value": 0,
        "ability": "dex",
        "rt": false,
        "acp": true,
        "rank": 0,
        "notes": "",
        "mod": 2,
        "background": false,
        "visibility": "default",
        "cs": false,
        "changeBonus": 2,
        "points": null,
        "acpPenalty": 0,
        "energyDrainPenalty": 0,
        "abilityModifier": 0
      },
      "blf": {
        "value": 0,
        "ability": "cha",
        "rt": false,
        "acp": false,
        "rank": 27,
        "notes": "",
        "mod": 49,
        "background": false,
        "visibility": "default",
        "cs": true,
        "points": 27,
        "acpPenalty": 0,
        "energyDrainPenalty": 0,
        "abilityModifier": 22
      },
      "clm": {
        "value": 0,
        "ability": "str",
        "rt": false,
        "acp": true,
        "rank": 0,
        "notes": "",
        "mod": 28,
        "background": false,
        "visibility": "default",
        "cs": true,
        "points": null,
        "acpPenalty": 0,
        "energyDrainPenalty": 0,
        "abilityModifier": 28
      },
      "coc": {
        "value": 0,
        "ability": "con",
        "rt": false,
        "acp": false,
        "rank": 68,
        "notes": "",
        "mod": 89,
        "background": false,
        "visibility": "default",
        "cs": true,
        "points": 68,
        "acpPenalty": 0,
        "energyDrainPenalty": 0,
        "abilityModifier": 21
      },
      "crf": {
        "value": 0,
        "ability": "int",
        "rt": false,
        "acp": false,
        "rank": 0,
        "notes": "",
        "mod": 22,
        "background": false,
        "visibility": "default",
        "cs": true,
        "subSkills": {},
        "namedSubSkills": {},
        "points": 0,
        "acpPenalty": 0,
        "energyDrainPenalty": 0,
        "abilityModifier": 22
      },
      "dsc": {
        "value": 0,
        "ability": "int",
        "rt": true,
        "acp": false,
        "rank": 0,
        "notes": "",
        "mod": 22,
        "background": false,
        "visibility": "default",
        "cs": false,
        "points": null,
        "acpPenalty": 0,
        "energyDrainPenalty": 0,
        "abilityModifier": 22
      },
      "dip": {
        "value": 0,
        "ability": "cha",
        "rt": false,
        "acp": false,
        "rank": 68,
        "notes": "",
        "mod": 94,
        "background": false,
        "visibility": "default",
        "cs": true,
        "changeBonus": 4,
        "points": 68,
        "acpPenalty": 0,
        "energyDrainPenalty": 0,
        "abilityModifier": 22
      },
      "dev": {
        "value": 0,
        "ability": "dex",
        "rt": true,
        "acp": true,
        "rank": 49,
        "notes": "",
        "mod": 49,
        "background": false,
        "visibility": "default",
        "cs": true,
        "points": 49,
        "acpPenalty": 0,
        "energyDrainPenalty": 0,
        "abilityModifier": 0
      },
      "dis": {
        "value": 0,
        "ability": "cha",
        "rt": false,
        "acp": false,
        "rank": 0,
        "notes": "",
        "mod": 22,
        "background": false,
        "visibility": "default",
        "cs": false,
        "points": null,
        "acpPenalty": 0,
        "energyDrainPenalty": 0,
        "abilityModifier": 22
      },
      "esc": {
        "value": 0,
        "ability": "dex",
        "rt": false,
        "acp": true,
        "rank": 68,
        "notes": "",
        "mod": 68,
        "background": false,
        "visibility": "default",
        "cs": true,
        "points": 68,
        "acpPenalty": 0,
        "energyDrainPenalty": 0,
        "abilityModifier": 0
      },
      "fog": {
        "value": 0,
        "ability": "int",
        "rt": false,
        "acp": false,
        "rank": 0,
        "notes": "",
        "mod": 22,
        "background": false,
        "visibility": "default",
        "cs": false,
        "points": null,
        "acpPenalty": 0,
        "energyDrainPenalty": 0,
        "abilityModifier": 22
      },
      "gif": {
        "value": 0,
        "ability": "cha",
        "rt": false,
        "acp": false,
        "rank": 27,
        "notes": "",
        "mod": 49,
        "background": false,
        "visibility": "default",
        "cs": true,
        "points": 27,
        "acpPenalty": 0,
        "energyDrainPenalty": 0,
        "abilityModifier": 22
      },
      "han": {
        "value": 0,
        "ability": "cha",
        "rt": true,
        "acp": false,
        "rank": 0,
        "notes": "",
        "mod": 22,
        "background": false,
        "visibility": "default",
        "cs": false,
        "points": null,
        "acpPenalty": 0,
        "energyDrainPenalty": 0,
        "abilityModifier": 22
      },
      "hea": {
        "value": 0,
        "ability": "wis",
        "rt": false,
        "acp": false,
        "rank": 27,
        "notes": "",
        "mod": 49,
        "background": false,
        "visibility": "default",
        "cs": true,
        "points": 27,
        "acpPenalty": 0,
        "energyDrainPenalty": 0,
        "abilityModifier": 22
      },
      "hid": {
        "value": 0,
        "ability": "dex",
        "rt": false,
        "acp": true,
        "rank": 27,
        "notes": "",
        "mod": 11,
        "background": false,
        "visibility": "default",
        "cs": true,
        "changeBonus": -16,
        "points": 27,
        "acpPenalty": 0,
        "energyDrainPenalty": 0,
        "abilityModifier": 0
      },
      "int": {
        "value": 0,
        "ability": "cha",
        "rt": false,
        "acp": false,
        "rank": 68,
        "notes": "",
        "mod": 92,
        "background": false,
        "visibility": "default",
        "cs": true,
        "changeBonus": 2,
        "points": 68,
        "acpPenalty": 0,
        "energyDrainPenalty": 0,
        "abilityModifier": 22
      },
      "jmp": {
        "value": 0,
        "ability": "str",
        "rt": false,
        "acp": true,
        "rank": 27,
        "notes": "",
        "mod": 57,
        "background": false,
        "visibility": "default",
        "cs": true,
        "changeBonus": 2,
        "points": 27,
        "acpPenalty": 0,
        "energyDrainPenalty": 0,
        "abilityModifier": 28
      },
      "kar": {
        "value": 0,
        "ability": "int",
        "rt": true,
        "acp": false,
        "rank": 0,
        "notes": "",
        "mod": 22,
        "background": false,
        "visibility": "default",
        "cs": true,
        "points": null,
        "acpPenalty": 0,
        "energyDrainPenalty": 0,
        "abilityModifier": 22
      },
      "kdu": {
        "value": 0,
        "ability": "int",
        "rt": true,
        "acp": false,
        "rank": 0,
        "notes": "",
        "mod": 22,
        "background": false,
        "visibility": "default",
        "cs": true,
        "points": null,
        "acpPenalty": 0,
        "energyDrainPenalty": 0,
        "abilityModifier": 22
      },
      "ken": {
        "value": 0,
        "ability": "int",
        "rt": true,
        "acp": false,
        "rank": 0,
        "notes": "",
        "mod": 22,
        "background": false,
        "visibility": "default",
        "cs": true,
        "points": null,
        "acpPenalty": 0,
        "energyDrainPenalty": 0,
        "abilityModifier": 22
      },
      "kge": {
        "value": 0,
        "ability": "int",
        "rt": true,
        "acp": false,
        "rank": 0,
        "notes": "",
        "mod": 22,
        "background": false,
        "visibility": "default",
        "cs": true,
        "points": null,
        "acpPenalty": 0,
        "energyDrainPenalty": 0,
        "abilityModifier": 22
      },
      "khi": {
        "value": 0,
        "ability": "int",
        "rt": true,
        "acp": false,
        "rank": 0,
        "notes": "",
        "mod": 22,
        "background": false,
        "visibility": "default",
        "cs": true,
        "points": null,
        "acpPenalty": 0,
        "energyDrainPenalty": 0,
        "abilityModifier": 22
      },
      "klo": {
        "value": 0,
        "ability": "int",
        "rt": true,
        "acp": false,
        "rank": 0,
        "notes": "",
        "mod": 22,
        "background": false,
        "visibility": "default",
        "cs": true,
        "points": null,
        "acpPenalty": 0,
        "energyDrainPenalty": 0,
        "abilityModifier": 22
      },
      "kna": {
        "value": 0,
        "ability": "int",
        "rt": true,
        "acp": false,
        "rank": 0,
        "notes": "",
        "mod": 24,
        "background": false,
        "visibility": "default",
        "cs": true,
        "changeBonus": 2,
        "points": null,
        "acpPenalty": 0,
        "energyDrainPenalty": 0,
        "abilityModifier": 22
      },
      "kno": {
        "value": 0,
        "ability": "int",
        "rt": true,
        "acp": false,
        "rank": 0,
        "notes": "",
        "mod": 22,
        "background": true,
        "cs": true,
        "visibility": "default",
        "points": null,
        "acpPenalty": 0,
        "energyDrainPenalty": 0,
        "abilityModifier": 22
      },
      "kpl": {
        "value": 0,
        "ability": "int",
        "rt": true,
        "acp": false,
        "rank": 0,
        "notes": "",
        "mod": 22,
        "background": false,
        "visibility": "default",
        "cs": true,
        "points": null,
        "acpPenalty": 0,
        "energyDrainPenalty": 0,
        "abilityModifier": 22
      },
      "kre": {
        "value": 0,
        "ability": "int",
        "rt": true,
        "acp": false,
        "rank": 0,
        "notes": "",
        "mod": 22,
        "background": false,
        "visibility": "default",
        "cs": true,
        "points": null,
        "acpPenalty": 0,
        "energyDrainPenalty": 0,
        "abilityModifier": 22
      },
      "lis": {
        "value": 0,
        "ability": "wis",
        "rt": false,
        "acp": false,
        "rank": 68,
        "notes": "",
        "mod": 92,
        "background": false,
        "visibility": "default",
        "cs": true,
        "changeBonus": 2,
        "points": 68,
        "acpPenalty": 0,
        "energyDrainPenalty": 0,
        "abilityModifier": 22
      },
      "mos": {
        "value": 0,
        "ability": "dex",
        "rt": false,
        "acp": true,
        "rank": 27,
        "notes": "",
        "mod": 27,
        "background": false,
        "visibility": "default",
        "cs": true,
        "points": 27,
        "acpPenalty": 0,
        "energyDrainPenalty": 0,
        "abilityModifier": 0
      },
      "opl": {
        "value": 0,
        "ability": "dex",
        "rt": true,
        "acp": false,
        "rank": 27,
        "notes": "",
        "mod": 27,
        "background": false,
        "visibility": "default",
        "cs": true,
        "points": 27,
        "acpPenalty": 0,
        "energyDrainPenalty": 0,
        "abilityModifier": 0
      },
      "prf": {
        "value": 0,
        "ability": "cha",
        "rt": false,
        "acp": false,
        "rank": 0,
        "notes": "",
        "mod": 22,
        "background": false,
        "visibility": "default",
        "cs": false,
        "subSkills": {},
        "namedSubSkills": {},
        "points": 0,
        "acpPenalty": 0,
        "energyDrainPenalty": 0,
        "abilityModifier": 22
      },
      "pro": {
        "value": 0,
        "ability": "wis",
        "rt": true,
        "acp": false,
        "rank": 0,
        "notes": "",
        "mod": 22,
        "background": false,
        "visibility": "default",
        "cs": false,
        "subSkills": {},
        "namedSubSkills": {},
        "points": 0,
        "acpPenalty": 0,
        "energyDrainPenalty": 0,
        "abilityModifier": 22
      },
      "rid": {
        "value": 0,
        "ability": "dex",
        "rt": false,
        "acp": true,
        "rank": 0,
        "notes": "",
        "mod": 0,
        "background": false,
        "visibility": "default",
        "cs": false,
        "points": null,
        "acpPenalty": 0,
        "energyDrainPenalty": 0,
        "abilityModifier": 0
      },
      "src": {
        "value": 0,
        "ability": "int",
        "rt": false,
        "acp": false,
        "rank": 68,
        "notes": "",
        "mod": 90,
        "background": false,
        "visibility": "default",
        "cs": true,
        "points": 68,
        "acpPenalty": 0,
        "energyDrainPenalty": 0,
        "abilityModifier": 22
      },
      "sen": {
        "value": 0,
        "ability": "wis",
        "rt": false,
        "acp": false,
        "rank": 68,
        "notes": "",
        "mod": 90,
        "background": false,
        "visibility": "default",
        "cs": true,
        "points": 68,
        "acpPenalty": 0,
        "energyDrainPenalty": 0,
        "abilityModifier": 22
      },
      "slt": {
        "value": 0,
        "ability": "dex",
        "rt": true,
        "acp": true,
        "rank": 0,
        "notes": "",
        "mod": 2,
        "background": false,
        "visibility": "default",
        "cs": false,
        "changeBonus": 2,
        "points": null,
        "acpPenalty": 0,
        "energyDrainPenalty": 0,
        "abilityModifier": 0
      },
      "spk": {
        "value": 0,
        "ability": "",
        "rt": true,
        "acp": false,
        "rank": 0,
        "notes": "",
        "mod": 0,
        "background": false,
        "visibility": "default",
        "points": 0,
        "cs": false,
        "acpPenalty": 0,
        "energyDrainPenalty": 0,
        "abilityModifier": 0
      },
      "spl": {
        "value": 0,
        "ability": "int",
        "rt": true,
        "acp": false,
        "rank": 27,
        "notes": "",
        "mod": 49,
        "background": false,
        "visibility": "default",
        "cs": true,
        "points": 27,
        "acpPenalty": 0,
        "energyDrainPenalty": 0,
        "abilityModifier": 22
      },
      "spt": {
        "value": 0,
        "ability": "wis",
        "rt": false,
        "acp": false,
        "rank": 68,
        "notes": "",
        "mod": 92,
        "background": false,
        "visibility": "default",
        "cs": true,
        "changeBonus": 2,
        "points": 68,
        "acpPenalty": 0,
        "energyDrainPenalty": 0,
        "abilityModifier": 22
      },
      "sur": {
        "value": 0,
        "ability": "wis",
        "rt": false,
        "acp": false,
        "rank": 27,
        "notes": "",
        "mod": 49,
        "background": false,
        "visibility": "default",
        "cs": true,
        "points": 27,
        "acpPenalty": 0,
        "energyDrainPenalty": 0,
        "abilityModifier": 22
      },
      "swm": {
        "value": 0,
        "ability": "str",
        "rt": false,
        "acp": true,
        "rank": 0,
        "notes": "",
        "mod": 28,
        "background": false,
        "visibility": "default",
        "cs": true,
        "points": null,
        "acpPenalty": 0,
        "energyDrainPenalty": 0,
        "abilityModifier": 28
      },
      "tmb": {
        "value": 0,
        "ability": "dex",
        "rt": false,
        "acp": true,
        "rank": 27,
        "notes": "",
        "mod": 29,
        "background": false,
        "visibility": "default",
        "cs": true,
        "changeBonus": 2,
        "points": 27,
        "acpPenalty": 0,
        "energyDrainPenalty": 0,
        "abilityModifier": 0
      },
      "umd": {
        "value": 0,
        "ability": "cha",
        "rt": true,
        "acp": false,
        "rank": 68,
        "notes": "",
        "mod": 90,
        "background": false,
        "visibility": "default",
        "cs": true,
        "points": 68,
        "acpPenalty": 0,
        "energyDrainPenalty": 0,
        "abilityModifier": 22
      },
      "uro": {
        "value": 0,
        "ability": "dex",
        "rt": false,
        "acp": false,
        "rank": 0,
        "notes": "",
        "mod": 0,
        "background": false,
        "visibility": "default",
        "cs": false,
        "points": null,
        "acpPenalty": 0,
        "energyDrainPenalty": 0,
        "abilityModifier": 0
      },
      "kps": {
        "value": 0,
        "ability": "int",
        "rt": false,
        "acp": false,
        "rank": 0,
        "notes": "",
        "mod": 22,
        "background": false,
        "visibility": "default",
        "cs": false,
        "points": null,
        "acpPenalty": 0,
        "energyDrainPenalty": 0,
        "abilityModifier": 22
      },
      "aut": {
        "value": 0,
        "ability": "wis",
        "rt": true,
        "acp": false,
        "rank": 0,
        "notes": "",
        "mod": 24,
        "background": false,
        "visibility": "default",
        "cs": false,
        "changeBonus": 2,
        "points": null,
        "acpPenalty": 0,
        "energyDrainPenalty": 0,
        "abilityModifier": 22
      },
      "psi": {
        "value": 0,
        "ability": "int",
        "rt": true,
        "acp": false,
        "rank": 0,
        "notes": "",
        "mod": 22,
        "background": false,
        "visibility": "default",
        "cs": false,
        "points": null,
        "acpPenalty": 0,
        "energyDrainPenalty": 0,
        "abilityModifier": 22
      },
      "upd": {
        "value": 0,
        "ability": "cha",
        "rt": true,
        "acp": false,
        "rank": 0,
        "notes": "",
        "mod": 22,
        "background": false,
        "visibility": "default",
        "cs": false,
        "points": null,
        "acpPenalty": 0,
        "energyDrainPenalty": 0,
        "abilityModifier": 22
      }
    },
    "customSkills": {},
    "traits": {
      "size": "col",
      "tokensize": "actor",
      "senses": "Darkvision 120 ft.",
      "dr": "",
      "incorporeal": false,
      "eres": "",
      "cres": "",
      "languages": {
        "value": [],
        "custom": ""
      },
      "di": {
        "value": [],
        "custom": ""
      },
      "dv": {
        "value": [],
        "custom": ""
      },
      "ci": {
        "value": [
          "sleep",
          "paralyze"
        ],
        "custom": ""
      },
      "perception": {
        "_deprecated": true
      },
      "fastHealing": null,
      "regen": null,
      "tokenSize": "actor",
      "regenTotal": null,
      "fastHealingTotal": null,
      "actualSize": "col"
    },
    "currency": {
      "pp": 0,
      "gp": 0,
      "sp": 0,
      "cp": 0
    },
    "altCurrency": {
      "pp": 0,
      "gp": 0,
      "sp": 0,
      "cp": 0
    },
    "customCurrency": {},
    "noLightOverride": false,
    "noTokenOverride": false,
    "noSkillSynergy": false,
    "noBuffDisplay": false,
    "lockEditingByPlayers": false,
    "showCardSheet": false,
    "showSpellcastingSheet": true,
    "staticBonus": {
      "hp": 0,
      "ac": 0
    },
    "jumpSkillAdjust": false,
    "master": {
      "id": null,
      "img": null,
      "name": null,
      "data": {},
      "distance": 0
    },
    "noVisionOverride": true,
    "counters": {
      "feat": {
        "base": {
          "value": 22,
          "counted": 22
        }
      }
    },
    "classes": {
      "dragon": {
        "level": 65,
        "_id": "8jK6JoUh0ttaTeiA",
        "name": "Dragon*",
        "hd": 12,
        "bab": "high",
        "hp": false,
        "maxLevel": 20,
        "skillsPerLevel": 6,
        "isSpellcaster": false,
        "isPsionSpellcaster": false,
        "hasSpecialSlot": false,
        "isSpellcastingSpontaneus": false,
        "isArcane": false,
        "spellcastingType": null,
        "spellcastingAbility": "int",
        "allSpellsKnown": false,
        "savingThrows": {
          "fort": 34,
          "ref": 34,
          "will": 34
        },
        "fc": {
          "hp": 0,
          "skill": 0,
          "alt": 0
        },
        "spellsKnownPerLevel": [],
        "powersKnown": [],
        "powersMaxLevel": [],
        "spellslotAbility": "",
        "halfCasterLevel": false,
        "deckHandSizeFormula": "0",
        "knownCardsSizeFormula": "0",
        "deckPrestigeClass": false,
        "hasSpellbook": false,
        "spelllist": {}
      }
    },
    "damage": {
      "nonlethal": {
        "value": 0,
        "max": 1787
      }
    },
    "senses": {
      "darkvision": 0,
      "blindsight": 0,
      "tremorsense": 0,
      "truesight": 0,
      "lowLight": false,
      "special": "",
      "modified": {},
      "lowLightMultiplier": 2
    },
    "totalNonEclLevels": 65,
    "classLevels": 0,
    "combinedResistances": [],
    "combinedDR": [],
    "shieldType": "none",
    "canLevelUp": false,
    "naturalAttackCount": 6
  },
  "ownership": {
    "default": 0,
    "gvVvJrAyZKOZnAuP": 3
  },
  "prototypeToken": {
    "flags": {
      "D35E": {
        "lowLightVision": false
      }
    },
    "name": "Force Dragon, Ancient",
    "displayName": 20,
    "width": 6,
    "height": 6,
    "lockRotation": false,
    "rotation": 0,
    "actorLink": false,
    "disposition": -1,
    "displayBars": 40,
    "bar1": {
      "attribute": "attributes.hp"
    },
    "bar2": {
      "attribute": null
    },
    "randomImg": false,
    "alpha": 1,
    "light": {
      "alpha": 0,
      "angle": 360,
      "bright": 0,
      "coloration": 1,
      "dim": 0,
      "luminosity": 0.5,
      "saturation": 0,
      "contrast": 0,
      "shadows": 0,
      "animation": {
        "speed": 5,
        "intensity": 5,
        "type": null,
        "reverse": false
      },
      "darkness": {
        "min": 0,
        "max": 1
      },
      "color": "#000000",
      "attenuation": 0.5
    },
    "texture": {
      "src": "systems/D35E/icons/bestiary/token/force-dragon.png",
      "tint": null,
      "scaleX": 1,
      "scaleY": 1,
      "offsetX": 0,
      "offsetY": 0,
      "rotation": 0
    },
    "sight": {
      "angle": 360,
      "enabled": true,
      "range": 120,
      "brightness": 1,
      "visionMode": "basic",
      "attenuation": 0.1,
      "saturation": 0,
      "contrast": 0
    },
    "appendNumber": false,
    "prependAdjective": false,
    "detectionModes": []
  },
  "_stats": {
    "systemId": "D35E",
    "systemVersion": "2.3.0",
    "coreVersion": "11.299",
    "createdTime": 1686244368851,
    "modifiedTime": 1686244369187,
    "lastModifiedBy": "cB3ob9BYxSFYX7sd"
  },
  "_key": "!actors!jgpbO8tNNKqjUiAc"
}