{
  "_id": "rg32Ds7V6o6csKrp",
  "name": "Frightful Presence",
  "type": "attack",
  "data": {
    "originVersion": 0,
    "originPack": "",
    "originId": "",
    "possibleUpdate": false,
    "description": {
      "value": "<p>A young adult or older dragon can unsettle foes with its mere presence. The ability takes effect automatically whenever the dragon attacks, charges, or flies overhead. Creatures within a radius of 30 feet &times; the dragon&rsquo;s age category are subject to the effect if they have fewer HD than the dragon. A potentially affected creature that succeeds on a Will save (DC 10 + &frac12; dragon&rsquo;s HD + dragon&rsquo;s Cha modifier) remains immune to that dragon&rsquo;s frightful presence for 24 hours. On a failure, creatures with 4 or less HD become panicked for 4d6 rounds and those with 5 or more HD become shaken for 4d6 rounds. Dragons ignore the frightful presence of other dragons.</p>",
      "chat": "",
      "unidentified": ""
    },
    "epic": false,
    "psionic": "",
    "nameFormula": "",
    "nameFromFormula": false,
    "tags": [],
    "uniqueId": "",
    "linkId": "",
    "linkSourceId": "",
    "linkImported": false,
    "linkSourceName": "",
    "source": "",
    "classSource": "",
    "userNonRemovable": false,
    "customAttributes": {},
    "customAttributesLocked": false,
    "customTag": "",
    "createdBy": "",
    "activation": {
      "cost": 1,
      "type": "passive"
    },
    "duration": {
      "value": "24",
      "units": "hour"
    },
    "target": {
      "value": ""
    },
    "range": {
      "value": null,
      "units": "seeText",
      "long": null
    },
    "recharge": {
      "enabled": false,
      "formula": "",
      "current": 0
    },
    "uses": {
      "value": 0,
      "max": 0,
      "per": "",
      "autoDeductCharges": true,
      "allowMultipleUses": false,
      "chargesPerUse": 1,
      "maxPerUse": null,
      "maxPerUseFormula": "",
      "maxFormula": "",
      "rechargeFormula": null,
      "isResource": false,
      "canBeLinked": false
    },
    "requiresPsionicFocus": false,
    "linkedChargeItem": {
      "id": null,
      "img": null,
      "name": null
    },
    "measureTemplate": {
      "type": "",
      "size": 0,
      "overrideColor": false,
      "customColor": "",
      "overrideTexture": false,
      "customTexture": ""
    },
    "actionType": "save",
    "attackBonus": "",
    "critConfirmBonus": "",
    "damage": {
      "parts": [],
      "alternativeParts": []
    },
    "summon": [],
    "attackParts": [],
    "autoscaleAttackParts": "",
    "formula": "",
    "attackCountFormula": "",
    "maxDamageDice": 0,
    "maxDamageDiceFormula": "",
    "ability": {
      "attack": null,
      "damage": "",
      "damageMult": 1,
      "critRange": 20,
      "critMult": 2,
      "twoHandedOnly": false,
      "vsTouchAc": false
    },
    "save": {
      "dc": "28",
      "description": "",
      "ability": "",
      "type": "willnegates",
      "dcAutoType": "",
      "dcAutoAbility": ""
    },
    "baseCl": "0",
    "sr": false,
    "pr": false,
    "metamagicFeats": {
      "maximized": false,
      "empowered": false,
      "enlarged": false,
      "intensified": false,
      "enhanced": false,
      "enhancedHalf": false,
      "widened": false
    },
    "effectNotes": "Creatures with 4 or less HD become panicked for [[/r 4d6]] rounds and those with 5 or more HD become shaken for [[/r 4d6]] rounds",
    "attackNotes": "",
    "specialActions": [],
    "favorite": true,
    "rollTableDraw": {
      "formula": "",
      "name": "",
      "pack": "",
      "id": ""
    },
    "material": {
      "data": null
    },
    "associations": {
      "classes": []
    },
    "attackType": "misc",
    "autoScaleOption": "default",
    "weaponSubtype": "light",
    "masterwork": false,
    "threatRangeExtended": false,
    "finesseable": false,
    "enh": null,
    "incorporeal": false,
    "proficient": true,
    "primaryAttack": true,
    "showInQuickbar": true,
    "melded": false,
    "baseWeaponType": "",
    "nonLethal": false,
    "originalWeaponCreated": false,
    "originalWeaponId": null,
    "originalWeaponName": "",
    "originalWeaponImg": "",
    "originalWeaponProperties": {},
    "conditionals": [],
    "thrown": false,
    "returning": false,
    "magic": false,
    "alignment": {
      "good": false,
      "evil": false,
      "lawful": false,
      "chaotic": false
    },
    "customReferenceId": "",
    "attack": {
      "parts": []
    }
  },
  "sort": 600000,
  "flags": {},
  "img": "systems/D35E/icons/special-abilities/frightful-presence.png",
  "effects": [],
  "folder": null,
  "permission": {
    "default": 0
  },
  "_key": "!actors.items!kZl0tWsMt1qK3BmJ.rg32Ds7V6o6csKrp"
}