{
  "_id": "oeKAF3oPu4k5S24r",
  "name": "Full Attack",
  "type": "full-attack",
  "data": {
    "originVersion": 0,
    "originPack": "",
    "originId": "",
    "possibleUpdate": false,
    "description": {
      "value": "<p>This is one of the creatures full attacks.</p>",
      "chat": "",
      "unidentified": ""
    },
    "epic": "",
    "psionic": "",
    "nameFormula": "",
    "nameFromFormula": false,
    "tags": [],
    "uniqueId": "",
    "linkId": "",
    "linkSourceId": "",
    "linkImported": false,
    "linkSourceName": "",
    "source": "",
    "classSource": "",
    "userNonRemovable": false,
    "customAttributes": {},
    "customAttributesLocked": false,
    "customTag": "",
    "createdBy": "",
    "attacks": {
      "attack1": {
        "_id": 1,
        "name": "Gore",
        "img": "systems/D35E/icons/attack/monster/gore.png",
        "primary": true,
        "isWeapon": false,
        "attackMode": "primary",
        "id": "5DthaQlSO5YK2CKD",
        "count": 1
      },
      "attack2": {
        "_id": 2,
        "name": "",
        "img": "",
        "primary": false,
        "isWeapon": false,
        "attackMode": "primary",
        "id": "",
        "count": 0
      },
      "attack3": {
        "_id": 3,
        "name": "",
        "img": "",
        "primary": false,
        "isWeapon": false,
        "attackMode": "primary",
        "id": "",
        "count": 0
      },
      "attack4": {
        "_id": 4,
        "name": "",
        "img": "",
        "primary": false,
        "isWeapon": false,
        "attackMode": "primary",
        "id": "",
        "count": 0
      },
      "attack5": {
        "_id": 5,
        "name": "",
        "img": "",
        "primary": false,
        "isWeapon": false,
        "attackMode": "primary",
        "id": "",
        "count": 0
      }
    },
    "attackType": "full",
    "customReferenceId": "",
    "damage": {
      "parts": []
    }
  },
  "sort": 900000,
  "flags": {},
  "img": "systems/D35E/icons/attack/full-attack.png",
  "effects": [],
  "folder": null,
  "permission": {
    "default": 0
  },
  "_key": "!actors.items!VOmIbA0kefAxz79w.oeKAF3oPu4k5S24r"
}