{
  "_id": "I5gPoU3e0qg4cnhX",
  "name": "Full Attack",
  "type": "full-attack",
  "data": {
    "originVersion": 0,
    "originPack": "",
    "originId": "",
    "possibleUpdate": false,
    "description": {
      "value": "<p>This is one of the creatures full attacks.</p>",
      "chat": "",
      "unidentified": ""
    },
    "epic": "",
    "psionic": "",
    "nameFormula": "",
    "nameFromFormula": false,
    "tags": [],
    "uniqueId": "",
    "linkId": "",
    "linkSourceId": "",
    "linkImported": false,
    "linkSourceName": "",
    "source": "",
    "classSource": "",
    "userNonRemovable": false,
    "customAttributes": {},
    "customAttributesLocked": false,
    "customTag": "",
    "createdBy": "",
    "attacks": {
      "attack1": {
        "_id": 1,
        "name": "Bite",
        "img": "systems/D35E/icons/attack/monster/bite.png",
        "primary": false,
        "isWeapon": false,
        "attackMode": "primary",
        "id": "Jh9Vw9wAFi64tmws",
        "count": 1
      },
      "attack2": {
        "_id": 2,
        "name": "Claw",
        "img": "systems/D35E/icons/attack/monster/claw.png",
        "primary": false,
        "isWeapon": false,
        "attackMode": "primary",
        "id": "1BlCUevq1v5QmudG",
        "count": 2
      },
      "attack3": {
        "_id": 3,
        "name": "Wing",
        "img": "systems/D35E/icons/attack/monster/wing.png",
        "primary": false,
        "isWeapon": false,
        "attackMode": "primary",
        "id": "lh41EElbTEyguhVA",
        "count": 2
      },
      "attack4": {
        "_id": 4,
        "name": "Tail",
        "img": "systems/D35E/icons/attack/monster/tail.png",
        "primary": true,
        "isWeapon": false,
        "attackMode": "primary",
        "id": "eLHev3YvPHxW1fQB",
        "count": 1
      },
      "attack5": {
        "_id": 5,
        "name": "",
        "img": "",
        "primary": false,
        "isWeapon": false,
        "attackMode": "primary",
        "id": "",
        "count": 0
      }
    },
    "attackType": "full",
    "customReferenceId": "",
    "damage": {
      "parts": []
    }
  },
  "sort": 2800000,
  "flags": {},
  "img": "systems/D35E/icons/attack/full-attack.png",
  "effects": [],
  "folder": null,
  "permission": {
    "default": 0
  },
  "_key": "!actors.items!LGdP5ovwN2eI07Dz.I5gPoU3e0qg4cnhX"
}