{
  "_id": "JL7DuQaTsn3iRO5E",
  "name": "Green Dragon, Juvenile",
  "type": "npc",
  "img": "systems/D35E/icons/bestiary/token/dragon-green.png",
  "items": [
    "qMHmTHvLHOc5AM7A",
    "tpe9u6MKPd2KaY82",
    "H4b7P00tclxnpzLs",
    "zdwpsPQC49Icq8vH",
    "KD2pD7cPn2btHNPY",
    "g44j3989C7t37pPK",
    "lxJ5XmzNmBasLrDd",
    "c2kRFLlbIkQUTsWB",
    "tYcLRbumFuOwtpVM",
    "GYeqEcqarn5Oc0QU",
    "t3hyf1auUan29evo",
    "Ttu7pDm4HBybk2L0",
    "LWBdIt38LSF95sdN",
    "rNnuBbWC4vdrgcwq",
    "MDunEuJl30hdgnSu"
  ],
  "effects": [],
  "folder": null,
  "sort": 0,
  "flags": {
    "core": {
      "sourceId": "Compendium.D35E.bestiary.JL7DuQaTsn3iRO5E"
    },
    "D35E": {
      "loseDexToAC": false,
      "noStr": false,
      "noDex": false,
      "noInt": false,
      "noCon": false,
      "oneInt": false,
      "oneWis": false,
      "oneCha": false,
      "noEncumbrance": false,
      "mediumArmorFullSpeed": false,
      "heavyArmorFullSpeed": false,
      "multiAttack": false,
      "multiweaponAttack": false,
      "uncannyDodge": false,
      "naturalAttackCount": 4
    }
  },
  "system": {
    "shapechangeImg": "icons/svg/mystery-man.svg",
    "tokenImg": "systems/D35E/icons/bestiary/token/dragon-green.png",
    "companionUuid": "",
    "companionPublicId": "",
    "companionUsePersonalKey": false,
    "companionAutosync": false,
    "companionLockGM": false,
    "abilities": {
      "str": {
        "total": 19,
        "mod": 4,
        "value": 19,
        "carryBonus": 0,
        "carryMultiplier": 1,
        "checkMod": 0,
        "damage": 0,
        "drain": 0,
        "penalty": 0,
        "userPenalty": 0,
        "origMod": 4,
        "origTotal": 19,
        "isZero": false
      },
      "dex": {
        "total": 10,
        "mod": 0,
        "value": 10,
        "checkMod": 0,
        "damage": 0,
        "drain": 0,
        "penalty": 0,
        "userPenalty": 0,
        "origMod": 0,
        "origTotal": 10,
        "isZero": false
      },
      "con": {
        "total": 17,
        "mod": 3,
        "value": 17,
        "checkMod": 0,
        "damage": 0,
        "drain": 0,
        "penalty": 0,
        "userPenalty": 0,
        "origMod": 3,
        "origTotal": 17,
        "isZero": false
      },
      "int": {
        "total": 14,
        "mod": 2,
        "value": 14,
        "checkMod": 0,
        "damage": 0,
        "drain": 0,
        "penalty": 0,
        "userPenalty": 0,
        "origMod": 2,
        "origTotal": 14,
        "isZero": false
      },
      "wis": {
        "total": 15,
        "mod": 2,
        "value": 15,
        "checkMod": 0,
        "damage": 0,
        "drain": 0,
        "penalty": 0,
        "userPenalty": 0,
        "origMod": 2,
        "origTotal": 15,
        "isZero": false
      },
      "cha": {
        "total": 14,
        "mod": 2,
        "value": 14,
        "checkMod": 0,
        "damage": 0,
        "drain": 0,
        "penalty": 0,
        "userPenalty": 0,
        "origMod": 2,
        "origTotal": 14,
        "isZero": false
      }
    },
    "resources": {
      "tail": {
        "max": 0,
        "_id": "t3hyf1auUan29evo"
      },
      "bite": {
        "max": 0,
        "_id": "Ttu7pDm4HBybk2L0",
        "value": 0
      },
      "claw": {
        "max": 0,
        "_id": "LWBdIt38LSF95sdN",
        "value": 0
      },
      "wing": {
        "max": 0,
        "_id": "rNnuBbWC4vdrgcwq",
        "value": 0
      }
    },
    "attributes": {
      "encumbrance": {
        "level": 0,
        "levels": {
          "light": 233,
          "medium": 466,
          "heavy": 700,
          "carry": 1400,
          "drag": 3500
        },
        "carriedWeight": 0
      },
      "senses": {
        "darkvision": 0,
        "blindsight": 0,
        "tremorsense": 0,
        "truesight": 0,
        "lowLight": false,
        "lowLightMultiplier": 2,
        "special": ""
      },
      "hd": {
        "base": {
          "_deprecated": true,
          "value": 0
        },
        "total": 14,
        "max": {
          "_deprecated": true,
          "value": 0
        },
        "racialClass": 14
      },
      "naturalAC": 0,
      "naturalACTotal": 13,
      "fortification": {
        "value": 0,
        "total": 0
      },
      "ac": {
        "normal": {
          "value": 0,
          "total": 22
        },
        "touch": {
          "value": 0,
          "total": 9
        },
        "flatFooted": {
          "value": 0,
          "total": 22
        }
      },
      "concealment": {
        "value": 0,
        "total": 0
      },
      "bab": {
        "value": 0,
        "total": 14,
        "base": 14
      },
      "cmd": {
        "value": 0,
        "total": 32,
        "flatFootedTotal": 32
      },
      "cmb": {
        "value": 0,
        "total": 22
      },
      "sr": {
        "formula": "",
        "total": 0
      },
      "pr": {
        "formula": "",
        "total": 0
      },
      "hardness": {
        "formula": "",
        "total": 0
      },
      "cmbNotes": "",
      "saveNotes": "",
      "acNotes": "",
      "cmdNotes": "",
      "srNotes": "",
      "attack": {
        "general": 0,
        "melee": 0,
        "ranged": 0,
        "sunder": 0,
        "bullrush": 0
      },
      "damage": {
        "general": 0,
        "weapon": 0,
        "spell": 0
      },
      "maxDexBonus": 999,
      "maxDex": {
        "gear": null,
        "encumbrance": null,
        "total": 999
      },
      "acp": {
        "gear": 0,
        "encumbrance": 0,
        "total": 0
      },
      "energyDrain": 0,
      "quadruped": false,
      "savingThrows": {
        "fort": {
          "total": 12,
          "base": 9
        },
        "ref": {
          "total": 9,
          "base": 9
        },
        "will": {
          "total": 11,
          "base": 9
        }
      },
      "hp": {
        "value": 133,
        "min": -100,
        "base": 0,
        "max": 133,
        "temp": 0,
        "nonlethal": 0
      },
      "turnUndeadHdTotal": 0,
      "turnUndeadUsesBonusFormula": "",
      "turnUndeadUses": 0,
      "prestigeCl": {
        "psionic": {
          "max": 0,
          "value": 0,
          "total": 0
        },
        "arcane": {
          "max": 0,
          "value": 0,
          "total": 0
        },
        "divine": {
          "max": 0,
          "value": 0,
          "total": 0
        },
        "cards": {
          "max": 0,
          "value": 0
        }
      },
      "turnUndeadUsesTotal": 0,
      "sneakAttackDiceTotal": 0,
      "minionClassLevels": {
        "none": 0
      },
      "minionDistance": {},
      "spellPointsTotal": [],
      "powerPointsTotal": 0,
      "arcaneSpellFailure": 0,
      "psionicFocus": false,
      "wounds": {
        "min": 0,
        "value": 34,
        "max": 34
      },
      "vigor": {
        "min": 0,
        "value": 91,
        "temp": 0,
        "max": 91
      },
      "init": {
        "value": 0,
        "bonus": 0,
        "total": 4
      },
      "prof": 2,
      "speed": {
        "land": {
          "base": 40,
          "total": 40,
          "run": 160
        },
        "climb": {
          "base": 0,
          "total": 0,
          "run": 0
        },
        "swim": {
          "base": 40,
          "total": 40,
          "run": 160
        },
        "burrow": {
          "base": 0,
          "total": 0,
          "run": 0
        },
        "fly": {
          "base": 150,
          "total": 150,
          "run": 600,
          "maneuverability": "average"
        }
      },
      "conditions": {
        "blind": false,
        "dazzled": false,
        "deaf": false,
        "entangled": false,
        "fatigued": false,
        "exhausted": false,
        "grappled": false,
        "helpless": false,
        "paralyzed": false,
        "pinned": false,
        "fear": false,
        "sickened": false,
        "stunned": false,
        "shaken": false,
        "polymorphed": false,
        "wildshaped": false,
        "prone": false,
        "dead": false,
        "dying": false,
        "disabled": false,
        "stable": false,
        "unconscious": false,
        "staggered": false,
        "invisible": false,
        "banished": false,
        "invisibility": false
      },
      "spells": {
        "concentration": {
          "bonus": 0,
          "context": ""
        },
        "spellbooks": {
          "primary": {
            "name": "Primary",
            "class": "",
            "cl": {
              "base": 0,
              "value": 0,
              "total": 0,
              "formula": ""
            },
            "concentration": 0,
            "bonusPrestigeCl": 0,
            "concentrationFormula": "",
            "concentrationNotes": "",
            "clNotes": "",
            "ability": "int",
            "spellslotAbility": "",
            "autoSpellLevels": true,
            "usePowerPoints": false,
            "autoSetup": true,
            "spellcastingType": null,
            "powerPointsFormula": "",
            "dailyPowerPointsFormula": "",
            "powerPoints": 0,
            "powerPointsTotal": 0,
            "maximumPowerPointLimit": "@cl",
            "arcaneSpellFailure": true,
            "baseDCFormula": "10 + @sl + @ablMod",
            "spontaneous": false,
            "hasSpecialSlot": false,
            "showOnlyPrepared": false,
            "specialSlots": {
              "level1": null,
              "level2": null,
              "level3": null,
              "level4": null,
              "level5": null,
              "level6": null,
              "level7": null,
              "level8": null,
              "level9": null
            },
            "maxPrestigeCl": 0,
            "allSpellsKnown": false,
            "hasPrestigeCl": false,
            "canAddPrestigeCl": false,
            "canRemovePrestigeCl": false,
            "powersKnown": 0,
            "powersMaxLevel": 0,
            "spells": {
              "spell0": {
                "value": 0,
                "max": 0,
                "base": 0,
                "known": 0,
                "maxKnown": 0,
                "bonus": 0,
                "classBase": 0
              },
              "spell1": {
                "value": 0,
                "max": 0,
                "base": 0,
                "known": 0,
                "maxKnown": 0,
                "bonus": 0,
                "classBase": 0
              },
              "spell2": {
                "value": 0,
                "max": 0,
                "base": 0,
                "known": 0,
                "maxKnown": 0,
                "bonus": 0,
                "classBase": 0
              },
              "spell3": {
                "value": 0,
                "max": 0,
                "base": 0,
                "known": 0,
                "maxKnown": 0,
                "bonus": 0,
                "classBase": 0
              },
              "spell4": {
                "value": 0,
                "max": 0,
                "base": 0,
                "known": 0,
                "maxKnown": 0,
                "bonus": 0,
                "classBase": 0
              },
              "spell5": {
                "value": 0,
                "max": 0,
                "base": 0,
                "known": 0,
                "maxKnown": 0,
                "bonus": 0,
                "classBase": 0
              },
              "spell6": {
                "value": 0,
                "max": 0,
                "base": 0,
                "known": 0,
                "maxKnown": 0,
                "bonus": 0,
                "classBase": 0
              },
              "spell7": {
                "value": 0,
                "max": 0,
                "base": 0,
                "known": 0,
                "maxKnown": 0,
                "bonus": 0,
                "classBase": 0
              },
              "spell8": {
                "value": 0,
                "max": 0,
                "base": 0,
                "known": 0,
                "maxKnown": 0,
                "bonus": 0,
                "classBase": 0
              },
              "spell9": {
                "value": 0,
                "max": 0,
                "base": 0,
                "known": 0,
                "maxKnown": 0,
                "bonus": 0,
                "classBase": 0
              }
            },
            "powerPointsValue": {
              "max": 0,
              "value": 0
            },
            "spellcastingAbilityBonus": 0
          },
          "secondary": {
            "name": "Secondary",
            "class": "",
            "cl": {
              "base": 0,
              "value": 0,
              "total": 0,
              "formula": ""
            },
            "concentration": 0,
            "bonusPrestigeCl": 0,
            "concentrationFormula": "",
            "concentrationNotes": "",
            "clNotes": "",
            "ability": "int",
            "spellslotAbility": "",
            "autoSpellLevels": true,
            "usePowerPoints": false,
            "autoSetup": true,
            "spellcastingType": null,
            "powerPointsFormula": "",
            "powerPoints": 0,
            "powerPointsTotal": 0,
            "maximumPowerPointLimit": "@cl",
            "dailyPowerPointsFormula": "",
            "arcaneSpellFailure": true,
            "baseDCFormula": "10 + @sl + @ablMod",
            "spontaneous": false,
            "hasSpecialSlot": false,
            "showOnlyPrepared": false,
            "specialSlots": {
              "level1": null,
              "level2": null,
              "level3": null,
              "level4": null,
              "level5": null,
              "level6": null,
              "level7": null,
              "level8": null,
              "level9": null
            },
            "maxPrestigeCl": 0,
            "allSpellsKnown": false,
            "hasPrestigeCl": false,
            "canAddPrestigeCl": false,
            "canRemovePrestigeCl": false,
            "powersKnown": 0,
            "powersMaxLevel": 0,
            "spells": {
              "spell0": {
                "value": 0,
                "max": 0,
                "base": 0,
                "known": 0,
                "maxKnown": 0,
                "bonus": 0,
                "classBase": 0
              },
              "spell1": {
                "value": 0,
                "max": 0,
                "base": 0,
                "known": 0,
                "maxKnown": 0,
                "bonus": 0,
                "classBase": 0
              },
              "spell2": {
                "value": 0,
                "max": 0,
                "base": 0,
                "known": 0,
                "maxKnown": 0,
                "bonus": 0,
                "classBase": 0
              },
              "spell3": {
                "value": 0,
                "max": 0,
                "base": 0,
                "known": 0,
                "maxKnown": 0,
                "bonus": 0,
                "classBase": 0
              },
              "spell4": {
                "value": 0,
                "max": 0,
                "base": 0,
                "known": 0,
                "maxKnown": 0,
                "bonus": 0,
                "classBase": 0
              },
              "spell5": {
                "value": 0,
                "max": 0,
                "base": 0,
                "known": 0,
                "maxKnown": 0,
                "bonus": 0,
                "classBase": 0
              },
              "spell6": {
                "value": 0,
                "max": 0,
                "base": 0,
                "known": 0,
                "maxKnown": 0,
                "bonus": 0,
                "classBase": 0
              },
              "spell7": {
                "value": 0,
                "max": 0,
                "base": 0,
                "known": 0,
                "maxKnown": 0,
                "bonus": 0,
                "classBase": 0
              },
              "spell8": {
                "value": 0,
                "max": 0,
                "base": 0,
                "known": 0,
                "maxKnown": 0,
                "bonus": 0,
                "classBase": 0
              },
              "spell9": {
                "value": 0,
                "max": 0,
                "base": 0,
                "known": 0,
                "maxKnown": 0,
                "bonus": 0,
                "classBase": 0
              }
            },
            "powerPointsValue": {
              "max": 0,
              "value": 0
            },
            "spellcastingAbilityBonus": 0
          },
          "tertiary": {
            "name": "Tertiary",
            "class": "",
            "cl": {
              "base": 0,
              "value": 0,
              "total": 0,
              "formula": ""
            },
            "concentration": 0,
            "bonusPrestigeCl": 0,
            "concentrationFormula": "",
            "concentrationNotes": "",
            "clNotes": "",
            "ability": "int",
            "spellslotAbility": "",
            "autoSpellLevels": true,
            "usePowerPoints": false,
            "autoSetup": true,
            "spellcastingType": null,
            "powerPointsFormula": "",
            "powerPoints": 0,
            "powerPointsTotal": 0,
            "maximumPowerPointLimit": "@cl",
            "dailyPowerPointsFormula": "",
            "arcaneSpellFailure": true,
            "baseDCFormula": "10 + @sl + @ablMod",
            "spontaneous": false,
            "hasSpecialSlot": false,
            "showOnlyPrepared": false,
            "specialSlots": {
              "level1": null,
              "level2": null,
              "level3": null,
              "level4": null,
              "level5": null,
              "level6": null,
              "level7": null,
              "level8": null,
              "level9": null
            },
            "maxPrestigeCl": 0,
            "allSpellsKnown": false,
            "hasPrestigeCl": false,
            "canAddPrestigeCl": false,
            "canRemovePrestigeCl": false,
            "powersKnown": 0,
            "powersMaxLevel": 0,
            "spells": {
              "spell0": {
                "value": 0,
                "max": 0,
                "base": 0,
                "known": 0,
                "maxKnown": 0,
                "bonus": 0,
                "classBase": 0
              },
              "spell1": {
                "value": 0,
                "max": 0,
                "base": 0,
                "known": 0,
                "maxKnown": 0,
                "bonus": 0,
                "classBase": 0
              },
              "spell2": {
                "value": 0,
                "max": 0,
                "base": 0,
                "known": 0,
                "maxKnown": 0,
                "bonus": 0,
                "classBase": 0
              },
              "spell3": {
                "value": 0,
                "max": 0,
                "base": 0,
                "known": 0,
                "maxKnown": 0,
                "bonus": 0,
                "classBase": 0
              },
              "spell4": {
                "value": 0,
                "max": 0,
                "base": 0,
                "known": 0,
                "maxKnown": 0,
                "bonus": 0,
                "classBase": 0
              },
              "spell5": {
                "value": 0,
                "max": 0,
                "base": 0,
                "known": 0,
                "maxKnown": 0,
                "bonus": 0,
                "classBase": 0
              },
              "spell6": {
                "value": 0,
                "max": 0,
                "base": 0,
                "known": 0,
                "maxKnown": 0,
                "bonus": 0,
                "classBase": 0
              },
              "spell7": {
                "value": 0,
                "max": 0,
                "base": 0,
                "known": 0,
                "maxKnown": 0,
                "bonus": 0,
                "classBase": 0
              },
              "spell8": {
                "value": 0,
                "max": 0,
                "base": 0,
                "known": 0,
                "maxKnown": 0,
                "bonus": 0,
                "classBase": 0
              },
              "spell9": {
                "value": 0,
                "max": 0,
                "base": 0,
                "known": 0,
                "maxKnown": 0,
                "bonus": 0,
                "classBase": 0
              }
            },
            "powerPointsValue": {
              "max": 0,
              "value": 0
            },
            "spellcastingAbilityBonus": 0
          },
          "spelllike": {
            "name": "Spell-likes",
            "class": "_hd",
            "cl": {
              "base": 0,
              "value": 0,
              "total": 14,
              "formula": ""
            },
            "concentration": 0,
            "bonusPrestigeCl": 0,
            "concentrationFormula": "",
            "concentrationNotes": "",
            "clNotes": "",
            "ability": "cha",
            "spellslotAbility": "",
            "autoSpellLevels": true,
            "usePowerPoints": false,
            "autoSetup": false,
            "spellcastingType": "None",
            "powerPointsFormula": "",
            "powerPoints": 0,
            "powerPointsTotal": 0,
            "maximumPowerPointLimit": "@cl",
            "dailyPowerPointsFormula": "",
            "arcaneSpellFailure": true,
            "baseDCFormula": "10 + @sl + @ablMod",
            "spontaneous": false,
            "hasSpecialSlot": false,
            "showOnlyPrepared": false,
            "specialSlots": {
              "level1": null,
              "level2": null,
              "level3": null,
              "level4": null,
              "level5": null,
              "level6": null,
              "level7": null,
              "level8": null,
              "level9": null
            },
            "maxPrestigeCl": 0,
            "allSpellsKnown": false,
            "hasPrestigeCl": false,
            "canAddPrestigeCl": false,
            "canRemovePrestigeCl": false,
            "powersKnown": 0,
            "powersMaxLevel": 0,
            "spells": {
              "spell0": {
                "value": 0,
                "max": 0,
                "base": 0,
                "known": 0,
                "maxKnown": 0,
                "bonus": 0,
                "classBase": 0
              },
              "spell1": {
                "value": 0,
                "max": 0,
                "base": 0,
                "known": 0,
                "maxKnown": 0,
                "bonus": 0,
                "classBase": 0
              },
              "spell2": {
                "value": 0,
                "max": 0,
                "base": 0,
                "known": 0,
                "maxKnown": 0,
                "bonus": 0,
                "classBase": 0
              },
              "spell3": {
                "value": 0,
                "max": 0,
                "base": 0,
                "known": 0,
                "maxKnown": 0,
                "bonus": 0,
                "classBase": 0
              },
              "spell4": {
                "value": 0,
                "max": 0,
                "base": 0,
                "known": 0,
                "maxKnown": 0,
                "bonus": 0,
                "classBase": 0
              },
              "spell5": {
                "value": 0,
                "max": 0,
                "base": 0,
                "known": 0,
                "maxKnown": 0,
                "bonus": 0,
                "classBase": 0
              },
              "spell6": {
                "value": 0,
                "max": 0,
                "base": 0,
                "known": 0,
                "maxKnown": 0,
                "bonus": 0,
                "classBase": 0
              },
              "spell7": {
                "value": 0,
                "max": 0,
                "base": 0,
                "known": 0,
                "maxKnown": 0,
                "bonus": 0,
                "classBase": 0
              },
              "spell8": {
                "value": 0,
                "max": 0,
                "base": 0,
                "known": 0,
                "maxKnown": 0,
                "bonus": 0,
                "classBase": 0
              },
              "spell9": {
                "value": 0,
                "max": 0,
                "base": 0,
                "known": 0,
                "maxKnown": 0,
                "bonus": 0,
                "classBase": 0
              }
            },
            "powerPointsValue": {
              "max": 0,
              "value": 0
            },
            "spellcastingAbilityBonus": 0
          }
        }
      },
      "cards": {
        "concentration": {
          "bonus": 0,
          "context": ""
        },
        "decks": {
          "primary": {
            "name": "Primary",
            "class": "",
            "cl": {
              "base": null,
              "value": 0,
              "total": 0,
              "formula": ""
            },
            "autoHandSize": false,
            "handSize": {
              "base": 0,
              "value": 0,
              "total": 0,
              "formula": ""
            },
            "drawRandom": false,
            "deckSize": {
              "base": 0,
              "value": 0,
              "total": 0,
              "formula": ""
            },
            "clNotes": "",
            "ability": "int",
            "spellslotAbility": "",
            "addHalfOtherLevels": false,
            "autoSetup": true,
            "baseDCFormula": "10 + @sl + @ablMod",
            "maxPrestigeCl": 0,
            "hasPrestigeCl": false,
            "canAddPrestigeCl": false,
            "canRemovePrestigeCl": false
          },
          "secondary": {
            "name": "Secondary",
            "class": "",
            "cl": {
              "base": null,
              "value": 0,
              "total": 0,
              "formula": ""
            },
            "autoHandSize": false,
            "handSize": {
              "base": 0,
              "value": 0,
              "total": 0,
              "formula": ""
            },
            "drawRandom": false,
            "deckSize": {
              "base": 0,
              "value": 0,
              "total": 0,
              "formula": ""
            },
            "clNotes": "",
            "ability": "int",
            "spellslotAbility": "",
            "addHalfOtherLevels": false,
            "autoSetup": true,
            "baseDCFormula": "10 + @sl + @ablMod",
            "maxPrestigeCl": 0,
            "hasPrestigeCl": false,
            "canAddPrestigeCl": false,
            "canRemovePrestigeCl": false
          }
        }
      },
      "spellcasting": {
        "_deprecated": true
      },
      "spelldc": {
        "_deprecated": true
      },
      "damageReduction": {
        "any": 0,
        "types": []
      },
      "energyResistance": [],
      "spellLevel": 0,
      "creatureType": "dragon",
      "mods": {
        "skills": {}
      },
      "runSpeedMultiplierModifier": 0,
      "speedMultiplier": 0
    },
    "details": {
      "level": {
        "value": 14,
        "min": 0,
        "max": 40,
        "available": 1
      },
      "breakDC": {
        "base": 0,
        "total": 0
      },
      "levelUpData": [
        {
          "level": 1,
          "id": "_level1",
          "classId": null,
          "class": null,
          "classImage": null,
          "skills": {},
          "hp": 0,
          "hasFeat": true,
          "hasAbility": false
        }
      ],
      "alignment": "Always lawful evil",
      "biography": {
        "value": "",
        "public": ""
      },
      "notes": {
        "value": "<div topic='Green Dragon' level='4'><p><h4>Green Dragon</h4></p><p/><p/><p/><p/><div topic='Dragon' level='8'><p><b>Dragon (Air)</b></p></div><div topic='Environment' level='8'><p><b>Environment:</b> Temperate forests</p></div><div topic='Organization' level='8'><p><b>Organization:</b> Wyrmling, very young, young, juvenile, and young adult: solitary or clutch (2-5); adult, mature adult, old, very old, ancient, wyrm, or great wyrm: solitary, pair, or family (1-2 and 2-5 offspring)</p></div><div topic='Challenge Ratings' level='8'><p><b>Challenge Ratings:</b> Wyrmling 3; very young 4; young 5; juvenile 8; young adult 11; adult 13; mature adult 16; old 18; very old 19; ancient 21; wyrm 22; great wyrm 24</p></div><div topic='Treasure' level='8'><p><b>Treasure:</b> Triple standard</p></div><div topic='Alignment' level='8'><p><b>Alignment:</b> Always lawful evil</p></div><div topic='Advancement' level='8'><p><b>Advancement:</b> Wyrmling 6-7 HD; very young 9-10 HD; young 12-13 HD; juvenile 15-16 HD; young adult 18-19 HD; adult 21-22 HD; mature adult 24-25 HD; old 27-28 HD; very old 30-31 HD; ancient 33-34 HD; wyrm 36-37 HD; great wyrm 39+ HD</p></div><div topic='Level Adjustment' level='8'><p><b>Level Adjustment:</b> Wyrmling +5; very young +5; young +5; juvenile +6; others -</p><p/></div><div topic='Green Dragons by Age' level='5'><p><h2>Green Dragons by Age</h2></p><table class='table table-sm table-hover' width='100%' border='1' cellpadding='2' cellspacing='2' frame='VOID' rules='ROWS'><tr maxcol='17' curcol='17'><td><b>Age</b><br/></td><td><b>Size</b><br/></td><td><b>Hit Dice (hp)</b><br/></td><td><b>Str</b><br/></td><td><b>Dex</b><br/></td><td><b>Con</b><br/></td><td><b>Int</b><br/></td><td><b>Wis</b><br/></td><td><b>Cha</b><br/></td><td><b>Base Attack/</b><br/><b>Grapple</b><br/></td> <td><b>Attack</b><br/></td><td><b>Fort Save</b><br/></td><td><b>Ref Save</b><br/></td><td><b>Will Save</b><br/></td><td><b>Breath Weapon (DC)</b><br/></td><td><b>Frightful Presence DC</b><br/></td></tr><tr maxcol='17' curcol='17'><td>Wyrmling<br/></td><td>S<br/></td><td>5d12+5 (37)<br/></td><td>13<br/></td><td>10<br/></td><td>13<br/></td><td>10<br/></td><td>11<br/></td><td>10<br/></td><td>+5/+2<br/></td><td>+7<br/></td><td>+5<br/></td><td>+4<br/></td><td>+4<br/></td><td>2d6 (13)<br/></td><td>-<br/></td></tr><tr maxcol='17' curcol='17'><td>Very young<br/></td><td>M<br/></td><td>8d12+16 (68)<br/></td><td>15<br/></td><td>10<br/></td><td>15<br/></td><td>10<br/></td><td>11<br/></td><td>10<br/></td><td>+8/+10<br/></td><td>+10<br/></td><td>+8<br/></td><td>+6<br/></td><td>+6<br/></td><td>4d6 (16)<br/></td><td>-<br/></td></tr><tr maxcol='17' curcol='17'><td>Young<br/></td><td>M<br/></td><td>11d12+22 (93)<br/></td><td>17<br/></td><td>10<br/></td><td>15<br/></td><td>12<br/></td><td>13<br/></td><td>12<br/></td><td>+11/+14<br/></td><td>+14<br/></td><td>+9<br/></td><td>+7<br/></td><td>+8<br/></td><td>6d6 (17)<br/></td><td>-<br/></td></tr><tr maxcol='17' curcol='17'><td>Juvenile<br/></td><td>L<br/></td><td>14d12+42 (133)<br/></td><td>19<br/></td><td>10<br/></td><td>17<br/></td><td>14<br/></td><td>15<br/></td><td>14<br/></td><td>+14/+22<br/></td><td>+17<br/></td><td>+12<br/></td><td>+9<br/></td><td>+11<br/></td><td>8d6 (20)<br/></td><td>-<br/></td></tr><tr maxcol='17' curcol='17'><td>Young adult<br/></td><td>L<br/></td><td>17d12+68 (178)<br/></td><td>23<br/></td><td>10<br/></td><td>19<br/></td><td>14<br/></td><td>15<br/></td><td>14<br/></td><td>+17/+27<br/></td><td>+22<br/></td><td>+14<br/></td><td>+10<br/></td><td>+12<br/></td><td>10d6 (22)<br/></td><td>20<br/></td></tr><tr maxcol='17' curcol='17'><td>Adult<br/></td><td>H<br/></td><td>20d12+100 (230)<br/></td><td>27<br/></td><td>10<br/></td><td>21<br/></td><td>16<br/></td><td>17<br/></td><td>16<br/></td><td>+20/+36<br/></td><td>+26<br/></td><td>+17<br/></td><td>+12<br/></td><td>+15<br/></td><td>12d6 (25)<br/></td><td>23<br/></td></tr><tr maxcol='17' curcol='17'><td>Mature adult<br/></td><td>H<br/></td><td>23d12+115 (264)<br/></td><td>29<br/></td><td>10<br/></td><td>21<br/></td><td>16<br/></td><td>17<br/></td><td>16<br/></td><td>+23/+40<br/></td><td>+30<br/></td><td>+18<br/></td><td>+13<br/></td><td>+16<br/></td><td>14d6 (26)<br/></td><td>24<br/></td></tr><tr maxcol='17' curcol='17'><td>Old<br/></td><td>H<br/></td><td>26d12+156 (325)<br/></td><td>31<br/></td><td>10<br/></td><td>23<br/></td><td>18<br/></td><td>19<br/></td><td>18<br/></td><td>+26/+44<br/></td><td>+34<br/></td><td>+21<br/></td><td>+15<br/></td><td>+19<br/></td><td>16d6 (29)<br/></td><td>27<br/></td></tr><tr maxcol='17' curcol='17'><td>Very old<br/></td><td>H<br/></td><td>29d12+174 (362)<br/></td><td>33<br/></td><td>10<br/></td><td>23<br/></td><td>18<br/></td><td>19<br/></td><td>18<br/></td><td>+29/+48<br/></td><td>+38<br/></td><td>+22<br/></td><td>+16<br/></td><td>+20<br/></td><td>18d6 (30)<br/></td><td>28<br/></td></tr><tr maxcol='17' curcol='17'><td>Ancient<br/></td><td>G<br/></td><td>32d12+224 (432)<br/></td><td>35<br/></td><td>10<br/></td><td>25<br/></td><td>20<br/></td><td>21<br/></td><td>20<br/></td><td>+32/+56<br/></td><td>+40<br/></td><td>+25<br/></td><td>+18<br/></td><td>+23<br/></td><td>20d6 (33)<br/></td><td>31<br/></td></tr><tr maxcol='17' curcol='17'><td>Wyrm<br/></td><td>G<br/></td><td>35d12+280 (507)<br/></td><td>37<br/></td><td>10<br/></td><td>27<br/></td><td>20<br/></td><td>21<br/></td><td>20<br/></td><td>+35/+60<br/></td><td>+44<br/></td><td>+27<br/></td><td>+19<br/></td><td>+24<br/></td><td>22d6 (35)<br/></td><td>32<br/></td></tr><tr maxcol='17' curcol='17'><td>Great wyrm<br/></td><td>G<br/></td><td>38d12+304 (551)<br/></td><td>39<br/></td><td>10<br/></td><td>27<br/></td><td>22<br/></td><td>23<br/></td><td>22<br/></td><td>+38/+64<br/></td><td>+48<br/></td><td>+29<br/></td><td>+21<br/></td><td>+27<br/></td><td>24d6 (37)<br/></td><td>35<br/></td></tr></table><p/></div><div topic='Green Dragon Abilities by Age' level='5'><p><h2>Green Dragon Abilities by Age</h2></p><table class='table table-sm table-hover' width='100%' border='1' cellpadding='2' cellspacing='2' frame='VOID' rules='ROWS'><tr maxcol='8' curcol='8'><td><b>Age</b><br/></td><td><b>Speed</b><br/></td><td><b>Initiative</b><br/></td><td><b>AC</b><br/></td><td><b>Special Abilities</b><br/></td><td><b>Caster Level</b><br/></td><td><b>SR</b><br/></td></tr><tr maxcol='8' curcol='8'><td>Wyrmling<br/></td><td>40 ft., fly 100 ft. (average), swim 40 ft<br/></td><td>+0<br/></td><td>15 (+1 size, +4 natural), touch 11, flat-footed 15<br/></td><td>Immunity to acid, water breathing<br/></td><td>-<br/></td><td>-<br/></td></tr><tr maxcol='8' curcol='8'><td>Very young<br/></td><td>40 ft., fly 150 ft. (poor), swim 40 ft<br/></td><td>+0<br/></td><td>17 (+7 natural), touch 10, flat-footed 17<br/></td><td/><td>-<br/></td><td>-<br/></td></tr><tr maxcol='8' curcol='8'><td>Young<br/></td><td>40 ft., fly 150 ft. (poor), swim 40 ft<br/></td><td>+0<br/></td><td>20 (+10 natural), touch 10, flat-footed 20<br/></td><td/><td>-<br/></td><td>-<br/></td></tr><tr maxcol='8' curcol='8'><td>Juvenile<br/></td><td>40 ft., fly 150 ft. (poor), swim 40 ft<br/></td><td>+0<br/></td><td>22 (-1 size, +13 natural), touch 9, flat-footed 22<br/></td><td/><td>1st<br/></td><td>-<br/></td></tr><tr maxcol='8' curcol='8'><td>Young adult<br/></td><td>40 ft., fly 150 ft. (poor), swim 40 ft<br/></td><td>+0<br/></td><td>25 (-1 size, +16 natural), touch 9, flat-footed 25<br/></td><td>Damage reduction 5/magic<br/></td><td>3rd<br/></td><td>19<br/></td></tr><tr maxcol='8' curcol='8'><td>Adult<br/></td><td>40 ft., fly 150 ft. (poor), swim 40 ft<br/></td><td>+0<br/></td><td>27 (-2 size, +19 natural), touch 8, flat-footed 27<br/></td><td><i>Suggestion</i><br/></td><td>5th<br/></td><td>21<br/></td></tr><tr maxcol='8' curcol='8'><td>Mature adult<br/></td><td>40 ft., fly 150 ft. (poor), swim 40 ft<br/></td><td>+0<br/></td><td>30 (-2 size, +22 natural), touch 8, flat-footed 30<br/></td><td>Damage reduction 10/magic<br/></td><td>7th<br/></td><td>22<br/></td></tr><tr maxcol='8' curcol='8'><td>Old<br/></td><td>40 ft., fly 150 ft. (poor), swim 40 ft<br/></td><td>+0<br/></td><td>33 (-2 size, +25 natural), touch 8, flat-footed 33<br/></td><td><i>Plant growth</i><br/></td><td>9th<br/></td><td>24<br/></td></tr><tr maxcol='8' curcol='8'><td>Very old<br/></td><td>40 ft., fly 150 ft. (poor), swim 40 ft<br/></td><td>+0<br/></td><td>36 (-2 size, +28 natural), touch 8, flat-footed 36<br/></td><td>Damage reduction 15/magic<br/></td><td>11th<br/></td><td>25<br/></td></tr><tr maxcol='8' curcol='8'><td>Ancient<br/></td><td>40 ft., fly 200 ft. (clumsy), swim 40 ft<br/></td><td>+0<br/></td><td>37 (-4 size, +31 natural), touch 6, flat-footed 37<br/></td><td><i>Dominate person</i><br/></td><td>13th<br/></td><td>27<br/></td></tr><tr maxcol='8' curcol='8'><td>Wyrm<br/></td><td>40 ft., fly 200 ft. (clumsy), swim 40 ft<br/></td><td>+0<br/></td><td>40 (-4 size, +34 natural), touch 6, flat-footed 40<br/></td><td>Damage reduction 20/magic<br/></td><td>15th<br/></td><td>28<br/></td></tr><tr maxcol='8' curcol='8'><td>Great wyrm<br/></td><td>40 ft., fly 200 ft. (clumsy), swim 40 ft<br/></td><td>+0<br/></td><td>43 (-4 size, +37 natural), touch 6, flat-footed 43<br/></td><td><i>Command plants</i><br/></td><td>17th<br/></td><td>30<br/></td></tr></table><p>A wyrmling green dragon's scales are thin, very small, and a deep shade of green that appears nearly black. As the dragon ages, the scales grow larger and lighter, turning shades of forest, emerald, and olive green, which helps it blend in with its wooded surroundings.</p></div><div topic='Combat' level='5'><p><h2>Combat</h2></p><p>Green dragons initiate fights with little or no provocation, picking on creatures of any size. If the target is intriguing or seems formidable, the dragon stalks the creature to determine the best time to strike and the most appropriate tactics to use. If the target appears weak, the dragon makes its presence known quickly-it enjoys evoking terror. Sometimes the dragon elects to control a humanoid creature through intimidation and <i>suggestion</i>. Green dragons especially like to question adventurers to learn more about their society and abilities, what is going on in the countryside, and if there is treasure nearby.</p><div topic='Breath Weapon' level='8'><p><b>Breath Weapon (Su):</b> A green dragon has one type of breath weapon, a cone of corrosive (acid) gas.</p></div><div topic='Water Breathing' level='8'><p><b>Water Breathing (Ex):</b> A green dragon can breathe underwater indefinitely and can freely use its breath weapon, spells, and other abilities while submerged.</p></div><div topic='Spell-Like Abilities' level='8'><p><b>Spell-Like Abilities:</b> 3/day-<i>suggestion</i> (adult or older), <i>dominate person</i> (ancient or older); 1/day- <i>plant growth</i> (old or older), <i>command plants</i> (great wyrm).</p></div><div topic='Skills' level='8'><p><b>Skills:</b> Bluff, Hide, and Move Silently are considered class skills for green dragons.</p><p/></div></div></div>    ",
        "public": ""
      },
      "bonusSkillRankFormula": "",
      "type": "Air",
      "environment": "",
      "cr": 8,
      "totalCr": 8,
      "xp": {
        "value": 10
      },
      "levelUpProgression": false,
      "advancement": {
        "hd": [
          {
            "lower": 15,
            "upper": 16,
            "size": "lg"
          }
        ],
        "byClass": false,
        "none": false,
        "originalHD": 0
      }
    },
    "skills": {
      "apr": {
        "value": 0,
        "ability": "int",
        "rt": false,
        "acp": false,
        "rank": 0,
        "notes": "",
        "mod": 2,
        "background": false,
        "visibility": "default",
        "cs": true,
        "points": 0,
        "acpPenalty": 0,
        "energyDrainPenalty": 0,
        "abilityModifier": 2
      },
      "blc": {
        "value": 0,
        "ability": "dex",
        "rt": false,
        "acp": true,
        "rank": 0,
        "notes": "",
        "mod": 0,
        "background": false,
        "visibility": "default",
        "cs": false,
        "points": 0,
        "acpPenalty": 0,
        "energyDrainPenalty": 0,
        "abilityModifier": 0
      },
      "blf": {
        "value": 0,
        "ability": "cha",
        "rt": false,
        "acp": false,
        "rank": 7,
        "notes": "",
        "mod": 9,
        "background": false,
        "visibility": "default",
        "cs": true,
        "points": 7,
        "acpPenalty": 0,
        "energyDrainPenalty": 0,
        "abilityModifier": 2
      },
      "clm": {
        "value": 0,
        "ability": "str",
        "rt": false,
        "acp": true,
        "rank": 0,
        "notes": "",
        "mod": 4,
        "background": false,
        "visibility": "default",
        "cs": true,
        "points": 0,
        "acpPenalty": 0,
        "energyDrainPenalty": 0,
        "abilityModifier": 4
      },
      "coc": {
        "value": 0,
        "ability": "con",
        "rt": false,
        "acp": false,
        "rank": 8,
        "notes": "",
        "mod": 11,
        "background": false,
        "visibility": "default",
        "cs": true,
        "points": 8,
        "acpPenalty": 0,
        "energyDrainPenalty": 0,
        "abilityModifier": 3
      },
      "crf": {
        "value": 0,
        "ability": "int",
        "rt": false,
        "acp": false,
        "rank": 0,
        "notes": "",
        "mod": 2,
        "background": false,
        "visibility": "default",
        "cs": true,
        "subSkills": {},
        "namedSubSkills": {},
        "points": 0,
        "acpPenalty": 0,
        "energyDrainPenalty": 0,
        "abilityModifier": 2
      },
      "dsc": {
        "value": 0,
        "ability": "int",
        "rt": true,
        "acp": false,
        "rank": 0,
        "notes": "",
        "mod": 2,
        "background": false,
        "visibility": "default",
        "cs": false,
        "points": 0,
        "acpPenalty": 0,
        "energyDrainPenalty": 0,
        "abilityModifier": 2
      },
      "dip": {
        "value": 0,
        "ability": "cha",
        "rt": false,
        "acp": false,
        "rank": 7,
        "notes": "",
        "mod": 13,
        "background": false,
        "visibility": "default",
        "cs": true,
        "changeBonus": 4,
        "points": 7,
        "acpPenalty": 0,
        "energyDrainPenalty": 0,
        "abilityModifier": 2
      },
      "dev": {
        "value": 0,
        "ability": "dex",
        "rt": true,
        "acp": true,
        "rank": 0,
        "notes": "",
        "mod": 0,
        "background": false,
        "visibility": "default",
        "cs": false,
        "points": 0,
        "acpPenalty": 0,
        "energyDrainPenalty": 0,
        "abilityModifier": 0
      },
      "dis": {
        "value": 0,
        "ability": "cha",
        "rt": false,
        "acp": false,
        "rank": 0,
        "notes": "",
        "mod": 2,
        "background": false,
        "visibility": "default",
        "cs": false,
        "points": 0,
        "acpPenalty": 0,
        "energyDrainPenalty": 0,
        "abilityModifier": 2
      },
      "esc": {
        "value": 0,
        "ability": "dex",
        "rt": false,
        "acp": true,
        "rank": 7,
        "notes": "",
        "mod": 7,
        "background": false,
        "visibility": "default",
        "cs": true,
        "points": 7,
        "acpPenalty": 0,
        "energyDrainPenalty": 0,
        "abilityModifier": 0
      },
      "fog": {
        "value": 0,
        "ability": "int",
        "rt": false,
        "acp": false,
        "rank": 0,
        "notes": "",
        "mod": 2,
        "background": false,
        "visibility": "default",
        "cs": false,
        "points": 0,
        "acpPenalty": 0,
        "energyDrainPenalty": 0,
        "abilityModifier": 2
      },
      "gif": {
        "value": 0,
        "ability": "cha",
        "rt": false,
        "acp": false,
        "rank": 0,
        "notes": "",
        "mod": 2,
        "background": false,
        "visibility": "default",
        "cs": false,
        "points": 0,
        "acpPenalty": 0,
        "energyDrainPenalty": 0,
        "abilityModifier": 2
      },
      "han": {
        "value": 0,
        "ability": "cha",
        "rt": true,
        "acp": false,
        "rank": 0,
        "notes": "",
        "mod": 2,
        "background": false,
        "visibility": "default",
        "cs": false,
        "points": 0,
        "acpPenalty": 0,
        "energyDrainPenalty": 0,
        "abilityModifier": 2
      },
      "hea": {
        "value": 0,
        "ability": "wis",
        "rt": false,
        "acp": false,
        "rank": 0,
        "notes": "",
        "mod": 2,
        "background": false,
        "visibility": "default",
        "cs": true,
        "points": 0,
        "acpPenalty": 0,
        "energyDrainPenalty": 0,
        "abilityModifier": 2
      },
      "hid": {
        "value": 0,
        "ability": "dex",
        "rt": false,
        "acp": true,
        "rank": 7,
        "notes": "",
        "mod": 3,
        "background": false,
        "visibility": "default",
        "cs": true,
        "changeBonus": -4,
        "points": 7,
        "acpPenalty": 0,
        "energyDrainPenalty": 0,
        "abilityModifier": 0
      },
      "int": {
        "value": 0,
        "ability": "cha",
        "rt": false,
        "acp": false,
        "rank": 8,
        "notes": "",
        "mod": 12,
        "background": false,
        "visibility": "default",
        "cs": true,
        "changeBonus": 2,
        "points": 8,
        "acpPenalty": 0,
        "energyDrainPenalty": 0,
        "abilityModifier": 2
      },
      "jmp": {
        "value": 0,
        "ability": "str",
        "rt": false,
        "acp": true,
        "rank": 0,
        "notes": "",
        "mod": 4,
        "background": false,
        "visibility": "default",
        "cs": false,
        "points": 0,
        "acpPenalty": 0,
        "energyDrainPenalty": 0,
        "abilityModifier": 4
      },
      "kar": {
        "value": 0,
        "ability": "int",
        "rt": true,
        "acp": false,
        "rank": 0,
        "notes": "",
        "mod": 2,
        "background": false,
        "visibility": "default",
        "cs": true,
        "points": 0,
        "acpPenalty": 0,
        "energyDrainPenalty": 0,
        "abilityModifier": 2
      },
      "kdu": {
        "value": 0,
        "ability": "int",
        "rt": true,
        "acp": false,
        "rank": 0,
        "notes": "",
        "mod": 2,
        "background": false,
        "visibility": "default",
        "cs": true,
        "points": 0,
        "acpPenalty": 0,
        "energyDrainPenalty": 0,
        "abilityModifier": 2
      },
      "ken": {
        "value": 0,
        "ability": "int",
        "rt": true,
        "acp": false,
        "rank": 0,
        "notes": "",
        "mod": 2,
        "background": false,
        "visibility": "default",
        "cs": true,
        "points": 0,
        "acpPenalty": 0,
        "energyDrainPenalty": 0,
        "abilityModifier": 2
      },
      "kge": {
        "value": 0,
        "ability": "int",
        "rt": true,
        "acp": false,
        "rank": 0,
        "notes": "",
        "mod": 2,
        "background": false,
        "visibility": "default",
        "cs": true,
        "points": 0,
        "acpPenalty": 0,
        "energyDrainPenalty": 0,
        "abilityModifier": 2
      },
      "khi": {
        "value": 0,
        "ability": "int",
        "rt": true,
        "acp": false,
        "rank": 0,
        "notes": "",
        "mod": 2,
        "background": false,
        "visibility": "default",
        "cs": true,
        "points": 0,
        "acpPenalty": 0,
        "energyDrainPenalty": 0,
        "abilityModifier": 2
      },
      "klo": {
        "value": 0,
        "ability": "int",
        "rt": true,
        "acp": false,
        "rank": 0,
        "notes": "",
        "mod": 2,
        "background": false,
        "visibility": "default",
        "cs": true,
        "points": 0,
        "acpPenalty": 0,
        "energyDrainPenalty": 0,
        "abilityModifier": 2
      },
      "kna": {
        "value": 0,
        "ability": "int",
        "rt": true,
        "acp": false,
        "rank": 0,
        "notes": "",
        "mod": 2,
        "background": false,
        "visibility": "default",
        "cs": true,
        "points": 0,
        "acpPenalty": 0,
        "energyDrainPenalty": 0,
        "abilityModifier": 2
      },
      "kno": {
        "value": 0,
        "ability": "int",
        "rt": true,
        "acp": false,
        "rank": 0,
        "notes": "",
        "mod": 2,
        "background": true,
        "cs": true,
        "points": 0,
        "acpPenalty": 0,
        "energyDrainPenalty": 0,
        "abilityModifier": 2
      },
      "kpl": {
        "value": 0,
        "ability": "int",
        "rt": true,
        "acp": false,
        "rank": 0,
        "notes": "",
        "mod": 2,
        "background": false,
        "visibility": "default",
        "cs": true,
        "points": 0,
        "acpPenalty": 0,
        "energyDrainPenalty": 0,
        "abilityModifier": 2
      },
      "kre": {
        "value": 0,
        "ability": "int",
        "rt": true,
        "acp": false,
        "rank": 0,
        "notes": "",
        "mod": 2,
        "background": false,
        "visibility": "default",
        "cs": true,
        "points": 0,
        "acpPenalty": 0,
        "energyDrainPenalty": 0,
        "abilityModifier": 2
      },
      "lis": {
        "value": 0,
        "ability": "wis",
        "rt": false,
        "acp": false,
        "rank": 17,
        "notes": "",
        "mod": 21,
        "background": false,
        "visibility": "default",
        "cs": true,
        "changeBonus": 2,
        "points": 17,
        "acpPenalty": 0,
        "energyDrainPenalty": 0,
        "abilityModifier": 2
      },
      "mos": {
        "value": 0,
        "ability": "dex",
        "rt": false,
        "acp": true,
        "rank": 7,
        "notes": "",
        "mod": 7,
        "background": false,
        "visibility": "default",
        "cs": true,
        "points": 7,
        "acpPenalty": 0,
        "energyDrainPenalty": 0,
        "abilityModifier": 0
      },
      "opl": {
        "value": 0,
        "ability": "dex",
        "rt": true,
        "acp": false,
        "rank": 0,
        "notes": "",
        "mod": 0,
        "background": false,
        "visibility": "default",
        "cs": false,
        "points": 0,
        "acpPenalty": 0,
        "energyDrainPenalty": 0,
        "abilityModifier": 0
      },
      "prf": {
        "value": 0,
        "ability": "cha",
        "rt": false,
        "acp": false,
        "rank": 0,
        "notes": "",
        "mod": 2,
        "background": false,
        "visibility": "default",
        "cs": false,
        "subSkills": {},
        "namedSubSkills": {},
        "points": 0,
        "acpPenalty": 0,
        "energyDrainPenalty": 0,
        "abilityModifier": 2
      },
      "pro": {
        "value": 0,
        "ability": "wis",
        "rt": true,
        "acp": false,
        "rank": 0,
        "notes": "",
        "mod": 2,
        "background": false,
        "visibility": "default",
        "cs": false,
        "subSkills": {},
        "namedSubSkills": {},
        "points": 0,
        "acpPenalty": 0,
        "energyDrainPenalty": 0,
        "abilityModifier": 2
      },
      "rid": {
        "value": 0,
        "ability": "dex",
        "rt": false,
        "acp": true,
        "rank": 0,
        "notes": "",
        "mod": 0,
        "background": false,
        "visibility": "default",
        "cs": false,
        "points": 0,
        "acpPenalty": 0,
        "energyDrainPenalty": 0,
        "abilityModifier": 0
      },
      "src": {
        "value": 0,
        "ability": "int",
        "rt": false,
        "acp": false,
        "rank": 17,
        "notes": "",
        "mod": 19,
        "background": false,
        "visibility": "default",
        "cs": true,
        "points": 17,
        "acpPenalty": 0,
        "energyDrainPenalty": 0,
        "abilityModifier": 2
      },
      "sen": {
        "value": 0,
        "ability": "wis",
        "rt": false,
        "acp": false,
        "rank": 7,
        "notes": "",
        "mod": 9,
        "background": false,
        "visibility": "default",
        "cs": true,
        "points": 7,
        "acpPenalty": 0,
        "energyDrainPenalty": 0,
        "abilityModifier": 2
      },
      "slt": {
        "value": 0,
        "ability": "dex",
        "rt": true,
        "acp": true,
        "rank": 0,
        "notes": "",
        "mod": 2,
        "background": false,
        "visibility": "default",
        "cs": false,
        "changeBonus": 2,
        "points": 0,
        "acpPenalty": 0,
        "energyDrainPenalty": 0,
        "abilityModifier": 0
      },
      "spk": {
        "value": 0,
        "ability": "",
        "rt": true,
        "acp": false,
        "rank": 0,
        "notes": "",
        "mod": 0,
        "background": false,
        "visibility": "default",
        "points": 0,
        "cs": false,
        "acpPenalty": 0,
        "energyDrainPenalty": 0,
        "abilityModifier": 0
      },
      "spl": {
        "value": 0,
        "ability": "int",
        "rt": true,
        "acp": false,
        "rank": 0,
        "notes": "",
        "mod": 2,
        "background": false,
        "visibility": "default",
        "cs": true,
        "points": 0,
        "acpPenalty": 0,
        "energyDrainPenalty": 0,
        "abilityModifier": 2
      },
      "spt": {
        "value": 0,
        "ability": "wis",
        "rt": false,
        "acp": false,
        "rank": 17,
        "notes": "",
        "mod": 21,
        "background": false,
        "visibility": "default",
        "cs": true,
        "changeBonus": 2,
        "points": 17,
        "acpPenalty": 0,
        "energyDrainPenalty": 0,
        "abilityModifier": 2
      },
      "sur": {
        "value": 0,
        "ability": "wis",
        "rt": false,
        "acp": false,
        "rank": 0,
        "notes": "",
        "mod": 2,
        "background": false,
        "visibility": "default",
        "cs": true,
        "points": 0,
        "acpPenalty": 0,
        "energyDrainPenalty": 0,
        "abilityModifier": 2
      },
      "swm": {
        "value": 0,
        "ability": "str",
        "rt": false,
        "acp": true,
        "rank": 0,
        "notes": "",
        "mod": 12,
        "background": false,
        "visibility": "default",
        "cs": true,
        "changeBonus": 8,
        "points": 0,
        "acpPenalty": 0,
        "energyDrainPenalty": 0,
        "abilityModifier": 4
      },
      "tmb": {
        "value": 0,
        "ability": "dex",
        "rt": false,
        "acp": true,
        "rank": 0,
        "notes": "",
        "mod": 0,
        "background": false,
        "visibility": "default",
        "cs": false,
        "points": 0,
        "acpPenalty": 0,
        "energyDrainPenalty": 0,
        "abilityModifier": 0
      },
      "umd": {
        "value": 0,
        "ability": "cha",
        "rt": true,
        "acp": false,
        "rank": 7,
        "notes": "",
        "mod": 9,
        "background": false,
        "visibility": "default",
        "cs": true,
        "points": 7,
        "acpPenalty": 0,
        "energyDrainPenalty": 0,
        "abilityModifier": 2
      },
      "uro": {
        "value": 0,
        "ability": "dex",
        "rt": false,
        "acp": false,
        "rank": 0,
        "notes": "",
        "mod": 0,
        "background": false,
        "visibility": "default",
        "cs": false,
        "points": 0,
        "acpPenalty": 0,
        "energyDrainPenalty": 0,
        "abilityModifier": 0
      },
      "kps": {
        "value": 0,
        "ability": "int",
        "rt": false,
        "acp": false,
        "rank": 0,
        "notes": "",
        "mod": 2,
        "background": false,
        "visibility": "default",
        "cs": false,
        "points": 0,
        "acpPenalty": 0,
        "energyDrainPenalty": 0,
        "abilityModifier": 2
      },
      "aut": {
        "value": 0,
        "ability": "wis",
        "rt": true,
        "acp": false,
        "rank": 0,
        "notes": "",
        "mod": 4,
        "background": false,
        "visibility": "default",
        "cs": false,
        "changeBonus": 2,
        "points": 0,
        "acpPenalty": 0,
        "energyDrainPenalty": 0,
        "abilityModifier": 2
      },
      "psi": {
        "value": 0,
        "ability": "int",
        "rt": true,
        "acp": false,
        "rank": 0,
        "notes": "",
        "mod": 2,
        "background": false,
        "visibility": "default",
        "cs": false,
        "points": 0,
        "acpPenalty": 0,
        "energyDrainPenalty": 0,
        "abilityModifier": 2
      },
      "upd": {
        "value": 0,
        "ability": "cha",
        "rt": true,
        "acp": false,
        "rank": 0,
        "notes": "",
        "mod": 2,
        "background": false,
        "visibility": "default",
        "cs": false,
        "points": 0,
        "acpPenalty": 0,
        "energyDrainPenalty": 0,
        "abilityModifier": 2
      }
    },
    "customSkills": {},
    "traits": {
      "size": "lg",
      "tokensize": "actor",
      "senses": "Darkvision 120 ft.",
      "dr": "",
      "incorporeal": false,
      "eres": "",
      "cres": "",
      "languages": {
        "value": [],
        "custom": ""
      },
      "di": {
        "value": [],
        "custom": ""
      },
      "dv": {
        "value": [],
        "custom": ""
      },
      "ci": {
        "value": [
          "sleep",
          "paralyze"
        ],
        "custom": ""
      },
      "perception": {
        "_deprecated": true
      },
      "actualSize": "lg"
    },
    "currency": {
      "pp": 0,
      "gp": 0,
      "sp": 0,
      "cp": 0
    },
    "altCurrency": {
      "pp": 0,
      "gp": 0,
      "sp": 0,
      "cp": 0
    },
    "customCurrency": {},
    "noLightOverride": false,
    "noTokenOverride": false,
    "noSkillSynergy": false,
    "noBuffDisplay": false,
    "lockEditingByPlayers": false,
    "showCardSheet": false,
    "showSpellcastingSheet": true,
    "staticBonus": {
      "hp": 0,
      "ac": 0
    },
    "jumpSkillAdjust": false,
    "master": {
      "id": null,
      "img": null,
      "name": null,
      "data": {},
      "distance": 0
    },
    "noVisionOverride": true,
    "counters": {
      "feat": {
        "base": {
          "value": 5,
          "counted": 5
        }
      }
    },
    "classes": {
      "dragon": {
        "level": 14,
        "_id": "qMHmTHvLHOc5AM7A",
        "name": "Dragon*",
        "hd": 12,
        "bab": "high",
        "hp": false,
        "maxLevel": 20,
        "skillsPerLevel": 6,
        "isSpellcaster": false,
        "isPsionSpellcaster": false,
        "hasSpecialSlot": false,
        "isSpellcastingSpontaneus": false,
        "isArcane": false,
        "spellcastingType": null,
        "spellcastingAbility": "int",
        "allSpellsKnown": false,
        "savingThrows": {
          "fort": 9,
          "ref": 9,
          "will": 9
        },
        "fc": {
          "hp": 0,
          "skill": 0,
          "alt": 0
        },
        "spellsKnownPerLevel": [],
        "powersKnown": [],
        "powersMaxLevel": [],
        "spellslotAbility": "",
        "halfCasterLevel": false,
        "deckHandSizeFormula": "0",
        "knownCardsSizeFormula": "0",
        "deckPrestigeClass": false,
        "hasSpellbook": false,
        "spelllist": {}
      }
    },
    "damage": {
      "nonlethal": {
        "value": 0,
        "max": 133
      }
    },
    "senses": {
      "darkvision": 0,
      "blindsight": 0,
      "tremorsense": 0,
      "truesight": 0,
      "lowLight": false,
      "special": "",
      "modified": {},
      "lowLightMultiplier": 2
    },
    "totalNonEclLevels": 14,
    "classLevels": 0,
    "combinedResistances": [
      {
        "uid": "energy-acid",
        "value": 0,
        "vulnerable": false,
        "immunity": true,
        "lethal": false,
        "providedBy": "qMHmTHvLHOc5AM7A",
        "modified": true,
        "items": [
          "Dragon*"
        ]
      }
    ],
    "combinedDR": [],
    "shieldType": "none",
    "canLevelUp": false,
    "naturalAttackCount": 4
  },
  "ownership": {
    "default": 0,
    "gvVvJrAyZKOZnAuP": 3
  },
  "prototypeToken": {
    "flags": {
      "D35E": {
        "lowLightVision": false
      }
    },
    "name": "Green Dragon, Juvenile",
    "displayName": 20,
    "width": 2,
    "height": 2,
    "lockRotation": false,
    "rotation": 0,
    "actorLink": false,
    "disposition": -1,
    "displayBars": 40,
    "bar1": {
      "attribute": "attributes.hp"
    },
    "bar2": {
      "attribute": null
    },
    "randomImg": false,
    "alpha": 1,
    "light": {
      "alpha": 0,
      "angle": 360,
      "bright": 0,
      "coloration": 1,
      "dim": 0,
      "luminosity": 0.5,
      "saturation": 0,
      "contrast": 0,
      "shadows": 0,
      "animation": {
        "speed": 5,
        "intensity": 5,
        "type": null,
        "reverse": false
      },
      "darkness": {
        "min": 0,
        "max": 1
      },
      "color": "#000000",
      "attenuation": 0.5
    },
    "texture": {
      "src": "systems/D35E/icons/bestiary/token/dragon-green.png",
      "tint": null,
      "scaleX": 1,
      "scaleY": 1,
      "offsetX": 0,
      "offsetY": 0,
      "rotation": 0
    },
    "sight": {
      "angle": 360,
      "enabled": true,
      "range": 120,
      "brightness": 1,
      "visionMode": "basic",
      "attenuation": 0.1,
      "saturation": 0,
      "contrast": 0
    },
    "appendNumber": false,
    "prependAdjective": false,
    "detectionModes": []
  },
  "_stats": {
    "systemId": "D35E",
    "systemVersion": "2.3.0",
    "coreVersion": "11.299",
    "createdTime": 1686244284320,
    "modifiedTime": 1686244284489,
    "lastModifiedBy": "cB3ob9BYxSFYX7sd"
  },
  "_key": "!actors!JL7DuQaTsn3iRO5E"
}