{
  "_id": "5Oey15lWdza3kfaA",
  "name": "Griffon",
  "type": "npc",
  "img": "systems/D35E/icons/bestiary/token/griffon.png",
  "items": [
    "5iqaqpjsJgNr2EBr",
    "YPnj89GJ0qAfUYax",
    "aip3nlqDErqVJyEZ",
    "QaqWC1cydFsQhRp7",
    "ncfyCMmgJPKWUrOF",
    "v2jAk4KooLIAeq84",
    "G2HcDr2LjWfPdsMO",
    "00xdz8SUpPSNbRAH",
    "GT6NzRR77NzSy7wg",
    "nflwVsAR3u52wXs2"
  ],
  "effects": [],
  "folder": null,
  "sort": 0,
  "flags": {
    "core": {
      "sourceId": "Compendium.D35E.bestiary.5Oey15lWdza3kfaA"
    },
    "D35E": {
      "loseDexToAC": false,
      "noStr": false,
      "noDex": false,
      "noInt": false,
      "noCon": false,
      "oneInt": false,
      "oneWis": false,
      "oneCha": false,
      "noEncumbrance": false,
      "mediumArmorFullSpeed": false,
      "heavyArmorFullSpeed": false,
      "multiAttack": false,
      "multiweaponAttack": false,
      "uncannyDodge": false,
      "naturalAttackCount": 2
    }
  },
  "system": {
    "shapechangeImg": "icons/svg/mystery-man.svg",
    "tokenImg": "systems/D35E/icons/bestiary/token/griffon.png",
    "companionUuid": "",
    "companionPublicId": "",
    "companionUsePersonalKey": false,
    "companionAutosync": false,
    "companionLockGM": false,
    "abilities": {
      "str": {
        "total": 18,
        "mod": 4,
        "value": 18,
        "carryBonus": 0,
        "carryMultiplier": 1,
        "checkMod": 0,
        "damage": 0,
        "drain": 0,
        "penalty": 0,
        "userPenalty": 0,
        "origMod": 4,
        "origTotal": 18,
        "isZero": false
      },
      "dex": {
        "total": 15,
        "mod": 2,
        "value": 15,
        "checkMod": 0,
        "damage": 0,
        "drain": 0,
        "penalty": 0,
        "userPenalty": 0,
        "origMod": 2,
        "origTotal": 15,
        "isZero": false
      },
      "con": {
        "total": 16,
        "mod": 3,
        "value": 16,
        "checkMod": 0,
        "damage": 0,
        "drain": 0,
        "penalty": 0,
        "userPenalty": 0,
        "origMod": 3,
        "origTotal": 16,
        "isZero": false
      },
      "int": {
        "total": 5,
        "mod": -3,
        "value": 5,
        "checkMod": 0,
        "damage": 0,
        "drain": 0,
        "penalty": 0,
        "userPenalty": 0,
        "origMod": -3,
        "origTotal": 5,
        "isZero": false
      },
      "wis": {
        "total": 13,
        "mod": 1,
        "value": 13,
        "checkMod": 0,
        "damage": 0,
        "drain": 0,
        "penalty": 0,
        "userPenalty": 0,
        "origMod": 1,
        "origTotal": 13,
        "isZero": false
      },
      "cha": {
        "total": 8,
        "mod": -1,
        "value": 8,
        "checkMod": 0,
        "damage": 0,
        "drain": 0,
        "penalty": 0,
        "userPenalty": 0,
        "origMod": -1,
        "origTotal": 8,
        "isZero": false
      }
    },
    "resources": {
      "rake": {
        "max": 0,
        "_id": "aip3nlqDErqVJyEZ"
      },
      "bite": {
        "max": 0,
        "_id": "G2HcDr2LjWfPdsMO",
        "value": 0
      },
      "claw": {
        "max": 0,
        "_id": "00xdz8SUpPSNbRAH",
        "value": 0
      }
    },
    "attributes": {
      "encumbrance": {
        "level": 0,
        "levels": {
          "light": 200,
          "medium": 400,
          "heavy": 600,
          "carry": 1200,
          "drag": 3000
        },
        "carriedWeight": 0
      },
      "senses": {
        "darkvision": 0,
        "blindsight": 0,
        "tremorsense": 0,
        "truesight": 0,
        "lowLight": false,
        "lowLightMultiplier": 2,
        "special": ""
      },
      "hd": {
        "base": {
          "_deprecated": true,
          "value": 0
        },
        "total": 7,
        "max": {
          "_deprecated": true,
          "value": 0
        },
        "racialClass": 7
      },
      "naturalAC": 0,
      "naturalACTotal": 6,
      "fortification": {
        "value": 0,
        "total": 0
      },
      "ac": {
        "normal": {
          "value": 0,
          "total": 17
        },
        "touch": {
          "value": 0,
          "total": 11
        },
        "flatFooted": {
          "value": 0,
          "total": 15
        }
      },
      "concealment": {
        "value": 0,
        "total": 0
      },
      "bab": {
        "value": 0,
        "total": 7,
        "base": 7
      },
      "cmd": {
        "value": 0,
        "total": 27,
        "flatFootedTotal": 25
      },
      "cmb": {
        "value": 0,
        "total": 15
      },
      "sr": {
        "formula": "",
        "total": 0
      },
      "pr": {
        "formula": "",
        "total": 0
      },
      "hardness": {
        "formula": "",
        "total": 0
      },
      "cmbNotes": "",
      "saveNotes": "",
      "acNotes": "",
      "cmdNotes": "",
      "srNotes": "",
      "attack": {
        "general": 0,
        "melee": 0,
        "ranged": 0,
        "sunder": 0,
        "bullrush": 0
      },
      "damage": {
        "general": 0,
        "weapon": 0,
        "spell": 0
      },
      "maxDexBonus": 999,
      "maxDex": {
        "gear": null,
        "encumbrance": null,
        "total": 999
      },
      "acp": {
        "gear": 0,
        "encumbrance": 0,
        "total": 0
      },
      "energyDrain": 0,
      "quadruped": false,
      "savingThrows": {
        "fort": {
          "total": 8,
          "base": 5
        },
        "ref": {
          "total": 7,
          "base": 5
        },
        "will": {
          "total": 5,
          "base": 2
        }
      },
      "hp": {
        "value": 59,
        "min": -100,
        "base": 0,
        "max": 59,
        "temp": 0,
        "nonlethal": 0
      },
      "turnUndeadHdTotal": 0,
      "turnUndeadUsesBonusFormula": "",
      "turnUndeadUses": 0,
      "prestigeCl": {
        "psionic": {
          "max": 0,
          "value": 0,
          "total": 0
        },
        "arcane": {
          "max": 0,
          "value": 0,
          "total": 0
        },
        "divine": {
          "max": 0,
          "value": 0,
          "total": 0
        },
        "cards": {
          "max": 0,
          "value": 0
        }
      },
      "turnUndeadUsesTotal": 0,
      "sneakAttackDiceTotal": 0,
      "minionClassLevels": {
        "none": 0
      },
      "minionDistance": {},
      "spellPointsTotal": [],
      "powerPointsTotal": 0,
      "arcaneSpellFailure": 0,
      "psionicFocus": false,
      "wounds": {
        "min": 0,
        "value": 32,
        "max": 32
      },
      "vigor": {
        "min": 0,
        "value": 38,
        "temp": 0,
        "max": 38
      },
      "init": {
        "value": 0,
        "bonus": 0,
        "total": 2
      },
      "prof": 2,
      "speed": {
        "land": {
          "base": 30,
          "total": 30,
          "run": 120
        },
        "climb": {
          "base": 0,
          "total": 0,
          "run": 0
        },
        "swim": {
          "base": 0,
          "total": 0,
          "run": 0
        },
        "burrow": {
          "base": 0,
          "total": 0,
          "run": 0
        },
        "fly": {
          "base": 80,
          "total": 80,
          "run": 320,
          "maneuverability": "average"
        }
      },
      "conditions": {
        "blind": false,
        "dazzled": false,
        "deaf": false,
        "entangled": false,
        "fatigued": false,
        "exhausted": false,
        "grappled": false,
        "helpless": false,
        "paralyzed": false,
        "pinned": false,
        "fear": false,
        "sickened": false,
        "stunned": false,
        "shaken": false,
        "polymorphed": false,
        "wildshaped": false,
        "prone": false,
        "dead": false,
        "dying": false,
        "disabled": false,
        "stable": false,
        "unconscious": false,
        "staggered": false,
        "invisible": false,
        "banished": false,
        "invisibility": false
      },
      "spells": {
        "concentration": {
          "bonus": 0,
          "context": ""
        },
        "spellbooks": {
          "primary": {
            "name": "Primary",
            "class": "",
            "cl": {
              "base": 0,
              "value": 0,
              "total": 0,
              "formula": ""
            },
            "concentration": 0,
            "bonusPrestigeCl": 0,
            "concentrationFormula": "",
            "concentrationNotes": "",
            "clNotes": "",
            "ability": "int",
            "spellslotAbility": "",
            "autoSpellLevels": true,
            "usePowerPoints": false,
            "autoSetup": true,
            "spellcastingType": null,
            "powerPointsFormula": "",
            "dailyPowerPointsFormula": "",
            "powerPoints": 0,
            "powerPointsTotal": 0,
            "maximumPowerPointLimit": "@cl",
            "arcaneSpellFailure": true,
            "baseDCFormula": "10 + @sl + @ablMod",
            "spontaneous": false,
            "hasSpecialSlot": false,
            "showOnlyPrepared": false,
            "specialSlots": {
              "level1": null,
              "level2": null,
              "level3": null,
              "level4": null,
              "level5": null,
              "level6": null,
              "level7": null,
              "level8": null,
              "level9": null
            },
            "maxPrestigeCl": 0,
            "allSpellsKnown": false,
            "hasPrestigeCl": false,
            "canAddPrestigeCl": false,
            "canRemovePrestigeCl": false,
            "powersKnown": 0,
            "powersMaxLevel": 0,
            "spells": {
              "spell0": {
                "value": 0,
                "max": 0,
                "base": 0,
                "known": 0,
                "maxKnown": 0,
                "bonus": 0,
                "classBase": 0
              },
              "spell1": {
                "value": 0,
                "max": 0,
                "base": 0,
                "known": 0,
                "maxKnown": 0,
                "bonus": 0,
                "classBase": 0
              },
              "spell2": {
                "value": 0,
                "max": 0,
                "base": 0,
                "known": 0,
                "maxKnown": 0,
                "bonus": 0,
                "classBase": 0
              },
              "spell3": {
                "value": 0,
                "max": 0,
                "base": 0,
                "known": 0,
                "maxKnown": 0,
                "bonus": 0,
                "classBase": 0
              },
              "spell4": {
                "value": 0,
                "max": 0,
                "base": 0,
                "known": 0,
                "maxKnown": 0,
                "bonus": 0,
                "classBase": 0
              },
              "spell5": {
                "value": 0,
                "max": 0,
                "base": 0,
                "known": 0,
                "maxKnown": 0,
                "bonus": 0,
                "classBase": 0
              },
              "spell6": {
                "value": 0,
                "max": 0,
                "base": 0,
                "known": 0,
                "maxKnown": 0,
                "bonus": 0,
                "classBase": 0
              },
              "spell7": {
                "value": 0,
                "max": 0,
                "base": 0,
                "known": 0,
                "maxKnown": 0,
                "bonus": 0,
                "classBase": 0
              },
              "spell8": {
                "value": 0,
                "max": 0,
                "base": 0,
                "known": 0,
                "maxKnown": 0,
                "bonus": 0,
                "classBase": 0
              },
              "spell9": {
                "value": 0,
                "max": 0,
                "base": 0,
                "known": 0,
                "maxKnown": 0,
                "bonus": 0,
                "classBase": 0
              }
            },
            "powerPointsValue": {
              "max": 0,
              "value": 0
            },
            "spellcastingAbilityBonus": 0
          },
          "secondary": {
            "name": "Secondary",
            "class": "",
            "cl": {
              "base": 0,
              "value": 0,
              "total": 0,
              "formula": ""
            },
            "concentration": 0,
            "bonusPrestigeCl": 0,
            "concentrationFormula": "",
            "concentrationNotes": "",
            "clNotes": "",
            "ability": "int",
            "spellslotAbility": "",
            "autoSpellLevels": true,
            "usePowerPoints": false,
            "autoSetup": true,
            "spellcastingType": null,
            "powerPointsFormula": "",
            "powerPoints": 0,
            "powerPointsTotal": 0,
            "maximumPowerPointLimit": "@cl",
            "dailyPowerPointsFormula": "",
            "arcaneSpellFailure": true,
            "baseDCFormula": "10 + @sl + @ablMod",
            "spontaneous": false,
            "hasSpecialSlot": false,
            "showOnlyPrepared": false,
            "specialSlots": {
              "level1": null,
              "level2": null,
              "level3": null,
              "level4": null,
              "level5": null,
              "level6": null,
              "level7": null,
              "level8": null,
              "level9": null
            },
            "maxPrestigeCl": 0,
            "allSpellsKnown": false,
            "hasPrestigeCl": false,
            "canAddPrestigeCl": false,
            "canRemovePrestigeCl": false,
            "powersKnown": 0,
            "powersMaxLevel": 0,
            "spells": {
              "spell0": {
                "value": 0,
                "max": 0,
                "base": 0,
                "known": 0,
                "maxKnown": 0,
                "bonus": 0,
                "classBase": 0
              },
              "spell1": {
                "value": 0,
                "max": 0,
                "base": 0,
                "known": 0,
                "maxKnown": 0,
                "bonus": 0,
                "classBase": 0
              },
              "spell2": {
                "value": 0,
                "max": 0,
                "base": 0,
                "known": 0,
                "maxKnown": 0,
                "bonus": 0,
                "classBase": 0
              },
              "spell3": {
                "value": 0,
                "max": 0,
                "base": 0,
                "known": 0,
                "maxKnown": 0,
                "bonus": 0,
                "classBase": 0
              },
              "spell4": {
                "value": 0,
                "max": 0,
                "base": 0,
                "known": 0,
                "maxKnown": 0,
                "bonus": 0,
                "classBase": 0
              },
              "spell5": {
                "value": 0,
                "max": 0,
                "base": 0,
                "known": 0,
                "maxKnown": 0,
                "bonus": 0,
                "classBase": 0
              },
              "spell6": {
                "value": 0,
                "max": 0,
                "base": 0,
                "known": 0,
                "maxKnown": 0,
                "bonus": 0,
                "classBase": 0
              },
              "spell7": {
                "value": 0,
                "max": 0,
                "base": 0,
                "known": 0,
                "maxKnown": 0,
                "bonus": 0,
                "classBase": 0
              },
              "spell8": {
                "value": 0,
                "max": 0,
                "base": 0,
                "known": 0,
                "maxKnown": 0,
                "bonus": 0,
                "classBase": 0
              },
              "spell9": {
                "value": 0,
                "max": 0,
                "base": 0,
                "known": 0,
                "maxKnown": 0,
                "bonus": 0,
                "classBase": 0
              }
            },
            "powerPointsValue": {
              "max": 0,
              "value": 0
            },
            "spellcastingAbilityBonus": 0
          },
          "tertiary": {
            "name": "Tertiary",
            "class": "",
            "cl": {
              "base": 0,
              "value": 0,
              "total": 0,
              "formula": ""
            },
            "concentration": 0,
            "bonusPrestigeCl": 0,
            "concentrationFormula": "",
            "concentrationNotes": "",
            "clNotes": "",
            "ability": "int",
            "spellslotAbility": "",
            "autoSpellLevels": true,
            "usePowerPoints": false,
            "autoSetup": true,
            "spellcastingType": null,
            "powerPointsFormula": "",
            "powerPoints": 0,
            "powerPointsTotal": 0,
            "maximumPowerPointLimit": "@cl",
            "dailyPowerPointsFormula": "",
            "arcaneSpellFailure": true,
            "baseDCFormula": "10 + @sl + @ablMod",
            "spontaneous": false,
            "hasSpecialSlot": false,
            "showOnlyPrepared": false,
            "specialSlots": {
              "level1": null,
              "level2": null,
              "level3": null,
              "level4": null,
              "level5": null,
              "level6": null,
              "level7": null,
              "level8": null,
              "level9": null
            },
            "maxPrestigeCl": 0,
            "allSpellsKnown": false,
            "hasPrestigeCl": false,
            "canAddPrestigeCl": false,
            "canRemovePrestigeCl": false,
            "powersKnown": 0,
            "powersMaxLevel": 0,
            "spells": {
              "spell0": {
                "value": 0,
                "max": 0,
                "base": 0,
                "known": 0,
                "maxKnown": 0,
                "bonus": 0,
                "classBase": 0
              },
              "spell1": {
                "value": 0,
                "max": 0,
                "base": 0,
                "known": 0,
                "maxKnown": 0,
                "bonus": 0,
                "classBase": 0
              },
              "spell2": {
                "value": 0,
                "max": 0,
                "base": 0,
                "known": 0,
                "maxKnown": 0,
                "bonus": 0,
                "classBase": 0
              },
              "spell3": {
                "value": 0,
                "max": 0,
                "base": 0,
                "known": 0,
                "maxKnown": 0,
                "bonus": 0,
                "classBase": 0
              },
              "spell4": {
                "value": 0,
                "max": 0,
                "base": 0,
                "known": 0,
                "maxKnown": 0,
                "bonus": 0,
                "classBase": 0
              },
              "spell5": {
                "value": 0,
                "max": 0,
                "base": 0,
                "known": 0,
                "maxKnown": 0,
                "bonus": 0,
                "classBase": 0
              },
              "spell6": {
                "value": 0,
                "max": 0,
                "base": 0,
                "known": 0,
                "maxKnown": 0,
                "bonus": 0,
                "classBase": 0
              },
              "spell7": {
                "value": 0,
                "max": 0,
                "base": 0,
                "known": 0,
                "maxKnown": 0,
                "bonus": 0,
                "classBase": 0
              },
              "spell8": {
                "value": 0,
                "max": 0,
                "base": 0,
                "known": 0,
                "maxKnown": 0,
                "bonus": 0,
                "classBase": 0
              },
              "spell9": {
                "value": 0,
                "max": 0,
                "base": 0,
                "known": 0,
                "maxKnown": 0,
                "bonus": 0,
                "classBase": 0
              }
            },
            "powerPointsValue": {
              "max": 0,
              "value": 0
            },
            "spellcastingAbilityBonus": 0
          },
          "spelllike": {
            "name": "Spell-likes",
            "class": "_hd",
            "cl": {
              "base": 0,
              "value": 0,
              "total": 7,
              "formula": ""
            },
            "concentration": 0,
            "bonusPrestigeCl": 0,
            "concentrationFormula": "",
            "concentrationNotes": "",
            "clNotes": "",
            "ability": "cha",
            "spellslotAbility": "",
            "autoSpellLevels": true,
            "usePowerPoints": false,
            "autoSetup": false,
            "spellcastingType": "None",
            "powerPointsFormula": "",
            "powerPoints": 0,
            "powerPointsTotal": 0,
            "maximumPowerPointLimit": "@cl",
            "dailyPowerPointsFormula": "",
            "arcaneSpellFailure": true,
            "baseDCFormula": "10 + @sl + @ablMod",
            "spontaneous": false,
            "hasSpecialSlot": false,
            "showOnlyPrepared": false,
            "specialSlots": {
              "level1": null,
              "level2": null,
              "level3": null,
              "level4": null,
              "level5": null,
              "level6": null,
              "level7": null,
              "level8": null,
              "level9": null
            },
            "maxPrestigeCl": 0,
            "allSpellsKnown": false,
            "hasPrestigeCl": false,
            "canAddPrestigeCl": false,
            "canRemovePrestigeCl": false,
            "powersKnown": 0,
            "powersMaxLevel": 0,
            "spells": {
              "spell0": {
                "value": 0,
                "max": 0,
                "base": 0,
                "known": 0,
                "maxKnown": 0,
                "bonus": 0,
                "classBase": 0
              },
              "spell1": {
                "value": 0,
                "max": 0,
                "base": 0,
                "known": 0,
                "maxKnown": 0,
                "bonus": 0,
                "classBase": 0
              },
              "spell2": {
                "value": 0,
                "max": 0,
                "base": 0,
                "known": 0,
                "maxKnown": 0,
                "bonus": 0,
                "classBase": 0
              },
              "spell3": {
                "value": 0,
                "max": 0,
                "base": 0,
                "known": 0,
                "maxKnown": 0,
                "bonus": 0,
                "classBase": 0
              },
              "spell4": {
                "value": 0,
                "max": 0,
                "base": 0,
                "known": 0,
                "maxKnown": 0,
                "bonus": 0,
                "classBase": 0
              },
              "spell5": {
                "value": 0,
                "max": 0,
                "base": 0,
                "known": 0,
                "maxKnown": 0,
                "bonus": 0,
                "classBase": 0
              },
              "spell6": {
                "value": 0,
                "max": 0,
                "base": 0,
                "known": 0,
                "maxKnown": 0,
                "bonus": 0,
                "classBase": 0
              },
              "spell7": {
                "value": 0,
                "max": 0,
                "base": 0,
                "known": 0,
                "maxKnown": 0,
                "bonus": 0,
                "classBase": 0
              },
              "spell8": {
                "value": 0,
                "max": 0,
                "base": 0,
                "known": 0,
                "maxKnown": 0,
                "bonus": 0,
                "classBase": 0
              },
              "spell9": {
                "value": 0,
                "max": 0,
                "base": 0,
                "known": 0,
                "maxKnown": 0,
                "bonus": 0,
                "classBase": 0
              }
            },
            "powerPointsValue": {
              "max": 0,
              "value": 0
            },
            "spellcastingAbilityBonus": 0
          }
        }
      },
      "cards": {
        "concentration": {
          "bonus": 0,
          "context": ""
        },
        "decks": {
          "primary": {
            "name": "Primary",
            "class": "",
            "cl": {
              "base": null,
              "value": 0,
              "total": 0,
              "formula": ""
            },
            "autoHandSize": false,
            "handSize": {
              "base": 0,
              "value": 0,
              "total": 0,
              "formula": ""
            },
            "drawRandom": false,
            "deckSize": {
              "base": 0,
              "value": 0,
              "total": 0,
              "formula": ""
            },
            "clNotes": "",
            "ability": "int",
            "spellslotAbility": "",
            "addHalfOtherLevels": false,
            "autoSetup": true,
            "baseDCFormula": "10 + @sl + @ablMod",
            "maxPrestigeCl": 0,
            "hasPrestigeCl": false,
            "canAddPrestigeCl": false,
            "canRemovePrestigeCl": false
          },
          "secondary": {
            "name": "Secondary",
            "class": "",
            "cl": {
              "base": null,
              "value": 0,
              "total": 0,
              "formula": ""
            },
            "autoHandSize": false,
            "handSize": {
              "base": 0,
              "value": 0,
              "total": 0,
              "formula": ""
            },
            "drawRandom": false,
            "deckSize": {
              "base": 0,
              "value": 0,
              "total": 0,
              "formula": ""
            },
            "clNotes": "",
            "ability": "int",
            "spellslotAbility": "",
            "addHalfOtherLevels": false,
            "autoSetup": true,
            "baseDCFormula": "10 + @sl + @ablMod",
            "maxPrestigeCl": 0,
            "hasPrestigeCl": false,
            "canAddPrestigeCl": false,
            "canRemovePrestigeCl": false
          }
        }
      },
      "spellcasting": {
        "_deprecated": true
      },
      "spelldc": {
        "_deprecated": true
      },
      "damageReduction": {
        "any": 0,
        "types": []
      },
      "energyResistance": [],
      "spellLevel": 0,
      "creatureType": "magicalBeast",
      "mods": {
        "skills": {}
      },
      "runSpeedMultiplierModifier": 0,
      "speedMultiplier": 0
    },
    "details": {
      "level": {
        "value": 7,
        "min": 0,
        "max": 40,
        "available": 1
      },
      "breakDC": {
        "base": 0,
        "total": 0
      },
      "levelUpData": [
        {
          "level": 1,
          "id": "_level1",
          "classId": null,
          "class": null,
          "classImage": null,
          "skills": {},
          "hp": 0,
          "hasFeat": true,
          "hasAbility": false
        }
      ],
      "alignment": "Always neutral",
      "biography": {
        "value": "",
        "public": ""
      },
      "notes": {
        "value": "<div topic='Griffon' level='2'><p>Griffons are powerful, majestic creatures with the characteristics of both lions and eagles. From nose to tail, an adult griffon can measure as much as 8 feet. Neither males nor females are endowed with a mane. A pair of broad, golden wings emerge from the creature's back and span 25 feet or more. A griffon weighs about 500 pounds.</p><p>A griffon cannot speak, but understands Common.</p><div topic='Combat' level='5'><p><h2>Combat</h2></p><p>Griffons prefer to pounce on their prey, either diving to the attack or leaping from above.</p><div topic='Pounce' level='8'><p><b>Pounce (Ex):</b> If a griffon dives upon or charges a foe, it can make a full attack, including two rake attacks.</p></div><div topic='Rake' level='8'><p><b>Rake (Ex):</b> Attack bonus +8 melee, damage 1d6+2.</p></div><div topic='Skills' level='8'><p><b>Skills:</b> Griffons have a +4 racial bonus on Jump and Spot checks.</p></div></div><div topic='Training A Griffon' level='3'><p><h4>Training A Griffon</h4></p><p>Although intelligent, a griffon requires training before it can bear a rider in combat. To be trained, a griffon must have a friendly attitude toward the trainer (this can be achieved through a successful Diplomacy check). Training a friendly griffon requires six weeks of work and a DC 25 Handle Animal check. Riding a griffon requires an exotic saddle. A griffon can fight while carrying a rider, but the rider cannot also attack unless he or she succeeds on a Ride check.</p><p>Griffon eggs are worth 3,500 gp apiece on the open market, while young are worth 7,000 gp each. Professional trainers charge 1,500 gp to rear or train a griffon.</p><p>Carrying Capacity: A light load for a griffon is up to 300 pounds; a medium load, 301-600 pounds; and a heavy load, 601-900 pounds.</p><p/></div></div>    ",
        "public": ""
      },
      "bonusSkillRankFormula": "",
      "type": "None",
      "environment": "",
      "cr": 4,
      "totalCr": 4,
      "xp": {
        "value": 10
      },
      "levelUpProgression": false,
      "advancement": {
        "hd": [
          {
            "lower": 8,
            "upper": 10,
            "size": "lg"
          },
          {
            "lower": 11,
            "upper": 21,
            "size": "huge"
          }
        ],
        "byClass": false,
        "none": false,
        "originalHD": 0
      }
    },
    "skills": {
      "apr": {
        "value": 0,
        "ability": "int",
        "rt": false,
        "acp": false,
        "rank": 0,
        "notes": "",
        "mod": -3,
        "background": false,
        "visibility": "default",
        "cs": false,
        "points": 0,
        "acpPenalty": 0,
        "energyDrainPenalty": 0,
        "abilityModifier": -3
      },
      "blc": {
        "value": 0,
        "ability": "dex",
        "rt": false,
        "acp": true,
        "rank": 0,
        "notes": "",
        "mod": 2,
        "background": false,
        "visibility": "default",
        "cs": false,
        "points": 0,
        "acpPenalty": 0,
        "energyDrainPenalty": 0,
        "abilityModifier": 2
      },
      "blf": {
        "value": 0,
        "ability": "cha",
        "rt": false,
        "acp": false,
        "rank": 0,
        "notes": "",
        "mod": -1,
        "background": false,
        "visibility": "default",
        "cs": false,
        "points": 0,
        "acpPenalty": 0,
        "energyDrainPenalty": 0,
        "abilityModifier": -1
      },
      "clm": {
        "value": 0,
        "ability": "str",
        "rt": false,
        "acp": true,
        "rank": 0,
        "notes": "",
        "mod": 4,
        "background": false,
        "visibility": "default",
        "cs": true,
        "points": 0,
        "acpPenalty": 0,
        "energyDrainPenalty": 0,
        "abilityModifier": 4
      },
      "coc": {
        "value": 0,
        "ability": "con",
        "rt": false,
        "acp": false,
        "rank": 0,
        "notes": "",
        "mod": 3,
        "background": false,
        "visibility": "default",
        "cs": false,
        "points": 0,
        "acpPenalty": 0,
        "energyDrainPenalty": 0,
        "abilityModifier": 3
      },
      "crf": {
        "value": 0,
        "ability": "int",
        "rt": false,
        "acp": false,
        "rank": 0,
        "notes": "",
        "mod": -3,
        "background": false,
        "visibility": "default",
        "cs": false,
        "subSkills": {},
        "namedSubSkills": {},
        "points": 0,
        "acpPenalty": 0,
        "energyDrainPenalty": 0,
        "abilityModifier": -3
      },
      "dsc": {
        "value": 0,
        "ability": "int",
        "rt": true,
        "acp": false,
        "rank": 0,
        "notes": "",
        "mod": -3,
        "background": false,
        "visibility": "default",
        "cs": false,
        "points": 0,
        "acpPenalty": 0,
        "energyDrainPenalty": 0,
        "abilityModifier": -3
      },
      "dip": {
        "value": 0,
        "ability": "cha",
        "rt": false,
        "acp": false,
        "rank": 0,
        "notes": "",
        "mod": -1,
        "background": false,
        "visibility": "default",
        "cs": false,
        "points": 0,
        "acpPenalty": 0,
        "energyDrainPenalty": 0,
        "abilityModifier": -1
      },
      "dev": {
        "value": 0,
        "ability": "dex",
        "rt": true,
        "acp": true,
        "rank": 0,
        "notes": "",
        "mod": 2,
        "background": false,
        "visibility": "default",
        "cs": false,
        "points": 0,
        "acpPenalty": 0,
        "energyDrainPenalty": 0,
        "abilityModifier": 2
      },
      "dis": {
        "value": 0,
        "ability": "cha",
        "rt": false,
        "acp": false,
        "rank": 0,
        "notes": "",
        "mod": -1,
        "background": false,
        "visibility": "default",
        "cs": false,
        "points": 0,
        "acpPenalty": 0,
        "energyDrainPenalty": 0,
        "abilityModifier": -1
      },
      "esc": {
        "value": 0,
        "ability": "dex",
        "rt": false,
        "acp": true,
        "rank": 0,
        "notes": "",
        "mod": 2,
        "background": false,
        "visibility": "default",
        "cs": false,
        "points": 0,
        "acpPenalty": 0,
        "energyDrainPenalty": 0,
        "abilityModifier": 2
      },
      "fog": {
        "value": 0,
        "ability": "int",
        "rt": false,
        "acp": false,
        "rank": 0,
        "notes": "",
        "mod": -3,
        "background": false,
        "visibility": "default",
        "cs": false,
        "points": 0,
        "acpPenalty": 0,
        "energyDrainPenalty": 0,
        "abilityModifier": -3
      },
      "gif": {
        "value": 0,
        "ability": "cha",
        "rt": false,
        "acp": false,
        "rank": 0,
        "notes": "",
        "mod": -1,
        "background": false,
        "visibility": "default",
        "cs": false,
        "points": 0,
        "acpPenalty": 0,
        "energyDrainPenalty": 0,
        "abilityModifier": -1
      },
      "han": {
        "value": 0,
        "ability": "cha",
        "rt": true,
        "acp": false,
        "rank": 0,
        "notes": "",
        "mod": -1,
        "background": false,
        "visibility": "default",
        "cs": false,
        "points": 0,
        "acpPenalty": 0,
        "energyDrainPenalty": 0,
        "abilityModifier": -1
      },
      "hea": {
        "value": 0,
        "ability": "wis",
        "rt": false,
        "acp": false,
        "rank": 0,
        "notes": "",
        "mod": 1,
        "background": false,
        "visibility": "default",
        "cs": false,
        "points": 0,
        "acpPenalty": 0,
        "energyDrainPenalty": 0,
        "abilityModifier": 1
      },
      "hid": {
        "value": 0,
        "ability": "dex",
        "rt": false,
        "acp": true,
        "rank": 0,
        "notes": "",
        "mod": -2,
        "background": false,
        "visibility": "default",
        "cs": false,
        "changeBonus": -4,
        "points": 0,
        "acpPenalty": 0,
        "energyDrainPenalty": 0,
        "abilityModifier": 2
      },
      "int": {
        "value": 0,
        "ability": "cha",
        "rt": false,
        "acp": false,
        "rank": 0,
        "notes": "",
        "mod": -1,
        "background": false,
        "visibility": "default",
        "cs": false,
        "points": 0,
        "acpPenalty": 0,
        "energyDrainPenalty": 0,
        "abilityModifier": -1
      },
      "jmp": {
        "value": 0,
        "ability": "str",
        "rt": false,
        "acp": true,
        "rank": 4,
        "notes": "",
        "mod": 8,
        "background": false,
        "visibility": "default",
        "cs": true,
        "points": 4,
        "acpPenalty": 0,
        "energyDrainPenalty": 0,
        "abilityModifier": 4
      },
      "kar": {
        "value": 0,
        "ability": "int",
        "rt": true,
        "acp": false,
        "rank": 0,
        "notes": "",
        "mod": -3,
        "background": false,
        "visibility": "default",
        "cs": false,
        "points": 0,
        "acpPenalty": 0,
        "energyDrainPenalty": 0,
        "abilityModifier": -3
      },
      "kdu": {
        "value": 0,
        "ability": "int",
        "rt": true,
        "acp": false,
        "rank": 0,
        "notes": "",
        "mod": -3,
        "background": false,
        "visibility": "default",
        "cs": false,
        "points": 0,
        "acpPenalty": 0,
        "energyDrainPenalty": 0,
        "abilityModifier": -3
      },
      "ken": {
        "value": 0,
        "ability": "int",
        "rt": true,
        "acp": false,
        "rank": 0,
        "notes": "",
        "mod": -3,
        "background": false,
        "visibility": "default",
        "cs": false,
        "points": 0,
        "acpPenalty": 0,
        "energyDrainPenalty": 0,
        "abilityModifier": -3
      },
      "kge": {
        "value": 0,
        "ability": "int",
        "rt": true,
        "acp": false,
        "rank": 0,
        "notes": "",
        "mod": -3,
        "background": false,
        "visibility": "default",
        "cs": false,
        "points": 0,
        "acpPenalty": 0,
        "energyDrainPenalty": 0,
        "abilityModifier": -3
      },
      "khi": {
        "value": 0,
        "ability": "int",
        "rt": true,
        "acp": false,
        "rank": 0,
        "notes": "",
        "mod": -3,
        "background": false,
        "visibility": "default",
        "cs": false,
        "points": 0,
        "acpPenalty": 0,
        "energyDrainPenalty": 0,
        "abilityModifier": -3
      },
      "klo": {
        "value": 0,
        "ability": "int",
        "rt": true,
        "acp": false,
        "rank": 0,
        "notes": "",
        "mod": -3,
        "background": false,
        "visibility": "default",
        "cs": false,
        "points": 0,
        "acpPenalty": 0,
        "energyDrainPenalty": 0,
        "abilityModifier": -3
      },
      "kna": {
        "value": 0,
        "ability": "int",
        "rt": true,
        "acp": false,
        "rank": 0,
        "notes": "",
        "mod": -3,
        "background": false,
        "visibility": "default",
        "cs": false,
        "points": 0,
        "acpPenalty": 0,
        "energyDrainPenalty": 0,
        "abilityModifier": -3
      },
      "kno": {
        "value": 0,
        "ability": "int",
        "rt": true,
        "acp": false,
        "rank": 0,
        "notes": "",
        "mod": -3,
        "background": true,
        "cs": false,
        "points": 0,
        "acpPenalty": 0,
        "energyDrainPenalty": 0,
        "abilityModifier": -3
      },
      "kpl": {
        "value": 0,
        "ability": "int",
        "rt": true,
        "acp": false,
        "rank": 0,
        "notes": "",
        "mod": -3,
        "background": false,
        "visibility": "default",
        "cs": false,
        "points": 0,
        "acpPenalty": 0,
        "energyDrainPenalty": 0,
        "abilityModifier": -3
      },
      "kre": {
        "value": 0,
        "ability": "int",
        "rt": true,
        "acp": false,
        "rank": 0,
        "notes": "",
        "mod": -3,
        "background": false,
        "visibility": "default",
        "cs": false,
        "points": 0,
        "acpPenalty": 0,
        "energyDrainPenalty": 0,
        "abilityModifier": -3
      },
      "lis": {
        "value": 0,
        "ability": "wis",
        "rt": false,
        "acp": false,
        "rank": 5,
        "notes": "",
        "mod": 6,
        "background": false,
        "visibility": "default",
        "cs": true,
        "points": 5,
        "acpPenalty": 0,
        "energyDrainPenalty": 0,
        "abilityModifier": 1
      },
      "mos": {
        "value": 0,
        "ability": "dex",
        "rt": false,
        "acp": true,
        "rank": 0,
        "notes": "",
        "mod": 2,
        "background": false,
        "visibility": "default",
        "cs": false,
        "points": 0,
        "acpPenalty": 0,
        "energyDrainPenalty": 0,
        "abilityModifier": 2
      },
      "opl": {
        "value": 0,
        "ability": "dex",
        "rt": true,
        "acp": false,
        "rank": 0,
        "notes": "",
        "mod": 2,
        "background": false,
        "visibility": "default",
        "cs": false,
        "points": 0,
        "acpPenalty": 0,
        "energyDrainPenalty": 0,
        "abilityModifier": 2
      },
      "prf": {
        "value": 0,
        "ability": "cha",
        "rt": false,
        "acp": false,
        "rank": 0,
        "notes": "",
        "mod": -1,
        "background": false,
        "visibility": "default",
        "cs": false,
        "subSkills": {},
        "namedSubSkills": {},
        "points": 0,
        "acpPenalty": 0,
        "energyDrainPenalty": 0,
        "abilityModifier": -1
      },
      "pro": {
        "value": 0,
        "ability": "wis",
        "rt": true,
        "acp": false,
        "rank": 0,
        "notes": "",
        "mod": 1,
        "background": false,
        "visibility": "default",
        "cs": false,
        "subSkills": {},
        "namedSubSkills": {},
        "points": 0,
        "acpPenalty": 0,
        "energyDrainPenalty": 0,
        "abilityModifier": 1
      },
      "rid": {
        "value": 0,
        "ability": "dex",
        "rt": false,
        "acp": true,
        "rank": 0,
        "notes": "",
        "mod": 2,
        "background": false,
        "visibility": "default",
        "cs": false,
        "points": 0,
        "acpPenalty": 0,
        "energyDrainPenalty": 0,
        "abilityModifier": 2
      },
      "src": {
        "value": 0,
        "ability": "int",
        "rt": false,
        "acp": false,
        "rank": 0,
        "notes": "",
        "mod": -3,
        "background": false,
        "visibility": "default",
        "cs": false,
        "points": 0,
        "acpPenalty": 0,
        "energyDrainPenalty": 0,
        "abilityModifier": -3
      },
      "sen": {
        "value": 0,
        "ability": "wis",
        "rt": false,
        "acp": false,
        "rank": 0,
        "notes": "",
        "mod": 1,
        "background": false,
        "visibility": "default",
        "cs": false,
        "points": 0,
        "acpPenalty": 0,
        "energyDrainPenalty": 0,
        "abilityModifier": 1
      },
      "slt": {
        "value": 0,
        "ability": "dex",
        "rt": true,
        "acp": true,
        "rank": 0,
        "notes": "",
        "mod": 2,
        "background": false,
        "visibility": "default",
        "cs": false,
        "points": 0,
        "acpPenalty": 0,
        "energyDrainPenalty": 0,
        "abilityModifier": 2
      },
      "spk": {
        "value": 0,
        "ability": "",
        "rt": true,
        "acp": false,
        "rank": 0,
        "notes": "",
        "mod": 0,
        "background": false,
        "visibility": "default",
        "points": 0,
        "cs": false,
        "acpPenalty": 0,
        "energyDrainPenalty": 0,
        "abilityModifier": 0
      },
      "spl": {
        "value": 0,
        "ability": "int",
        "rt": true,
        "acp": false,
        "rank": 0,
        "notes": "",
        "mod": -3,
        "background": false,
        "visibility": "default",
        "cs": false,
        "points": 0,
        "acpPenalty": 0,
        "energyDrainPenalty": 0,
        "abilityModifier": -3
      },
      "spt": {
        "value": 0,
        "ability": "wis",
        "rt": false,
        "acp": false,
        "rank": 9,
        "notes": "",
        "mod": 10,
        "background": false,
        "visibility": "default",
        "cs": true,
        "points": 9,
        "acpPenalty": 0,
        "energyDrainPenalty": 0,
        "abilityModifier": 1
      },
      "sur": {
        "value": 0,
        "ability": "wis",
        "rt": false,
        "acp": false,
        "rank": 0,
        "notes": "",
        "mod": 1,
        "background": false,
        "visibility": "default",
        "cs": false,
        "points": 0,
        "acpPenalty": 0,
        "energyDrainPenalty": 0,
        "abilityModifier": 1
      },
      "swm": {
        "value": 0,
        "ability": "str",
        "rt": false,
        "acp": true,
        "rank": 0,
        "notes": "",
        "mod": 4,
        "background": false,
        "visibility": "default",
        "cs": true,
        "points": 0,
        "acpPenalty": 0,
        "energyDrainPenalty": 0,
        "abilityModifier": 4
      },
      "tmb": {
        "value": 0,
        "ability": "dex",
        "rt": false,
        "acp": true,
        "rank": 0,
        "notes": "",
        "mod": 2,
        "background": false,
        "visibility": "default",
        "cs": false,
        "points": 0,
        "acpPenalty": 0,
        "energyDrainPenalty": 0,
        "abilityModifier": 2
      },
      "umd": {
        "value": 0,
        "ability": "cha",
        "rt": true,
        "acp": false,
        "rank": 0,
        "notes": "",
        "mod": -1,
        "background": false,
        "visibility": "default",
        "cs": false,
        "points": 0,
        "acpPenalty": 0,
        "energyDrainPenalty": 0,
        "abilityModifier": -1
      },
      "uro": {
        "value": 0,
        "ability": "dex",
        "rt": false,
        "acp": false,
        "rank": 0,
        "notes": "",
        "mod": 2,
        "background": false,
        "visibility": "default",
        "cs": false,
        "points": 0,
        "acpPenalty": 0,
        "energyDrainPenalty": 0,
        "abilityModifier": 2
      },
      "kps": {
        "value": 0,
        "ability": "int",
        "rt": false,
        "acp": false,
        "rank": 0,
        "notes": "",
        "mod": -3,
        "background": false,
        "visibility": "default",
        "cs": false,
        "points": 0,
        "acpPenalty": 0,
        "energyDrainPenalty": 0,
        "abilityModifier": -3
      },
      "aut": {
        "value": 0,
        "ability": "wis",
        "rt": true,
        "acp": false,
        "rank": 0,
        "notes": "",
        "mod": 1,
        "background": false,
        "visibility": "default",
        "cs": false,
        "points": 0,
        "acpPenalty": 0,
        "energyDrainPenalty": 0,
        "abilityModifier": 1
      },
      "psi": {
        "value": 0,
        "ability": "int",
        "rt": true,
        "acp": false,
        "rank": 0,
        "notes": "",
        "mod": -3,
        "background": false,
        "visibility": "default",
        "cs": false,
        "points": 0,
        "acpPenalty": 0,
        "energyDrainPenalty": 0,
        "abilityModifier": -3
      },
      "upd": {
        "value": 0,
        "ability": "cha",
        "rt": true,
        "acp": false,
        "rank": 0,
        "notes": "",
        "mod": -1,
        "background": false,
        "visibility": "default",
        "cs": false,
        "points": 0,
        "acpPenalty": 0,
        "energyDrainPenalty": 0,
        "abilityModifier": -1
      }
    },
    "customSkills": {},
    "traits": {
      "size": "lg",
      "tokensize": "actor",
      "senses": "Darkvision 60 ft., Low Light Vision",
      "dr": "",
      "incorporeal": false,
      "eres": "",
      "cres": "",
      "languages": {
        "value": [],
        "custom": ""
      },
      "di": {
        "value": [],
        "custom": ""
      },
      "dv": {
        "value": [],
        "custom": ""
      },
      "ci": {
        "value": [],
        "custom": ""
      },
      "perception": {
        "_deprecated": true
      },
      "actualSize": "lg"
    },
    "currency": {
      "pp": 0,
      "gp": 0,
      "sp": 0,
      "cp": 0
    },
    "altCurrency": {
      "pp": 0,
      "gp": 0,
      "sp": 0,
      "cp": 0
    },
    "customCurrency": {},
    "noLightOverride": false,
    "noTokenOverride": false,
    "noSkillSynergy": false,
    "noBuffDisplay": false,
    "lockEditingByPlayers": false,
    "showCardSheet": false,
    "showSpellcastingSheet": true,
    "staticBonus": {
      "hp": 0,
      "ac": 0
    },
    "jumpSkillAdjust": false,
    "master": {
      "id": null,
      "img": null,
      "name": null,
      "data": {},
      "distance": 0
    },
    "noVisionOverride": true,
    "counters": {
      "feat": {
        "base": {
          "value": 3,
          "counted": 3
        }
      }
    },
    "classes": {
      "magicalBeast": {
        "level": 7,
        "_id": "5iqaqpjsJgNr2EBr",
        "name": "Magical Beast*",
        "hd": 10,
        "bab": "high",
        "hp": false,
        "maxLevel": 20,
        "skillsPerLevel": 2,
        "isSpellcaster": false,
        "isPsionSpellcaster": false,
        "hasSpecialSlot": false,
        "isSpellcastingSpontaneus": false,
        "isArcane": false,
        "spellcastingType": null,
        "spellcastingAbility": "int",
        "allSpellsKnown": false,
        "savingThrows": {
          "fort": 5,
          "ref": 5,
          "will": 2
        },
        "fc": {
          "hp": 0,
          "skill": 0,
          "alt": 0
        },
        "spellsKnownPerLevel": [],
        "powersKnown": [],
        "powersMaxLevel": [],
        "spellslotAbility": "",
        "halfCasterLevel": false,
        "deckHandSizeFormula": "0",
        "knownCardsSizeFormula": "0",
        "deckPrestigeClass": false,
        "hasSpellbook": false,
        "spelllist": {}
      }
    },
    "damage": {
      "nonlethal": {
        "value": 0,
        "max": 59
      }
    },
    "senses": {
      "darkvision": 0,
      "blindsight": 0,
      "tremorsense": 0,
      "truesight": 0,
      "lowLight": false,
      "special": "",
      "modified": {},
      "lowLightMultiplier": 2
    },
    "totalNonEclLevels": 7,
    "classLevels": 0,
    "combinedResistances": [],
    "combinedDR": [],
    "shieldType": "none",
    "canLevelUp": false,
    "naturalAttackCount": 2
  },
  "ownership": {
    "default": 0,
    "gvVvJrAyZKOZnAuP": 3
  },
  "prototypeToken": {
    "flags": {
      "D35E": {
        "lowLightVision": false
      }
    },
    "name": "Griffon",
    "displayName": 20,
    "width": 2,
    "height": 2,
    "lockRotation": false,
    "rotation": 0,
    "actorLink": false,
    "disposition": -1,
    "displayBars": 40,
    "bar1": {
      "attribute": "attributes.hp"
    },
    "bar2": {
      "attribute": null
    },
    "randomImg": false,
    "alpha": 1,
    "light": {
      "alpha": 0,
      "angle": 360,
      "bright": 0,
      "coloration": 1,
      "dim": 0,
      "luminosity": 0.5,
      "saturation": 0,
      "contrast": 0,
      "shadows": 0,
      "animation": {
        "speed": 5,
        "intensity": 5,
        "type": null,
        "reverse": false
      },
      "darkness": {
        "min": 0,
        "max": 1
      },
      "color": "#000000",
      "attenuation": 0.5
    },
    "texture": {
      "src": "systems/D35E/icons/bestiary/token/griffon.png",
      "tint": null,
      "scaleX": 1,
      "scaleY": 1,
      "offsetX": 0,
      "offsetY": 0,
      "rotation": 0
    },
    "sight": {
      "angle": 360,
      "enabled": true,
      "range": 60,
      "brightness": 1,
      "visionMode": "basic",
      "attenuation": 0.1,
      "saturation": 0,
      "contrast": 0
    },
    "appendNumber": false,
    "prependAdjective": false,
    "detectionModes": []
  },
  "_stats": {
    "systemId": "D35E",
    "systemVersion": "2.3.0",
    "coreVersion": "11.299",
    "createdTime": 1686244123085,
    "modifiedTime": 1686244123229,
    "lastModifiedBy": "cB3ob9BYxSFYX7sd"
  },
  "_key": "!actors!5Oey15lWdza3kfaA"
}