{
  "_id": "xjlk0cY1aZIavX4g",
  "name": "Gust of Wind",
  "type": "spell",
  "data": {
    "originVersion": 0,
    "originPack": "",
    "originId": "",
    "possibleUpdate": false,
    "description": {
      "value": "<div class=\"spell-description\">\n  <p>\n      <strong>School:</strong>&nbsp;evocation&nbsp;[air];\n    <br>\n    <strong>Level:</strong>&nbsp;Druid 2, Sorcerer 2, Wizard 2;\n    \n    \n    \n    \n    <br>\n    <strong>Components:</strong>&nbsp;V, S<br>\n    \n      <strong>Casting Time:</strong>&nbsp;1 standard action<br>\n    <strong>Range:</strong>&nbsp;60 feet<br>\n    \n    \n    <strong>Effect:</strong>&nbsp;Line-shaped gust of severe wind emanating out from you to the extreme of the range\n<br>\n    <strong>Duration:</strong>&nbsp;1 round\n<br>\n    \n        <strong>Saving Throw:</strong>&nbsp;Fortitude negates\n\n        <br>\n        <strong>Spell Resistance:</strong>&nbsp;yes<br>\n  </p>\n  <h2>Description</h2>\n  \n\n\n<p>\nThis spell creates a severe blast of air (approximately 50 mph) that originates from you, affecting all creatures in its path.\n</p><p>A Tiny or smaller creature on the ground is knocked down and rolled 1d4x10 feet, taking 1d4 points of nonlethal damage per 10 feet. If flying, a Tiny or smaller creature is blown back 2d6x10 feet and takes 2d6 points of nonlethal damage due to battering and buffeting.\n</p><p>Small creatures are knocked prone by the force of the wind, or if flying are blown back 1d6x10 feet.\n</p><p>Medium creatures are unable to move forward against the force of the wind, or if flying are blown back 1d6x5 feet.\n</p><p>Large or larger creatures may move normally within a <i>gust of wind </i>effect.\n</p><p>A <i>gust of wind </i>can’t move a creature beyond the limit of its range.\n</p><p>Any creature, regardless of size, takes a –4 penalty on ranged attacks and Listen checks in the area of a <i>gust of wind</i>.\n</p><p>The force of the <i>gust </i>automatically extinguishes candles, torches, and similar unprotected flames. It causes protected flames, such as those of lanterns, to dance wildly and has a 50% chance to extinguish those lights.\n</p><p>In addition to the effects noted, a <i>gust of wind </i>can do anything that a sudden blast of wind would be expected to do. It can create a stinging spray of sand or dust, fan a large fire, overturn delicate awnings or hangings, heel over a small boat, and blow gases or vapors to the edge of its range.\n</p><p><i>Gust of wind </i>can be made permanent with a <i>permanency </i>spell.\n</p>\n<hr/>\n\n\n\n</div>\n",
      "chat": "",
      "unidentified": ""
    },
    "epic": "",
    "psionic": "",
    "nameFormula": "",
    "nameFromFormula": false,
    "tags": [],
    "uniqueId": "",
    "linkId": "",
    "linkSourceId": "",
    "linkImported": false,
    "linkSourceName": "",
    "source": "",
    "classSource": "",
    "userNonRemovable": false,
    "customAttributes": {},
    "customAttributesLocked": false,
    "customTag": "",
    "createdBy": "",
    "activation": {
      "cost": 1,
      "type": "standard"
    },
    "duration": {
      "value": null,
      "units": ""
    },
    "target": {
      "value": ""
    },
    "range": {
      "value": 60,
      "units": "ft",
      "long": null
    },
    "recharge": {
      "enabled": false,
      "formula": "",
      "current": 0
    },
    "uses": {
      "value": 0,
      "max": 0,
      "per": "",
      "autoDeductCharges": true,
      "allowMultipleUses": false,
      "chargesPerUse": 1,
      "maxPerUse": null,
      "maxPerUseFormula": "",
      "maxFormula": "",
      "rechargeFormula": null,
      "isResource": false,
      "canBeLinked": false
    },
    "requiresPsionicFocus": false,
    "linkedChargeItem": {
      "id": null,
      "img": null,
      "name": null
    },
    "measureTemplate": {
      "type": "",
      "size": 60,
      "overrideColor": false,
      "customColor": "",
      "overrideTexture": false,
      "customTexture": ""
    },
    "actionType": "other",
    "attackBonus": "",
    "critConfirmBonus": "",
    "damage": {
      "parts": [],
      "alternativeParts": []
    },
    "summon": [],
    "attackParts": [],
    "autoscaleAttackParts": "",
    "formula": "",
    "attackCountFormula": "",
    "maxDamageDice": 0,
    "maxDamageDiceFormula": "",
    "ability": {
      "attack": "",
      "damage": "",
      "damageMult": 1,
      "critRange": 20,
      "critMult": 2,
      "twoHandedOnly": false,
      "vsTouchAc": false
    },
    "save": {
      "dc": "0",
      "description": "Fortitude negates\n",
      "ability": "",
      "type": "",
      "dcAutoType": "",
      "dcAutoAbility": ""
    },
    "baseCl": "0",
    "sr": true,
    "pr": false,
    "metamagicFeats": {
      "maximized": false,
      "empowered": false,
      "enlarged": false,
      "intensified": false,
      "enhanced": false,
      "enhancedHalf": false,
      "widened": false
    },
    "effectNotes": "",
    "attackNotes": "",
    "specialActions": [],
    "favorite": false,
    "rollTableDraw": {
      "formula": "",
      "name": "",
      "pack": "",
      "id": ""
    },
    "learnedAt": {
      "class": [
        [
          "Druid",
          2
        ],
        [
          "Wizard",
          2
        ],
        [
          "Sorcerer",
          2
        ]
      ],
      "domain": [],
      "subDomain": [],
      "elementalSchool": [],
      "bloodline": []
    },
    "level": 0,
    "clOffset": 0,
    "slOffset": 0,
    "school": "evo",
    "subschool": "",
    "types": "air",
    "components": {
      "value": "",
      "verbal": true,
      "somatic": true,
      "material": false,
      "focus": false,
      "divineFocus": 0
    },
    "castTime": "",
    "conditionals": [],
    "materials": {
      "value": "",
      "consumed": {
        "value": false,
        "_deprecated": true
      },
      "focus": ""
    },
    "isSpellSpontaneousReplacement": false,
    "spellbook": "spelllike",
    "preparation": {
      "preparedAmount": 0,
      "maxAmount": 0,
      "autoDeductCharges": true,
      "mode": "prepared"
    },
    "atWill": true,
    "powerPointsCost": 0,
    "display": "",
    "isPower": false,
    "shortDescription": "\n\n\n<p>\nThis spell creates a severe blast of air (approximately 50 mph) that originates from you, affecting all creatures in its path.\n</p><p>A Tiny or smaller creature on the ground is knocked down and rolled 1d4x10 feet, taking 1d4 points of nonlethal damage per 10 feet. If flying, a Tiny or smaller creature is blown back 2d6x10 feet and takes 2d6 points of nonlethal damage due to battering and buffeting.\n</p><p>Small creatures are knocked prone by the force of the wind, or if flying are blown back 1d6x10 feet.\n</p><p>Medium creatures are unable to move forward against the force of the wind, or if flying are blown back 1d6x5 feet.\n</p><p>Large or larger creatures may move normally within a <i>gust of wind </i>effect.\n</p><p>A <i>gust of wind </i>can’t move a creature beyond the limit of its range.\n</p><p>Any creature, regardless of size, takes a –4 penalty on ranged attacks and Listen checks in the area of a <i>gust of wind</i>.\n</p><p>The force of the <i>gust </i>automatically extinguishes candles, torches, and similar unprotected flames. It causes protected flames, such as those of lanterns, to dance wildly and has a 50% chance to extinguish those lights.\n</p><p>In addition to the effects noted, a <i>gust of wind </i>can do anything that a sudden blast of wind would be expected to do. It can create a stinging spray of sand or dust, fan a large fire, overturn delicate awnings or hangings, heel over a small boat, and blow gases or vapors to the edge of its range.\n</p><p><i>Gust of wind </i>can be made permanent with a <i>permanency </i>spell.\n</p>\n<hr/>\n\n\n",
    "snip": "Blows away or knocks down smaller creatures.",
    "spellDuration": "1 round\n",
    "spellEffect": "Line-shaped gust of severe wind emanating out from you to the extreme of the range\n",
    "spellArea": "",
    "spellType": {
      "value": "",
      "_deprecated": true
    },
    "showInQuickbar": false,
    "specialPrepared": false,
    "isDomainSpell": false,
    "specialId": null,
    "customReferenceId": "",
    "attack": {
      "parts": []
    }
  },
  "sort": 600000,
  "flags": {},
  "img": "systems/D35E/icons/spells/named-spells/gust-of-wind.png",
  "effects": [],
  "folder": null,
  "permission": {
    "default": 0
  },
  "_key": "!actors.items!2YBtwmMTGPY9GuRQ.xjlk0cY1aZIavX4g"
}