{
  "_id": "pVAb4vWt4nycq8Sl",
  "name": "Harm",
  "type": "spell",
  "data": {
    "originVersion": 0,
    "originPack": "",
    "originId": "",
    "possibleUpdate": false,
    "description": {
      "value": "<div class=\"spell-description\">\n  <p>\n      <strong>School:</strong>&nbsp;necromancy;\n    <br>\n    <strong>Level:</strong>&nbsp;Cleric 6;\n    <strong>Domain:</strong>&nbsp;Destruction 6;\n    \n    \n    \n    <br>\n    <strong>Components:</strong>&nbsp;V, S<br>\n    \n      <strong>Casting Time:</strong>&nbsp;1 standard action<br>\n    <strong>Range:</strong>&nbsp;touch<br>\n    \n    <strong>Target:</strong>&nbsp;creature touched<br>\n    \n    <strong>Duration:</strong>&nbsp;Instantaneous<br>\n    \n        <strong>Saving Throw:</strong>&nbsp;Will half; see text\n        <br>\n        <strong>Spell Resistance:</strong>&nbsp;yes<br>\n  </p>\n  <h2>Description</h2>\n  \n\n\n<p>\n<i>Harm </i>charges a subject with negative energy that deals 10 points of damage per caster level (to a maximum of 150 points at 15th level). If the creature successfully saves, <i>harm </i>deals half this amount, but it cannot reduce the target’s hit points to less than 1.\n</p><p>If used on an undead creature, <i>harm </i>acts like <i>heal</i>.\n</p>\n<hr/>\n\n\n\n</div>\n",
      "chat": "",
      "unidentified": ""
    },
    "epic": "",
    "psionic": "",
    "nameFormula": "",
    "nameFromFormula": false,
    "tags": [],
    "uniqueId": "",
    "linkId": "",
    "linkSourceId": "",
    "linkImported": false,
    "linkSourceName": "",
    "source": "",
    "classSource": "",
    "userNonRemovable": false,
    "customAttributes": {},
    "customAttributesLocked": false,
    "customTag": "",
    "createdBy": "",
    "activation": {
      "cost": 1,
      "type": "standard"
    },
    "duration": {
      "value": null,
      "units": ""
    },
    "target": {
      "value": "creature touched"
    },
    "range": {
      "value": null,
      "units": "touch",
      "long": null
    },
    "recharge": {
      "enabled": false,
      "formula": "",
      "current": 0
    },
    "uses": {
      "value": 0,
      "max": 0,
      "per": "",
      "autoDeductCharges": true,
      "allowMultipleUses": false,
      "chargesPerUse": 1,
      "maxPerUse": null,
      "maxPerUseFormula": "",
      "maxFormula": "",
      "rechargeFormula": null,
      "isResource": false,
      "canBeLinked": false
    },
    "requiresPsionicFocus": false,
    "linkedChargeItem": {
      "id": null,
      "img": null,
      "name": null
    },
    "measureTemplate": {
      "type": "",
      "size": 0,
      "overrideColor": false,
      "customColor": "",
      "overrideTexture": false,
      "customTexture": ""
    },
    "actionType": "msak",
    "attackBonus": "",
    "critConfirmBonus": "",
    "damage": {
      "parts": [
        [
          "10*(min(15, @cl))",
          "Negative Energy",
          ""
        ]
      ],
      "alternativeParts": []
    },
    "summon": [],
    "attackParts": [],
    "autoscaleAttackParts": "",
    "formula": "",
    "attackCountFormula": "",
    "maxDamageDice": 0,
    "maxDamageDiceFormula": "",
    "ability": {
      "attack": "str",
      "damage": "",
      "damageMult": 1,
      "critRange": 20,
      "critMult": 2,
      "twoHandedOnly": false,
      "vsTouchAc": false
    },
    "save": {
      "dc": "0",
      "description": "Will half; see text",
      "ability": "",
      "type": "",
      "dcAutoType": "",
      "dcAutoAbility": ""
    },
    "baseCl": "0",
    "sr": true,
    "pr": false,
    "metamagicFeats": {
      "maximized": false,
      "empowered": false,
      "enlarged": false,
      "intensified": false,
      "enhanced": false,
      "enhancedHalf": false,
      "widened": false
    },
    "effectNotes": "",
    "attackNotes": "",
    "specialActions": [],
    "favorite": false,
    "rollTableDraw": {
      "formula": "",
      "name": "",
      "pack": "",
      "id": ""
    },
    "learnedAt": {
      "class": [
        [
          "Cleric",
          6
        ]
      ],
      "domain": [
        [
          "Destruction",
          6
        ]
      ],
      "subDomain": [],
      "elementalSchool": [],
      "bloodline": []
    },
    "level": 0,
    "clOffset": 0,
    "slOffset": 0,
    "school": "nec",
    "subschool": "",
    "types": "",
    "components": {
      "value": "",
      "verbal": true,
      "somatic": true,
      "material": false,
      "focus": false,
      "divineFocus": 0
    },
    "castTime": "",
    "conditionals": [],
    "materials": {
      "value": "",
      "consumed": {
        "value": false,
        "_deprecated": true
      },
      "focus": ""
    },
    "isSpellSpontaneousReplacement": false,
    "spellbook": "spelllike",
    "preparation": {
      "preparedAmount": 0,
      "maxAmount": 0,
      "autoDeductCharges": true,
      "mode": "prepared"
    },
    "atWill": true,
    "powerPointsCost": 0,
    "display": "",
    "isPower": false,
    "shortDescription": "\n\n\n<p>\n<i>Harm </i>charges a subject with negative energy that deals 10 points of damage per caster level (to a maximum of 150 points at 15th level). If the creature successfully saves, <i>harm </i>deals half this amount, but it cannot reduce the target’s hit points to less than 1.\n</p><p>If used on an undead creature, <i>harm </i>acts like <i>heal</i>.\n</p>\n<hr/>\n\n\n",
    "snip": "Deals 10 points/level damage to target.",
    "spellDuration": "Instantaneous",
    "spellEffect": "",
    "spellArea": "",
    "spellType": {
      "value": "",
      "_deprecated": true
    },
    "showInQuickbar": false,
    "specialPrepared": false,
    "isDomainSpell": false,
    "specialId": null,
    "customReferenceId": "",
    "attack": {
      "parts": []
    }
  },
  "sort": 600000,
  "flags": {},
  "img": "systems/D35E/icons/spells/named-spells/harm.png",
  "effects": [],
  "folder": null,
  "permission": {
    "default": 0
  },
  "_key": "!actors.items!S4VxcOFLuOXFoGDy.pVAb4vWt4nycq8Sl"
}