{
  "_id": "sD5TOHefhfRaS1RG",
  "name": "Improved Spell Capacity",
  "type": "feat",
  "data": {
    "originVersion": 0,
    "originPack": "",
    "originId": "",
    "possibleUpdate": false,
    "description": {
      "value": "\n\n\n<h3><span class=\"mw-headline\" id=\"Prerequisite\">Prerequisite</span></h3>\n<p>Ability to cast spells of the normal maximum spell level in at least one spellcasting class.\n</p>\n<h3><span class=\"mw-headline\" id=\"Benefit\">Benefit</span></h3>\n<p>When the character selects this feat, he or she gains one spell slot per day of any level up to one level higher than the highest-level spell the character can already cast in a particular class. The character must still have the requisite ability score (10 + spell level) in order to cast any spell stored in this slot. If the character has a high enough ability modifier to gain one or more bonus spells for this spell level, he or she also gains the bonus spells for this spell level. The character must use the spell slot as a member of the class in which he or she can already cast spells of the normal maximum spell level.\n</p>\n<h3><span class=\"mw-headline\" id=\"Special\">Special</span></h3>\n<p>A character can gain this feat multiple times.\n</p>\n<h4><span class=\"mw-headline\" id=\"Spell_Slots_Above_9th_Level\">Spell Slots Above 9th Level</span></h4>\n<p>The Improved Spell Capacity feat allows characters to gain spell slots above 9th level (which can be used to hold lower-level spells or spells whose level has been increased beyond 9th by the use of metamagic feats).\n</p><p>A character with a very high score in the ability associated with his or her spellcasting (Intelligence for wizards; Wisdom for clerics, druids, paladins, and rangers; or Charisma for bards and sorcerers) may receive bonus spells of those levels, as shown on Table: Expanded Ability Modifiers and Bonus Spells, but only if they already have at least one spell slot of that level (such as from the Improved Spell Capacity feat). A character without any spell slots of a level can’t receive any bonus spells of that level, even if the appropriate ability score is high enough to award them.\n</p><p>Even though the table only includes ability scores up to 61 and spell slots up to 25th level, the progression continues infinitely in both directions. For ability scores beyond 61, or for spell slots above 25th level, expand the table to follow the same patterns as shown.\n</p>\n<p class=\"mw-empty-elt\"></p><table class=\"d20\">\n<caption>\n<h3><span class=\"mw-headline\" id=\"Table:_Expanded_Ability_Modifiers_and_Bonus_Spells\">Table: Expanded Ability Modifiers and Bonus Spells</span></h3>\n<p class=\"mw-empty-elt\"></p></caption>\n<tbody><tr>\n<th rowspan=\"2\">Score</th>\n<th rowspan=\"2\">Modifier</th>\n<th colspan=\"16\">Spells per Day\n</th></tr>\n<tr>\n<th>10th</th>\n<th>11th</th>\n<th>12th</th>\n<th>13th</th>\n<th>14th</th>\n<th>15th</th>\n<th>16th</th>\n<th>17th</th>\n<th>18th</th>\n<th>19th</th>\n<th>20th</th>\n<th>21st</th>\n<th>22nd</th>\n<th>23rd</th>\n<th>24th</th>\n<th>25th\n</th></tr>\n<tr>\n<td>10–11</td>\n<td>+0</td>\n<td>—</td>\n<td>—</td>\n<td>—</td>\n<td>—</td>\n<td>—</td>\n<td>—</td>\n<td>—</td>\n<td>—</td>\n<td>—</td>\n<td>—</td>\n<td>—</td>\n<td>—</td>\n<td>—</td>\n<td>—</td>\n<td>—</td>\n<td>—\n</td></tr>\n<tr class=\"even\">\n<td>12–13</td>\n<td>+1</td>\n<td>—</td>\n<td>—</td>\n<td>—</td>\n<td>—</td>\n<td>—</td>\n<td>—</td>\n<td>—</td>\n<td>—</td>\n<td>—</td>\n<td>—</td>\n<td>—</td>\n<td>—</td>\n<td>—</td>\n<td>—</td>\n<td>—</td>\n<td>—\n</td></tr>\n<tr>\n<td>14–15</td>\n<td>+2</td>\n<td>—</td>\n<td>—</td>\n<td>—</td>\n<td>—</td>\n<td>—</td>\n<td>—</td>\n<td>—</td>\n<td>—</td>\n<td>—</td>\n<td>—</td>\n<td>—</td>\n<td>—</td>\n<td>—</td>\n<td>—</td>\n<td>—</td>\n<td>—\n</td></tr>\n<tr class=\"even\">\n<td>16–17</td>\n<td>+3</td>\n<td>—</td>\n<td>—</td>\n<td>—</td>\n<td>—</td>\n<td>—</td>\n<td>—</td>\n<td>—</td>\n<td>—</td>\n<td>—</td>\n<td>—</td>\n<td>—</td>\n<td>—</td>\n<td>—</td>\n<td>—</td>\n<td>—</td>\n<td>—\n</td></tr>\n<tr>\n<td>18–19</td>\n<td>+4</td>\n<td>—</td>\n<td>—</td>\n<td>—</td>\n<td>—</td>\n<td>—</td>\n<td>—</td>\n<td>—</td>\n<td>—</td>\n<td>—</td>\n<td>—</td>\n<td>—</td>\n<td>—</td>\n<td>—</td>\n<td>—</td>\n<td>—</td>\n<td>—\n</td></tr>\n<tr class=\"even\">\n<td>20–21</td>\n<td>+5</td>\n<td>—</td>\n<td>—</td>\n<td>—</td>\n<td>—</td>\n<td>—</td>\n<td>—</td>\n<td>—</td>\n<td>—</td>\n<td>—</td>\n<td>—</td>\n<td>—</td>\n<td>—</td>\n<td>—</td>\n<td>—</td>\n<td>—</td>\n<td>—\n</td></tr>\n<tr>\n<td>22–23</td>\n<td>+6</td>\n<td>—</td>\n<td>—</td>\n<td>—</td>\n<td>—</td>\n<td>—</td>\n<td>—</td>\n<td>—</td>\n<td>—</td>\n<td>—</td>\n<td>—</td>\n<td>—</td>\n<td>—</td>\n<td>—</td>\n<td>—</td>\n<td>—</td>\n<td>—\n</td></tr>\n<tr class=\"even\">\n<td>24–25</td>\n<td>+7</td>\n<td>—</td>\n<td>—</td>\n<td>—</td>\n<td>—</td>\n<td>—</td>\n<td>—</td>\n<td>—</td>\n<td>—</td>\n<td>—</td>\n<td>—</td>\n<td>—</td>\n<td>—</td>\n<td>—</td>\n<td>—</td>\n<td>—</td>\n<td>—\n</td></tr>\n<tr>\n<td>26–27</td>\n<td>+8</td>\n<td>—</td>\n<td>—</td>\n<td>—</td>\n<td>—</td>\n<td>—</td>\n<td>—</td>\n<td>—</td>\n<td>—</td>\n<td>—</td>\n<td>—</td>\n<td>—</td>\n<td>—</td>\n<td>—</td>\n<td>—</td>\n<td>—</td>\n<td>—\n</td></tr>\n<tr class=\"even\">\n<td>28–29</td>\n<td>+9</td>\n<td>—</td>\n<td>—</td>\n<td>—</td>\n<td>—</td>\n<td>—</td>\n<td>—</td>\n<td>—</td>\n<td>—</td>\n<td>—</td>\n<td>—</td>\n<td>—</td>\n<td>—</td>\n<td>—</td>\n<td>—</td>\n<td>—</td>\n<td>—\n</td></tr>\n<tr>\n<td>30–31</td>\n<td>+10</td>\n<td>1</td>\n<td>—</td>\n<td>—</td>\n<td>—</td>\n<td>—</td>\n<td>—</td>\n<td>—</td>\n<td>—</td>\n<td>—</td>\n<td>—</td>\n<td>—</td>\n<td>—</td>\n<td>—</td>\n<td>—</td>\n<td>—</td>\n<td>—\n</td></tr>\n<tr class=\"even\">\n<td>32–33</td>\n<td>+11</td>\n<td>1</td>\n<td>1</td>\n<td>—</td>\n<td>—</td>\n<td>—</td>\n<td>—</td>\n<td>—</td>\n<td>—</td>\n<td>—</td>\n<td>—</td>\n<td>—</td>\n<td>—</td>\n<td>—</td>\n<td>—</td>\n<td>—</td>\n<td>—\n</td></tr>\n<tr>\n<td>34–35</td>\n<td>+12</td>\n<td>1</td>\n<td>1</td>\n<td>1</td>\n<td>—</td>\n<td>—</td>\n<td>—</td>\n<td>—</td>\n<td>—</td>\n<td>—</td>\n<td>—</td>\n<td>—</td>\n<td>—</td>\n<td>—</td>\n<td>—</td>\n<td>—</td>\n<td>—\n</td></tr>\n<tr class=\"even\">\n<td>36–37</td>\n<td>+13</td>\n<td>1</td>\n<td>1</td>\n<td>1</td>\n<td>1</td>\n<td>—</td>\n<td>—</td>\n<td>—</td>\n<td>—</td>\n<td>—</td>\n<td>—</td>\n<td>—</td>\n<td>—</td>\n<td>—</td>\n<td>—</td>\n<td>—</td>\n<td>—\n</td></tr>\n<tr>\n<td>38–39</td>\n<td>+14</td>\n<td>2</td>\n<td>1</td>\n<td>1</td>\n<td>1</td>\n<td>1</td>\n<td>—</td>\n<td>—</td>\n<td>—</td>\n<td>—</td>\n<td>—</td>\n<td>—</td>\n<td>—</td>\n<td>—</td>\n<td>—</td>\n<td>—</td>\n<td>—\n</td></tr>\n<tr class=\"even\">\n<td>40–41</td>\n<td>+15</td>\n<td>2</td>\n<td>2</td>\n<td>1</td>\n<td>1</td>\n<td>1</td>\n<td>1</td>\n<td>—</td>\n<td>—</td>\n<td>—</td>\n<td>—</td>\n<td>—</td>\n<td>—</td>\n<td>—</td>\n<td>—</td>\n<td>—</td>\n<td>—\n</td></tr>\n<tr>\n<td>42–43</td>\n<td>+16</td>\n<td>2</td>\n<td>2</td>\n<td>2</td>\n<td>1</td>\n<td>1</td>\n<td>1</td>\n<td>1</td>\n<td>—</td>\n<td>—</td>\n<td>—</td>\n<td>—</td>\n<td>—</td>\n<td>—</td>\n<td>—</td>\n<td>—</td>\n<td>—\n</td></tr>\n<tr class=\"even\">\n<td>44–45</td>\n<td>+17</td>\n<td>2</td>\n<td>2</td>\n<td>2</td>\n<td>2</td>\n<td>1</td>\n<td>1</td>\n<td>1</td>\n<td>1</td>\n<td>—</td>\n<td>—</td>\n<td>—</td>\n<td>—</td>\n<td>—</td>\n<td>—</td>\n<td>—</td>\n<td>—\n</td></tr>\n<tr>\n<td>46–47</td>\n<td>+18</td>\n<td>3</td>\n<td>2</td>\n<td>2</td>\n<td>2</td>\n<td>2</td>\n<td>1</td>\n<td>1</td>\n<td>1</td>\n<td>1</td>\n<td>—</td>\n<td>—</td>\n<td>—</td>\n<td>—</td>\n<td>—</td>\n<td>—</td>\n<td>—\n</td></tr>\n<tr class=\"even\">\n<td>48–49</td>\n<td>+19</td>\n<td>3</td>\n<td>3</td>\n<td>2</td>\n<td>2</td>\n<td>2</td>\n<td>2</td>\n<td>1</td>\n<td>1</td>\n<td>1</td>\n<td>1</td>\n<td>—</td>\n<td>—</td>\n<td>—</td>\n<td>—</td>\n<td>—</td>\n<td>—\n</td></tr>\n<tr>\n<td>50–51</td>\n<td>+20</td>\n<td>3</td>\n<td>3</td>\n<td>3</td>\n<td>2</td>\n<td>2</td>\n<td>2</td>\n<td>2</td>\n<td>1</td>\n<td>1</td>\n<td>1</td>\n<td>1</td>\n<td>—</td>\n<td>—</td>\n<td>—</td>\n<td>—</td>\n<td>—\n</td></tr>\n<tr class=\"even\">\n<td>52–53</td>\n<td>+21</td>\n<td>3</td>\n<td>3</td>\n<td>3</td>\n<td>3</td>\n<td>2</td>\n<td>2</td>\n<td>2</td>\n<td>2</td>\n<td>1</td>\n<td>1</td>\n<td>1</td>\n<td>1</td>\n<td>—</td>\n<td>—</td>\n<td>—</td>\n<td>—\n</td></tr>\n<tr>\n<td>54–55</td>\n<td>+22</td>\n<td>4</td>\n<td>3</td>\n<td>3</td>\n<td>3</td>\n<td>3</td>\n<td>2</td>\n<td>2</td>\n<td>2</td>\n<td>2</td>\n<td>1</td>\n<td>1</td>\n<td>1</td>\n<td>1</td>\n<td>—</td>\n<td>—</td>\n<td>—\n</td></tr>\n<tr class=\"even\">\n<td>56–57</td>\n<td>+23</td>\n<td>4</td>\n<td>4</td>\n<td>3</td>\n<td>3</td>\n<td>3</td>\n<td>3</td>\n<td>2</td>\n<td>2</td>\n<td>2</td>\n<td>2</td>\n<td>1</td>\n<td>1</td>\n<td>1</td>\n<td>1</td>\n<td>—</td>\n<td>—\n</td></tr>\n<tr>\n<td>58–59</td>\n<td>+24</td>\n<td>4</td>\n<td>4</td>\n<td>4</td>\n<td>3</td>\n<td>3</td>\n<td>3</td>\n<td>3</td>\n<td>2</td>\n<td>2</td>\n<td>2</td>\n<td>2</td>\n<td>1</td>\n<td>1</td>\n<td>1</td>\n<td>1</td>\n<td>—\n</td></tr>\n<tr class=\"even\">\n<td>60–61</td>\n<td>+25</td>\n<td>4</td>\n<td>4</td>\n<td>4</td>\n<td>4</td>\n<td>3</td>\n<td>3</td>\n<td>3</td>\n<td>3</td>\n<td>2</td>\n<td>2</td>\n<td>2</td>\n<td>2</td>\n<td>1</td>\n<td>1</td>\n<td>1</td>\n<td>1\n</td></tr>\n<tr>\n<td>etc. . .</td>\n<td></td>\n<td></td>\n<td></td>\n<td></td>\n<td></td>\n<td></td>\n<td></td>\n<td></td>\n<td></td>\n<td></td>\n<td></td>\n<td></td>\n<td></td>\n<td></td>\n<td></td>\n<td></td>\n<td>\n</td></tr></tbody></table>\n<p><br/>\n</p>\n<hr/>\n\n\n",
      "chat": "",
      "unidentified": ""
    },
    "epic": "",
    "psionic": "",
    "nameFormula": "",
    "nameFromFormula": false,
    "tags": [],
    "uniqueId": "",
    "linkId": "",
    "linkSourceId": "",
    "linkImported": false,
    "linkSourceName": "",
    "source": "",
    "classSource": "",
    "userNonRemovable": false,
    "customAttributes": {},
    "customAttributesLocked": false,
    "customTag": "",
    "createdBy": "",
    "activation": {
      "cost": 1,
      "type": ""
    },
    "duration": {
      "value": null,
      "units": ""
    },
    "target": {
      "value": ""
    },
    "range": {
      "value": null,
      "units": "",
      "long": null
    },
    "recharge": {
      "enabled": false,
      "formula": "",
      "current": 0,
      "value": null,
      "charged": false,
      "_deprecated": true
    },
    "uses": {
      "value": 0,
      "max": 0,
      "per": null,
      "autoDeductCharges": true,
      "allowMultipleUses": false,
      "chargesPerUse": 1,
      "maxPerUse": null,
      "maxPerUseFormula": "",
      "maxFormula": "",
      "rechargeFormula": null,
      "isResource": false,
      "canBeLinked": false
    },
    "requiresPsionicFocus": false,
    "linkedChargeItem": {
      "id": null,
      "img": null,
      "name": null
    },
    "measureTemplate": {
      "type": "",
      "size": 0,
      "overrideColor": false,
      "customColor": "",
      "overrideTexture": false,
      "customTexture": ""
    },
    "actionType": "",
    "attackBonus": "",
    "critConfirmBonus": "",
    "damage": {
      "parts": [],
      "alternativeParts": []
    },
    "summon": [],
    "attackParts": [],
    "autoscaleAttackParts": "",
    "formula": "",
    "attackCountFormula": "",
    "maxDamageDice": 0,
    "maxDamageDiceFormula": "",
    "ability": {
      "attack": null,
      "damage": null,
      "damageMult": 1,
      "critRange": 20,
      "critMult": 2,
      "twoHandedOnly": false,
      "vsTouchAc": false
    },
    "save": {
      "dc": 0,
      "description": "",
      "ability": "",
      "type": "",
      "dcAutoType": "",
      "dcAutoAbility": ""
    },
    "baseCl": "0",
    "sr": false,
    "pr": false,
    "metamagicFeats": {
      "maximized": false,
      "empowered": false,
      "enlarged": false,
      "intensified": false,
      "enhanced": false,
      "enhancedHalf": false,
      "widened": false
    },
    "effectNotes": "",
    "attackNotes": "",
    "specialActions": [],
    "favorite": false,
    "rollTableDraw": {
      "formula": "",
      "name": "",
      "pack": "",
      "id": ""
    },
    "changes": [],
    "changeFlags": {
      "loseDexToAC": false,
      "noStr": false,
      "noDex": false,
      "noInt": false,
      "noCon": false,
      "oneInt": false,
      "oneWis": false,
      "oneCha": false,
      "noEncumbrance": false,
      "mediumArmorFullSpeed": false,
      "heavyArmorFullSpeed": false,
      "multiAttack": false,
      "multiweaponAttack": false
    },
    "conditionFlags": {
      "dazzled": false,
      "wildshaped": false,
      "polymorphed": false
    },
    "combatChanges": [],
    "combatChangesRange": {
      "maxFormula": "",
      "max": 0
    },
    "combatChangesAdditionalRanges": {
      "hasAdditionalRanges": false,
      "slider1": {
        "maxFormula": "",
        "max": 0,
        "name": ""
      },
      "slider2": {
        "maxFormula": "",
        "max": 0,
        "name": ""
      },
      "slider3": {
        "maxFormula": "",
        "max": 0,
        "name": ""
      }
    },
    "combatChangesUsesCost": "chargesPerUse",
    "combatChangesApplySpecialActionsOnce": true,
    "combatChangeCustomDisplayName": "",
    "combatChangeCustomReferenceName": "",
    "sizeOverride": "",
    "counterName": "",
    "resistances": [],
    "damageReduction": [],
    "requirements": [],
    "creationChanges": [],
    "contextNotes": [],
    "featType": "feat",
    "abilityType": "",
    "associations": {
      "classes": []
    },
    "crOffset": "",
    "spellSpecializationName": "",
    "spellSpecializationForbiddenNames": "",
    "linkedItems": [],
    "metamagic": {
      "enabled": false,
      "shortDesc": "",
      "code": ""
    },
    "spellSpecialization": {
      "isDomain": false,
      "spells": {
        "level1": {
          "level": 1,
          "name": "",
          "img": "",
          "pack": null,
          "id": null
        },
        "level2": {
          "level": 2,
          "name": "",
          "img": "",
          "pack": null,
          "id": null
        },
        "level3": {
          "level": 3,
          "name": "",
          "img": "",
          "pack": null,
          "id": null
        },
        "level4": {
          "level": 4,
          "name": "",
          "img": "",
          "pack": null,
          "id": null
        },
        "level5": {
          "level": 5,
          "name": "",
          "img": "",
          "pack": null,
          "id": null
        },
        "level6": {
          "level": 6,
          "name": "",
          "img": "",
          "pack": null,
          "id": null
        },
        "level7": {
          "level": 7,
          "name": "",
          "img": "",
          "pack": null,
          "id": null
        },
        "level8": {
          "level": 8,
          "name": "",
          "img": "",
          "pack": null,
          "id": null
        },
        "level9": {
          "level": 9,
          "name": "",
          "img": "",
          "pack": null,
          "id": null
        }
      }
    },
    "showInQuickbar": false,
    "links": {
      "charges": []
    },
    "customReferenceId": "",
    "time": {
      "value": "",
      "_deprecated": true
    },
    "damageType": {
      "value": "",
      "_deprecated": true
    },
    "attack": {
      "parts": []
    }
  },
  "sort": 2200000,
  "flags": {},
  "img": "systems/D35E/icons/feats/feat-generic.png",
  "effects": [],
  "folder": null,
  "permission": {
    "default": 0
  },
  "_key": "!actors.items!2Y1Wv9QawuCPKhhA.sD5TOHefhfRaS1RG"
}