{
  "_id": "bAOBjuVUFTfmhL9g",
  "name": "Improved Natural Attack (Bite)",
  "type": "feat",
  "data": {
    "originVersion": 0,
    "originPack": "",
    "originId": "",
    "possibleUpdate": false,
    "description": {
      "value": "<h3><span id=\"Prerequisite\">Prerequisite</span></h3>\n<p>Natural weapon, base attack bonus +4.</p>\n<h3><span id=\"Benefit\">Benefit</span></h3>\n<p>Choose one of the creature&rsquo;s natural attack forms. The damage for this natural weapon increases by one step, as if the creature&rsquo;s size had increased by one category.</p>\n<h3><span id=\"Special\">Special</span></h3>\n<p>You can take this feat multiple times, but each time it applies to a different natural attack.</p>\n<p>&nbsp;</p>\n<h3><span id=\"Table:_Improved_Natural_Attack_Damage_Increase\">Table: Improved Natural Attack Damage Increase</span></h3>\n<table cellspacing=\"0\" cellpadding=\"0\"><caption>\n<p>&nbsp;</p>\n</caption>\n<tbody>\n<tr>\n<td>1d2</td>\n<td>1d3</td>\n<td>1d4</td>\n<td>1d6</td>\n<td>1d8</td>\n<td>2d6</td>\n<td>3d6</td>\n<td>4d6</td>\n<td>6d6</td>\n<td>8d6</td>\n<td>12d6</td>\n</tr>\n<tr>\n<td>&mdash;</td>\n<td>&mdash;</td>\n<td>&mdash;</td>\n<td>&mdash;</td>\n<td>2d4</td>\n<td>2d6</td>\n<td>3d6</td>\n<td>4d6</td>\n<td>6d6</td>\n<td>8d6</td>\n<td>12d6</td>\n</tr>\n<tr>\n<td>&mdash;</td>\n<td>&mdash;</td>\n<td>&mdash;</td>\n<td>&mdash;</td>\n<td>&mdash;</td>\n<td>1d12</td>\n<td>3d6</td>\n<td>4d6</td>\n<td>6d6</td>\n<td>8d6</td>\n<td>12d6</td>\n</tr>\n<tr>\n<td>&mdash;</td>\n<td>&mdash;</td>\n<td>&mdash;</td>\n<td>1d10</td>\n<td>2d8</td>\n<td>3d8</td>\n<td>4d8</td>\n<td>6d8</td>\n<td>8d8</td>\n<td>12d8</td>\n<td>16d8</td>\n</tr>\n<tr>\n<td>&mdash;</td>\n<td>&mdash;</td>\n<td>&mdash;</td>\n<td>&mdash;</td>\n<td>&mdash;</td>\n<td>2d10</td>\n<td>4d8</td>\n<td>6d8</td>\n<td>8d8</td>\n<td>12d8</td>\n<td>16d8</td>\n</tr>\n</tbody>\n</table>\n<p>&nbsp;</p>\n<hr />",
      "chat": "",
      "unidentified": ""
    },
    "epic": "",
    "psionic": "",
    "nameFormula": "Improved Natural Attack (${this.custom.weaponname})",
    "nameFromFormula": true,
    "tags": [],
    "uniqueId": "",
    "linkId": "",
    "linkSourceId": "",
    "linkImported": false,
    "linkSourceName": "",
    "source": "",
    "classSource": "",
    "userNonRemovable": false,
    "customAttributes": {
      "_kh4mdayuu": {
        "id": "_kh4mdayuu",
        "name": "Weapon Name",
        "value": "Bite"
      }
    },
    "customAttributesLocked": false,
    "customTag": "",
    "createdBy": "",
    "activation": {
      "cost": 1,
      "type": ""
    },
    "duration": {
      "value": null,
      "units": ""
    },
    "target": {
      "value": ""
    },
    "range": {
      "value": null,
      "units": "",
      "long": null
    },
    "recharge": {
      "enabled": false,
      "formula": "",
      "current": 0,
      "value": null,
      "charged": false,
      "_deprecated": true
    },
    "uses": {
      "value": 0,
      "max": 0,
      "per": null,
      "autoDeductCharges": true,
      "allowMultipleUses": false,
      "chargesPerUse": 1,
      "maxPerUse": null,
      "maxPerUseFormula": "",
      "maxFormula": "",
      "rechargeFormula": null,
      "isResource": false,
      "canBeLinked": false
    },
    "requiresPsionicFocus": false,
    "linkedChargeItem": {
      "id": null,
      "img": null,
      "name": null
    },
    "measureTemplate": {
      "type": "",
      "size": 0,
      "overrideColor": false,
      "customColor": "",
      "overrideTexture": false,
      "customTexture": ""
    },
    "actionType": "",
    "attackBonus": "",
    "critConfirmBonus": "",
    "damage": {
      "parts": [],
      "alternativeParts": []
    },
    "summon": [],
    "attackParts": [],
    "autoscaleAttackParts": "",
    "formula": "",
    "attackCountFormula": "",
    "maxDamageDice": 0,
    "maxDamageDiceFormula": "",
    "ability": {
      "attack": null,
      "damage": null,
      "damageMult": 1,
      "critRange": 20,
      "critMult": 2,
      "twoHandedOnly": false,
      "vsTouchAc": false
    },
    "save": {
      "dc": 0,
      "description": "",
      "ability": "",
      "type": "",
      "dcAutoType": "",
      "dcAutoAbility": ""
    },
    "baseCl": "0",
    "sr": false,
    "pr": false,
    "metamagicFeats": {
      "maximized": false,
      "empowered": false,
      "enlarged": false,
      "intensified": false,
      "enhanced": false,
      "enhancedHalf": false,
      "widened": false
    },
    "effectNotes": "",
    "attackNotes": "",
    "specialActions": [],
    "favorite": false,
    "rollTableDraw": {
      "formula": "",
      "name": "",
      "pack": "",
      "id": ""
    },
    "changes": [],
    "changeFlags": {
      "loseDexToAC": false,
      "noStr": false,
      "noDex": false,
      "noInt": false,
      "noCon": false,
      "oneInt": false,
      "oneWis": false,
      "oneCha": false,
      "noEncumbrance": false,
      "mediumArmorFullSpeed": false,
      "heavyArmorFullSpeed": false,
      "multiAttack": false,
      "multiweaponAttack": false,
      "uncannyDodge": false
    },
    "conditionFlags": {
      "dazzled": false,
      "wildshaped": false,
      "polymorphed": false
    },
    "combatChanges": [],
    "combatChangesRange": {
      "maxFormula": "",
      "max": 0
    },
    "combatChangesAdditionalRanges": {
      "hasAdditionalRanges": false,
      "slider1": {
        "maxFormula": "",
        "max": 0,
        "name": ""
      },
      "slider2": {
        "maxFormula": "",
        "max": 0,
        "name": ""
      },
      "slider3": {
        "maxFormula": "",
        "max": 0,
        "name": ""
      }
    },
    "combatChangesUsesCost": "chargesPerUse",
    "combatChangesApplySpecialActionsOnce": true,
    "combatChangeCustomDisplayName": "",
    "combatChangeCustomReferenceName": "",
    "sizeOverride": "",
    "counterName": "",
    "resistances": [],
    "damageReduction": [],
    "requirements": [],
    "creationChanges": [],
    "contextNotes": [],
    "featType": "feat",
    "abilityType": "",
    "associations": {
      "classes": []
    },
    "crOffset": "",
    "spellSpecializationName": "",
    "spellSpecializationForbiddenNames": "",
    "linkedItems": [],
    "metamagic": {
      "enabled": false,
      "shortDesc": "",
      "code": ""
    },
    "spellSpecialization": {
      "isDomain": false,
      "spells": {
        "level1": {
          "level": 1,
          "name": "",
          "img": "",
          "pack": null,
          "id": null
        },
        "level2": {
          "level": 2,
          "name": "",
          "img": "",
          "pack": null,
          "id": null
        },
        "level3": {
          "level": 3,
          "name": "",
          "img": "",
          "pack": null,
          "id": null
        },
        "level4": {
          "level": 4,
          "name": "",
          "img": "",
          "pack": null,
          "id": null
        },
        "level5": {
          "level": 5,
          "name": "",
          "img": "",
          "pack": null,
          "id": null
        },
        "level6": {
          "level": 6,
          "name": "",
          "img": "",
          "pack": null,
          "id": null
        },
        "level7": {
          "level": 7,
          "name": "",
          "img": "",
          "pack": null,
          "id": null
        },
        "level8": {
          "level": 8,
          "name": "",
          "img": "",
          "pack": null,
          "id": null
        },
        "level9": {
          "level": 9,
          "name": "",
          "img": "",
          "pack": null,
          "id": null
        }
      }
    },
    "showInQuickbar": false,
    "links": {
      "charges": []
    },
    "customReferenceId": "",
    "time": {
      "value": "",
      "_deprecated": true
    },
    "damageType": {
      "value": "",
      "_deprecated": true
    },
    "attack": {
      "parts": []
    },
    "identifiedName": "Improved Natural Attack (Bite)"
  },
  "sort": 600000,
  "flags": {},
  "img": "systems/D35E/icons/feats/improved-natural-attack.png",
  "effects": [],
  "folder": null,
  "permission": {
    "default": 0
  },
  "_key": "!actors.items!RW0lav2rjeoxtcQw.bAOBjuVUFTfmhL9g"
}