{
  "_id": "N7CbRzCLnWDbN3e0",
  "name": "Magic Circle against Chaos",
  "type": "spell",
  "data": {
    "originVersion": 0,
    "originPack": "",
    "originId": "",
    "possibleUpdate": false,
    "description": {
      "value": "<div class=\"spell-description\">\n  <p>\n      <strong>School:</strong>&nbsp;abjuration&nbsp;[lawful];\n    <br>\n    <strong>Level:</strong>&nbsp;Cleric 3, Paladin 3, Sorcerer 3, Wizard 3;\n    <strong>Domain:</strong>&nbsp;Law 3;\n    \n    \n    \n    <br>\n    <strong>Components:</strong>&nbsp;V, S, M/DF (a little powdered silver with which you trace a 3-footdiameter circle on the floor (or ground) around the creature to be warded), F<br>\n    \n      <strong>Casting Time:</strong>&nbsp;1 standard action<br>\n    <strong>Range:</strong>&nbsp;touch<br>\n    <strong>Area:</strong>&nbsp;10-ft.-radius emanation from touched creature<br>\n    \n    \n    <strong>Duration:</strong>&nbsp;10 min./level<br>\n    \n        <strong>Saving Throw:</strong>&nbsp;Will negates (harmless)\n        <br>\n        <strong>Spell Resistance:</strong>&nbsp;no<br>\n  </p>\n  <h2>Description</h2>\n  \n\n\n<p>\nAll creatures within the area gain the effects of a <i>protection from chaos </i>spell, and no nonlawful summoned creatures can enter the area either. You must overcome a creature’s spell resistance in order to keep it at bay (as in the third function of <i>protection from chaos</i>), but the deflection and resistance bonuses and the protection from mental control apply regardless of enemies’ spell resistance.\n</p><p>This spell has an alternative version that you may choose when casting it. A <i>magic circle against chaos </i>can be focused inward rather than outward. When focused inward, the spell binds a nonlawful called creature (such as those called by the <i>lesser planar binding, planar binding, </i>and <i>greater planar binding</i> spells) for a maximum of 24 hours per caster level, provided that you cast the spell that calls the creature within 1 round of casting the <i>magic circle</i>. The creature cannot cross the circle’s boundaries. If a creature too large to fit into the spell’s area is the subject of the spell, the spell acts as a normal <i>protection from chaos </i>spell for that creature only.\n</p><p>A <i>magic circle</i> leaves much to be desired as a trap. If the circle of powdered silver laid down in the process of spellcasting is broken, the effect immediately ends. The trapped creature can do nothing that disturbs the circle, directly or indirectly, but other creatures can. If the called creature has spell resistance, it can test the trap once a day. If you fail to overcome its spell resistance, the creature breaks free, destroying the circle. A creature capable of any form of dimensional travel (<i>astral projection, blink, dimension door, etherealness, gate, plane shift, shadow walk, teleport, </i>and similar abilities) can simply leave the circle through that means. You can prevent the creature’s extradimensional escape by casting a <i>dimensional anchor </i>spell on it, but you must cast the spell before the creature acts. If you are successful, the <i>anchor </i>effect lasts as long as the <i>magic circle </i>does. The creature cannot reach across the <i>magic circle, </i>but its ranged attacks (ranged weapons, spells, magical abilities, and the like) can. The creature can attack any target it can reach with its ranged attacks except for the circle itself.\n</p><p>You can add a special diagram (a two-dimensional bounded figure with no gaps along its circumference, augmented with various magical sigils) to make the <i>magic circle </i>more secure. Drawing the diagram by hand takes 10 minutes and requires a DC 20 Spellcraft check. You do not know the result of this check. If the check fails, the diagram is ineffective. You can take 10 when drawing the diagram if you are under no particular time pressure to complete the task. This task also takes 10 full minutes. If time is no factor at all, and you devote 3 hours and 20 minutes to the task, you can take 20.\n</p><p>A successful diagram allows you to cast a <i>dimensional anchor </i>spell on the <i>magic circle </i>during the round before casting any summoning spell. The <i>anchor </i>holds any called creatures in the <i>magic circle </i>for 24 hours per caster level. A creature cannot use its spell resistance against a <i>magic circle </i>prepared with a diagram, and none of its abilities or attacks can cross the diagram. If the creature tries a Charisma check to break free of the trap (see the <i>lesser planar binding </i>spell), the DC increases by 5. The creature is immediately released if anything disturbs the diagram—even a straw laid across it. However, the creature itself cannot disturb the diagram either directly or indirectly, as noted above.\n</p><p>This spell is not cumulative with <i>protection from chaos </i>and vice versa.\n</p><p><i>Arcane Material Component: </i>A little powdered silver with which you trace a 3-footdiameter circle on the floor (or ground) around the creature to be warded.\n</p>\n<hr/>\n\n\n\n</div>\n",
      "chat": "",
      "unidentified": ""
    },
    "epic": "",
    "psionic": "",
    "nameFormula": "",
    "nameFromFormula": false,
    "tags": [],
    "uniqueId": "",
    "linkId": "",
    "linkSourceId": "",
    "linkImported": false,
    "linkSourceName": "",
    "source": "",
    "classSource": "",
    "userNonRemovable": false,
    "customAttributes": {},
    "customAttributesLocked": false,
    "customTag": "",
    "createdBy": "",
    "activation": {
      "cost": 1,
      "type": "standard"
    },
    "duration": {
      "value": null,
      "units": ""
    },
    "target": {
      "value": ""
    },
    "range": {
      "value": null,
      "units": "touch",
      "long": null
    },
    "recharge": {
      "enabled": false,
      "formula": "",
      "current": 0
    },
    "uses": {
      "value": 0,
      "max": 0,
      "per": "",
      "autoDeductCharges": true,
      "allowMultipleUses": false,
      "chargesPerUse": 1,
      "maxPerUse": null,
      "maxPerUseFormula": "",
      "maxFormula": "",
      "rechargeFormula": null,
      "isResource": false,
      "canBeLinked": false
    },
    "requiresPsionicFocus": false,
    "linkedChargeItem": {
      "id": null,
      "img": null,
      "name": null
    },
    "measureTemplate": {
      "type": "circle",
      "size": 0,
      "overrideColor": false,
      "customColor": "",
      "overrideTexture": false,
      "customTexture": ""
    },
    "actionType": "other",
    "attackBonus": "",
    "critConfirmBonus": "",
    "damage": {
      "parts": [],
      "alternativeParts": []
    },
    "summon": [],
    "attackParts": [],
    "autoscaleAttackParts": "",
    "formula": "",
    "attackCountFormula": "",
    "maxDamageDice": 0,
    "maxDamageDiceFormula": "",
    "ability": {
      "attack": "",
      "damage": "",
      "damageMult": 1,
      "critRange": 20,
      "critMult": 2,
      "twoHandedOnly": false,
      "vsTouchAc": false
    },
    "save": {
      "dc": "0",
      "description": "Will negates (harmless)",
      "ability": "",
      "type": "",
      "dcAutoType": "",
      "dcAutoAbility": ""
    },
    "baseCl": "0",
    "sr": false,
    "pr": false,
    "metamagicFeats": {
      "maximized": false,
      "empowered": false,
      "enlarged": false,
      "intensified": false,
      "enhanced": false,
      "enhancedHalf": false,
      "widened": false
    },
    "effectNotes": "",
    "attackNotes": "",
    "specialActions": [],
    "favorite": false,
    "rollTableDraw": {
      "formula": "",
      "name": "",
      "pack": "",
      "id": ""
    },
    "learnedAt": {
      "class": [
        [
          "Cleric",
          3
        ],
        [
          "Paladin",
          3
        ],
        [
          "Wizard",
          3
        ],
        [
          "Sorcerer",
          3
        ]
      ],
      "domain": [
        [
          "Law",
          3
        ]
      ],
      "subDomain": [],
      "elementalSchool": [],
      "bloodline": []
    },
    "level": 0,
    "clOffset": 0,
    "slOffset": 0,
    "school": "abj",
    "subschool": "",
    "types": "lawful",
    "components": {
      "value": "",
      "verbal": true,
      "somatic": true,
      "material": true,
      "focus": true,
      "divineFocus": 2
    },
    "castTime": "",
    "conditionals": [],
    "materials": {
      "value": "a little powdered silver with which you trace a 3-footdiameter circle on the floor (or ground) around the creature to be warded",
      "consumed": {
        "value": false,
        "_deprecated": true
      },
      "focus": ""
    },
    "isSpellSpontaneousReplacement": false,
    "spellbook": "spelllike",
    "preparation": {
      "preparedAmount": 0,
      "maxAmount": 0,
      "autoDeductCharges": true,
      "mode": "prepared"
    },
    "atWill": true,
    "powerPointsCost": 0,
    "display": "",
    "isPower": false,
    "shortDescription": "\n\n\n<p>\nAll creatures within the area gain the effects of a <i>protection from chaos </i>spell, and no nonlawful summoned creatures can enter the area either. You must overcome a creature’s spell resistance in order to keep it at bay (as in the third function of <i>protection from chaos</i>), but the deflection and resistance bonuses and the protection from mental control apply regardless of enemies’ spell resistance.\n</p><p>This spell has an alternative version that you may choose when casting it. A <i>magic circle against chaos </i>can be focused inward rather than outward. When focused inward, the spell binds a nonlawful called creature (such as those called by the <i>lesser planar binding, planar binding, </i>and <i>greater planar binding</i> spells) for a maximum of 24 hours per caster level, provided that you cast the spell that calls the creature within 1 round of casting the <i>magic circle</i>. The creature cannot cross the circle’s boundaries. If a creature too large to fit into the spell’s area is the subject of the spell, the spell acts as a normal <i>protection from chaos </i>spell for that creature only.\n</p><p>A <i>magic circle</i> leaves much to be desired as a trap. If the circle of powdered silver laid down in the process of spellcasting is broken, the effect immediately ends. The trapped creature can do nothing that disturbs the circle, directly or indirectly, but other creatures can. If the called creature has spell resistance, it can test the trap once a day. If you fail to overcome its spell resistance, the creature breaks free, destroying the circle. A creature capable of any form of dimensional travel (<i>astral projection, blink, dimension door, etherealness, gate, plane shift, shadow walk, teleport, </i>and similar abilities) can simply leave the circle through that means. You can prevent the creature’s extradimensional escape by casting a <i>dimensional anchor </i>spell on it, but you must cast the spell before the creature acts. If you are successful, the <i>anchor </i>effect lasts as long as the <i>magic circle </i>does. The creature cannot reach across the <i>magic circle, </i>but its ranged attacks (ranged weapons, spells, magical abilities, and the like) can. The creature can attack any target it can reach with its ranged attacks except for the circle itself.\n</p><p>You can add a special diagram (a two-dimensional bounded figure with no gaps along its circumference, augmented with various magical sigils) to make the <i>magic circle </i>more secure. Drawing the diagram by hand takes 10 minutes and requires a DC 20 Spellcraft check. You do not know the result of this check. If the check fails, the diagram is ineffective. You can take 10 when drawing the diagram if you are under no particular time pressure to complete the task. This task also takes 10 full minutes. If time is no factor at all, and you devote 3 hours and 20 minutes to the task, you can take 20.\n</p><p>A successful diagram allows you to cast a <i>dimensional anchor </i>spell on the <i>magic circle </i>during the round before casting any summoning spell. The <i>anchor </i>holds any called creatures in the <i>magic circle </i>for 24 hours per caster level. A creature cannot use its spell resistance against a <i>magic circle </i>prepared with a diagram, and none of its abilities or attacks can cross the diagram. If the creature tries a Charisma check to break free of the trap (see the <i>lesser planar binding </i>spell), the DC increases by 5. The creature is immediately released if anything disturbs the diagram—even a straw laid across it. However, the creature itself cannot disturb the diagram either directly or indirectly, as noted above.\n</p><p>This spell is not cumulative with <i>protection from chaos </i>and vice versa.\n</p><p><i>Arcane Material Component: </i>A little powdered silver with which you trace a 3-footdiameter circle on the floor (or ground) around the creature to be warded.\n</p>\n<hr/>\n\n\n",
    "snip": "As protection from chaos, but 10-ft. radius and 10 min./level.",
    "spellDuration": "10 min./level",
    "spellEffect": "",
    "spellArea": "10-ft.-radius emanation from touched creature",
    "spellType": {
      "value": "",
      "_deprecated": true
    },
    "showInQuickbar": false,
    "specialPrepared": false,
    "isDomainSpell": false,
    "specialId": null,
    "customReferenceId": "",
    "attack": {
      "parts": []
    }
  },
  "sort": 600000,
  "flags": {},
  "img": "systems/D35E/icons/spells/named-spells/magic-circle-against-chaos.png",
  "effects": [],
  "folder": null,
  "permission": {
    "default": 0
  },
  "_key": "!actors.items!33obHnNVCLQU4HxJ.N7CbRzCLnWDbN3e0"
}