{
  "_id": "ID7UgnYkUMFqWvl2",
  "name": "Medusa",
  "type": "npc",
  "img": "systems/D35E/icons/bestiary/token/monstrous-humanoid.png",
  "items": [
    "gjACp9mqEefNsoxD",
    "NpjR5pl1m5Ta72DC",
    "yqP4jwmkKTKKhTCG",
    "sLy5DMK1tKhF7aHm",
    "oUcQgzicUwYabC4b",
    "1iqTJvNQsB7YvKng",
    "pE2GwyiMRvDtP8E0",
    "TVpCLyWS2SpYIGRa",
    "I1f2M94rxHBf4CtT",
    "JnK0w0WMSfSKrrgB",
    "P1oNmrAg75Jc3UYh",
    "wmaD5yaQpK3MqyZr"
  ],
  "effects": [],
  "folder": null,
  "sort": 0,
  "flags": {
    "core": {
      "sourceId": "Compendium.D35E.bestiary.ID7UgnYkUMFqWvl2"
    },
    "D35E": {
      "loseDexToAC": false,
      "noStr": false,
      "noDex": false,
      "noInt": false,
      "noCon": false,
      "oneInt": false,
      "oneWis": false,
      "oneCha": false,
      "noEncumbrance": false,
      "mediumArmorFullSpeed": false,
      "heavyArmorFullSpeed": false,
      "multiAttack": false,
      "multiweaponAttack": false,
      "uncannyDodge": false,
      "naturalAttackCount": 0
    }
  },
  "system": {
    "shapechangeImg": "icons/svg/mystery-man.svg",
    "tokenImg": "systems/D35E/icons/bestiary/token/monstrous-humanoid.png",
    "companionUuid": "",
    "companionPublicId": "",
    "companionUsePersonalKey": false,
    "companionAutosync": false,
    "companionLockGM": false,
    "abilities": {
      "str": {
        "total": 10,
        "mod": 0,
        "value": 10,
        "carryBonus": 0,
        "carryMultiplier": 1,
        "checkMod": 0,
        "damage": 0,
        "drain": 0,
        "penalty": 0,
        "userPenalty": 0,
        "origMod": 0,
        "origTotal": 10,
        "isZero": false
      },
      "dex": {
        "total": 15,
        "mod": 2,
        "value": 15,
        "checkMod": 0,
        "damage": 0,
        "drain": 0,
        "penalty": 0,
        "userPenalty": 0,
        "origMod": 2,
        "origTotal": 15,
        "isZero": false
      },
      "con": {
        "total": 12,
        "mod": 1,
        "value": 12,
        "checkMod": 0,
        "damage": 0,
        "drain": 0,
        "penalty": 0,
        "userPenalty": 0,
        "origMod": 1,
        "origTotal": 12,
        "isZero": false
      },
      "int": {
        "total": 12,
        "mod": 1,
        "value": 12,
        "checkMod": 0,
        "damage": 0,
        "drain": 0,
        "penalty": 0,
        "userPenalty": 0,
        "origMod": 1,
        "origTotal": 12,
        "isZero": false
      },
      "wis": {
        "total": 13,
        "mod": 1,
        "value": 13,
        "checkMod": 0,
        "damage": 0,
        "drain": 0,
        "penalty": 0,
        "userPenalty": 0,
        "origMod": 1,
        "origTotal": 13,
        "isZero": false
      },
      "cha": {
        "total": 15,
        "mod": 2,
        "value": 15,
        "checkMod": 0,
        "damage": 0,
        "drain": 0,
        "penalty": 0,
        "userPenalty": 0,
        "origMod": 2,
        "origTotal": 15,
        "isZero": false
      }
    },
    "resources": {},
    "attributes": {
      "encumbrance": {
        "level": 0,
        "levels": {
          "light": 33,
          "medium": 66,
          "heavy": 100,
          "carry": 200,
          "drag": 500
        },
        "carriedWeight": 3
      },
      "senses": {
        "darkvision": 0,
        "blindsight": 0,
        "tremorsense": 0,
        "truesight": 0,
        "lowLight": false,
        "lowLightMultiplier": 2,
        "special": ""
      },
      "hd": {
        "base": {
          "_deprecated": true,
          "value": 0
        },
        "total": 6,
        "max": {
          "_deprecated": true,
          "value": 0
        },
        "racialClass": 6
      },
      "naturalAC": 0,
      "naturalACTotal": 3,
      "fortification": {
        "value": 0,
        "total": 0
      },
      "ac": {
        "normal": {
          "value": 0,
          "total": 15
        },
        "touch": {
          "value": 0,
          "total": 12
        },
        "flatFooted": {
          "value": 0,
          "total": 13
        }
      },
      "concealment": {
        "value": 0,
        "total": 0
      },
      "bab": {
        "value": 0,
        "total": 6,
        "base": 6
      },
      "cmd": {
        "value": 0,
        "total": 18,
        "flatFootedTotal": 16
      },
      "cmb": {
        "value": 0,
        "total": 6
      },
      "sr": {
        "formula": "",
        "total": 0
      },
      "pr": {
        "formula": "",
        "total": 0
      },
      "hardness": {
        "formula": "",
        "total": 0
      },
      "cmbNotes": "",
      "saveNotes": "",
      "acNotes": "",
      "cmdNotes": "",
      "srNotes": "",
      "attack": {
        "general": 0,
        "melee": 0,
        "ranged": 0,
        "sunder": 0,
        "bullrush": 0
      },
      "damage": {
        "general": 0,
        "weapon": 0,
        "spell": 0
      },
      "maxDexBonus": 999,
      "maxDex": {
        "gear": null,
        "encumbrance": null,
        "total": 999
      },
      "acp": {
        "gear": 0,
        "encumbrance": 0,
        "total": 0
      },
      "energyDrain": 0,
      "quadruped": false,
      "savingThrows": {
        "fort": {
          "total": 3,
          "base": 2
        },
        "ref": {
          "total": 7,
          "base": 5
        },
        "will": {
          "total": 6,
          "base": 5
        }
      },
      "hp": {
        "value": 33,
        "min": -100,
        "base": 0,
        "max": 33,
        "temp": 0,
        "nonlethal": 0
      },
      "turnUndeadHdTotal": 0,
      "turnUndeadUsesBonusFormula": "",
      "turnUndeadUses": 0,
      "prestigeCl": {
        "psionic": {
          "max": 0,
          "value": 0,
          "total": 0
        },
        "arcane": {
          "max": 0,
          "value": 0,
          "total": 0
        },
        "divine": {
          "max": 0,
          "value": 0,
          "total": 0
        },
        "cards": {
          "max": 0,
          "value": 0
        }
      },
      "turnUndeadUsesTotal": 0,
      "sneakAttackDiceTotal": 0,
      "minionClassLevels": {
        "none": 0
      },
      "minionDistance": {},
      "spellPointsTotal": [],
      "powerPointsTotal": 0,
      "arcaneSpellFailure": 0,
      "psionicFocus": false,
      "wounds": {
        "min": 0,
        "value": 24,
        "max": 24
      },
      "vigor": {
        "min": 0,
        "value": 27,
        "temp": 0,
        "max": 27
      },
      "init": {
        "value": 0,
        "bonus": 0,
        "total": 2
      },
      "prof": 2,
      "speed": {
        "land": {
          "base": 30,
          "total": 30,
          "run": 120
        },
        "climb": {
          "base": 0,
          "total": 0,
          "run": 0
        },
        "swim": {
          "base": 0,
          "total": 0,
          "run": 0
        },
        "burrow": {
          "base": 0,
          "total": 0,
          "run": 0
        },
        "fly": {
          "base": 0,
          "total": 0,
          "run": 0,
          "maneuverability": "average"
        }
      },
      "conditions": {
        "blind": false,
        "dazzled": false,
        "deaf": false,
        "entangled": false,
        "fatigued": false,
        "exhausted": false,
        "grappled": false,
        "helpless": false,
        "paralyzed": false,
        "pinned": false,
        "fear": false,
        "sickened": false,
        "stunned": false,
        "shaken": false,
        "polymorphed": false,
        "wildshaped": false,
        "prone": false,
        "dead": false,
        "dying": false,
        "disabled": false,
        "stable": false,
        "unconscious": false,
        "staggered": false,
        "invisible": false,
        "banished": false,
        "invisibility": false
      },
      "spells": {
        "concentration": {
          "bonus": 0,
          "context": ""
        },
        "spellbooks": {
          "primary": {
            "name": "Primary",
            "class": "",
            "cl": {
              "base": 0,
              "value": 0,
              "total": 0,
              "formula": ""
            },
            "concentration": 0,
            "bonusPrestigeCl": 0,
            "concentrationFormula": "",
            "concentrationNotes": "",
            "clNotes": "",
            "ability": "int",
            "spellslotAbility": "",
            "autoSpellLevels": true,
            "usePowerPoints": false,
            "autoSetup": true,
            "spellcastingType": null,
            "powerPointsFormula": "",
            "dailyPowerPointsFormula": "",
            "powerPoints": 0,
            "powerPointsTotal": 0,
            "maximumPowerPointLimit": "@cl",
            "arcaneSpellFailure": true,
            "baseDCFormula": "10 + @sl + @ablMod",
            "spontaneous": false,
            "hasSpecialSlot": false,
            "showOnlyPrepared": false,
            "specialSlots": {
              "level1": null,
              "level2": null,
              "level3": null,
              "level4": null,
              "level5": null,
              "level6": null,
              "level7": null,
              "level8": null,
              "level9": null
            },
            "maxPrestigeCl": 0,
            "allSpellsKnown": false,
            "hasPrestigeCl": false,
            "canAddPrestigeCl": false,
            "canRemovePrestigeCl": false,
            "powersKnown": 0,
            "powersMaxLevel": 0,
            "spells": {
              "spell0": {
                "value": 0,
                "max": 0,
                "base": 0,
                "known": 0,
                "maxKnown": 0,
                "bonus": 0,
                "classBase": 0
              },
              "spell1": {
                "value": 0,
                "max": 0,
                "base": 0,
                "known": 0,
                "maxKnown": 0,
                "bonus": 0,
                "classBase": 0
              },
              "spell2": {
                "value": 0,
                "max": 0,
                "base": 0,
                "known": 0,
                "maxKnown": 0,
                "bonus": 0,
                "classBase": 0
              },
              "spell3": {
                "value": 0,
                "max": 0,
                "base": 0,
                "known": 0,
                "maxKnown": 0,
                "bonus": 0,
                "classBase": 0
              },
              "spell4": {
                "value": 0,
                "max": 0,
                "base": 0,
                "known": 0,
                "maxKnown": 0,
                "bonus": 0,
                "classBase": 0
              },
              "spell5": {
                "value": 0,
                "max": 0,
                "base": 0,
                "known": 0,
                "maxKnown": 0,
                "bonus": 0,
                "classBase": 0
              },
              "spell6": {
                "value": 0,
                "max": 0,
                "base": 0,
                "known": 0,
                "maxKnown": 0,
                "bonus": 0,
                "classBase": 0
              },
              "spell7": {
                "value": 0,
                "max": 0,
                "base": 0,
                "known": 0,
                "maxKnown": 0,
                "bonus": 0,
                "classBase": 0
              },
              "spell8": {
                "value": 0,
                "max": 0,
                "base": 0,
                "known": 0,
                "maxKnown": 0,
                "bonus": 0,
                "classBase": 0
              },
              "spell9": {
                "value": 0,
                "max": 0,
                "base": 0,
                "known": 0,
                "maxKnown": 0,
                "bonus": 0,
                "classBase": 0
              }
            },
            "powerPointsValue": {
              "max": 0,
              "value": 0
            },
            "spellcastingAbilityBonus": 0
          },
          "secondary": {
            "name": "Secondary",
            "class": "",
            "cl": {
              "base": 0,
              "value": 0,
              "total": 0,
              "formula": ""
            },
            "concentration": 0,
            "bonusPrestigeCl": 0,
            "concentrationFormula": "",
            "concentrationNotes": "",
            "clNotes": "",
            "ability": "int",
            "spellslotAbility": "",
            "autoSpellLevels": true,
            "usePowerPoints": false,
            "autoSetup": true,
            "spellcastingType": null,
            "powerPointsFormula": "",
            "powerPoints": 0,
            "powerPointsTotal": 0,
            "maximumPowerPointLimit": "@cl",
            "dailyPowerPointsFormula": "",
            "arcaneSpellFailure": true,
            "baseDCFormula": "10 + @sl + @ablMod",
            "spontaneous": false,
            "hasSpecialSlot": false,
            "showOnlyPrepared": false,
            "specialSlots": {
              "level1": null,
              "level2": null,
              "level3": null,
              "level4": null,
              "level5": null,
              "level6": null,
              "level7": null,
              "level8": null,
              "level9": null
            },
            "maxPrestigeCl": 0,
            "allSpellsKnown": false,
            "hasPrestigeCl": false,
            "canAddPrestigeCl": false,
            "canRemovePrestigeCl": false,
            "powersKnown": 0,
            "powersMaxLevel": 0,
            "spells": {
              "spell0": {
                "value": 0,
                "max": 0,
                "base": 0,
                "known": 0,
                "maxKnown": 0,
                "bonus": 0,
                "classBase": 0
              },
              "spell1": {
                "value": 0,
                "max": 0,
                "base": 0,
                "known": 0,
                "maxKnown": 0,
                "bonus": 0,
                "classBase": 0
              },
              "spell2": {
                "value": 0,
                "max": 0,
                "base": 0,
                "known": 0,
                "maxKnown": 0,
                "bonus": 0,
                "classBase": 0
              },
              "spell3": {
                "value": 0,
                "max": 0,
                "base": 0,
                "known": 0,
                "maxKnown": 0,
                "bonus": 0,
                "classBase": 0
              },
              "spell4": {
                "value": 0,
                "max": 0,
                "base": 0,
                "known": 0,
                "maxKnown": 0,
                "bonus": 0,
                "classBase": 0
              },
              "spell5": {
                "value": 0,
                "max": 0,
                "base": 0,
                "known": 0,
                "maxKnown": 0,
                "bonus": 0,
                "classBase": 0
              },
              "spell6": {
                "value": 0,
                "max": 0,
                "base": 0,
                "known": 0,
                "maxKnown": 0,
                "bonus": 0,
                "classBase": 0
              },
              "spell7": {
                "value": 0,
                "max": 0,
                "base": 0,
                "known": 0,
                "maxKnown": 0,
                "bonus": 0,
                "classBase": 0
              },
              "spell8": {
                "value": 0,
                "max": 0,
                "base": 0,
                "known": 0,
                "maxKnown": 0,
                "bonus": 0,
                "classBase": 0
              },
              "spell9": {
                "value": 0,
                "max": 0,
                "base": 0,
                "known": 0,
                "maxKnown": 0,
                "bonus": 0,
                "classBase": 0
              }
            },
            "powerPointsValue": {
              "max": 0,
              "value": 0
            },
            "spellcastingAbilityBonus": 0
          },
          "tertiary": {
            "name": "Tertiary",
            "class": "",
            "cl": {
              "base": 0,
              "value": 0,
              "total": 0,
              "formula": ""
            },
            "concentration": 0,
            "bonusPrestigeCl": 0,
            "concentrationFormula": "",
            "concentrationNotes": "",
            "clNotes": "",
            "ability": "int",
            "spellslotAbility": "",
            "autoSpellLevels": true,
            "usePowerPoints": false,
            "autoSetup": true,
            "spellcastingType": null,
            "powerPointsFormula": "",
            "powerPoints": 0,
            "powerPointsTotal": 0,
            "maximumPowerPointLimit": "@cl",
            "dailyPowerPointsFormula": "",
            "arcaneSpellFailure": true,
            "baseDCFormula": "10 + @sl + @ablMod",
            "spontaneous": false,
            "hasSpecialSlot": false,
            "showOnlyPrepared": false,
            "specialSlots": {
              "level1": null,
              "level2": null,
              "level3": null,
              "level4": null,
              "level5": null,
              "level6": null,
              "level7": null,
              "level8": null,
              "level9": null
            },
            "maxPrestigeCl": 0,
            "allSpellsKnown": false,
            "hasPrestigeCl": false,
            "canAddPrestigeCl": false,
            "canRemovePrestigeCl": false,
            "powersKnown": 0,
            "powersMaxLevel": 0,
            "spells": {
              "spell0": {
                "value": 0,
                "max": 0,
                "base": 0,
                "known": 0,
                "maxKnown": 0,
                "bonus": 0,
                "classBase": 0
              },
              "spell1": {
                "value": 0,
                "max": 0,
                "base": 0,
                "known": 0,
                "maxKnown": 0,
                "bonus": 0,
                "classBase": 0
              },
              "spell2": {
                "value": 0,
                "max": 0,
                "base": 0,
                "known": 0,
                "maxKnown": 0,
                "bonus": 0,
                "classBase": 0
              },
              "spell3": {
                "value": 0,
                "max": 0,
                "base": 0,
                "known": 0,
                "maxKnown": 0,
                "bonus": 0,
                "classBase": 0
              },
              "spell4": {
                "value": 0,
                "max": 0,
                "base": 0,
                "known": 0,
                "maxKnown": 0,
                "bonus": 0,
                "classBase": 0
              },
              "spell5": {
                "value": 0,
                "max": 0,
                "base": 0,
                "known": 0,
                "maxKnown": 0,
                "bonus": 0,
                "classBase": 0
              },
              "spell6": {
                "value": 0,
                "max": 0,
                "base": 0,
                "known": 0,
                "maxKnown": 0,
                "bonus": 0,
                "classBase": 0
              },
              "spell7": {
                "value": 0,
                "max": 0,
                "base": 0,
                "known": 0,
                "maxKnown": 0,
                "bonus": 0,
                "classBase": 0
              },
              "spell8": {
                "value": 0,
                "max": 0,
                "base": 0,
                "known": 0,
                "maxKnown": 0,
                "bonus": 0,
                "classBase": 0
              },
              "spell9": {
                "value": 0,
                "max": 0,
                "base": 0,
                "known": 0,
                "maxKnown": 0,
                "bonus": 0,
                "classBase": 0
              }
            },
            "powerPointsValue": {
              "max": 0,
              "value": 0
            },
            "spellcastingAbilityBonus": 0
          },
          "spelllike": {
            "name": "Spell-likes",
            "class": "_hd",
            "cl": {
              "base": 0,
              "value": 0,
              "total": 6,
              "formula": ""
            },
            "concentration": 0,
            "bonusPrestigeCl": 0,
            "concentrationFormula": "",
            "concentrationNotes": "",
            "clNotes": "",
            "ability": "cha",
            "spellslotAbility": "",
            "autoSpellLevels": true,
            "usePowerPoints": false,
            "autoSetup": false,
            "spellcastingType": "None",
            "powerPointsFormula": "",
            "powerPoints": 0,
            "powerPointsTotal": 0,
            "maximumPowerPointLimit": "@cl",
            "dailyPowerPointsFormula": "",
            "arcaneSpellFailure": true,
            "baseDCFormula": "10 + @sl + @ablMod",
            "spontaneous": false,
            "hasSpecialSlot": false,
            "showOnlyPrepared": false,
            "specialSlots": {
              "level1": null,
              "level2": null,
              "level3": null,
              "level4": null,
              "level5": null,
              "level6": null,
              "level7": null,
              "level8": null,
              "level9": null
            },
            "maxPrestigeCl": 0,
            "allSpellsKnown": false,
            "hasPrestigeCl": false,
            "canAddPrestigeCl": false,
            "canRemovePrestigeCl": false,
            "powersKnown": 0,
            "powersMaxLevel": 0,
            "spells": {
              "spell0": {
                "value": 0,
                "max": 0,
                "base": 0,
                "known": 0,
                "maxKnown": 0,
                "bonus": 0,
                "classBase": 0
              },
              "spell1": {
                "value": 0,
                "max": 0,
                "base": 0,
                "known": 0,
                "maxKnown": 0,
                "bonus": 0,
                "classBase": 0
              },
              "spell2": {
                "value": 0,
                "max": 0,
                "base": 0,
                "known": 0,
                "maxKnown": 0,
                "bonus": 0,
                "classBase": 0
              },
              "spell3": {
                "value": 0,
                "max": 0,
                "base": 0,
                "known": 0,
                "maxKnown": 0,
                "bonus": 0,
                "classBase": 0
              },
              "spell4": {
                "value": 0,
                "max": 0,
                "base": 0,
                "known": 0,
                "maxKnown": 0,
                "bonus": 0,
                "classBase": 0
              },
              "spell5": {
                "value": 0,
                "max": 0,
                "base": 0,
                "known": 0,
                "maxKnown": 0,
                "bonus": 0,
                "classBase": 0
              },
              "spell6": {
                "value": 0,
                "max": 0,
                "base": 0,
                "known": 0,
                "maxKnown": 0,
                "bonus": 0,
                "classBase": 0
              },
              "spell7": {
                "value": 0,
                "max": 0,
                "base": 0,
                "known": 0,
                "maxKnown": 0,
                "bonus": 0,
                "classBase": 0
              },
              "spell8": {
                "value": 0,
                "max": 0,
                "base": 0,
                "known": 0,
                "maxKnown": 0,
                "bonus": 0,
                "classBase": 0
              },
              "spell9": {
                "value": 0,
                "max": 0,
                "base": 0,
                "known": 0,
                "maxKnown": 0,
                "bonus": 0,
                "classBase": 0
              }
            },
            "powerPointsValue": {
              "max": 0,
              "value": 0
            },
            "spellcastingAbilityBonus": 0
          }
        }
      },
      "cards": {
        "concentration": {
          "bonus": 0,
          "context": ""
        },
        "decks": {
          "primary": {
            "name": "Primary",
            "class": "",
            "cl": {
              "base": null,
              "value": 0,
              "total": 0,
              "formula": ""
            },
            "autoHandSize": false,
            "handSize": {
              "base": 0,
              "value": 0,
              "total": 0,
              "formula": ""
            },
            "drawRandom": false,
            "deckSize": {
              "base": 0,
              "value": 0,
              "total": 0,
              "formula": ""
            },
            "clNotes": "",
            "ability": "int",
            "spellslotAbility": "",
            "addHalfOtherLevels": false,
            "autoSetup": true,
            "baseDCFormula": "10 + @sl + @ablMod",
            "maxPrestigeCl": 0,
            "hasPrestigeCl": false,
            "canAddPrestigeCl": false,
            "canRemovePrestigeCl": false
          },
          "secondary": {
            "name": "Secondary",
            "class": "",
            "cl": {
              "base": null,
              "value": 0,
              "total": 0,
              "formula": ""
            },
            "autoHandSize": false,
            "handSize": {
              "base": 0,
              "value": 0,
              "total": 0,
              "formula": ""
            },
            "drawRandom": false,
            "deckSize": {
              "base": 0,
              "value": 0,
              "total": 0,
              "formula": ""
            },
            "clNotes": "",
            "ability": "int",
            "spellslotAbility": "",
            "addHalfOtherLevels": false,
            "autoSetup": true,
            "baseDCFormula": "10 + @sl + @ablMod",
            "maxPrestigeCl": 0,
            "hasPrestigeCl": false,
            "canAddPrestigeCl": false,
            "canRemovePrestigeCl": false
          }
        }
      },
      "spellcasting": {
        "_deprecated": true
      },
      "spelldc": {
        "_deprecated": true
      },
      "damageReduction": {
        "any": 0,
        "types": []
      },
      "energyResistance": [],
      "spellLevel": 0,
      "creatureType": "monstrousHumanoid",
      "mods": {
        "skills": {}
      },
      "runSpeedMultiplierModifier": 0,
      "speedMultiplier": 0
    },
    "details": {
      "level": {
        "value": 6,
        "min": 0,
        "max": 40,
        "available": 1
      },
      "breakDC": {
        "base": 0,
        "total": 0
      },
      "levelUpData": [
        {
          "level": 1,
          "id": "_level1",
          "classId": null,
          "class": null,
          "classImage": null,
          "skills": {},
          "hp": 0,
          "hasFeat": true,
          "hasAbility": false
        }
      ],
      "alignment": "Usually lawful evil",
      "biography": {
        "value": "",
        "public": ""
      },
      "notes": {
        "value": "<div topic='Medusa' level='2'><p>A medusa is indistinguishable from a normal human at distances greater than 30 feet (or closer, if its face is concealed). The creature often wears garments that enhance its body while hiding its face behind a hood or veil.</p><p>A typical medusa is 5 to 6 feet tall and about the same weight as a human.</p><p>Medusas speak Common.</p><div topic='Combat' level='5'><p><h2>Combat</h2></p><p>A medusa tries to disguise its true nature until the intended victim is within range of its petrifying gaze, using subterfuge and bluffing games to convince the target that there is no danger. It uses normal weapons to attack those who avert their eyes or survive its gaze, while its poisonous snakes strike at adjacent opponents.</p><div topic='Petrifying Gaze' level='8'><p><b>Petrifying Gaze (Su):</b> Turn to stone permanently, 30 feet, Fortitude DC 15 negates. The save DC is Charisma-based.</p></div><div topic='Poison' level='8'><p><b>Poison (Ex):</b> Injury, Fortitude DC 14, initial damage 1d6 Str, secondary damage 2d6 Str. The save DC is Constitution-based.</p><p/></div></div></div>    ",
        "public": ""
      },
      "bonusSkillRankFormula": "",
      "type": "None",
      "environment": "",
      "cr": 7,
      "totalCr": 7,
      "xp": {
        "value": 10
      },
      "levelUpProgression": false,
      "advancement": {
        "hd": [],
        "byClass": true,
        "none": false,
        "originalHD": 0
      }
    },
    "skills": {
      "apr": {
        "value": 0,
        "ability": "int",
        "rt": false,
        "acp": false,
        "rank": 0,
        "notes": "",
        "mod": 1,
        "background": false,
        "visibility": "default",
        "cs": false,
        "points": 0,
        "acpPenalty": 0,
        "energyDrainPenalty": 0,
        "abilityModifier": 1
      },
      "blc": {
        "value": 0,
        "ability": "dex",
        "rt": false,
        "acp": true,
        "rank": 0,
        "notes": "",
        "mod": 2,
        "background": false,
        "visibility": "default",
        "cs": false,
        "points": 0,
        "acpPenalty": 0,
        "energyDrainPenalty": 0,
        "abilityModifier": 2
      },
      "blf": {
        "value": 0,
        "ability": "cha",
        "rt": false,
        "acp": false,
        "rank": 7,
        "notes": "",
        "mod": 9,
        "background": false,
        "visibility": "default",
        "cs": true,
        "points": 7,
        "acpPenalty": 0,
        "energyDrainPenalty": 0,
        "abilityModifier": 2
      },
      "clm": {
        "value": 0,
        "ability": "str",
        "rt": false,
        "acp": true,
        "rank": 0,
        "notes": "",
        "mod": 0,
        "background": false,
        "visibility": "default",
        "cs": true,
        "points": 0,
        "acpPenalty": 0,
        "energyDrainPenalty": 0,
        "abilityModifier": 0
      },
      "coc": {
        "value": 0,
        "ability": "con",
        "rt": false,
        "acp": false,
        "rank": 0,
        "notes": "",
        "mod": 1,
        "background": false,
        "visibility": "default",
        "cs": false,
        "points": 0,
        "acpPenalty": 0,
        "energyDrainPenalty": 0,
        "abilityModifier": 1
      },
      "crf": {
        "value": 0,
        "ability": "int",
        "rt": false,
        "acp": false,
        "rank": 0,
        "notes": "",
        "mod": 1,
        "background": false,
        "visibility": "default",
        "cs": true,
        "subSkills": {},
        "namedSubSkills": {},
        "points": 0,
        "acpPenalty": 0,
        "energyDrainPenalty": 0,
        "abilityModifier": 1
      },
      "dsc": {
        "value": 0,
        "ability": "int",
        "rt": true,
        "acp": false,
        "rank": 0,
        "notes": "",
        "mod": 1,
        "background": false,
        "visibility": "default",
        "cs": false,
        "points": 0,
        "acpPenalty": 0,
        "energyDrainPenalty": 0,
        "abilityModifier": 1
      },
      "dip": {
        "value": 0,
        "ability": "cha",
        "rt": false,
        "acp": false,
        "rank": 2,
        "notes": "",
        "mod": 6,
        "background": false,
        "visibility": "default",
        "cs": true,
        "changeBonus": 2,
        "points": 2,
        "acpPenalty": 0,
        "energyDrainPenalty": 0,
        "abilityModifier": 2
      },
      "dev": {
        "value": 0,
        "ability": "dex",
        "rt": true,
        "acp": true,
        "rank": 0,
        "notes": "",
        "mod": 2,
        "background": false,
        "visibility": "default",
        "cs": false,
        "points": 0,
        "acpPenalty": 0,
        "energyDrainPenalty": 0,
        "abilityModifier": 2
      },
      "dis": {
        "value": 0,
        "ability": "cha",
        "rt": false,
        "acp": false,
        "rank": 7,
        "notes": "",
        "mod": 9,
        "background": false,
        "visibility": "default",
        "cs": true,
        "points": 7,
        "acpPenalty": 0,
        "energyDrainPenalty": 0,
        "abilityModifier": 2
      },
      "esc": {
        "value": 0,
        "ability": "dex",
        "rt": false,
        "acp": true,
        "rank": 0,
        "notes": "",
        "mod": 2,
        "background": false,
        "visibility": "default",
        "cs": false,
        "points": 0,
        "acpPenalty": 0,
        "energyDrainPenalty": 0,
        "abilityModifier": 2
      },
      "fog": {
        "value": 0,
        "ability": "int",
        "rt": false,
        "acp": false,
        "rank": 0,
        "notes": "",
        "mod": 1,
        "background": false,
        "visibility": "default",
        "cs": false,
        "points": 0,
        "acpPenalty": 0,
        "energyDrainPenalty": 0,
        "abilityModifier": 1
      },
      "gif": {
        "value": 0,
        "ability": "cha",
        "rt": false,
        "acp": false,
        "rank": 0,
        "notes": "",
        "mod": 2,
        "background": false,
        "visibility": "default",
        "cs": false,
        "points": 0,
        "acpPenalty": 0,
        "energyDrainPenalty": 0,
        "abilityModifier": 2
      },
      "han": {
        "value": 0,
        "ability": "cha",
        "rt": true,
        "acp": false,
        "rank": 0,
        "notes": "",
        "mod": 2,
        "background": false,
        "visibility": "default",
        "cs": false,
        "points": 0,
        "acpPenalty": 0,
        "energyDrainPenalty": 0,
        "abilityModifier": 2
      },
      "hea": {
        "value": 0,
        "ability": "wis",
        "rt": false,
        "acp": false,
        "rank": 0,
        "notes": "",
        "mod": 1,
        "background": false,
        "visibility": "default",
        "cs": false,
        "points": 0,
        "acpPenalty": 0,
        "energyDrainPenalty": 0,
        "abilityModifier": 1
      },
      "hid": {
        "value": 0,
        "ability": "dex",
        "rt": false,
        "acp": true,
        "rank": 0,
        "notes": "",
        "mod": 2,
        "background": false,
        "visibility": "default",
        "cs": false,
        "points": 0,
        "acpPenalty": 0,
        "energyDrainPenalty": 0,
        "abilityModifier": 2
      },
      "int": {
        "value": 0,
        "ability": "cha",
        "rt": false,
        "acp": false,
        "rank": 0,
        "notes": "",
        "mod": 4,
        "background": false,
        "visibility": "default",
        "cs": true,
        "changeBonus": 2,
        "points": 0,
        "acpPenalty": 0,
        "energyDrainPenalty": 0,
        "abilityModifier": 2
      },
      "jmp": {
        "value": 0,
        "ability": "str",
        "rt": false,
        "acp": true,
        "rank": 0,
        "notes": "",
        "mod": 0,
        "background": false,
        "visibility": "default",
        "cs": false,
        "points": 0,
        "acpPenalty": 0,
        "energyDrainPenalty": 0,
        "abilityModifier": 0
      },
      "kar": {
        "value": 0,
        "ability": "int",
        "rt": true,
        "acp": false,
        "rank": 0,
        "notes": "",
        "mod": 1,
        "background": false,
        "visibility": "default",
        "cs": false,
        "points": 0,
        "acpPenalty": 0,
        "energyDrainPenalty": 0,
        "abilityModifier": 1
      },
      "kdu": {
        "value": 0,
        "ability": "int",
        "rt": true,
        "acp": false,
        "rank": 0,
        "notes": "",
        "mod": 1,
        "background": false,
        "visibility": "default",
        "cs": false,
        "points": 0,
        "acpPenalty": 0,
        "energyDrainPenalty": 0,
        "abilityModifier": 1
      },
      "ken": {
        "value": 0,
        "ability": "int",
        "rt": true,
        "acp": false,
        "rank": 0,
        "notes": "",
        "mod": 1,
        "background": false,
        "visibility": "default",
        "cs": false,
        "points": 0,
        "acpPenalty": 0,
        "energyDrainPenalty": 0,
        "abilityModifier": 1
      },
      "kge": {
        "value": 0,
        "ability": "int",
        "rt": true,
        "acp": false,
        "rank": 0,
        "notes": "",
        "mod": 1,
        "background": false,
        "visibility": "default",
        "cs": false,
        "points": 0,
        "acpPenalty": 0,
        "energyDrainPenalty": 0,
        "abilityModifier": 1
      },
      "khi": {
        "value": 0,
        "ability": "int",
        "rt": true,
        "acp": false,
        "rank": 0,
        "notes": "",
        "mod": 1,
        "background": false,
        "visibility": "default",
        "cs": false,
        "points": 0,
        "acpPenalty": 0,
        "energyDrainPenalty": 0,
        "abilityModifier": 1
      },
      "klo": {
        "value": 0,
        "ability": "int",
        "rt": true,
        "acp": false,
        "rank": 0,
        "notes": "",
        "mod": 1,
        "background": false,
        "visibility": "default",
        "cs": false,
        "points": 0,
        "acpPenalty": 0,
        "energyDrainPenalty": 0,
        "abilityModifier": 1
      },
      "kna": {
        "value": 0,
        "ability": "int",
        "rt": true,
        "acp": false,
        "rank": 0,
        "notes": "",
        "mod": 1,
        "background": false,
        "visibility": "default",
        "cs": false,
        "points": 0,
        "acpPenalty": 0,
        "energyDrainPenalty": 0,
        "abilityModifier": 1
      },
      "kno": {
        "value": 0,
        "ability": "int",
        "rt": true,
        "acp": false,
        "rank": 0,
        "notes": "",
        "mod": 1,
        "background": true,
        "cs": false,
        "points": 0,
        "acpPenalty": 0,
        "energyDrainPenalty": 0,
        "abilityModifier": 1
      },
      "kpl": {
        "value": 0,
        "ability": "int",
        "rt": true,
        "acp": false,
        "rank": 0,
        "notes": "",
        "mod": 1,
        "background": false,
        "visibility": "default",
        "cs": false,
        "points": 0,
        "acpPenalty": 0,
        "energyDrainPenalty": 0,
        "abilityModifier": 1
      },
      "kre": {
        "value": 0,
        "ability": "int",
        "rt": true,
        "acp": false,
        "rank": 0,
        "notes": "",
        "mod": 1,
        "background": false,
        "visibility": "default",
        "cs": false,
        "points": 0,
        "acpPenalty": 0,
        "energyDrainPenalty": 0,
        "abilityModifier": 1
      },
      "lis": {
        "value": 0,
        "ability": "wis",
        "rt": false,
        "acp": false,
        "rank": 0,
        "notes": "",
        "mod": 1,
        "background": false,
        "visibility": "default",
        "cs": false,
        "points": 0,
        "acpPenalty": 0,
        "energyDrainPenalty": 0,
        "abilityModifier": 1
      },
      "mos": {
        "value": 0,
        "ability": "dex",
        "rt": false,
        "acp": true,
        "rank": 6,
        "notes": "",
        "mod": 8,
        "background": false,
        "visibility": "default",
        "cs": true,
        "points": 6,
        "acpPenalty": 0,
        "energyDrainPenalty": 0,
        "abilityModifier": 2
      },
      "opl": {
        "value": 0,
        "ability": "dex",
        "rt": true,
        "acp": false,
        "rank": 0,
        "notes": "",
        "mod": 2,
        "background": false,
        "visibility": "default",
        "cs": false,
        "points": 0,
        "acpPenalty": 0,
        "energyDrainPenalty": 0,
        "abilityModifier": 2
      },
      "prf": {
        "value": 0,
        "ability": "cha",
        "rt": false,
        "acp": false,
        "rank": 0,
        "notes": "",
        "mod": 2,
        "background": false,
        "visibility": "default",
        "cs": false,
        "subSkills": {},
        "namedSubSkills": {},
        "points": 0,
        "acpPenalty": 0,
        "energyDrainPenalty": 0,
        "abilityModifier": 2
      },
      "pro": {
        "value": 0,
        "ability": "wis",
        "rt": true,
        "acp": false,
        "rank": 0,
        "notes": "",
        "mod": 1,
        "background": false,
        "visibility": "default",
        "cs": false,
        "subSkills": {},
        "namedSubSkills": {},
        "points": 0,
        "acpPenalty": 0,
        "energyDrainPenalty": 0,
        "abilityModifier": 1
      },
      "rid": {
        "value": 0,
        "ability": "dex",
        "rt": false,
        "acp": true,
        "rank": 0,
        "notes": "",
        "mod": 2,
        "background": false,
        "visibility": "default",
        "cs": true,
        "points": 0,
        "acpPenalty": 0,
        "energyDrainPenalty": 0,
        "abilityModifier": 2
      },
      "src": {
        "value": 0,
        "ability": "int",
        "rt": false,
        "acp": false,
        "rank": 0,
        "notes": "",
        "mod": 1,
        "background": false,
        "visibility": "default",
        "cs": false,
        "points": 0,
        "acpPenalty": 0,
        "energyDrainPenalty": 0,
        "abilityModifier": 1
      },
      "sen": {
        "value": 0,
        "ability": "wis",
        "rt": false,
        "acp": false,
        "rank": 0,
        "notes": "",
        "mod": 1,
        "background": false,
        "visibility": "default",
        "cs": false,
        "points": 0,
        "acpPenalty": 0,
        "energyDrainPenalty": 0,
        "abilityModifier": 1
      },
      "slt": {
        "value": 0,
        "ability": "dex",
        "rt": true,
        "acp": true,
        "rank": 0,
        "notes": "",
        "mod": 4,
        "background": false,
        "visibility": "default",
        "cs": false,
        "changeBonus": 2,
        "points": 0,
        "acpPenalty": 0,
        "energyDrainPenalty": 0,
        "abilityModifier": 2
      },
      "spk": {
        "value": 0,
        "ability": "",
        "rt": true,
        "acp": false,
        "rank": 0,
        "notes": "",
        "mod": 0,
        "background": false,
        "visibility": "default",
        "points": 0,
        "cs": false,
        "acpPenalty": 0,
        "energyDrainPenalty": 0,
        "abilityModifier": 0
      },
      "spl": {
        "value": 0,
        "ability": "int",
        "rt": true,
        "acp": false,
        "rank": 0,
        "notes": "",
        "mod": 1,
        "background": false,
        "visibility": "default",
        "cs": false,
        "points": 0,
        "acpPenalty": 0,
        "energyDrainPenalty": 0,
        "abilityModifier": 1
      },
      "spt": {
        "value": 0,
        "ability": "wis",
        "rt": false,
        "acp": false,
        "rank": 7,
        "notes": "",
        "mod": 8,
        "background": false,
        "visibility": "default",
        "cs": true,
        "points": 7,
        "acpPenalty": 0,
        "energyDrainPenalty": 0,
        "abilityModifier": 1
      },
      "sur": {
        "value": 0,
        "ability": "wis",
        "rt": false,
        "acp": false,
        "rank": 0,
        "notes": "",
        "mod": 1,
        "background": false,
        "visibility": "default",
        "cs": true,
        "points": 0,
        "acpPenalty": 0,
        "energyDrainPenalty": 0,
        "abilityModifier": 1
      },
      "swm": {
        "value": 0,
        "ability": "str",
        "rt": false,
        "acp": true,
        "rank": 0,
        "notes": "",
        "mod": 0,
        "background": false,
        "visibility": "default",
        "cs": true,
        "points": 0,
        "acpPenalty": 0,
        "energyDrainPenalty": 0,
        "abilityModifier": 0
      },
      "tmb": {
        "value": 0,
        "ability": "dex",
        "rt": false,
        "acp": true,
        "rank": 0,
        "notes": "",
        "mod": 2,
        "background": false,
        "visibility": "default",
        "cs": false,
        "points": 0,
        "acpPenalty": 0,
        "energyDrainPenalty": 0,
        "abilityModifier": 2
      },
      "umd": {
        "value": 0,
        "ability": "cha",
        "rt": true,
        "acp": false,
        "rank": 0,
        "notes": "",
        "mod": 2,
        "background": false,
        "visibility": "default",
        "cs": false,
        "points": 0,
        "acpPenalty": 0,
        "energyDrainPenalty": 0,
        "abilityModifier": 2
      },
      "uro": {
        "value": 0,
        "ability": "dex",
        "rt": false,
        "acp": false,
        "rank": 0,
        "notes": "",
        "mod": 2,
        "background": false,
        "visibility": "default",
        "cs": false,
        "points": 0,
        "acpPenalty": 0,
        "energyDrainPenalty": 0,
        "abilityModifier": 2
      },
      "kps": {
        "value": 0,
        "ability": "int",
        "rt": false,
        "acp": false,
        "rank": 0,
        "notes": "",
        "mod": 1,
        "background": false,
        "visibility": "default",
        "cs": false,
        "points": 0,
        "acpPenalty": 0,
        "energyDrainPenalty": 0,
        "abilityModifier": 1
      },
      "aut": {
        "value": 0,
        "ability": "wis",
        "rt": true,
        "acp": false,
        "rank": 0,
        "notes": "",
        "mod": 1,
        "background": false,
        "visibility": "default",
        "cs": false,
        "points": 0,
        "acpPenalty": 0,
        "energyDrainPenalty": 0,
        "abilityModifier": 1
      },
      "psi": {
        "value": 0,
        "ability": "int",
        "rt": true,
        "acp": false,
        "rank": 0,
        "notes": "",
        "mod": 1,
        "background": false,
        "visibility": "default",
        "cs": false,
        "points": 0,
        "acpPenalty": 0,
        "energyDrainPenalty": 0,
        "abilityModifier": 1
      },
      "upd": {
        "value": 0,
        "ability": "cha",
        "rt": true,
        "acp": false,
        "rank": 0,
        "notes": "",
        "mod": 2,
        "background": false,
        "visibility": "default",
        "cs": false,
        "points": 0,
        "acpPenalty": 0,
        "energyDrainPenalty": 0,
        "abilityModifier": 2
      }
    },
    "customSkills": {},
    "traits": {
      "size": "med",
      "tokensize": "actor",
      "senses": "Darkvision 60 ft.",
      "dr": "",
      "incorporeal": false,
      "eres": "",
      "cres": "",
      "languages": {
        "value": [],
        "custom": ""
      },
      "di": {
        "value": [],
        "custom": ""
      },
      "dv": {
        "value": [],
        "custom": ""
      },
      "ci": {
        "value": [],
        "custom": ""
      },
      "perception": {
        "_deprecated": true
      },
      "actualSize": "med"
    },
    "currency": {
      "pp": 0,
      "gp": 0,
      "sp": 0,
      "cp": 0
    },
    "altCurrency": {
      "pp": 0,
      "gp": 0,
      "sp": 0,
      "cp": 0
    },
    "customCurrency": {},
    "noLightOverride": false,
    "noTokenOverride": false,
    "noSkillSynergy": false,
    "noBuffDisplay": false,
    "lockEditingByPlayers": false,
    "showCardSheet": false,
    "showSpellcastingSheet": true,
    "staticBonus": {
      "hp": 0,
      "ac": 0
    },
    "jumpSkillAdjust": false,
    "master": {
      "id": null,
      "img": null,
      "name": null,
      "data": {},
      "distance": 0
    },
    "noVisionOverride": true,
    "counters": {
      "feat": {
        "base": {
          "value": 3,
          "counted": 2
        },
        "human": {
          "value": 0,
          "counted": 1
        }
      }
    },
    "classes": {
      "monstrousHumanoid": {
        "level": 6,
        "_id": "gjACp9mqEefNsoxD",
        "name": "Monstrous Humanoid*",
        "hd": 8,
        "bab": "high",
        "hp": false,
        "maxLevel": 20,
        "skillsPerLevel": 2,
        "isSpellcaster": false,
        "isPsionSpellcaster": false,
        "hasSpecialSlot": false,
        "isSpellcastingSpontaneus": false,
        "isArcane": false,
        "spellcastingType": null,
        "spellcastingAbility": "int",
        "allSpellsKnown": false,
        "savingThrows": {
          "fort": 2,
          "ref": 5,
          "will": 5
        },
        "fc": {
          "hp": 0,
          "skill": 0,
          "alt": 0
        },
        "spellsKnownPerLevel": [],
        "powersKnown": [],
        "powersMaxLevel": [],
        "spellslotAbility": "",
        "halfCasterLevel": false,
        "deckHandSizeFormula": "0",
        "knownCardsSizeFormula": "0",
        "deckPrestigeClass": false,
        "hasSpellbook": false,
        "spelllist": {}
      }
    },
    "damage": {
      "nonlethal": {
        "value": 0,
        "max": 33
      }
    },
    "senses": {
      "darkvision": 0,
      "blindsight": 0,
      "tremorsense": 0,
      "truesight": 0,
      "lowLight": false,
      "special": "",
      "modified": {},
      "lowLightMultiplier": 2
    },
    "totalNonEclLevels": 6,
    "classLevels": 0,
    "combinedResistances": [],
    "combinedDR": [],
    "shieldType": "none",
    "canLevelUp": false,
    "naturalAttackCount": 0
  },
  "ownership": {
    "default": 0,
    "gvVvJrAyZKOZnAuP": 3
  },
  "prototypeToken": {
    "flags": {
      "D35E": {
        "lowLightVision": false
      }
    },
    "name": "Medusa",
    "displayName": 20,
    "width": 1,
    "height": 1,
    "lockRotation": false,
    "rotation": 0,
    "actorLink": false,
    "disposition": -1,
    "displayBars": 40,
    "bar1": {
      "attribute": "attributes.hp"
    },
    "bar2": {
      "attribute": null
    },
    "randomImg": false,
    "alpha": 1,
    "light": {
      "alpha": 0,
      "angle": 360,
      "bright": 0,
      "coloration": 1,
      "dim": 0,
      "luminosity": 0.5,
      "saturation": 0,
      "contrast": 0,
      "shadows": 0,
      "animation": {
        "speed": 5,
        "intensity": 5,
        "type": null,
        "reverse": false
      },
      "darkness": {
        "min": 0,
        "max": 1
      },
      "color": "#000000",
      "attenuation": 0.5
    },
    "texture": {
      "src": "systems/D35E/icons/bestiary/token/monstrous-humanoid.png",
      "tint": null,
      "scaleX": 1,
      "scaleY": 1,
      "offsetX": 0,
      "offsetY": 0,
      "rotation": 0
    },
    "sight": {
      "angle": 360,
      "enabled": true,
      "range": 60,
      "brightness": 1,
      "visionMode": "basic",
      "attenuation": 0.1,
      "saturation": 0,
      "contrast": 0
    },
    "appendNumber": false,
    "prependAdjective": false,
    "detectionModes": []
  },
  "_stats": {
    "systemId": "D35E",
    "systemVersion": "2.3.0",
    "coreVersion": "11.299",
    "createdTime": 1686244277221,
    "modifiedTime": 1686244277641,
    "lastModifiedBy": "cB3ob9BYxSFYX7sd"
  },
  "_key": "!actors!ID7UgnYkUMFqWvl2"
}