{
  "_id": "eR9RUaOLuWutjBdA",
  "name": "Meteor Swarm",
  "type": "spell",
  "data": {
    "originVersion": 0,
    "originPack": "",
    "originId": "",
    "possibleUpdate": false,
    "description": {
      "value": "<div class=\"spell-description\">\n  <p>\n      <strong>School:</strong>&nbsp;evocation&nbsp;[fire];\n    <br>\n    <strong>Level:</strong>&nbsp;Wizard 9;\n    \n    \n    \n    \n    <br>\n    <strong>Components:</strong>&nbsp;V, S<br>\n    \n      <strong>Casting Time:</strong>&nbsp;1 standard action<br>\n    <strong>Range:</strong>&nbsp;long (400 ft. + 40 ft./level)<br>\n    <strong>Area:</strong>&nbsp;four 40-ft.-radius spreads; see text\n<br>\n    \n    \n    <strong>Duration:</strong>&nbsp;Instantaneous\n<br>\n    \n        <strong>Saving Throw:</strong>&nbsp;None or Reflex half; see text\n\n        <br>\n        <strong>Spell Resistance:</strong>&nbsp;yes<br>\n  </p>\n  <h2>Description</h2>\n  \n\n\n<p>\n<i>Meteor swarm </i>is a very powerful and spectacular spell that is similar to <i>fireball </i>in many aspects. When you cast it, four 2- foot-diameter spheres spring from your outstretched hand and streak in straight lines to the spots you select. The meteor spheres leave a fiery trail of sparks.\n</p><p>If you aim a sphere at a specific creature, you may make a ranged touch attack to strike the target with the meteor. Any creature struck by one of these spheres takes 2d6 points of bludgeoning damage (no save) and receives no saving throw against the sphere’s fire damage (see below). If a targeted sphere misses its target, it simply explodes at the nearest corner of the target’s space. You may aim more than one meteor at the same target.\n</p><p>Once a sphere reaches its destination, it explodes in a 40-foot-radius spread, dealing 6d6 points of fire damage to each creature in the area. If a creature is within the area of more than one sphere, it must save separately against each. (Fire resistance applies to each sphere’s damage individually.)\n</p>\n<hr/>\n\n\n\n</div>\n",
      "chat": "",
      "unidentified": ""
    },
    "epic": "",
    "psionic": "",
    "nameFormula": "",
    "nameFromFormula": false,
    "tags": [],
    "uniqueId": "",
    "linkId": "",
    "linkSourceId": "",
    "linkImported": false,
    "linkSourceName": "",
    "source": "",
    "classSource": "",
    "userNonRemovable": false,
    "customAttributes": {},
    "customAttributesLocked": false,
    "customTag": "",
    "createdBy": "",
    "activation": {
      "cost": 1,
      "type": "standard"
    },
    "duration": {
      "value": null,
      "units": ""
    },
    "target": {
      "value": ""
    },
    "range": {
      "value": null,
      "units": "long",
      "long": null
    },
    "recharge": {
      "enabled": false,
      "formula": "",
      "current": 0
    },
    "uses": {
      "value": 0,
      "max": 0,
      "per": "",
      "autoDeductCharges": true,
      "allowMultipleUses": false,
      "chargesPerUse": 1,
      "maxPerUse": null,
      "maxPerUseFormula": "",
      "maxFormula": "",
      "rechargeFormula": null,
      "isResource": false,
      "canBeLinked": false
    },
    "requiresPsionicFocus": false,
    "linkedChargeItem": {
      "id": null,
      "img": null,
      "name": null
    },
    "measureTemplate": {
      "type": "circle",
      "size": 0,
      "overrideColor": false,
      "customColor": "",
      "overrideTexture": false,
      "customTexture": ""
    },
    "actionType": "other",
    "attackBonus": "",
    "critConfirmBonus": "",
    "damage": {
      "parts": [],
      "alternativeParts": []
    },
    "summon": [],
    "attackParts": [],
    "autoscaleAttackParts": "",
    "formula": "",
    "attackCountFormula": "",
    "maxDamageDice": 0,
    "maxDamageDiceFormula": "",
    "ability": {
      "attack": "",
      "damage": "",
      "damageMult": 1,
      "critRange": 20,
      "critMult": 2,
      "twoHandedOnly": false,
      "vsTouchAc": false
    },
    "save": {
      "dc": "0",
      "description": "None or Reflex half; see text\n",
      "ability": "",
      "type": "",
      "dcAutoType": "",
      "dcAutoAbility": ""
    },
    "baseCl": "0",
    "sr": true,
    "pr": false,
    "metamagicFeats": {
      "maximized": false,
      "empowered": false,
      "enlarged": false,
      "intensified": false,
      "enhanced": false,
      "enhancedHalf": false,
      "widened": false
    },
    "effectNotes": "",
    "attackNotes": "",
    "specialActions": [],
    "favorite": false,
    "rollTableDraw": {
      "formula": "",
      "name": "",
      "pack": "",
      "id": ""
    },
    "learnedAt": {
      "class": [
        [
          "Wizard",
          9
        ]
      ],
      "domain": [],
      "subDomain": [],
      "elementalSchool": [],
      "bloodline": []
    },
    "level": 9,
    "clOffset": 0,
    "slOffset": 0,
    "school": "evo",
    "subschool": "",
    "types": "fire",
    "components": {
      "value": "",
      "verbal": true,
      "somatic": true,
      "material": false,
      "focus": false,
      "divineFocus": 0
    },
    "castTime": "",
    "conditionals": [],
    "materials": {
      "value": "",
      "consumed": {
        "value": false,
        "_deprecated": true
      },
      "focus": ""
    },
    "isSpellSpontaneousReplacement": false,
    "spellbook": "spelllike",
    "preparation": {
      "preparedAmount": 1,
      "maxAmount": 1,
      "autoDeductCharges": true,
      "mode": "prepared"
    },
    "atWill": false,
    "powerPointsCost": 0,
    "display": "",
    "isPower": false,
    "shortDescription": "\n\n\n<p>\n<i>Meteor swarm </i>is a very powerful and spectacular spell that is similar to <i>fireball </i>in many aspects. When you cast it, four 2- foot-diameter spheres spring from your outstretched hand and streak in straight lines to the spots you select. The meteor spheres leave a fiery trail of sparks.\n</p><p>If you aim a sphere at a specific creature, you may make a ranged touch attack to strike the target with the meteor. Any creature struck by one of these spheres takes 2d6 points of bludgeoning damage (no save) and receives no saving throw against the sphere’s fire damage (see below). If a targeted sphere misses its target, it simply explodes at the nearest corner of the target’s space. You may aim more than one meteor at the same target.\n</p><p>Once a sphere reaches its destination, it explodes in a 40-foot-radius spread, dealing 6d6 points of fire damage to each creature in the area. If a creature is within the area of more than one sphere, it must save separately against each. (Fire resistance applies to each sphere’s damage individually.)\n</p>\n<hr/>\n\n\n",
    "snip": "Four exploding spheres each deal 6d6 fire damage.",
    "spellDuration": "Instantaneous\n",
    "spellEffect": "",
    "spellArea": "four 40-ft.-radius spreads; see text\n",
    "spellType": {
      "value": "",
      "_deprecated": true
    },
    "showInQuickbar": false,
    "specialPrepared": false,
    "isDomainSpell": false,
    "specialId": null,
    "customReferenceId": "",
    "attack": {
      "parts": []
    }
  },
  "sort": 600000,
  "flags": {},
  "img": "systems/D35E/icons/spells/named-spells/meteor-swarm.png",
  "effects": [],
  "folder": null,
  "permission": {
    "default": 0
  },
  "_key": "!actors.items!LH3TZgqGyakp5kkI.eR9RUaOLuWutjBdA"
}