{
  "_id": "l6svHvPjLtlDhhSa",
  "name": "Morningstar",
  "type": "attack",
  "data": {
    "originVersion": 0,
    "originPack": "",
    "originId": "",
    "possibleUpdate": false,
    "description": {
      "value": "<p>A morningstar deals both piercing and bludgeoning damage.</p>",
      "chat": "",
      "unidentified": ""
    },
    "epic": false,
    "psionic": "",
    "nameFormula": "",
    "nameFromFormula": false,
    "tags": [],
    "uniqueId": "",
    "linkId": "",
    "linkSourceId": "",
    "linkImported": false,
    "linkSourceName": "",
    "source": "",
    "classSource": "",
    "userNonRemovable": false,
    "customAttributes": {},
    "customAttributesLocked": false,
    "customTag": "",
    "createdBy": "",
    "activation": {
      "cost": 1,
      "type": "attack"
    },
    "duration": {
      "value": null,
      "units": "inst"
    },
    "target": {
      "value": ""
    },
    "range": {
      "value": null,
      "units": ""
    },
    "recharge": {
      "enabled": false,
      "formula": "",
      "current": 0
    },
    "uses": {
      "value": 0,
      "max": 0,
      "per": null,
      "autoDeductCharges": true,
      "allowMultipleUses": false,
      "chargesPerUse": 1,
      "maxPerUse": null,
      "maxPerUseFormula": "",
      "maxFormula": "",
      "rechargeFormula": null,
      "isResource": false,
      "canBeLinked": false
    },
    "requiresPsionicFocus": false,
    "linkedChargeItem": {
      "id": null,
      "img": null,
      "name": null
    },
    "measureTemplate": {
      "type": "",
      "size": 0,
      "overrideColor": false,
      "customColor": "",
      "overrideTexture": false,
      "customTexture": ""
    },
    "actionType": "mwak",
    "attackBonus": "",
    "critConfirmBonus": "",
    "damage": {
      "parts": [
        [
          "sizeRoll(1, 8, @size, @critMult)",
          "B and P",
          ""
        ]
      ],
      "alternativeParts": []
    },
    "summon": [],
    "attackParts": [],
    "autoscaleAttackParts": "",
    "formula": "",
    "attackCountFormula": "",
    "maxDamageDice": 0,
    "maxDamageDiceFormula": "",
    "ability": {
      "attack": "str",
      "damage": "str",
      "damageMult": 1,
      "critRange": "20",
      "critMult": "2",
      "twoHandedOnly": false,
      "vsTouchAc": false
    },
    "save": {
      "dc": 0,
      "description": "",
      "ability": "",
      "type": "",
      "dcAutoType": "",
      "dcAutoAbility": ""
    },
    "baseCl": "0",
    "sr": false,
    "pr": false,
    "metamagicFeats": {
      "maximized": false,
      "empowered": false,
      "enlarged": false,
      "intensified": false,
      "enhanced": false,
      "enhancedHalf": false,
      "widened": false
    },
    "effectNotes": "",
    "attackNotes": "",
    "specialActions": [],
    "favorite": true,
    "rollTableDraw": {
      "formula": "",
      "name": "",
      "pack": "",
      "id": ""
    },
    "material": {
      "data": null
    },
    "associations": {
      "classes": []
    },
    "attackType": "weapon",
    "autoScaleOption": "default",
    "weaponSubtype": "light",
    "masterwork": false,
    "threatRangeExtended": false,
    "finesseable": false,
    "enh": null,
    "incorporeal": false,
    "proficient": true,
    "primaryAttack": true,
    "showInQuickbar": true,
    "melded": false,
    "baseWeaponType": "Morningstar",
    "nonLethal": false,
    "originalWeaponCreated": true,
    "originalWeaponId": null,
    "originalWeaponName": "Morningstar",
    "originalWeaponImg": "systems/D35E/icons/items/weapons/Club_v2_07.png",
    "originalWeaponProperties": {
      "blc": false,
      "brc": false,
      "dbl": false,
      "dis": false,
      "fin": false,
      "frg": false,
      "imp": false,
      "mnk": false,
      "nnl": false,
      "prf": false,
      "rch": false,
      "thr": false,
      "trp": false,
      "grp": false,
      "snd": false
    },
    "conditionals": [],
    "thrown": false,
    "returning": false,
    "magic": false,
    "alignment": {
      "good": false,
      "evil": false,
      "lawful": false,
      "chaotic": false
    },
    "customReferenceId": ""
  },
  "sort": 500000,
  "flags": {},
  "img": "systems/D35E/icons/items/weapons/Club_v2_07.png",
  "effects": [],
  "folder": null,
  "permission": {
    "default": 0
  },
  "_key": "!actors.items!3WqiRzwoICbDizgT.l6svHvPjLtlDhhSa"
}