{
  "_id": "I29ESgVxzVafOKZd",
  "name": "Permanent Image",
  "type": "spell",
  "data": {
    "originVersion": 0,
    "originPack": "",
    "originId": "",
    "possibleUpdate": false,
    "description": {
      "value": "<div class=\"spell-description\">\n  <p>\n      <strong>School:</strong>&nbsp;illusion&nbsp;(figment);\n    <br>\n    <strong>Level:</strong>&nbsp;Bard 6, Sorcerer 6, Wizard 6;\n    <strong>Domain:</strong>&nbsp;Creation 7;\n    \n    \n    \n    <br>\n    <strong>Components:</strong>&nbsp;V, S, F<br>\n    \n      <strong>Casting Time:</strong>&nbsp;1 standard action<br>\n    <strong>Range:</strong>&nbsp;long (400 ft. + 40 ft./level)<br>\n    \n    \n    <strong>Effect:</strong>&nbsp;Figment that cannot extend beyond a 20-ft. cube + one 10-ft. cube/level (S)<br>\n    <strong>Duration:</strong>&nbsp;Permanent (D)<br>\n    \n        <strong>Saving Throw:</strong>&nbsp;Will disbelief (if interacted with)\n        <br>\n        <strong>Spell Resistance:</strong>&nbsp;no<br>\n  </p>\n  <h2>Description</h2>\n  \n\n\n<p>\nThis spell creates the visual illusion of an object, creature, or force, as visualized by you. The figment includes visual, auditory, olfactory, and thermal elements, and the spell is permanent. By concentrating, you can move the image within the limits of the range, but it is static while you are not concentrating. You can move the image within the limits of the size of the effect.\n</p><p><i>Material Component: </i>A bit of fleece plus powdered jade worth 100 gp.\n</p>\n<hr/>\n\n\n\n</div>\n",
      "chat": "",
      "unidentified": ""
    },
    "epic": "",
    "psionic": "",
    "nameFormula": "",
    "nameFromFormula": false,
    "tags": [],
    "uniqueId": "",
    "linkId": "",
    "linkSourceId": "",
    "linkImported": false,
    "linkSourceName": "",
    "source": "",
    "classSource": "",
    "userNonRemovable": false,
    "customAttributes": {},
    "customAttributesLocked": false,
    "customTag": "",
    "createdBy": "",
    "activation": {
      "cost": 1,
      "type": "standard"
    },
    "duration": {
      "value": null,
      "units": ""
    },
    "target": {
      "value": ""
    },
    "range": {
      "value": null,
      "units": "long",
      "long": null
    },
    "recharge": {
      "enabled": false,
      "formula": "",
      "current": 0
    },
    "uses": {
      "value": 0,
      "max": 0,
      "per": "",
      "autoDeductCharges": true,
      "allowMultipleUses": false,
      "chargesPerUse": 1,
      "maxPerUse": null,
      "maxPerUseFormula": "",
      "maxFormula": "",
      "rechargeFormula": null,
      "isResource": false,
      "canBeLinked": false
    },
    "requiresPsionicFocus": false,
    "linkedChargeItem": {
      "id": null,
      "img": null,
      "name": null
    },
    "measureTemplate": {
      "type": "",
      "size": 0,
      "overrideColor": false,
      "customColor": "",
      "overrideTexture": false,
      "customTexture": ""
    },
    "actionType": "other",
    "attackBonus": "",
    "critConfirmBonus": "",
    "damage": {
      "parts": [],
      "alternativeParts": []
    },
    "summon": [],
    "attackParts": [],
    "autoscaleAttackParts": "",
    "formula": "",
    "attackCountFormula": "",
    "maxDamageDice": 0,
    "maxDamageDiceFormula": "",
    "ability": {
      "attack": "",
      "damage": "",
      "damageMult": 1,
      "critRange": 20,
      "critMult": 2,
      "twoHandedOnly": false,
      "vsTouchAc": false
    },
    "save": {
      "dc": "0",
      "description": "Will disbelief (if interacted with)",
      "ability": "",
      "type": "",
      "dcAutoType": "",
      "dcAutoAbility": ""
    },
    "baseCl": "0",
    "sr": false,
    "pr": false,
    "metamagicFeats": {
      "maximized": false,
      "empowered": false,
      "enlarged": false,
      "intensified": false,
      "enhanced": false,
      "enhancedHalf": false,
      "widened": false
    },
    "effectNotes": "",
    "attackNotes": "",
    "specialActions": [],
    "favorite": false,
    "rollTableDraw": {
      "formula": "",
      "name": "",
      "pack": "",
      "id": ""
    },
    "learnedAt": {
      "class": [
        [
          "Bard",
          6
        ],
        [
          "Wizard",
          6
        ],
        [
          "Sorcerer",
          6
        ]
      ],
      "domain": [
        [
          "Creation",
          7
        ]
      ],
      "subDomain": [],
      "elementalSchool": [],
      "bloodline": []
    },
    "level": 6,
    "clOffset": 0,
    "slOffset": 0,
    "school": "ill",
    "subschool": "figment",
    "types": "",
    "components": {
      "value": "",
      "verbal": true,
      "somatic": true,
      "material": false,
      "focus": true,
      "divineFocus": 0
    },
    "castTime": "",
    "conditionals": [],
    "materials": {
      "value": "a bit of fleece plus powdered jade worth 100 gp",
      "consumed": {
        "value": false,
        "_deprecated": true
      },
      "focus": ""
    },
    "isSpellSpontaneousReplacement": false,
    "spellbook": "spelllike",
    "preparation": {
      "preparedAmount": 1,
      "maxAmount": 1,
      "autoDeductCharges": true,
      "mode": "prepared"
    },
    "atWill": false,
    "powerPointsCost": 0,
    "display": "",
    "isPower": false,
    "shortDescription": "\n\n\n<p>\nThis spell creates the visual illusion of an object, creature, or force, as visualized by you. The figment includes visual, auditory, olfactory, and thermal elements, and the spell is permanent. By concentrating, you can move the image within the limits of the range, but it is static while you are not concentrating. You can move the image within the limits of the size of the effect.\n</p><p><i>Material Component: </i>A bit of fleece plus powdered jade worth 100 gp.\n</p>\n<hr/>\n\n\n",
    "snip": "Includes sight, sound, and smell.",
    "spellDuration": "Permanent (D)",
    "spellEffect": "Figment that cannot extend beyond a 20-ft. cube + one 10-ft. cube/level (S)",
    "spellArea": "",
    "spellType": {
      "value": "",
      "_deprecated": true
    },
    "showInQuickbar": false,
    "specialPrepared": false,
    "isDomainSpell": false,
    "specialId": null,
    "customReferenceId": "",
    "attack": {
      "parts": []
    }
  },
  "sort": 600000,
  "flags": {},
  "img": "systems/D35E/icons/spells/named-spells/permanent-image.png",
  "effects": [],
  "folder": null,
  "permission": {
    "default": 0
  },
  "_key": "!actors.items!hz9Pwzs6ze1rIgPc.I29ESgVxzVafOKZd"
}