{
  "_id": "RsUoTFyfVoHJ7z2K",
  "name": "Polymorph",
  "type": "spell",
  "data": {
    "originVersion": 0,
    "originPack": "",
    "originId": "",
    "possibleUpdate": false,
    "description": {
      "value": "<div class=\"spell-description\">\n  <p>\n      <strong>School:</strong>&nbsp;transmutation;\n    <br>\n    <strong>Level:</strong>&nbsp;Wizard 4;\n    \n    \n    \n    \n    <br>\n    <strong>Components:</strong>&nbsp;V, S, M (an empty cocoon)<br>\n    \n      <strong>Casting Time:</strong>&nbsp;1 standard action<br>\n    <strong>Range:</strong>&nbsp;touch<br>\n    \n    <strong>Target:</strong>&nbsp;willing living creature touched\n<br>\n    \n    <strong>Duration:</strong>&nbsp;1 min./level (D)\n<br>\n    \n        <strong>Saving Throw:</strong>&nbsp;None\n\n        <br>\n        <strong>Spell Resistance:</strong>&nbsp;no<br>\n  </p>\n  <h2>Description</h2>\n  \n\n\n<p>\nThis spell functions like <i>alter self</i>, except that you change the willing subject into another form of living creature. The new form may be of the same type as the subject or any of the following types: aberration, animal, dragon, fey, giant, humanoid, magical beast, monstrous humanoid, ooze, plant, or vermin. The assumed form can’t have more Hit Dice than your caster level (or the subject’s HD, whichever is lower), to a maximum of 15 HD at 15th level. You can’t cause a subject to assume a form smaller than Fine, nor can you cause a subject to assume an incorporeal or gaseous form. The subject’s creature type and subtype (if any) change to match the new form.\n</p><p>Upon changing, the subject regains lost hit points as if it had rested for a night (though this healing does not restore temporary ability damage and provide other benefits of resting; and changing back does not heal the subject further). If slain, the subject reverts to its original form, though it remains dead.\n</p><p>The subject gains the Strength, Dexterity, and Constitution scores of the new form but retains its own Intelligence, Wisdom, and Charisma scores. It also gains all extraordinary special attacks possessed by the form but does not gain the extraordinary special qualities possessed by the new form or any supernatural or spell-like abilities.\n</p><p>Incorporeal or gaseous creatures are immune to being <i>polymorphed</i>, and a creature with the shapechanger subtype can revert to its natural form as a standard action.\n</p><p><i>Material Component: </i>An empty cocoon.\n</p>\n<hr/>\n\n\n\n</div>\n",
      "chat": "",
      "unidentified": ""
    },
    "epic": "",
    "psionic": "",
    "nameFormula": "",
    "nameFromFormula": false,
    "tags": [],
    "uniqueId": "",
    "linkId": "",
    "linkSourceId": "",
    "linkImported": false,
    "linkSourceName": "",
    "source": "",
    "classSource": "",
    "userNonRemovable": false,
    "customAttributes": {},
    "customAttributesLocked": false,
    "customTag": "",
    "createdBy": "",
    "activation": {
      "cost": 1,
      "type": "standard"
    },
    "duration": {
      "value": null,
      "units": ""
    },
    "target": {
      "value": "willing living creature touched\n"
    },
    "range": {
      "value": null,
      "units": "touch",
      "long": null
    },
    "recharge": {
      "enabled": false,
      "formula": "",
      "current": 0
    },
    "uses": {
      "value": 0,
      "max": 0,
      "per": "",
      "autoDeductCharges": true,
      "allowMultipleUses": false,
      "chargesPerUse": 1,
      "maxPerUse": null,
      "maxPerUseFormula": "",
      "maxFormula": "",
      "rechargeFormula": null,
      "isResource": false,
      "canBeLinked": false
    },
    "requiresPsionicFocus": false,
    "linkedChargeItem": {
      "id": null,
      "img": null,
      "name": null
    },
    "measureTemplate": {
      "type": "",
      "size": 0,
      "overrideColor": false,
      "customColor": "",
      "overrideTexture": false,
      "customTexture": ""
    },
    "actionType": "other",
    "attackBonus": "",
    "critConfirmBonus": "",
    "damage": {
      "parts": [],
      "alternativeParts": []
    },
    "summon": [],
    "attackParts": [],
    "autoscaleAttackParts": "",
    "formula": "",
    "attackCountFormula": "",
    "maxDamageDice": 0,
    "maxDamageDiceFormula": "",
    "ability": {
      "attack": "",
      "damage": "",
      "damageMult": 1,
      "critRange": 20,
      "critMult": 2,
      "twoHandedOnly": false,
      "vsTouchAc": false
    },
    "save": {
      "dc": "0",
      "description": "None\n",
      "ability": "",
      "type": "",
      "dcAutoType": "",
      "dcAutoAbility": ""
    },
    "baseCl": "0",
    "sr": false,
    "pr": false,
    "metamagicFeats": {
      "maximized": false,
      "empowered": false,
      "enlarged": false,
      "intensified": false,
      "enhanced": false,
      "enhancedHalf": false,
      "widened": false
    },
    "effectNotes": "",
    "attackNotes": "",
    "specialActions": [],
    "favorite": false,
    "rollTableDraw": {
      "formula": "",
      "name": "",
      "pack": "",
      "id": ""
    },
    "learnedAt": {
      "class": [
        [
          "Wizard",
          4
        ]
      ],
      "domain": [],
      "subDomain": [],
      "elementalSchool": [],
      "bloodline": []
    },
    "level": 0,
    "clOffset": 0,
    "slOffset": 0,
    "school": "trs",
    "subschool": "",
    "types": "",
    "components": {
      "value": "",
      "verbal": true,
      "somatic": true,
      "material": true,
      "focus": false,
      "divineFocus": 0
    },
    "castTime": "",
    "conditionals": [],
    "materials": {
      "value": "an empty cocoon",
      "consumed": {
        "value": false,
        "_deprecated": true
      },
      "focus": ""
    },
    "isSpellSpontaneousReplacement": false,
    "spellbook": "spelllike",
    "preparation": {
      "preparedAmount": 0,
      "maxAmount": 0,
      "autoDeductCharges": true,
      "mode": "prepared"
    },
    "atWill": true,
    "powerPointsCost": 0,
    "display": "",
    "isPower": false,
    "shortDescription": "\n\n\n<p>\nThis spell functions like <i>alter self</i>, except that you change the willing subject into another form of living creature. The new form may be of the same type as the subject or any of the following types: aberration, animal, dragon, fey, giant, humanoid, magical beast, monstrous humanoid, ooze, plant, or vermin. The assumed form can’t have more Hit Dice than your caster level (or the subject’s HD, whichever is lower), to a maximum of 15 HD at 15th level. You can’t cause a subject to assume a form smaller than Fine, nor can you cause a subject to assume an incorporeal or gaseous form. The subject’s creature type and subtype (if any) change to match the new form.\n</p><p>Upon changing, the subject regains lost hit points as if it had rested for a night (though this healing does not restore temporary ability damage and provide other benefits of resting; and changing back does not heal the subject further). If slain, the subject reverts to its original form, though it remains dead.\n</p><p>The subject gains the Strength, Dexterity, and Constitution scores of the new form but retains its own Intelligence, Wisdom, and Charisma scores. It also gains all extraordinary special attacks possessed by the form but does not gain the extraordinary special qualities possessed by the new form or any supernatural or spell-like abilities.\n</p><p>Incorporeal or gaseous creatures are immune to being <i>polymorphed</i>, and a creature with the shapechanger subtype can revert to its natural form as a standard action.\n</p><p><i>Material Component: </i>An empty cocoon.\n</p>\n<hr/>\n\n\n",
    "snip": "Gives one willing subject a new form.",
    "spellDuration": "1 min./level (D)\n",
    "spellEffect": "",
    "spellArea": "",
    "spellType": {
      "value": "",
      "_deprecated": true
    },
    "showInQuickbar": false,
    "specialPrepared": false,
    "isDomainSpell": false,
    "specialId": null,
    "customReferenceId": "",
    "attack": {
      "parts": []
    }
  },
  "sort": 600000,
  "flags": {},
  "img": "systems/D35E/icons/spells/school/trs.png",
  "effects": [],
  "folder": null,
  "permission": {
    "default": 0
  },
  "_key": "!actors.items!i7ajhUXAhhH9kfZ6.RsUoTFyfVoHJ7z2K"
}