{
  "_id": "YvERHJ2MrgpvO5da",
  "name": "Power Attack",
  "type": "feat",
  "data": {
    "originVersion": 0,
    "originPack": "",
    "originId": "",
    "possibleUpdate": false,
    "description": {
      "value": "<h3><span id=\"Prerequisite\" class=\"mw-headline\">Prerequisite</span></h3>\n<p>Str 13.</p>\n<h3><span id=\"Benefit\" class=\"mw-headline\">Benefit</span></h3>\n<p>On your action, before making attack rolls for a round, you may choose to subtract a number from all melee attack rolls and add the same number to all melee damage rolls. This number may not exceed your base attack bonus. The penalty on attacks and bonus on damage apply until your next turn.</p>\n<h3><span id=\"Special\" class=\"mw-headline\">Special</span></h3>\n<p>If you attack with a two-handed weapon, or with a one-handed weapon wielded in two hands, instead add twice the number subtracted from your attack rolls. You can’t add the bonus from Power Attack to the damage dealt with a light weapon (except with unarmed strikes or natural weapon attacks), even though the penalty on attack rolls still applies. (Normally, you treat a double weapon as a one-handed weapon and a light weapon. If you choose to use a double weapon like a two-handed weapon, attacking with only one end of it in a round, you treat it as a two-handed weapon.)</p>\n<p>A fighter may select Power Attack as one of his fighter bonus feats.</p>\n<p>&nbsp;</p>",
      "chat": "",
      "unidentified": ""
    },
    "epic": "",
    "psionic": "",
    "nameFormula": "",
    "nameFromFormula": false,
    "tags": [],
    "uniqueId": "",
    "linkId": "",
    "linkSourceId": "",
    "linkImported": false,
    "linkSourceName": "",
    "source": "",
    "classSource": "",
    "userNonRemovable": false,
    "customAttributes": {},
    "customAttributesLocked": false,
    "customTag": "",
    "createdBy": "",
    "activation": {
      "cost": 1,
      "type": ""
    },
    "duration": {
      "value": null,
      "units": ""
    },
    "target": {
      "value": ""
    },
    "range": {
      "value": null,
      "units": "",
      "long": null
    },
    "recharge": {
      "enabled": false,
      "formula": "",
      "current": 0,
      "value": null,
      "charged": false,
      "_deprecated": true
    },
    "uses": {
      "value": 0,
      "max": 0,
      "per": null,
      "autoDeductCharges": true,
      "allowMultipleUses": false,
      "chargesPerUse": 1,
      "maxPerUse": null,
      "maxPerUseFormula": "",
      "maxFormula": "",
      "rechargeFormula": null,
      "isResource": false,
      "canBeLinked": false
    },
    "requiresPsionicFocus": false,
    "linkedChargeItem": {
      "id": null,
      "img": null,
      "name": null
    },
    "measureTemplate": {
      "type": "",
      "size": 0,
      "overrideColor": false,
      "customColor": "",
      "overrideTexture": false,
      "customTexture": ""
    },
    "actionType": "",
    "attackBonus": "",
    "critConfirmBonus": "",
    "damage": {
      "parts": [],
      "alternativeParts": []
    },
    "summon": [],
    "attackParts": [],
    "autoscaleAttackParts": "",
    "formula": "",
    "attackCountFormula": "",
    "maxDamageDice": 0,
    "maxDamageDiceFormula": "",
    "ability": {
      "attack": null,
      "damage": null,
      "damageMult": 1,
      "critRange": 20,
      "critMult": 2,
      "twoHandedOnly": false,
      "vsTouchAc": false
    },
    "save": {
      "dc": 0,
      "description": "",
      "ability": "",
      "type": "",
      "dcAutoType": "",
      "dcAutoAbility": ""
    },
    "baseCl": "0",
    "sr": false,
    "pr": false,
    "metamagicFeats": {
      "maximized": false,
      "empowered": false,
      "enlarged": false,
      "intensified": false,
      "enhanced": false,
      "enhancedHalf": false,
      "widened": false
    },
    "effectNotes": "",
    "attackNotes": "",
    "specialActions": [],
    "favorite": false,
    "rollTableDraw": {
      "formula": "",
      "name": "",
      "pack": "",
      "id": ""
    },
    "changes": [],
    "changeFlags": {
      "loseDexToAC": false,
      "noStr": false,
      "noDex": false,
      "noInt": false,
      "noCon": false,
      "oneInt": false,
      "oneWis": false,
      "oneCha": false,
      "noEncumbrance": false,
      "mediumArmorFullSpeed": false,
      "heavyArmorFullSpeed": false,
      "multiAttack": false,
      "multiweaponAttack": false,
      "uncannyDodge": false
    },
    "conditionFlags": {
      "dazzled": false,
      "wildshaped": false,
      "polymorphed": false
    },
    "combatChanges": [],
    "combatChangesRange": {
      "maxFormula": "",
      "max": 0
    },
    "combatChangesAdditionalRanges": {
      "hasAdditionalRanges": false,
      "slider1": {
        "maxFormula": "",
        "max": 0,
        "name": ""
      },
      "slider2": {
        "maxFormula": "",
        "max": 0,
        "name": ""
      },
      "slider3": {
        "maxFormula": "",
        "max": 0,
        "name": ""
      }
    },
    "combatChangesUsesCost": "chargesPerUse",
    "combatChangesApplySpecialActionsOnce": true,
    "combatChangeCustomDisplayName": "",
    "combatChangeCustomReferenceName": "",
    "sizeOverride": "",
    "counterName": "",
    "resistances": [],
    "damageReduction": [],
    "requirements": [],
    "creationChanges": [],
    "contextNotes": [],
    "featType": "feat",
    "abilityType": "",
    "associations": {
      "classes": []
    },
    "crOffset": "",
    "spellSpecializationName": "",
    "spellSpecializationForbiddenNames": "",
    "linkedItems": [],
    "metamagic": {
      "enabled": false,
      "shortDesc": "",
      "code": ""
    },
    "spellSpecialization": {
      "isDomain": false,
      "spells": {
        "level1": {
          "level": 1,
          "name": "",
          "img": "",
          "pack": null,
          "id": null
        },
        "level2": {
          "level": 2,
          "name": "",
          "img": "",
          "pack": null,
          "id": null
        },
        "level3": {
          "level": 3,
          "name": "",
          "img": "",
          "pack": null,
          "id": null
        },
        "level4": {
          "level": 4,
          "name": "",
          "img": "",
          "pack": null,
          "id": null
        },
        "level5": {
          "level": 5,
          "name": "",
          "img": "",
          "pack": null,
          "id": null
        },
        "level6": {
          "level": 6,
          "name": "",
          "img": "",
          "pack": null,
          "id": null
        },
        "level7": {
          "level": 7,
          "name": "",
          "img": "",
          "pack": null,
          "id": null
        },
        "level8": {
          "level": 8,
          "name": "",
          "img": "",
          "pack": null,
          "id": null
        },
        "level9": {
          "level": 9,
          "name": "",
          "img": "",
          "pack": null,
          "id": null
        }
      }
    },
    "showInQuickbar": false,
    "links": {
      "charges": []
    },
    "customReferenceId": "",
    "time": {
      "value": "",
      "_deprecated": true
    },
    "damageType": {
      "value": "",
      "_deprecated": true
    },
    "attack": {
      "parts": []
    }
  },
  "sort": 1400000,
  "flags": {},
  "img": "systems/D35E/icons/feats/power-attack.png",
  "effects": [],
  "folder": null,
  "permission": {
    "default": 0
  },
  "_key": "!actors.items!ZzRPhzHIDJ5r5U5i.YvERHJ2MrgpvO5da"
}