{
  "_id": "gfO3qeWNbfQNCZJX",
  "name": "Protection from Chaos",
  "type": "spell",
  "data": {
    "originVersion": 0,
    "originPack": "",
    "originId": "",
    "possibleUpdate": false,
    "description": {
      "value": "<div class=\"spell-description\">\n  <p>\n      <strong>School:</strong>&nbsp;abjuration&nbsp;[lawful];\n    <br>\n    <strong>Level:</strong>&nbsp;Cleric 1, Paladin 1, Sorcerer 1, Wizard 1;\n    <strong>Domain:</strong>&nbsp;Law 1;\n    \n    \n    \n    <br>\n    <strong>Components:</strong>&nbsp;V, S, M/DF (a little powdered silver with which you trace a 3-foot -diameter circle on the floor (or ground) around the creature to be warded), F<br>\n    \n      <strong>Casting Time:</strong>&nbsp;1 standard action<br>\n    <strong>Range:</strong>&nbsp;touch<br>\n    \n    <strong>Target:</strong>&nbsp;creature touched<br>\n    \n    <strong>Duration:</strong>&nbsp;1 min./level (D)<br>\n    \n        <strong>Saving Throw:</strong>&nbsp;Will negates (harmless)\n        <br>\n        <strong>Spell Resistance:</strong>&nbsp;no<br>\n  </p>\n  <h2>Description</h2>\n  \n\n\n<p>\nThis spell wards a creature from attacks by chaotic creatures, from mental control, and from summoned creatures. It creates a magical barrier around the subject at a distance of 1 foot. The barrier moves with the subject and has three major effects.\n</p><p>First, the subject gains a +2 deflection bonus to AC and a +2 resistance bonus on saves. Both these bonuses apply against attacks made or effects created by chaotic creatures.\n</p><p>Second, the barrier blocks any attempt to possess the warded creature (by a <i>magic jar </i>attack, for example) or to exercise mental control over the creature (including enchantment (charm) effects and enchantment (compulsion) effects that grant the caster ongoing control over the subject, such as <i>dominate person</i>). The protection does not prevent such effects from targeting the protected creature, but it suppresses the effect for the duration of the <i>protection from chaotic </i>effect. If the <i>protection from chaos </i>effect ends before the effect granting mental control does, the would-be controller would then be able to mentally command the controlled creature. Likewise, the barrier keeps out a possessing life force but does not expel one if it is in place before the spell is cast. This second effect works regardless of alignment.\n</p><p>Third, the spell prevents bodily contact by summoned creatures. This causes the natural weapon attacks of such creatures to fail and the creatures to recoil if such attacks require touching the warded creature. Lawful summoned creatures are immune to this effect. The protection against contact by summoned creatures ends if the warded creature makes an attack against or tries to force the barrier against the blocked creature. Spell resistance can allow a creature to overcome this protection and touch the warded creature.\n</p><p><i>Arcane Material Component: </i>A little powdered silver with which you trace a 3-foot -diameter circle on the floor (or ground) around the creature to be warded.\n</p>\n<hr/>\n\n\n\n</div>\n",
      "chat": "",
      "unidentified": ""
    },
    "epic": "",
    "psionic": "",
    "nameFormula": "",
    "nameFromFormula": false,
    "tags": [],
    "uniqueId": "",
    "linkId": "",
    "linkSourceId": "",
    "linkImported": false,
    "linkSourceName": "",
    "source": "",
    "classSource": "",
    "userNonRemovable": false,
    "customAttributes": {},
    "customAttributesLocked": false,
    "customTag": "",
    "createdBy": "",
    "activation": {
      "cost": 1,
      "type": "standard"
    },
    "duration": {
      "value": null,
      "units": ""
    },
    "target": {
      "value": "creature touched"
    },
    "range": {
      "value": null,
      "units": "touch",
      "long": null
    },
    "recharge": {
      "enabled": false,
      "formula": "",
      "current": 0
    },
    "uses": {
      "value": 0,
      "max": 0,
      "per": "",
      "autoDeductCharges": true,
      "allowMultipleUses": false,
      "chargesPerUse": 1,
      "maxPerUse": null,
      "maxPerUseFormula": "",
      "maxFormula": "",
      "rechargeFormula": null,
      "isResource": false,
      "canBeLinked": false
    },
    "requiresPsionicFocus": false,
    "linkedChargeItem": {
      "id": null,
      "img": null,
      "name": null
    },
    "measureTemplate": {
      "type": "",
      "size": 0,
      "overrideColor": false,
      "customColor": "",
      "overrideTexture": false,
      "customTexture": ""
    },
    "actionType": "other",
    "attackBonus": "",
    "critConfirmBonus": "",
    "damage": {
      "parts": [],
      "alternativeParts": []
    },
    "summon": [],
    "attackParts": [],
    "autoscaleAttackParts": "",
    "formula": "",
    "attackCountFormula": "",
    "maxDamageDice": 0,
    "maxDamageDiceFormula": "",
    "ability": {
      "attack": "",
      "damage": "",
      "damageMult": 1,
      "critRange": 20,
      "critMult": 2,
      "twoHandedOnly": false,
      "vsTouchAc": false
    },
    "save": {
      "dc": "0",
      "description": "Will negates (harmless)",
      "ability": "",
      "type": "",
      "dcAutoType": "",
      "dcAutoAbility": ""
    },
    "baseCl": "0",
    "sr": false,
    "pr": false,
    "metamagicFeats": {
      "maximized": false,
      "empowered": false,
      "enlarged": false,
      "intensified": false,
      "enhanced": false,
      "enhancedHalf": false,
      "widened": false
    },
    "effectNotes": "",
    "attackNotes": "",
    "specialActions": [],
    "favorite": false,
    "rollTableDraw": {
      "formula": "",
      "name": "",
      "pack": "",
      "id": ""
    },
    "learnedAt": {
      "class": [
        [
          "Cleric",
          1
        ],
        [
          "Paladin",
          1
        ],
        [
          "Wizard",
          1
        ],
        [
          "Sorcerer",
          1
        ]
      ],
      "domain": [
        [
          "Law",
          1
        ]
      ],
      "subDomain": [],
      "elementalSchool": [],
      "bloodline": []
    },
    "level": 1,
    "clOffset": 0,
    "slOffset": 0,
    "school": "abj",
    "subschool": "",
    "types": "lawful",
    "components": {
      "value": "",
      "verbal": true,
      "somatic": true,
      "material": true,
      "focus": true,
      "divineFocus": 2
    },
    "castTime": "",
    "conditionals": [],
    "materials": {
      "value": "a little powdered silver with which you trace a 3-foot -diameter circle on the floor (or ground) around the creature to be warded",
      "consumed": {
        "value": false,
        "_deprecated": true
      },
      "focus": ""
    },
    "isSpellSpontaneousReplacement": false,
    "spellbook": "primary",
    "preparation": {
      "preparedAmount": 0,
      "maxAmount": 0,
      "autoDeductCharges": true,
      "mode": "prepared"
    },
    "atWill": false,
    "powerPointsCost": 0,
    "display": "",
    "isPower": false,
    "shortDescription": "\n\n\n<p>\nThis spell wards a creature from attacks by chaotic creatures, from mental control, and from summoned creatures. It creates a magical barrier around the subject at a distance of 1 foot. The barrier moves with the subject and has three major effects.\n</p><p>First, the subject gains a +2 deflection bonus to AC and a +2 resistance bonus on saves. Both these bonuses apply against attacks made or effects created by chaotic creatures.\n</p><p>Second, the barrier blocks any attempt to possess the warded creature (by a <i>magic jar </i>attack, for example) or to exercise mental control over the creature (including enchantment (charm) effects and enchantment (compulsion) effects that grant the caster ongoing control over the subject, such as <i>dominate person</i>). The protection does not prevent such effects from targeting the protected creature, but it suppresses the effect for the duration of the <i>protection from chaotic </i>effect. If the <i>protection from chaos </i>effect ends before the effect granting mental control does, the would-be controller would then be able to mentally command the controlled creature. Likewise, the barrier keeps out a possessing life force but does not expel one if it is in place before the spell is cast. This second effect works regardless of alignment.\n</p><p>Third, the spell prevents bodily contact by summoned creatures. This causes the natural weapon attacks of such creatures to fail and the creatures to recoil if such attacks require touching the warded creature. Lawful summoned creatures are immune to this effect. The protection against contact by summoned creatures ends if the warded creature makes an attack against or tries to force the barrier against the blocked creature. Spell resistance can allow a creature to overcome this protection and touch the warded creature.\n</p><p><i>Arcane Material Component: </i>A little powdered silver with which you trace a 3-foot -diameter circle on the floor (or ground) around the creature to be warded.\n</p>\n<hr/>\n\n\n",
    "snip": "+2 to AC and saves, counter mind control, hedge out elementals and outsiders.",
    "spellDuration": "1 min./level (D)",
    "spellEffect": "",
    "spellArea": "",
    "spellType": {
      "value": "",
      "_deprecated": true
    },
    "showInQuickbar": false,
    "specialPrepared": false,
    "isDomainSpell": false,
    "specialId": null,
    "customReferenceId": "",
    "attack": {
      "parts": []
    }
  },
  "sort": 600000,
  "flags": {},
  "img": "systems/D35E/icons/spells/named-spells/protection-against-chaos.png",
  "effects": [],
  "folder": null,
  "permission": {
    "default": 0
  },
  "_key": "!actors.items!6P3qImxIs1IUAE2u.gfO3qeWNbfQNCZJX"
}