{
  "_id": "L7VFHdntNVHXhEvP",
  "name": "Read Magic",
  "type": "spell",
  "data": {
    "originVersion": 0,
    "originPack": "",
    "originId": "",
    "possibleUpdate": false,
    "description": {
      "value": "<div class=\"spell-description\">\n  <p>\n      <strong>School:</strong>&nbsp;divination;\n    <br>\n    <strong>Level:</strong>&nbsp;Bard 0, Cleric 0, Druid 0, Paladin 1, Ranger 1, Sorcerer 0, Wizard 0;\n    \n    \n    \n    \n    <br>\n    <strong>Components:</strong>&nbsp;V, S, F (a clear crystal or mineral prism)<br>\n    \n      <strong>Casting Time:</strong>&nbsp;1 standard action<br>\n    <strong>Range:</strong>&nbsp;personal<br>\n    \n    <strong>Target:</strong>&nbsp;you\n<br>\n    \n    <strong>Duration:</strong>&nbsp;10 min./level\n<br>\n    \n  </p>\n  <h2>Description</h2>\n  \n\n\n<p>\nBy means of <i>read magic, </i>you can decipher magical inscriptions on objects—books, scrolls, weapons, and the like—that would otherwise be unintelligible. This deciphering does not normally invoke the magic contained in the writing, although it may do so in the case of a cursed scroll. Furthermore, once the spell is cast and you have read the magical inscription, you are thereafter able to read that particular writing without recourse to the use of <i>read magic. </i>You can read at the rate of one page (250 words) per minute. The spell allows you to identify a <i>glyph of warding</i> with a DC 13 Spellcraft check, a <i>greater glyph of warding</i> with a DC 16 Spellcraft check, or any <i>symbol</i> spell with a Spellcraft check (DC 10 + spell level).\n</p><p><i>Read magic </i>can be made permanent with a <i>permanency</i> spell.\n</p><p><i>Focus: </i>A clear crystal or mineral prism.\n</p>\n<hr/>\n\n\n\n</div>\n",
      "chat": "",
      "unidentified": ""
    },
    "epic": "",
    "psionic": "",
    "nameFormula": "",
    "nameFromFormula": false,
    "tags": [],
    "uniqueId": "",
    "linkId": "",
    "linkSourceId": "",
    "linkImported": false,
    "linkSourceName": "",
    "source": "",
    "classSource": "",
    "userNonRemovable": false,
    "customAttributes": {},
    "customAttributesLocked": false,
    "customTag": "",
    "createdBy": "",
    "activation": {
      "cost": 1,
      "type": "standard"
    },
    "duration": {
      "value": null,
      "units": ""
    },
    "target": {
      "value": "you\n"
    },
    "range": {
      "value": null,
      "units": "personal",
      "long": null
    },
    "recharge": {
      "enabled": false,
      "formula": "",
      "current": 0
    },
    "uses": {
      "value": 0,
      "max": 0,
      "per": "",
      "autoDeductCharges": true,
      "allowMultipleUses": false,
      "chargesPerUse": 1,
      "maxPerUse": null,
      "maxPerUseFormula": "",
      "maxFormula": "",
      "rechargeFormula": null,
      "isResource": false,
      "canBeLinked": false
    },
    "requiresPsionicFocus": false,
    "linkedChargeItem": {
      "id": null,
      "img": null,
      "name": null
    },
    "measureTemplate": {
      "type": "",
      "size": 0,
      "overrideColor": false,
      "customColor": "",
      "overrideTexture": false,
      "customTexture": ""
    },
    "actionType": "other",
    "attackBonus": "",
    "critConfirmBonus": "",
    "damage": {
      "parts": [],
      "alternativeParts": []
    },
    "summon": [],
    "attackParts": [],
    "autoscaleAttackParts": "",
    "formula": "",
    "attackCountFormula": "",
    "maxDamageDice": 0,
    "maxDamageDiceFormula": "",
    "ability": {
      "attack": "",
      "damage": "",
      "damageMult": 1,
      "critRange": 20,
      "critMult": 2,
      "twoHandedOnly": false,
      "vsTouchAc": false
    },
    "save": {
      "dc": "0",
      "description": "",
      "ability": "",
      "type": "",
      "dcAutoType": "",
      "dcAutoAbility": ""
    },
    "baseCl": "0",
    "sr": false,
    "pr": false,
    "metamagicFeats": {
      "maximized": false,
      "empowered": false,
      "enlarged": false,
      "intensified": false,
      "enhanced": false,
      "enhancedHalf": false,
      "widened": false
    },
    "effectNotes": "",
    "attackNotes": "",
    "specialActions": [],
    "favorite": false,
    "rollTableDraw": {
      "formula": "",
      "name": "",
      "pack": "",
      "id": ""
    },
    "learnedAt": {
      "class": [
        [
          "Bard",
          0
        ],
        [
          "Cleric",
          0
        ],
        [
          "Druid",
          0
        ],
        [
          "Paladin",
          1
        ],
        [
          "Ranger",
          1
        ],
        [
          "Wizard",
          0
        ],
        [
          "Sorcerer",
          0
        ]
      ],
      "domain": [],
      "subDomain": [],
      "elementalSchool": [],
      "bloodline": []
    },
    "level": 0,
    "clOffset": 0,
    "slOffset": 0,
    "school": "div",
    "subschool": "",
    "types": "",
    "components": {
      "value": "",
      "verbal": true,
      "somatic": true,
      "material": false,
      "focus": true,
      "divineFocus": 0
    },
    "castTime": "",
    "conditionals": [],
    "materials": {
      "value": "",
      "consumed": {
        "value": false,
        "_deprecated": true
      },
      "focus": "a clear crystal or mineral prism"
    },
    "isSpellSpontaneousReplacement": false,
    "spellbook": "primary",
    "preparation": {
      "preparedAmount": 0,
      "maxAmount": 0,
      "autoDeductCharges": true,
      "mode": "prepared"
    },
    "atWill": false,
    "powerPointsCost": 0,
    "display": "",
    "isPower": false,
    "shortDescription": "\n\n\n<p>\nBy means of <i>read magic, </i>you can decipher magical inscriptions on objects—books, scrolls, weapons, and the like—that would otherwise be unintelligible. This deciphering does not normally invoke the magic contained in the writing, although it may do so in the case of a cursed scroll. Furthermore, once the spell is cast and you have read the magical inscription, you are thereafter able to read that particular writing without recourse to the use of <i>read magic. </i>You can read at the rate of one page (250 words) per minute. The spell allows you to identify a <i>glyph of warding</i> with a DC 13 Spellcraft check, a <i>greater glyph of warding</i> with a DC 16 Spellcraft check, or any <i>symbol</i> spell with a Spellcraft check (DC 10 + spell level).\n</p><p><i>Read magic </i>can be made permanent with a <i>permanency</i> spell.\n</p><p><i>Focus: </i>A clear crystal or mineral prism.\n</p>\n<hr/>\n\n\n",
    "snip": "Read scrolls and spellbooks.",
    "spellDuration": "10 min./level\n",
    "spellEffect": "",
    "spellArea": "",
    "spellType": {
      "value": "",
      "_deprecated": true
    },
    "showInQuickbar": false,
    "specialPrepared": false,
    "isDomainSpell": false,
    "specialId": null,
    "customReferenceId": "",
    "attack": {
      "parts": []
    }
  },
  "sort": 600000,
  "flags": {},
  "img": "systems/D35E/icons/spells/school/div.png",
  "effects": [],
  "folder": null,
  "permission": {
    "default": 0
  },
  "_key": "!actors.items!Ue8jB87fgOak0IMG.L7VFHdntNVHXhEvP"
}