{
  "_id": "te2pBFD4gOsUmKhc",
  "name": "Repulsion",
  "type": "spell",
  "data": {
    "originVersion": 0,
    "originPack": "",
    "originId": "",
    "possibleUpdate": false,
    "description": {
      "value": "<div class=\"spell-description\">\n  <p>\n      <strong>School:</strong>&nbsp;abjuration;\n    <br>\n    <strong>Level:</strong>&nbsp;Cleric 7, Sorcerer 6, Wizard 6;\n    <strong>Domain:</strong>&nbsp;Nobility 7, Protection 7;\n    \n    \n    \n    <br>\n    <strong>Components:</strong>&nbsp;V, S, F/DF (a pair of small iron bars attached to two small canine statuettes, one black and one white, the whole array worth 50 gp)<br>\n    \n      <strong>Casting Time:</strong>&nbsp;1 standard action<br>\n    <strong>Range:</strong>&nbsp;10 feet<br>\n    <strong>Area:</strong>&nbsp;up to 10-ft.-radius/level emanation centered on you<br>\n    \n    \n    <strong>Duration:</strong>&nbsp;1 round/level (D)<br>\n    \n        <strong>Saving Throw:</strong>&nbsp;Will negates\n        <br>\n        <strong>Spell Resistance:</strong>&nbsp;yes<br>\n  </p>\n  <h2>Description</h2>\n  \n\n\n<p>\nAn invisible, mobile field surrounds you and prevents creatures from approaching you. You decide how big the field is at the time of casting (to the limit your level allows). Any creature within or entering the field must attempt a save. If it fails, it becomes unable to move toward you for the duration of the spell. Repelled creatures’ actions are not otherwise restricted.\n</p><p>They can fight other creatures and can cast spells and attack you with ranged weapons. If you move closer to an affected creature, nothing happens. (The creature is not forced back.) The creature is free to make melee attacks against you if you come within reach. If a repelled creature moves away from you and then tries to turn back toward you, it cannot move any closer if it is still within the spell’s area.\n</p><p><i>Arcane Focus: </i>A pair of small iron bars attached to two small canine statuettes, one black and one white, the whole array worth 50 gp.\n</p>\n<hr/>\n\n\n\n</div>\n",
      "chat": "",
      "unidentified": ""
    },
    "epic": "",
    "psionic": "",
    "nameFormula": "",
    "nameFromFormula": false,
    "tags": [],
    "uniqueId": "",
    "linkId": "",
    "linkSourceId": "",
    "linkImported": false,
    "linkSourceName": "",
    "source": "",
    "classSource": "",
    "userNonRemovable": false,
    "customAttributes": {},
    "customAttributesLocked": false,
    "customTag": "",
    "createdBy": "",
    "activation": {
      "cost": 1,
      "type": "standard"
    },
    "duration": {
      "value": null,
      "units": ""
    },
    "target": {
      "value": ""
    },
    "range": {
      "value": "10",
      "units": "ft",
      "long": null
    },
    "recharge": {
      "enabled": false,
      "formula": "",
      "current": 0
    },
    "uses": {
      "value": 0,
      "max": 0,
      "per": "",
      "autoDeductCharges": true,
      "allowMultipleUses": false,
      "chargesPerUse": 1,
      "maxPerUse": null,
      "maxPerUseFormula": "",
      "maxFormula": "",
      "rechargeFormula": null,
      "isResource": false,
      "canBeLinked": false
    },
    "requiresPsionicFocus": false,
    "linkedChargeItem": {
      "id": null,
      "img": null,
      "name": null
    },
    "measureTemplate": {
      "type": "circle",
      "size": 10,
      "overrideColor": false,
      "customColor": "",
      "overrideTexture": false,
      "customTexture": ""
    },
    "actionType": "other",
    "attackBonus": "",
    "critConfirmBonus": "",
    "damage": {
      "parts": [],
      "alternativeParts": []
    },
    "summon": [],
    "attackParts": [],
    "autoscaleAttackParts": "",
    "formula": "",
    "attackCountFormula": "",
    "maxDamageDice": 0,
    "maxDamageDiceFormula": "",
    "ability": {
      "attack": "",
      "damage": "",
      "damageMult": 1,
      "critRange": 20,
      "critMult": 2,
      "twoHandedOnly": false,
      "vsTouchAc": false
    },
    "save": {
      "dc": "0",
      "description": "Will negates",
      "ability": "",
      "type": "",
      "dcAutoType": "",
      "dcAutoAbility": ""
    },
    "baseCl": "0",
    "sr": true,
    "pr": false,
    "metamagicFeats": {
      "maximized": false,
      "empowered": false,
      "enlarged": false,
      "intensified": false,
      "enhanced": false,
      "enhancedHalf": false,
      "widened": false
    },
    "effectNotes": "",
    "attackNotes": "",
    "specialActions": [],
    "favorite": false,
    "rollTableDraw": {
      "formula": "",
      "name": "",
      "pack": "",
      "id": ""
    },
    "learnedAt": {
      "class": [
        [
          "Cleric",
          7
        ],
        [
          "Wizard",
          6
        ],
        [
          "Sorcerer",
          6
        ]
      ],
      "domain": [
        [
          "Nobility",
          7
        ],
        [
          "Protection",
          7
        ]
      ],
      "subDomain": [],
      "elementalSchool": [],
      "bloodline": []
    },
    "level": 6,
    "clOffset": 0,
    "slOffset": 0,
    "school": "abj",
    "subschool": "",
    "types": "",
    "components": {
      "value": "",
      "verbal": true,
      "somatic": true,
      "material": false,
      "focus": true,
      "divineFocus": 3
    },
    "castTime": "",
    "conditionals": [],
    "materials": {
      "value": "",
      "consumed": {
        "value": false,
        "_deprecated": true
      },
      "focus": "a pair of small iron bars attached to two small canine statuettes, one black and one white, the whole array worth 50 gp"
    },
    "isSpellSpontaneousReplacement": false,
    "spellbook": "primary",
    "preparation": {
      "preparedAmount": 0,
      "maxAmount": 0,
      "autoDeductCharges": true,
      "mode": "prepared"
    },
    "atWill": false,
    "powerPointsCost": 0,
    "display": "",
    "isPower": false,
    "shortDescription": "\n\n\n<p>\nAn invisible, mobile field surrounds you and prevents creatures from approaching you. You decide how big the field is at the time of casting (to the limit your level allows). Any creature within or entering the field must attempt a save. If it fails, it becomes unable to move toward you for the duration of the spell. Repelled creatures’ actions are not otherwise restricted.\n</p><p>They can fight other creatures and can cast spells and attack you with ranged weapons. If you move closer to an affected creature, nothing happens. (The creature is not forced back.) The creature is free to make melee attacks against you if you come within reach. If a repelled creature moves away from you and then tries to turn back toward you, it cannot move any closer if it is still within the spell’s area.\n</p><p><i>Arcane Focus: </i>A pair of small iron bars attached to two small canine statuettes, one black and one white, the whole array worth 50 gp.\n</p>\n<hr/>\n\n\n",
    "snip": "Creatures can’t approach you.",
    "spellDuration": "1 round/level (D)",
    "spellEffect": "",
    "spellArea": "up to 10-ft.-radius/level emanation centered on you",
    "spellType": {
      "value": "",
      "_deprecated": true
    },
    "showInQuickbar": false,
    "specialPrepared": false,
    "isDomainSpell": false,
    "specialId": null,
    "customReferenceId": "",
    "attack": {
      "parts": []
    }
  },
  "sort": 600000,
  "flags": {},
  "img": "systems/D35E/icons/spells/named-spells/repulsion.png",
  "effects": [],
  "folder": null,
  "permission": {
    "default": 0
  },
  "_key": "!actors.items!33obHnNVCLQU4HxJ.te2pBFD4gOsUmKhc"
}