{
  "_id": "R4ChgNtZFzQTfXqH",
  "name": "Shambler",
  "type": "spell",
  "data": {
    "originVersion": 0,
    "originPack": "",
    "originId": "",
    "possibleUpdate": false,
    "description": {
      "value": "<div class=\"spell-description\">\n  <p>\n      <strong>School:</strong>&nbsp;conjuration&nbsp;(creation);\n    <br>\n    <strong>Level:</strong>&nbsp;Druid 9;\n    <strong>Domain:</strong>&nbsp;Plant 9;\n    \n    \n    \n    <br>\n    <strong>Components:</strong>&nbsp;V, S<br>\n    \n      <strong>Casting Time:</strong>&nbsp;1 standard action<br>\n    <strong>Range:</strong>&nbsp;medium (100 ft. + 10 ft./level)<br>\n    \n    \n    <strong>Effect:</strong>&nbsp;Three or more shambling mounds, no two of which can be more than 30 ft. apart; see text<br>\n    <strong>Duration:</strong>&nbsp;Seven days or seven months (D); see text<br>\n    \n        <strong>Saving Throw:</strong>&nbsp;None\n        <br>\n        <strong>Spell Resistance:</strong>&nbsp;no<br>\n  </p>\n  <h2>Description</h2>\n  \n\n\n<p>\nThe <i>shambler </i>spell creates 1d4+2 shambling mounds with 11 HD each. The creatures willingly aid you in combat or battle, perform a specific mission, or serve as bodyguards. The creatures remain with you for seven days unless you dismiss them. If the shamblers are created only for guard duty, however, the duration of the spell is seven months. In this case, the shamblers can only be ordered to guard a specific site or location. Shamblers summoned to guard duty cannot move outside the spell’s range, which is measured from the point where each first appeared.\n</p><p>The shamblers have resistance to fire as normal shambling mounds do only if the terrain is rainy, marshy, or damp.\n</p>\n<hr/>\n\n\n\n</div>\n",
      "chat": "",
      "unidentified": ""
    },
    "epic": "",
    "psionic": "",
    "nameFormula": "",
    "nameFromFormula": false,
    "tags": [],
    "uniqueId": "",
    "linkId": "",
    "linkSourceId": "",
    "linkImported": false,
    "linkSourceName": "",
    "source": "",
    "classSource": "",
    "userNonRemovable": false,
    "customAttributes": {},
    "customAttributesLocked": false,
    "customTag": "",
    "createdBy": "",
    "activation": {
      "cost": 1,
      "type": "standard"
    },
    "duration": {
      "value": null,
      "units": ""
    },
    "target": {
      "value": ""
    },
    "range": {
      "value": null,
      "units": "medium",
      "long": null
    },
    "recharge": {
      "enabled": false,
      "formula": "",
      "current": 0
    },
    "uses": {
      "value": 0,
      "max": 0,
      "per": "",
      "autoDeductCharges": true,
      "allowMultipleUses": false,
      "chargesPerUse": 1,
      "maxPerUse": null,
      "maxPerUseFormula": "",
      "maxFormula": "",
      "rechargeFormula": null,
      "isResource": false,
      "canBeLinked": false
    },
    "requiresPsionicFocus": false,
    "linkedChargeItem": {
      "id": null,
      "img": null,
      "name": null
    },
    "measureTemplate": {
      "type": "",
      "size": 0,
      "overrideColor": false,
      "customColor": "",
      "overrideTexture": false,
      "customTexture": ""
    },
    "actionType": "other",
    "attackBonus": "",
    "critConfirmBonus": "",
    "damage": {
      "parts": [],
      "alternativeParts": []
    },
    "summon": [],
    "attackParts": [],
    "autoscaleAttackParts": "",
    "formula": "",
    "attackCountFormula": "",
    "maxDamageDice": 0,
    "maxDamageDiceFormula": "",
    "ability": {
      "attack": "",
      "damage": "",
      "damageMult": 1,
      "critRange": 20,
      "critMult": 2,
      "twoHandedOnly": false,
      "vsTouchAc": false
    },
    "save": {
      "dc": "0",
      "description": "None",
      "ability": "",
      "type": "",
      "dcAutoType": "",
      "dcAutoAbility": ""
    },
    "baseCl": "0",
    "sr": false,
    "pr": false,
    "metamagicFeats": {
      "maximized": false,
      "empowered": false,
      "enlarged": false,
      "intensified": false,
      "enhanced": false,
      "enhancedHalf": false,
      "widened": false
    },
    "effectNotes": "",
    "attackNotes": "",
    "specialActions": [],
    "favorite": false,
    "rollTableDraw": {
      "formula": "",
      "name": "",
      "pack": "",
      "id": ""
    },
    "learnedAt": {
      "class": [
        [
          "Druid",
          9
        ]
      ],
      "domain": [
        [
          "Plant",
          9
        ]
      ],
      "subDomain": [],
      "elementalSchool": [],
      "bloodline": []
    },
    "level": 9,
    "clOffset": 0,
    "slOffset": 0,
    "school": "con",
    "subschool": "creation",
    "types": "",
    "components": {
      "value": "",
      "verbal": true,
      "somatic": true,
      "material": false,
      "focus": false,
      "divineFocus": 0
    },
    "castTime": "",
    "conditionals": [],
    "materials": {
      "value": "",
      "consumed": {
        "value": false,
        "_deprecated": true
      },
      "focus": ""
    },
    "isSpellSpontaneousReplacement": false,
    "spellbook": "spelllike",
    "preparation": {
      "preparedAmount": 1,
      "maxAmount": 1,
      "autoDeductCharges": true,
      "mode": "prepared"
    },
    "atWill": false,
    "powerPointsCost": 0,
    "display": "",
    "isPower": false,
    "shortDescription": "\n\n\n<p>\nThe <i>shambler </i>spell creates 1d4+2 shambling mounds with 11 HD each. The creatures willingly aid you in combat or battle, perform a specific mission, or serve as bodyguards. The creatures remain with you for seven days unless you dismiss them. If the shamblers are created only for guard duty, however, the duration of the spell is seven months. In this case, the shamblers can only be ordered to guard a specific site or location. Shamblers summoned to guard duty cannot move outside the spell’s range, which is measured from the point where each first appeared.\n</p><p>The shamblers have resistance to fire as normal shambling mounds do only if the terrain is rainy, marshy, or damp.\n</p>\n<hr/>\n\n\n",
    "snip": "Summons 1d4+2 shambling mounds to fight for you.",
    "spellDuration": "Seven days or seven months (D); see text",
    "spellEffect": "Three or more shambling mounds, no two of which can be more than 30 ft. apart; see text",
    "spellArea": "",
    "spellType": {
      "value": "",
      "_deprecated": true
    },
    "showInQuickbar": false,
    "specialPrepared": false,
    "isDomainSpell": false,
    "specialId": null,
    "customReferenceId": "",
    "attack": {
      "parts": []
    }
  },
  "sort": 600000,
  "flags": {},
  "img": "systems/D35E/icons/spells/named-spells/shambler.png",
  "effects": [],
  "folder": null,
  "permission": {
    "default": 0
  },
  "_key": "!actors.items!ZzRPhzHIDJ5r5U5i.R4ChgNtZFzQTfXqH"
}