{
  "_id": "bewNYVj39ZkWZ4HZ",
  "name": "Silver Dragon, Ancient",
  "type": "npc",
  "img": "systems/D35E/icons/bestiary/token/dragon-silver.png",
  "items": [
    "ARsBV4Sbf3Yrhv07",
    "pY0JPC1HsUmprD6O",
    "fzfyxwBKxrq2quoM",
    "e081PeyXoDZBnEWR",
    "33rYUAxSCp8P99Xs",
    "5JWFD9MCLroXmhbe",
    "hyjvBPfUd8jaKJfu",
    "uRfbPuEkwrmjZ1Oh",
    "ItYA6sb25PEPpcsQ",
    "zUtoqMqK8YXANDai",
    "QDmm66h2mtaiRFcH",
    "WWYpAOg9SQTCGcJP",
    "v6NF0Sp5iglAc2L2",
    "Jf50AApREyARgwiK",
    "8Y4rjG4Mx7yKt4bG",
    "9nlRE8a7C4KNc90q",
    "TQE4SHlxG35W8EXC",
    "vb1mnJCxwvSsy5oy",
    "iSziCzwTUHW4M3gQ",
    "eOlGmReRQPwZ999a",
    "4822p8sLtwIj052R",
    "yqz1Fgm5GPDQXux1",
    "tHmmfhmLeOpwGBrA",
    "D838QEKwgBLiYktm",
    "jKGP7U3QQMaEnk3o",
    "IcTDfW1xyUHohnuz",
    "f4mR3DDVnfn72rgU"
  ],
  "effects": [],
  "folder": null,
  "sort": 0,
  "flags": {
    "core": {
      "sourceId": "Compendium.D35E.bestiary.bewNYVj39ZkWZ4HZ"
    },
    "D35E": {
      "loseDexToAC": false,
      "noStr": false,
      "noDex": false,
      "noInt": false,
      "noCon": false,
      "oneInt": false,
      "oneWis": false,
      "oneCha": false,
      "noEncumbrance": false,
      "mediumArmorFullSpeed": false,
      "heavyArmorFullSpeed": false,
      "multiAttack": false,
      "multiweaponAttack": false,
      "uncannyDodge": false,
      "naturalAttackCount": 6
    }
  },
  "system": {
    "shapechangeImg": "icons/svg/mystery-man.svg",
    "tokenImg": "systems/D35E/icons/bestiary/token/dragon-silver.png",
    "companionUuid": "",
    "companionPublicId": "",
    "companionUsePersonalKey": false,
    "companionAutosync": false,
    "companionLockGM": false,
    "abilities": {
      "str": {
        "total": 35,
        "mod": 12,
        "value": 35,
        "carryBonus": 0,
        "carryMultiplier": 1,
        "checkMod": 0,
        "damage": 0,
        "drain": 0,
        "penalty": 0,
        "userPenalty": 0,
        "origMod": 12,
        "origTotal": 35,
        "isZero": false
      },
      "dex": {
        "total": 10,
        "mod": 0,
        "value": 10,
        "checkMod": 0,
        "damage": 0,
        "drain": 0,
        "penalty": 0,
        "userPenalty": 0,
        "origMod": 0,
        "origTotal": 10,
        "isZero": false
      },
      "con": {
        "total": 25,
        "mod": 7,
        "value": 25,
        "checkMod": 0,
        "damage": 0,
        "drain": 0,
        "penalty": 0,
        "userPenalty": 0,
        "origMod": 7,
        "origTotal": 25,
        "isZero": false
      },
      "int": {
        "total": 26,
        "mod": 8,
        "value": 26,
        "checkMod": 0,
        "damage": 0,
        "drain": 0,
        "penalty": 0,
        "userPenalty": 0,
        "origMod": 8,
        "origTotal": 26,
        "isZero": false
      },
      "wis": {
        "total": 27,
        "mod": 8,
        "value": 27,
        "checkMod": 0,
        "damage": 0,
        "drain": 0,
        "penalty": 0,
        "userPenalty": 0,
        "origMod": 8,
        "origTotal": 27,
        "isZero": false
      },
      "cha": {
        "total": 26,
        "mod": 8,
        "value": 26,
        "checkMod": 0,
        "damage": 0,
        "drain": 0,
        "penalty": 0,
        "userPenalty": 0,
        "origMod": 8,
        "origTotal": 26,
        "isZero": false
      }
    },
    "resources": {
      "crush": {
        "max": 0,
        "_id": "5JWFD9MCLroXmhbe"
      },
      "frightfulPresence": {
        "max": 0,
        "_id": "hyjvBPfUd8jaKJfu"
      },
      "tailSweep": {
        "max": 0,
        "_id": "uRfbPuEkwrmjZ1Oh"
      },
      "tail": {
        "max": 0,
        "_id": "tHmmfhmLeOpwGBrA"
      },
      "bite": {
        "max": 0,
        "_id": "D838QEKwgBLiYktm",
        "value": 0
      },
      "claw": {
        "max": 0,
        "_id": "jKGP7U3QQMaEnk3o",
        "value": 0
      },
      "wing": {
        "max": 0,
        "_id": "IcTDfW1xyUHohnuz",
        "value": 0
      }
    },
    "attributes": {
      "encumbrance": {
        "level": 0,
        "levels": {
          "light": 8533,
          "medium": 17066,
          "heavy": 25600,
          "carry": 51200,
          "drag": 128000
        },
        "carriedWeight": 0
      },
      "senses": {
        "darkvision": 0,
        "blindsight": 0,
        "tremorsense": 0,
        "truesight": 0,
        "lowLight": false,
        "lowLightMultiplier": 2,
        "special": ""
      },
      "hd": {
        "base": {
          "_deprecated": true,
          "value": 0
        },
        "total": 34,
        "max": {
          "_deprecated": true,
          "value": 0
        },
        "racialClass": 34
      },
      "naturalAC": 0,
      "naturalACTotal": 33,
      "fortification": {
        "value": 0,
        "total": 0
      },
      "ac": {
        "normal": {
          "value": 0,
          "total": 39
        },
        "touch": {
          "value": 0,
          "total": 6
        },
        "flatFooted": {
          "value": 0,
          "total": 39
        }
      },
      "concealment": {
        "value": 0,
        "total": 0
      },
      "bab": {
        "value": 0,
        "total": 34,
        "base": 34
      },
      "cmd": {
        "value": 0,
        "total": 68,
        "flatFootedTotal": 68
      },
      "cmb": {
        "value": 0,
        "total": 58
      },
      "sr": {
        "formula": "",
        "total": 29
      },
      "pr": {
        "formula": "",
        "total": 0
      },
      "hardness": {
        "formula": "",
        "total": 0
      },
      "cmbNotes": "",
      "saveNotes": "",
      "acNotes": "",
      "cmdNotes": "",
      "srNotes": "",
      "attack": {
        "general": 0,
        "melee": 0,
        "ranged": 0,
        "sunder": 0,
        "bullrush": 0
      },
      "damage": {
        "general": 0,
        "weapon": 0,
        "spell": 0
      },
      "maxDexBonus": 999,
      "maxDex": {
        "gear": null,
        "encumbrance": null,
        "total": 999
      },
      "acp": {
        "gear": 0,
        "encumbrance": 0,
        "total": 0
      },
      "energyDrain": 0,
      "quadruped": false,
      "savingThrows": {
        "fort": {
          "total": 26,
          "base": 19
        },
        "ref": {
          "total": 19,
          "base": 19
        },
        "will": {
          "total": 27,
          "base": 19
        }
      },
      "hp": {
        "value": 459,
        "min": -100,
        "base": 0,
        "max": 459,
        "temp": 0,
        "nonlethal": 0
      },
      "turnUndeadHdTotal": 0,
      "turnUndeadUsesBonusFormula": "",
      "turnUndeadUses": 0,
      "prestigeCl": {
        "psionic": {
          "max": 0,
          "value": 0,
          "total": 0
        },
        "arcane": {
          "max": 0,
          "value": 0,
          "total": 0
        },
        "divine": {
          "max": 0,
          "value": 0,
          "total": 0
        },
        "cards": {
          "max": 0,
          "value": 0
        }
      },
      "turnUndeadUsesTotal": 0,
      "sneakAttackDiceTotal": 0,
      "minionClassLevels": {
        "none": 0
      },
      "minionDistance": {},
      "spellPointsTotal": [],
      "powerPointsTotal": 0,
      "arcaneSpellFailure": 0,
      "psionicFocus": false,
      "wounds": {
        "min": 0,
        "value": 50,
        "max": 50
      },
      "vigor": {
        "min": 0,
        "value": 221,
        "temp": 0,
        "max": 221
      },
      "init": {
        "value": 0,
        "bonus": 0,
        "total": 4
      },
      "prof": 2,
      "speed": {
        "land": {
          "base": 40,
          "total": 40,
          "run": 160
        },
        "climb": {
          "base": 0,
          "total": 0,
          "run": 0
        },
        "swim": {
          "base": 0,
          "total": 0,
          "run": 0
        },
        "burrow": {
          "base": 0,
          "total": 0,
          "run": 0
        },
        "fly": {
          "base": 200,
          "total": 200,
          "run": 800,
          "maneuverability": "average"
        }
      },
      "conditions": {
        "blind": false,
        "dazzled": false,
        "deaf": false,
        "entangled": false,
        "fatigued": false,
        "exhausted": false,
        "grappled": false,
        "helpless": false,
        "paralyzed": false,
        "pinned": false,
        "fear": false,
        "sickened": false,
        "stunned": false,
        "shaken": false,
        "polymorphed": false,
        "wildshaped": false,
        "prone": false,
        "dead": false,
        "dying": false,
        "disabled": false,
        "stable": false,
        "unconscious": false,
        "staggered": false,
        "invisible": false,
        "banished": false,
        "invisibility": false
      },
      "spells": {
        "concentration": {
          "bonus": 0,
          "context": ""
        },
        "spellbooks": {
          "primary": {
            "name": "Primary",
            "class": "",
            "cl": {
              "base": 0,
              "value": 0,
              "total": 0,
              "formula": ""
            },
            "concentration": 0,
            "bonusPrestigeCl": 0,
            "concentrationFormula": "",
            "concentrationNotes": "",
            "clNotes": "",
            "ability": "int",
            "spellslotAbility": "",
            "autoSpellLevels": true,
            "usePowerPoints": false,
            "autoSetup": true,
            "spellcastingType": null,
            "powerPointsFormula": "",
            "dailyPowerPointsFormula": "",
            "powerPoints": 0,
            "powerPointsTotal": 0,
            "maximumPowerPointLimit": "@cl",
            "arcaneSpellFailure": true,
            "baseDCFormula": "10 + @sl + @ablMod",
            "spontaneous": false,
            "hasSpecialSlot": false,
            "showOnlyPrepared": false,
            "specialSlots": {
              "level1": null,
              "level2": null,
              "level3": null,
              "level4": null,
              "level5": null,
              "level6": null,
              "level7": null,
              "level8": null,
              "level9": null
            },
            "maxPrestigeCl": 0,
            "allSpellsKnown": false,
            "hasPrestigeCl": false,
            "canAddPrestigeCl": false,
            "canRemovePrestigeCl": false,
            "powersKnown": 0,
            "powersMaxLevel": 0,
            "spells": {
              "spell0": {
                "value": 0,
                "max": 0,
                "base": 0,
                "known": 0,
                "maxKnown": 0,
                "bonus": 0,
                "classBase": 0
              },
              "spell1": {
                "value": 0,
                "max": 0,
                "base": 0,
                "known": 0,
                "maxKnown": 0,
                "bonus": 0,
                "classBase": 0
              },
              "spell2": {
                "value": 0,
                "max": 0,
                "base": 0,
                "known": 0,
                "maxKnown": 0,
                "bonus": 0,
                "classBase": 0
              },
              "spell3": {
                "value": 0,
                "max": 0,
                "base": 0,
                "known": 0,
                "maxKnown": 0,
                "bonus": 0,
                "classBase": 0
              },
              "spell4": {
                "value": 0,
                "max": 0,
                "base": 0,
                "known": 0,
                "maxKnown": 0,
                "bonus": 0,
                "classBase": 0
              },
              "spell5": {
                "value": 0,
                "max": 0,
                "base": 0,
                "known": 0,
                "maxKnown": 0,
                "bonus": 0,
                "classBase": 0
              },
              "spell6": {
                "value": 0,
                "max": 0,
                "base": 0,
                "known": 0,
                "maxKnown": 0,
                "bonus": 0,
                "classBase": 0
              },
              "spell7": {
                "value": 0,
                "max": 0,
                "base": 0,
                "known": 0,
                "maxKnown": 0,
                "bonus": 0,
                "classBase": 0
              },
              "spell8": {
                "value": 0,
                "max": 0,
                "base": 0,
                "known": 0,
                "maxKnown": 0,
                "bonus": 0,
                "classBase": 0
              },
              "spell9": {
                "value": 0,
                "max": 0,
                "base": 0,
                "known": 0,
                "maxKnown": 0,
                "bonus": 0,
                "classBase": 0
              }
            },
            "powerPointsValue": {
              "max": 0,
              "value": 0
            },
            "spellcastingAbilityBonus": 0
          },
          "secondary": {
            "name": "Secondary",
            "class": "",
            "cl": {
              "base": 0,
              "value": 0,
              "total": 0,
              "formula": ""
            },
            "concentration": 0,
            "bonusPrestigeCl": 0,
            "concentrationFormula": "",
            "concentrationNotes": "",
            "clNotes": "",
            "ability": "int",
            "spellslotAbility": "",
            "autoSpellLevels": true,
            "usePowerPoints": false,
            "autoSetup": true,
            "spellcastingType": null,
            "powerPointsFormula": "",
            "powerPoints": 0,
            "powerPointsTotal": 0,
            "maximumPowerPointLimit": "@cl",
            "dailyPowerPointsFormula": "",
            "arcaneSpellFailure": true,
            "baseDCFormula": "10 + @sl + @ablMod",
            "spontaneous": false,
            "hasSpecialSlot": false,
            "showOnlyPrepared": false,
            "specialSlots": {
              "level1": null,
              "level2": null,
              "level3": null,
              "level4": null,
              "level5": null,
              "level6": null,
              "level7": null,
              "level8": null,
              "level9": null
            },
            "maxPrestigeCl": 0,
            "allSpellsKnown": false,
            "hasPrestigeCl": false,
            "canAddPrestigeCl": false,
            "canRemovePrestigeCl": false,
            "powersKnown": 0,
            "powersMaxLevel": 0,
            "spells": {
              "spell0": {
                "value": 0,
                "max": 0,
                "base": 0,
                "known": 0,
                "maxKnown": 0,
                "bonus": 0,
                "classBase": 0
              },
              "spell1": {
                "value": 0,
                "max": 0,
                "base": 0,
                "known": 0,
                "maxKnown": 0,
                "bonus": 0,
                "classBase": 0
              },
              "spell2": {
                "value": 0,
                "max": 0,
                "base": 0,
                "known": 0,
                "maxKnown": 0,
                "bonus": 0,
                "classBase": 0
              },
              "spell3": {
                "value": 0,
                "max": 0,
                "base": 0,
                "known": 0,
                "maxKnown": 0,
                "bonus": 0,
                "classBase": 0
              },
              "spell4": {
                "value": 0,
                "max": 0,
                "base": 0,
                "known": 0,
                "maxKnown": 0,
                "bonus": 0,
                "classBase": 0
              },
              "spell5": {
                "value": 0,
                "max": 0,
                "base": 0,
                "known": 0,
                "maxKnown": 0,
                "bonus": 0,
                "classBase": 0
              },
              "spell6": {
                "value": 0,
                "max": 0,
                "base": 0,
                "known": 0,
                "maxKnown": 0,
                "bonus": 0,
                "classBase": 0
              },
              "spell7": {
                "value": 0,
                "max": 0,
                "base": 0,
                "known": 0,
                "maxKnown": 0,
                "bonus": 0,
                "classBase": 0
              },
              "spell8": {
                "value": 0,
                "max": 0,
                "base": 0,
                "known": 0,
                "maxKnown": 0,
                "bonus": 0,
                "classBase": 0
              },
              "spell9": {
                "value": 0,
                "max": 0,
                "base": 0,
                "known": 0,
                "maxKnown": 0,
                "bonus": 0,
                "classBase": 0
              }
            },
            "powerPointsValue": {
              "max": 0,
              "value": 0
            },
            "spellcastingAbilityBonus": 0
          },
          "tertiary": {
            "name": "Tertiary",
            "class": "",
            "cl": {
              "base": 0,
              "value": 0,
              "total": 0,
              "formula": ""
            },
            "concentration": 0,
            "bonusPrestigeCl": 0,
            "concentrationFormula": "",
            "concentrationNotes": "",
            "clNotes": "",
            "ability": "int",
            "spellslotAbility": "",
            "autoSpellLevels": true,
            "usePowerPoints": false,
            "autoSetup": true,
            "spellcastingType": null,
            "powerPointsFormula": "",
            "powerPoints": 0,
            "powerPointsTotal": 0,
            "maximumPowerPointLimit": "@cl",
            "dailyPowerPointsFormula": "",
            "arcaneSpellFailure": true,
            "baseDCFormula": "10 + @sl + @ablMod",
            "spontaneous": false,
            "hasSpecialSlot": false,
            "showOnlyPrepared": false,
            "specialSlots": {
              "level1": null,
              "level2": null,
              "level3": null,
              "level4": null,
              "level5": null,
              "level6": null,
              "level7": null,
              "level8": null,
              "level9": null
            },
            "maxPrestigeCl": 0,
            "allSpellsKnown": false,
            "hasPrestigeCl": false,
            "canAddPrestigeCl": false,
            "canRemovePrestigeCl": false,
            "powersKnown": 0,
            "powersMaxLevel": 0,
            "spells": {
              "spell0": {
                "value": 0,
                "max": 0,
                "base": 0,
                "known": 0,
                "maxKnown": 0,
                "bonus": 0,
                "classBase": 0
              },
              "spell1": {
                "value": 0,
                "max": 0,
                "base": 0,
                "known": 0,
                "maxKnown": 0,
                "bonus": 0,
                "classBase": 0
              },
              "spell2": {
                "value": 0,
                "max": 0,
                "base": 0,
                "known": 0,
                "maxKnown": 0,
                "bonus": 0,
                "classBase": 0
              },
              "spell3": {
                "value": 0,
                "max": 0,
                "base": 0,
                "known": 0,
                "maxKnown": 0,
                "bonus": 0,
                "classBase": 0
              },
              "spell4": {
                "value": 0,
                "max": 0,
                "base": 0,
                "known": 0,
                "maxKnown": 0,
                "bonus": 0,
                "classBase": 0
              },
              "spell5": {
                "value": 0,
                "max": 0,
                "base": 0,
                "known": 0,
                "maxKnown": 0,
                "bonus": 0,
                "classBase": 0
              },
              "spell6": {
                "value": 0,
                "max": 0,
                "base": 0,
                "known": 0,
                "maxKnown": 0,
                "bonus": 0,
                "classBase": 0
              },
              "spell7": {
                "value": 0,
                "max": 0,
                "base": 0,
                "known": 0,
                "maxKnown": 0,
                "bonus": 0,
                "classBase": 0
              },
              "spell8": {
                "value": 0,
                "max": 0,
                "base": 0,
                "known": 0,
                "maxKnown": 0,
                "bonus": 0,
                "classBase": 0
              },
              "spell9": {
                "value": 0,
                "max": 0,
                "base": 0,
                "known": 0,
                "maxKnown": 0,
                "bonus": 0,
                "classBase": 0
              }
            },
            "powerPointsValue": {
              "max": 0,
              "value": 0
            },
            "spellcastingAbilityBonus": 0
          },
          "spelllike": {
            "name": "Spell-likes",
            "class": "_hd",
            "cl": {
              "base": 0,
              "value": 0,
              "total": 34,
              "formula": ""
            },
            "concentration": 0,
            "bonusPrestigeCl": 0,
            "concentrationFormula": "",
            "concentrationNotes": "",
            "clNotes": "",
            "ability": "cha",
            "spellslotAbility": "",
            "autoSpellLevels": true,
            "usePowerPoints": false,
            "autoSetup": false,
            "spellcastingType": "None",
            "powerPointsFormula": "",
            "powerPoints": 0,
            "powerPointsTotal": 0,
            "maximumPowerPointLimit": "@cl",
            "dailyPowerPointsFormula": "",
            "arcaneSpellFailure": true,
            "baseDCFormula": "10 + @sl + @ablMod",
            "spontaneous": false,
            "hasSpecialSlot": false,
            "showOnlyPrepared": false,
            "specialSlots": {
              "level1": null,
              "level2": null,
              "level3": null,
              "level4": null,
              "level5": null,
              "level6": null,
              "level7": null,
              "level8": null,
              "level9": null
            },
            "maxPrestigeCl": 0,
            "allSpellsKnown": false,
            "hasPrestigeCl": false,
            "canAddPrestigeCl": false,
            "canRemovePrestigeCl": false,
            "powersKnown": 0,
            "powersMaxLevel": 0,
            "spells": {
              "spell0": {
                "value": 0,
                "max": 0,
                "base": 0,
                "known": 0,
                "maxKnown": 0,
                "bonus": 0,
                "classBase": 0
              },
              "spell1": {
                "value": 0,
                "max": 0,
                "base": 0,
                "known": 0,
                "maxKnown": 0,
                "bonus": 0,
                "classBase": 0
              },
              "spell2": {
                "value": 0,
                "max": 0,
                "base": 0,
                "known": 0,
                "maxKnown": 0,
                "bonus": 0,
                "classBase": 0
              },
              "spell3": {
                "value": 0,
                "max": 0,
                "base": 0,
                "known": 0,
                "maxKnown": 0,
                "bonus": 0,
                "classBase": 0
              },
              "spell4": {
                "value": 0,
                "max": 0,
                "base": 0,
                "known": 0,
                "maxKnown": 0,
                "bonus": 0,
                "classBase": 0
              },
              "spell5": {
                "value": 0,
                "max": 0,
                "base": 0,
                "known": 0,
                "maxKnown": 0,
                "bonus": 0,
                "classBase": 0
              },
              "spell6": {
                "value": 0,
                "max": 0,
                "base": 0,
                "known": 0,
                "maxKnown": 0,
                "bonus": 0,
                "classBase": 0
              },
              "spell7": {
                "value": 0,
                "max": 0,
                "base": 0,
                "known": 0,
                "maxKnown": 0,
                "bonus": 0,
                "classBase": 0
              },
              "spell8": {
                "value": 0,
                "max": 0,
                "base": 0,
                "known": 0,
                "maxKnown": 0,
                "bonus": 0,
                "classBase": 0
              },
              "spell9": {
                "value": 0,
                "max": 0,
                "base": 0,
                "known": 0,
                "maxKnown": 0,
                "bonus": 0,
                "classBase": 0
              }
            },
            "powerPointsValue": {
              "max": 0,
              "value": 0
            },
            "spellcastingAbilityBonus": 0
          }
        }
      },
      "cards": {
        "concentration": {
          "bonus": 0,
          "context": ""
        },
        "decks": {
          "primary": {
            "name": "Primary",
            "class": "",
            "cl": {
              "base": null,
              "value": 0,
              "total": 0,
              "formula": ""
            },
            "autoHandSize": false,
            "handSize": {
              "base": 0,
              "value": 0,
              "total": 0,
              "formula": ""
            },
            "drawRandom": false,
            "deckSize": {
              "base": 0,
              "value": 0,
              "total": 0,
              "formula": ""
            },
            "clNotes": "",
            "ability": "int",
            "spellslotAbility": "",
            "addHalfOtherLevels": false,
            "autoSetup": true,
            "baseDCFormula": "10 + @sl + @ablMod",
            "maxPrestigeCl": 0,
            "hasPrestigeCl": false,
            "canAddPrestigeCl": false,
            "canRemovePrestigeCl": false
          },
          "secondary": {
            "name": "Secondary",
            "class": "",
            "cl": {
              "base": null,
              "value": 0,
              "total": 0,
              "formula": ""
            },
            "autoHandSize": false,
            "handSize": {
              "base": 0,
              "value": 0,
              "total": 0,
              "formula": ""
            },
            "drawRandom": false,
            "deckSize": {
              "base": 0,
              "value": 0,
              "total": 0,
              "formula": ""
            },
            "clNotes": "",
            "ability": "int",
            "spellslotAbility": "",
            "addHalfOtherLevels": false,
            "autoSetup": true,
            "baseDCFormula": "10 + @sl + @ablMod",
            "maxPrestigeCl": 0,
            "hasPrestigeCl": false,
            "canAddPrestigeCl": false,
            "canRemovePrestigeCl": false
          }
        }
      },
      "spellcasting": {
        "_deprecated": true
      },
      "spelldc": {
        "_deprecated": true
      },
      "damageReduction": {
        "any": 0,
        "types": []
      },
      "energyResistance": [],
      "spellLevel": 0,
      "creatureType": "dragon",
      "mods": {
        "skills": {}
      },
      "runSpeedMultiplierModifier": 0,
      "speedMultiplier": 0
    },
    "details": {
      "level": {
        "value": 34,
        "min": 0,
        "max": 40,
        "available": 1
      },
      "breakDC": {
        "base": 0,
        "total": 0
      },
      "levelUpData": [
        {
          "level": 1,
          "id": "_level1",
          "classId": null,
          "class": null,
          "classImage": null,
          "skills": {},
          "hp": 0,
          "hasFeat": true,
          "hasAbility": false
        }
      ],
      "alignment": "Always lawful good",
      "biography": {
        "value": "",
        "public": ""
      },
      "notes": {
        "value": "<div topic='Silver Dragon' level='4'><p><h4>Silver Dragon</h4></p><p/><p/><p/><p/><div topic='Dragon' level='8'><p><b>Dragon (Cold)</b></p></div><div topic='Environment' level='8'><p><b>Environment:</b> Temperate mountains</p></div><div topic='Organization' level='8'><p><b>Organization:</b> Wyrmling, very young, young, juvenile, and young adult: solitary or clutch (2-5); adult, mature adult, old, very old, ancient, wyrm, or great wyrm: solitary, pair, or family (1-2 and 2-5 offspring)</p></div><div topic='Challenge Ratings' level='8'><p><b>Challenge Ratings:</b> Wyrmling 4; very young 5; young 7; juvenile 10; young adult 13; adult 15; mature adult 18; old 20; very old 21; ancient 23; wyrm 24; great wyrm 26</p></div><div topic='Treasure' level='8'><p><b>Treasure:</b> Triple standard</p></div><div topic='Alignment' level='8'><p><b>Alignment:</b> Always lawful good</p></div><div topic='Advancement' level='8'><p><b>Advancement:</b> Wyrmling 8-9 HD; very young 11-12 HD; young 14-15 HD; juvenile 17-18 HD; young adult 20-21 HD; adult 23-24 HD; mature adult 26-27 HD; old 29-30 HD; very old 32-33 HD; ancient 35-36 HD; wyrm 38-39 HD; great wyrm 41+ HD</p></div><div topic='Level Adjustment' level='8'><p><b>Level Adjustment:</b> Wyrmling +4; very young +4; young +5; others -</p><p/></div><div topic='Silver Dragons by Age' level='5'><p><h2>Silver Dragons by Age</h2></p><table class='table table-sm table-hover' width='100%' border='1' cellpadding='2' cellspacing='2' frame='VOID' rules='ROWS'><tr maxcol='17' curcol='17'><td><b>Age</b><br/></td><td><b>Size</b><br/></td><td><b>Hit Dice (hp)</b><br/></td><td><b>Str</b><br/></td><td><b>Dex</b><br/></td><td><b>Con</b><br/></td><td><b>Int</b><br/></td><td><b>Wis</b><br/></td><td><b>Cha</b><br/></td><td><b>Base Attack/</b><br/><b>Grapple</b><br/></td> <td><b>Attack</b><br/></td><td><b>Fort Save</b><br/></td><td><b>Ref Save</b><br/></td><td><b>Will Save</b><br/></td><td><b>Breath Weapon (DC)</b><br/></td><td><b>Frightful Presence DC</b><br/></td></tr><tr maxcol='17' curcol='17'><td>Wyrmling<br/></td><td>S<br/></td><td>7d12+7 (52)<br/></td><td>13<br/></td><td>10<br/></td><td>13<br/></td><td>14<br/></td><td>15<br/></td><td>14<br/></td><td>+7/+4<br/></td><td>+9<br/></td><td>+6<br/></td><td>+5<br/></td><td>+7<br/></td><td>2d8 (14)<br/></td><td>-<br/></td></tr><tr maxcol='17' curcol='17'><td>Very young<br/></td><td>M<br/></td><td>10d12+20 (85)<br/></td><td>15<br/></td><td>10<br/></td><td>15<br/></td><td>14<br/></td><td>15<br/></td><td>14<br/></td><td>+10/+12<br/></td><td>+12<br/></td><td>+9<br/></td><td>+7<br/></td><td>+9<br/></td><td>4d8 (17)<br/></td><td>-<br/></td></tr><tr maxcol='17' curcol='17'><td>Young<br/></td><td>M<br/></td><td>13d12+26 (110)<br/></td><td>17<br/></td><td>10<br/></td><td>15<br/></td><td>16<br/></td><td>17<br/></td><td>16<br/></td><td>+13/+16<br/></td><td>+16<br/></td><td>+10<br/></td><td>+8<br/></td><td>+11<br/></td><td>6d8 (18)<br/></td><td>-<br/></td></tr><tr maxcol='17' curcol='17'><td>Juvenile<br/></td><td>L<br/></td><td>16d12+48 (152)<br/></td><td>19<br/></td><td>10<br/></td><td>17<br/></td><td>18<br/></td><td>19<br/></td><td>18<br/></td><td>+16/+24<br/></td><td>+19<br/></td><td>+13<br/></td><td>+10<br/></td><td>+14<br/></td><td>8d8 (21)<br/></td><td>-<br/></td></tr><tr maxcol='17' curcol='17'><td>Young adult<br/></td><td>L<br/></td><td>19d12+76 (199)<br/></td><td>23<br/></td><td>10<br/></td><td>19<br/></td><td>18<br/></td><td>19<br/></td><td>18<br/></td><td>+19/+29<br/></td><td>+24<br/></td><td>+15<br/></td><td>+11<br/></td><td>+15<br/></td><td>10d8 (23)<br/></td><td>23<br/></td></tr><tr maxcol='17' curcol='17'><td>Adult<br/></td><td>H<br/></td><td>22d12+110 (253)<br/></td><td>27<br/></td><td>10<br/></td><td>21<br/></td><td>20<br/></td><td>21<br/></td><td>20<br/></td><td>+22/+38<br/></td><td>+28<br/></td><td>+18<br/></td><td>+13<br/></td><td>+18<br/></td><td>12d8 (26)<br/></td><td>26<br/></td></tr><tr maxcol='17' curcol='17'><td>Mature adult<br/></td><td>H<br/></td><td>25d12+125 (287)<br/></td><td>29<br/></td><td>10<br/></td><td>21<br/></td><td>20<br/></td><td>21<br/></td><td>20<br/></td><td>+25/+42<br/></td><td>+32<br/></td><td>+19<br/></td><td>+14<br/></td><td>+19<br/></td><td>14d8 (27)<br/></td><td>27<br/></td></tr><tr maxcol='17' curcol='17'><td>Old<br/></td><td>H<br/></td><td>28d12+168 (350)<br/></td><td>31<br/></td><td>10<br/></td><td>23<br/></td><td>22<br/></td><td>23<br/></td><td>22<br/></td><td>+28/+46<br/></td><td>+36<br/></td><td>+22<br/></td><td>+16<br/></td><td>+22<br/></td><td>16d8 (30)<br/></td><td>30<br/></td></tr><tr maxcol='17' curcol='17'><td>Very old<br/></td><td>H<br/></td><td>31d12+186 (387)<br/></td><td>33<br/></td><td>10<br/></td><td>23<br/></td><td>24<br/></td><td>25<br/></td><td>24<br/></td><td>+31/+50<br/></td><td>+40<br/></td><td>+23<br/></td><td>+17<br/></td><td>+24<br/></td><td>18d8 (31)<br/></td><td>32<br/></td></tr><tr maxcol='17' curcol='17'><td>Ancient<br/></td><td>G<br/></td><td>34d12+238 (459)<br/></td><td>35<br/></td><td>10<br/></td><td>25<br/></td><td>26<br/></td><td>27<br/></td><td>26<br/></td><td>+34/+58<br/></td><td>+42<br/></td><td>+26<br/></td><td>+19<br/></td><td>+27<br/></td><td>20d8 (34)<br/></td><td>35<br/></td></tr><tr maxcol='17' curcol='17'><td>Wyrm<br/></td><td>G<br/></td><td>37d12+333 (573)<br/></td><td>39<br/></td><td>10<br/></td><td>29<br/></td><td>28<br/></td><td>29<br/></td><td>28<br/></td><td>+37/+63<br/></td><td>+47<br/></td><td>+29<br/></td><td>+20<br/></td><td>+29<br/></td><td>22d8 (37)<br/></td><td>37<br/></td></tr><tr maxcol='17' curcol='17'><td>Great wyrm<br/></td><td>C<br/></td><td>40d12+400 (660)<br/></td><td>43<br/></td><td>10<br/></td><td>31<br/></td><td>30<br/></td><td>31<br/></td><td>30<br/></td><td>+40/+72<br/></td><td>+48<br/></td><td>+32<br/></td><td>+22<br/></td><td>+32<br/></td><td>24d8 (40)<br/></td><td>40<br/></td></tr></table><p/></div><div topic='Silver Dragon Abilities by Age' level='5'><p><h2>Silver Dragon Abilities by Age</h2></p><table class='table table-sm table-hover' width='100%' border='1' cellpadding='2' cellspacing='2' frame='VOID' rules='ROWS'><tr maxcol='8' curcol='8'><td><b>Age</b><br/></td><td><b>Speed</b><br/></td><td><b>Initiative</b><br/></td><td><b>AC</b><br/></td><td><b>Special Abilities</b><br/></td><td><b>Caster Level</b><br/></td><td><b>SR</b><br/></td></tr><tr maxcol='8' curcol='8'><td>Wyrmling<br/></td><td>40 ft., fly 100 ft. (average)<br/></td><td>+0<br/></td><td>17 (+1 size, +6 natural), touch 11, flat-footed 17<br/></td><td>Alternate form, immunity to acid and cold, cloudwalking, vulnerability to fire<br/></td><td>-<br/></td><td>-<br/></td></tr><tr maxcol='8' curcol='8'><td>Very young<br/></td><td>40 ft., fly 150 ft. (poor)<br/></td><td>+0<br/></td><td>19 (+9 natural), touch 10, flat-footed 19<br/></td><td/><td>-<br/></td><td>-<br/></td></tr><tr maxcol='8' curcol='8'><td>Young<br/></td><td>40 ft., fly 150 ft. (poor)<br/></td><td>+0<br/></td><td>22 (+12 natural), touch 10, flat-footed 22<br/></td><td/><td>1st<br/></td><td>-<br/></td></tr><tr maxcol='8' curcol='8'><td>Juvenile<br/></td><td>40 ft., fly 150 ft. (poor)<br/></td><td>+0<br/></td><td>24 (-1 size, +15 natural), touch 9, flat-footed 24<br/></td><td><i>Feather fall</i><br/></td><td>3rd<br/></td><td>-<br/></td></tr><tr maxcol='8' curcol='8'><td>Young adult<br/></td><td>40 ft., fly 150 ft. (poor)<br/></td><td>+0<br/></td><td>27 (-1 size, +18 natural), touch 9, flat-footed 27<br/></td><td>Damage reduction 5/magic<br/></td><td>5th<br/></td><td>20<br/></td></tr><tr maxcol='8' curcol='8'><td>Adult<br/></td><td>40 ft., fly 150 ft. (poor)<br/></td><td>+0<br/></td><td>29 (-2 size, +21 natural), touch 8, flat-footed 29<br/></td><td><i>Fog cloud</i><br/></td><td>7th<br/></td><td>22<br/></td></tr><tr maxcol='8' curcol='8'><td>Mature adult<br/></td><td>40 ft., fly 150 ft. (poor)<br/></td><td>+0<br/></td><td>32 (-2 size, +24 natural), touch 8, flat-footed 32<br/></td><td>Damage reduction 10/magic<br/></td><td>9th<br/></td><td>24<br/></td></tr><tr maxcol='8' curcol='8'><td>Old<br/></td><td>40 ft., fly 150 ft. (poor)<br/></td><td>+0<br/></td><td>35 (-2 size, +27 natural), touch 8, flat-footed 35<br/></td><td><i>Control winds</i><br/></td><td>11th<br/></td><td>26<br/></td></tr><tr maxcol='8' curcol='8'><td>Very old<br/></td><td>40 ft., fly 150 ft. (poor)<br/></td><td>+0<br/></td><td>38 (-2 size, +30 natural), touch 8, flat-footed 38<br/></td><td>Damage reduction 15/magic<br/></td><td>13th<br/></td><td>27<br/></td></tr><tr maxcol='8' curcol='8'><td>Ancient<br/></td><td>40 ft., fly 200 ft. (clumsy)<br/></td><td>+0<br/></td><td>39 (-4 size, +33 natural), touch 6, flat-footed 39<br/></td><td><i>Control weather</i><br/></td><td>15th<br/></td><td>29<br/></td></tr><tr maxcol='8' curcol='8'><td>Wyrm<br/></td><td>40 ft., fly 200 ft. (clumsy)<br/></td><td>+0<br/></td><td>42 (-4 size, +36 natural), touch 6, flat-footed 42<br/></td><td>Damage reduction 20/magic<br/></td><td>17th<br/></td><td>30<br/></td></tr><tr maxcol='8' curcol='8'><td>Great wyrm<br/></td><td>40 ft., fly 200 ft. (clumsy)<br/></td><td>+0<br/></td><td>41 (-8 size, +39 natural), touch 2, flat-footed 41<br/></td><td><i>Reverse gravity</i><br/></td><td>19th<br/></td><td>32<br/></td></tr><tr maxcol='8' curcol='2'><td colspan='7'>*Can also cast cleric spells and those from the Air, Good, Law, and Sun domains as arcane spells.<br/></td></tr></table><p>A silver wyrmling's scales are blue-gray with silver highlights. As the dragon approaches adulthood, its color gradually brightens until the individual scales are scarcely visible.</p></div><div topic='Combat' level='5'><p><h2>Combat</h2></p><p>Silver dragons are not violent and avoid combat except when faced with highly evil or aggressive foes. If necessary, they use <i>fog cloud</i> or <i>control weather</i> to blind or confuse opponents before attacking. When angry, they use <i>reverse gravity</i> to fling enemies helplessly into the air, where they can be snatched. Against flying opponents, a silver dragon hides in clouds (creating some with <i>control weather</i> on clear days), then jumps to the attack when it has the advantage.</p><div topic='Breath Weapon' level='8'><p><b>Breath Weapon (Su):</b> A silver dragon has two types of breath weapon, a cone of cold and a cone of paralyzing gas. Creatures within a cone of paralyzing gas must succeed on a Fortitude save or be paralyzed for 1d6 rounds plus 1 round per age category of the dragon.</p></div><div topic='Alternate Form' level='8'><p><b>Alternate Form (Su):</b> A silver dragon can assume any animal or humanoid form of Medium size or smaller as a standard action three times per day. This ability functions as a <i>polymorph</i> spell cast on itself at its caster level, except that the dragon does not regain hit points for changing form and can only assume the form of an anirmal or humanoid. The dragon can remain in its animal or humanoid form until it chooses to assume a new one or return to its natural form.</p></div><div topic='Cloudwalking' level='8'><p><b>Cloudwalking (Su):</b> A silver dragon can tread on clouds or fog as though on solid ground. The ability functions continuously but can be negated or resumed at will.</p></div><div topic='Spell-Like Abilities' level='8'><p><b>Spell-Like Abilities:</b> 3/day-<i>fog cloud</i> (adult or older), <i>control winds</i> (old or older); 2/day-<i>feather fall</i> (juvenile or older); 1/day- <i>control weather</i> (ancient or older), <i>reverse gravity</i> (great wyrm).</p></div><div topic='Skills' level='8'><p><b>Skills:</b> Bluff, Disguise, and Jump are considered class skills for silver dragons.</p><p/></div></div></div>    ",
        "public": ""
      },
      "bonusSkillRankFormula": "",
      "type": "Cold",
      "environment": "",
      "cr": 23,
      "totalCr": 23,
      "xp": {
        "value": 10
      },
      "levelUpProgression": false,
      "advancement": {
        "hd": [
          {
            "lower": 35,
            "upper": 36,
            "size": "grg"
          }
        ],
        "byClass": false,
        "none": false,
        "originalHD": 0
      }
    },
    "skills": {
      "apr": {
        "value": 0,
        "ability": "int",
        "rt": false,
        "acp": false,
        "rank": 0,
        "notes": "",
        "mod": 8,
        "background": false,
        "visibility": "default",
        "cs": true,
        "points": 0,
        "acpPenalty": 0,
        "energyDrainPenalty": 0,
        "abilityModifier": 8
      },
      "blc": {
        "value": 0,
        "ability": "dex",
        "rt": false,
        "acp": true,
        "rank": 0,
        "notes": "",
        "mod": 0,
        "background": false,
        "visibility": "default",
        "cs": false,
        "points": 0,
        "acpPenalty": 0,
        "energyDrainPenalty": 0,
        "abilityModifier": 0
      },
      "blf": {
        "value": 0,
        "ability": "cha",
        "rt": false,
        "acp": false,
        "rank": 36,
        "notes": "",
        "mod": 44,
        "background": false,
        "visibility": "default",
        "cs": true,
        "points": 36,
        "acpPenalty": 0,
        "energyDrainPenalty": 0,
        "abilityModifier": 8
      },
      "clm": {
        "value": 0,
        "ability": "str",
        "rt": false,
        "acp": true,
        "rank": 0,
        "notes": "",
        "mod": 12,
        "background": false,
        "visibility": "default",
        "cs": true,
        "points": 0,
        "acpPenalty": 0,
        "energyDrainPenalty": 0,
        "abilityModifier": 12
      },
      "coc": {
        "value": 0,
        "ability": "con",
        "rt": false,
        "acp": false,
        "rank": 36,
        "notes": "",
        "mod": 43,
        "background": false,
        "visibility": "default",
        "cs": true,
        "points": 36,
        "acpPenalty": 0,
        "energyDrainPenalty": 0,
        "abilityModifier": 7
      },
      "crf": {
        "value": 0,
        "ability": "int",
        "rt": false,
        "acp": false,
        "rank": 0,
        "notes": "",
        "mod": 8,
        "background": false,
        "visibility": "default",
        "cs": true,
        "subSkills": {},
        "namedSubSkills": {},
        "points": 0,
        "acpPenalty": 0,
        "energyDrainPenalty": 0,
        "abilityModifier": 8
      },
      "dsc": {
        "value": 0,
        "ability": "int",
        "rt": true,
        "acp": false,
        "rank": 0,
        "notes": "",
        "mod": 8,
        "background": false,
        "visibility": "default",
        "cs": false,
        "points": 0,
        "acpPenalty": 0,
        "energyDrainPenalty": 0,
        "abilityModifier": 8
      },
      "dip": {
        "value": 0,
        "ability": "cha",
        "rt": false,
        "acp": false,
        "rank": 36,
        "notes": "",
        "mod": 48,
        "background": false,
        "visibility": "default",
        "cs": true,
        "changeBonus": 4,
        "points": 36,
        "acpPenalty": 0,
        "energyDrainPenalty": 0,
        "abilityModifier": 8
      },
      "dev": {
        "value": 0,
        "ability": "dex",
        "rt": true,
        "acp": true,
        "rank": 0,
        "notes": "",
        "mod": 0,
        "background": false,
        "visibility": "default",
        "cs": false,
        "points": 0,
        "acpPenalty": 0,
        "energyDrainPenalty": 0,
        "abilityModifier": 0
      },
      "dis": {
        "value": 0,
        "ability": "cha",
        "rt": false,
        "acp": false,
        "rank": 36,
        "notes": "",
        "mod": 44,
        "background": false,
        "visibility": "default",
        "cs": true,
        "points": 36,
        "acpPenalty": 0,
        "energyDrainPenalty": 0,
        "abilityModifier": 8
      },
      "esc": {
        "value": 0,
        "ability": "dex",
        "rt": false,
        "acp": true,
        "rank": 36,
        "notes": "",
        "mod": 36,
        "background": false,
        "visibility": "default",
        "cs": true,
        "points": 36,
        "acpPenalty": 0,
        "energyDrainPenalty": 0,
        "abilityModifier": 0
      },
      "fog": {
        "value": 0,
        "ability": "int",
        "rt": false,
        "acp": false,
        "rank": 0,
        "notes": "",
        "mod": 8,
        "background": false,
        "visibility": "default",
        "cs": false,
        "points": 0,
        "acpPenalty": 0,
        "energyDrainPenalty": 0,
        "abilityModifier": 8
      },
      "gif": {
        "value": 0,
        "ability": "cha",
        "rt": false,
        "acp": false,
        "rank": 0,
        "notes": "",
        "mod": 8,
        "background": false,
        "visibility": "default",
        "cs": false,
        "points": 0,
        "acpPenalty": 0,
        "energyDrainPenalty": 0,
        "abilityModifier": 8
      },
      "han": {
        "value": 0,
        "ability": "cha",
        "rt": true,
        "acp": false,
        "rank": 0,
        "notes": "",
        "mod": 8,
        "background": false,
        "visibility": "default",
        "cs": false,
        "points": 0,
        "acpPenalty": 0,
        "energyDrainPenalty": 0,
        "abilityModifier": 8
      },
      "hea": {
        "value": 0,
        "ability": "wis",
        "rt": false,
        "acp": false,
        "rank": 0,
        "notes": "",
        "mod": 8,
        "background": false,
        "visibility": "default",
        "cs": true,
        "points": 0,
        "acpPenalty": 0,
        "energyDrainPenalty": 0,
        "abilityModifier": 8
      },
      "hid": {
        "value": 0,
        "ability": "dex",
        "rt": false,
        "acp": true,
        "rank": 0,
        "notes": "",
        "mod": -12,
        "background": false,
        "visibility": "default",
        "cs": false,
        "changeBonus": -12,
        "points": 0,
        "acpPenalty": 0,
        "energyDrainPenalty": 0,
        "abilityModifier": 0
      },
      "int": {
        "value": 0,
        "ability": "cha",
        "rt": false,
        "acp": false,
        "rank": 36,
        "notes": "",
        "mod": 46,
        "background": false,
        "visibility": "default",
        "cs": true,
        "changeBonus": 2,
        "points": 36,
        "acpPenalty": 0,
        "energyDrainPenalty": 0,
        "abilityModifier": 8
      },
      "jmp": {
        "value": 0,
        "ability": "str",
        "rt": false,
        "acp": true,
        "rank": 36,
        "notes": "",
        "mod": 48,
        "background": false,
        "visibility": "default",
        "cs": true,
        "points": 36,
        "acpPenalty": 0,
        "energyDrainPenalty": 0,
        "abilityModifier": 12
      },
      "kar": {
        "value": 0,
        "ability": "int",
        "rt": true,
        "acp": false,
        "rank": 0,
        "notes": "",
        "mod": 8,
        "background": false,
        "visibility": "default",
        "cs": true,
        "points": 0,
        "acpPenalty": 0,
        "energyDrainPenalty": 0,
        "abilityModifier": 8
      },
      "kdu": {
        "value": 0,
        "ability": "int",
        "rt": true,
        "acp": false,
        "rank": 0,
        "notes": "",
        "mod": 8,
        "background": false,
        "visibility": "default",
        "cs": true,
        "points": 0,
        "acpPenalty": 0,
        "energyDrainPenalty": 0,
        "abilityModifier": 8
      },
      "ken": {
        "value": 0,
        "ability": "int",
        "rt": true,
        "acp": false,
        "rank": 0,
        "notes": "",
        "mod": 8,
        "background": false,
        "visibility": "default",
        "cs": true,
        "points": 0,
        "acpPenalty": 0,
        "energyDrainPenalty": 0,
        "abilityModifier": 8
      },
      "kge": {
        "value": 0,
        "ability": "int",
        "rt": true,
        "acp": false,
        "rank": 0,
        "notes": "",
        "mod": 8,
        "background": false,
        "visibility": "default",
        "cs": true,
        "points": 0,
        "acpPenalty": 0,
        "energyDrainPenalty": 0,
        "abilityModifier": 8
      },
      "khi": {
        "value": 0,
        "ability": "int",
        "rt": true,
        "acp": false,
        "rank": 0,
        "notes": "",
        "mod": 8,
        "background": false,
        "visibility": "default",
        "cs": true,
        "points": 0,
        "acpPenalty": 0,
        "energyDrainPenalty": 0,
        "abilityModifier": 8
      },
      "klo": {
        "value": 0,
        "ability": "int",
        "rt": true,
        "acp": false,
        "rank": 0,
        "notes": "",
        "mod": 8,
        "background": false,
        "visibility": "default",
        "cs": true,
        "points": 0,
        "acpPenalty": 0,
        "energyDrainPenalty": 0,
        "abilityModifier": 8
      },
      "kna": {
        "value": 0,
        "ability": "int",
        "rt": true,
        "acp": false,
        "rank": 0,
        "notes": "",
        "mod": 8,
        "background": false,
        "visibility": "default",
        "cs": true,
        "points": 0,
        "acpPenalty": 0,
        "energyDrainPenalty": 0,
        "abilityModifier": 8
      },
      "kno": {
        "value": 0,
        "ability": "int",
        "rt": true,
        "acp": false,
        "rank": 0,
        "notes": "",
        "mod": 8,
        "background": true,
        "cs": true,
        "points": 0,
        "acpPenalty": 0,
        "energyDrainPenalty": 0,
        "abilityModifier": 8
      },
      "kpl": {
        "value": 0,
        "ability": "int",
        "rt": true,
        "acp": false,
        "rank": 0,
        "notes": "",
        "mod": 8,
        "background": false,
        "visibility": "default",
        "cs": true,
        "points": 0,
        "acpPenalty": 0,
        "energyDrainPenalty": 0,
        "abilityModifier": 8
      },
      "kre": {
        "value": 0,
        "ability": "int",
        "rt": true,
        "acp": false,
        "rank": 0,
        "notes": "",
        "mod": 8,
        "background": false,
        "visibility": "default",
        "cs": true,
        "points": 0,
        "acpPenalty": 0,
        "energyDrainPenalty": 0,
        "abilityModifier": 8
      },
      "lis": {
        "value": 0,
        "ability": "wis",
        "rt": false,
        "acp": false,
        "rank": 37,
        "notes": "",
        "mod": 47,
        "background": false,
        "visibility": "default",
        "cs": true,
        "changeBonus": 2,
        "points": 37,
        "acpPenalty": 0,
        "energyDrainPenalty": 0,
        "abilityModifier": 8
      },
      "mos": {
        "value": 0,
        "ability": "dex",
        "rt": false,
        "acp": true,
        "rank": 0,
        "notes": "",
        "mod": 0,
        "background": false,
        "visibility": "default",
        "cs": false,
        "points": 0,
        "acpPenalty": 0,
        "energyDrainPenalty": 0,
        "abilityModifier": 0
      },
      "opl": {
        "value": 0,
        "ability": "dex",
        "rt": true,
        "acp": false,
        "rank": 0,
        "notes": "",
        "mod": 0,
        "background": false,
        "visibility": "default",
        "cs": false,
        "points": 0,
        "acpPenalty": 0,
        "energyDrainPenalty": 0,
        "abilityModifier": 0
      },
      "prf": {
        "value": 0,
        "ability": "cha",
        "rt": false,
        "acp": false,
        "rank": 0,
        "notes": "",
        "mod": 8,
        "background": false,
        "visibility": "default",
        "cs": false,
        "subSkills": {},
        "namedSubSkills": {},
        "points": 0,
        "acpPenalty": 0,
        "energyDrainPenalty": 0,
        "abilityModifier": 8
      },
      "pro": {
        "value": 0,
        "ability": "wis",
        "rt": true,
        "acp": false,
        "rank": 0,
        "notes": "",
        "mod": 8,
        "background": false,
        "visibility": "default",
        "cs": false,
        "subSkills": {},
        "namedSubSkills": {},
        "points": 0,
        "acpPenalty": 0,
        "energyDrainPenalty": 0,
        "abilityModifier": 8
      },
      "rid": {
        "value": 0,
        "ability": "dex",
        "rt": false,
        "acp": true,
        "rank": 0,
        "notes": "",
        "mod": 0,
        "background": false,
        "visibility": "default",
        "cs": false,
        "points": 0,
        "acpPenalty": 0,
        "energyDrainPenalty": 0,
        "abilityModifier": 0
      },
      "src": {
        "value": 0,
        "ability": "int",
        "rt": false,
        "acp": false,
        "rank": 37,
        "notes": "",
        "mod": 45,
        "background": false,
        "visibility": "default",
        "cs": true,
        "points": 37,
        "acpPenalty": 0,
        "energyDrainPenalty": 0,
        "abilityModifier": 8
      },
      "sen": {
        "value": 0,
        "ability": "wis",
        "rt": false,
        "acp": false,
        "rank": 36,
        "notes": "",
        "mod": 44,
        "background": false,
        "visibility": "default",
        "cs": true,
        "points": 36,
        "acpPenalty": 0,
        "energyDrainPenalty": 0,
        "abilityModifier": 8
      },
      "slt": {
        "value": 0,
        "ability": "dex",
        "rt": true,
        "acp": true,
        "rank": 0,
        "notes": "",
        "mod": 2,
        "background": false,
        "visibility": "default",
        "cs": false,
        "changeBonus": 2,
        "points": 0,
        "acpPenalty": 0,
        "energyDrainPenalty": 0,
        "abilityModifier": 0
      },
      "spk": {
        "value": 0,
        "ability": "",
        "rt": true,
        "acp": false,
        "rank": 0,
        "notes": "",
        "mod": 0,
        "background": false,
        "visibility": "default",
        "points": 0,
        "cs": false,
        "acpPenalty": 0,
        "energyDrainPenalty": 0,
        "abilityModifier": 0
      },
      "spl": {
        "value": 0,
        "ability": "int",
        "rt": true,
        "acp": false,
        "rank": 0,
        "notes": "",
        "mod": 8,
        "background": false,
        "visibility": "default",
        "cs": true,
        "points": 0,
        "acpPenalty": 0,
        "energyDrainPenalty": 0,
        "abilityModifier": 8
      },
      "spt": {
        "value": 0,
        "ability": "wis",
        "rt": false,
        "acp": false,
        "rank": 37,
        "notes": "",
        "mod": 47,
        "background": false,
        "visibility": "default",
        "cs": true,
        "changeBonus": 2,
        "points": 37,
        "acpPenalty": 0,
        "energyDrainPenalty": 0,
        "abilityModifier": 8
      },
      "sur": {
        "value": 0,
        "ability": "wis",
        "rt": false,
        "acp": false,
        "rank": 0,
        "notes": "",
        "mod": 8,
        "background": false,
        "visibility": "default",
        "cs": true,
        "points": 0,
        "acpPenalty": 0,
        "energyDrainPenalty": 0,
        "abilityModifier": 8
      },
      "swm": {
        "value": 0,
        "ability": "str",
        "rt": false,
        "acp": true,
        "rank": 0,
        "notes": "",
        "mod": 12,
        "background": false,
        "visibility": "default",
        "cs": true,
        "points": 0,
        "acpPenalty": 0,
        "energyDrainPenalty": 0,
        "abilityModifier": 12
      },
      "tmb": {
        "value": 0,
        "ability": "dex",
        "rt": false,
        "acp": true,
        "rank": 0,
        "notes": "",
        "mod": 2,
        "background": false,
        "visibility": "default",
        "cs": false,
        "changeBonus": 2,
        "points": 0,
        "acpPenalty": 0,
        "energyDrainPenalty": 0,
        "abilityModifier": 0
      },
      "umd": {
        "value": 0,
        "ability": "cha",
        "rt": true,
        "acp": false,
        "rank": 36,
        "notes": "",
        "mod": 44,
        "background": false,
        "visibility": "default",
        "cs": true,
        "points": 36,
        "acpPenalty": 0,
        "energyDrainPenalty": 0,
        "abilityModifier": 8
      },
      "uro": {
        "value": 0,
        "ability": "dex",
        "rt": false,
        "acp": false,
        "rank": 0,
        "notes": "",
        "mod": 0,
        "background": false,
        "visibility": "default",
        "cs": false,
        "points": 0,
        "acpPenalty": 0,
        "energyDrainPenalty": 0,
        "abilityModifier": 0
      },
      "kps": {
        "value": 0,
        "ability": "int",
        "rt": false,
        "acp": false,
        "rank": 0,
        "notes": "",
        "mod": 8,
        "background": false,
        "visibility": "default",
        "cs": false,
        "points": 0,
        "acpPenalty": 0,
        "energyDrainPenalty": 0,
        "abilityModifier": 8
      },
      "aut": {
        "value": 0,
        "ability": "wis",
        "rt": true,
        "acp": false,
        "rank": 0,
        "notes": "",
        "mod": 10,
        "background": false,
        "visibility": "default",
        "cs": false,
        "changeBonus": 2,
        "points": 0,
        "acpPenalty": 0,
        "energyDrainPenalty": 0,
        "abilityModifier": 8
      },
      "psi": {
        "value": 0,
        "ability": "int",
        "rt": true,
        "acp": false,
        "rank": 0,
        "notes": "",
        "mod": 8,
        "background": false,
        "visibility": "default",
        "cs": false,
        "points": 0,
        "acpPenalty": 0,
        "energyDrainPenalty": 0,
        "abilityModifier": 8
      },
      "upd": {
        "value": 0,
        "ability": "cha",
        "rt": true,
        "acp": false,
        "rank": 0,
        "notes": "",
        "mod": 8,
        "background": false,
        "visibility": "default",
        "cs": false,
        "points": 0,
        "acpPenalty": 0,
        "energyDrainPenalty": 0,
        "abilityModifier": 8
      }
    },
    "customSkills": {},
    "traits": {
      "size": "grg",
      "tokensize": "actor",
      "senses": "Darkvision 120 ft.",
      "dr": "",
      "incorporeal": false,
      "eres": "",
      "cres": "",
      "languages": {
        "value": [],
        "custom": ""
      },
      "di": {
        "value": [],
        "custom": ""
      },
      "dv": {
        "value": [],
        "custom": ""
      },
      "ci": {
        "value": [
          "sleep",
          "paralyze"
        ],
        "custom": ""
      },
      "perception": {
        "_deprecated": true
      },
      "actualSize": "grg"
    },
    "currency": {
      "pp": 0,
      "gp": 0,
      "sp": 0,
      "cp": 0
    },
    "altCurrency": {
      "pp": 0,
      "gp": 0,
      "sp": 0,
      "cp": 0
    },
    "customCurrency": {},
    "noLightOverride": false,
    "noTokenOverride": false,
    "noSkillSynergy": false,
    "noBuffDisplay": false,
    "lockEditingByPlayers": false,
    "showCardSheet": false,
    "showSpellcastingSheet": true,
    "staticBonus": {
      "hp": 0,
      "ac": 0
    },
    "jumpSkillAdjust": false,
    "master": {
      "id": null,
      "img": null,
      "name": null,
      "data": {},
      "distance": 0
    },
    "noVisionOverride": true,
    "counters": {
      "feat": {
        "base": {
          "value": 12,
          "counted": 12
        }
      }
    },
    "classes": {
      "dragon": {
        "level": 34,
        "_id": "ARsBV4Sbf3Yrhv07",
        "name": "Dragon*",
        "hd": 12,
        "bab": "high",
        "hp": false,
        "maxLevel": 20,
        "skillsPerLevel": 6,
        "isSpellcaster": false,
        "isPsionSpellcaster": false,
        "hasSpecialSlot": false,
        "isSpellcastingSpontaneus": false,
        "isArcane": false,
        "spellcastingType": null,
        "spellcastingAbility": "int",
        "allSpellsKnown": false,
        "savingThrows": {
          "fort": 19,
          "ref": 19,
          "will": 19
        },
        "fc": {
          "hp": 0,
          "skill": 0,
          "alt": 0
        },
        "spellsKnownPerLevel": [],
        "powersKnown": [],
        "powersMaxLevel": [],
        "spellslotAbility": "",
        "halfCasterLevel": false,
        "deckHandSizeFormula": "0",
        "knownCardsSizeFormula": "0",
        "deckPrestigeClass": false,
        "hasSpellbook": false,
        "spelllist": {}
      }
    },
    "damage": {
      "nonlethal": {
        "value": 0,
        "max": 459
      }
    },
    "senses": {
      "darkvision": 0,
      "blindsight": 0,
      "tremorsense": 0,
      "truesight": 0,
      "lowLight": false,
      "special": "",
      "modified": {},
      "lowLightMultiplier": 2
    },
    "totalNonEclLevels": 34,
    "classLevels": 0,
    "combinedResistances": [
      {
        "uid": "energy-acid",
        "value": 0,
        "vulnerable": false,
        "immunity": true,
        "lethal": false,
        "providedBy": "ARsBV4Sbf3Yrhv07",
        "modified": true,
        "items": [
          "Dragon*"
        ]
      },
      {
        "uid": "energy-cold",
        "value": 0,
        "vulnerable": false,
        "immunity": true,
        "lethal": false,
        "providedBy": "ARsBV4Sbf3Yrhv07",
        "modified": true,
        "items": [
          "Dragon*"
        ]
      },
      {
        "uid": "energy-fire",
        "value": 0,
        "vulnerable": true,
        "immunity": false,
        "lethal": false,
        "providedBy": "ARsBV4Sbf3Yrhv07",
        "modified": true,
        "items": [
          "Dragon*"
        ]
      }
    ],
    "combinedDR": [],
    "shieldType": "none",
    "canLevelUp": false,
    "naturalAttackCount": 6
  },
  "ownership": {
    "default": 0,
    "gvVvJrAyZKOZnAuP": 3
  },
  "prototypeToken": {
    "flags": {
      "D35E": {
        "lowLightVision": false
      }
    },
    "name": "Silver Dragon, Ancient",
    "displayName": 20,
    "width": 4,
    "height": 4,
    "lockRotation": false,
    "rotation": 0,
    "actorLink": false,
    "disposition": -1,
    "displayBars": 40,
    "bar1": {
      "attribute": "attributes.hp"
    },
    "bar2": {
      "attribute": null
    },
    "randomImg": false,
    "alpha": 1,
    "light": {
      "alpha": 0,
      "angle": 360,
      "bright": 0,
      "coloration": 1,
      "dim": 0,
      "luminosity": 0.5,
      "saturation": 0,
      "contrast": 0,
      "shadows": 0,
      "animation": {
        "speed": 5,
        "intensity": 5,
        "type": null,
        "reverse": false
      },
      "darkness": {
        "min": 0,
        "max": 1
      },
      "color": "#000000",
      "attenuation": 0.5
    },
    "texture": {
      "src": "systems/D35E/icons/bestiary/token/dragon-silver.png",
      "tint": null,
      "scaleX": 1,
      "scaleY": 1,
      "offsetX": 0,
      "offsetY": 0,
      "rotation": 0
    },
    "sight": {
      "angle": 360,
      "enabled": true,
      "range": 120,
      "brightness": 1,
      "visionMode": "basic",
      "attenuation": 0.1,
      "saturation": 0,
      "contrast": 0
    },
    "appendNumber": false,
    "prependAdjective": false,
    "detectionModes": []
  },
  "_stats": {
    "systemId": "D35E",
    "systemVersion": "2.3.0",
    "coreVersion": "11.299",
    "createdTime": 1686244340269,
    "modifiedTime": 1686244340446,
    "lastModifiedBy": "cB3ob9BYxSFYX7sd"
  },
  "_key": "!actors!bewNYVj39ZkWZ4HZ"
}