{
  "_id": "LXpB9EB5UNSPA6xl",
  "name": "Spells",
  "type": "feat",
  "data": {
    "originVersion": 0,
    "originPack": "",
    "originId": "",
    "possibleUpdate": false,
    "description": {
      "value": "<p><em>This ability was imported automatically does not have actions or changes.</em></p><div level=\"8\" topic=\"Spells\"><p> Solars can cast divine spells as 20th-level clerics. A solar has access to two of the following domains: Air, Destruction, Good, Law, or War (plus any others from its deity). The save DCs are Wisdom-based.</p><p><i>Typical Cleric Spells Prepared</i> (6/8/8/8/7/7/6/6/5/5; save DC 17 + spell level): 0-<i>create water</i>,  <i>detect magic</i>,  <i>guidance</i> (2), <i>resistance</i>  (2); 1st-<i>bless</i> (2), <i>cause fear</i>,  <i>divine favor</i> (2), <i>entropic shield</i>,  <i>obscuring mist</i>*, <i>shield of faith</i>; 2nd-<i>align weapon</i>,  <i>bear's endurance</i> (2), <i>bull's strength</i> (2), <i>consecrate</i>,  <i>eagle's splendor</i>,  <i>spiritual weapon</i>*; 3rd-<i>daylight</i>,  <i>invisibility purge</i>,  <i>magic circle against evil</i>,  <i>magic vestment</i>*, <i>prayer</i> (2), <i>protection from energy</i>,  <i>wind wall</i>; 4th-<i>death ward</i> (2), <i>dismissal</i> (2), <i>divine power</i>*, <i>neutralize poison</i> (2); 5th-<i>break enchantment</i>,  <i>control winds</i>*, <i>dispel evil</i>,  <i>plane shift</i>,  <i>righteous might</i> (2), <i>symbol of pain</i>; 6th-<i>banishment</i>,  <i>chain lightning</i>*, <i>heroes' feast</i>,  <i>mass cure moderate wounds</i>,  <i>undeath to death</i>,  <i>word of recall</i>; 7th-<i>control weather</i>*, <i>destruction</i>,  <i>dictum</i>,  <i>ethereal jaunt</i>,  <i>holy word</i>,  <i>regenerate</i>; 8th-<i>fire storm</i>,  <i>holy aura</i>,  <i>mass cure critical wounds</i> (2), <i>whirlwind</i>*; 9th- <i>etherealness</i>,  <i>elemental swarm (air)</i>*,  <i>mass heal</i>,  <i>miracle</i>,  <i>storm of vengeance</i>.</p><p>*Domain spell. Domains: Air and War.</p><p></p></div>",
      "chat": "",
      "unidentified": ""
    },
    "epic": "",
    "psionic": "",
    "nameFormula": "",
    "nameFromFormula": false,
    "tags": [],
    "uniqueId": "",
    "linkId": "",
    "linkSourceId": "",
    "linkImported": false,
    "linkSourceName": "",
    "source": "",
    "classSource": "",
    "userNonRemovable": false,
    "customAttributes": {},
    "customAttributesLocked": false,
    "customTag": "",
    "createdBy": "",
    "activation": {
      "cost": 1,
      "type": ""
    },
    "duration": {
      "value": null,
      "units": ""
    },
    "target": {
      "value": ""
    },
    "range": {
      "value": null,
      "units": "",
      "long": null
    },
    "recharge": {
      "enabled": false,
      "formula": "",
      "current": 0,
      "value": null,
      "charged": false,
      "_deprecated": true
    },
    "uses": {
      "value": 0,
      "max": 0,
      "per": null,
      "autoDeductCharges": true,
      "allowMultipleUses": false,
      "chargesPerUse": 1,
      "maxPerUse": null,
      "maxPerUseFormula": "",
      "maxFormula": "",
      "rechargeFormula": null,
      "isResource": false,
      "canBeLinked": false
    },
    "requiresPsionicFocus": false,
    "linkedChargeItem": {
      "id": null,
      "img": null,
      "name": null
    },
    "measureTemplate": {
      "type": "",
      "size": 0,
      "overrideColor": false,
      "customColor": "",
      "overrideTexture": false,
      "customTexture": ""
    },
    "actionType": "",
    "attackBonus": "",
    "critConfirmBonus": "",
    "damage": {
      "parts": [],
      "alternativeParts": []
    },
    "summon": [],
    "attackParts": [],
    "autoscaleAttackParts": "",
    "formula": "",
    "attackCountFormula": "",
    "maxDamageDice": 0,
    "maxDamageDiceFormula": "",
    "ability": {
      "attack": null,
      "damage": null,
      "damageMult": 1,
      "critRange": 20,
      "critMult": 2,
      "twoHandedOnly": false,
      "vsTouchAc": false
    },
    "save": {
      "dc": 0,
      "description": "",
      "ability": "",
      "type": "",
      "dcAutoType": "",
      "dcAutoAbility": ""
    },
    "baseCl": "0",
    "sr": false,
    "pr": false,
    "metamagicFeats": {
      "maximized": false,
      "empowered": false,
      "enlarged": false,
      "intensified": false,
      "enhanced": false,
      "enhancedHalf": false,
      "widened": false
    },
    "effectNotes": "",
    "attackNotes": "",
    "specialActions": [],
    "favorite": false,
    "rollTableDraw": {
      "formula": "",
      "name": "",
      "pack": "",
      "id": ""
    },
    "changes": [],
    "changeFlags": {
      "loseDexToAC": false,
      "noStr": false,
      "noDex": false,
      "noInt": false,
      "noCon": false,
      "oneInt": false,
      "oneWis": false,
      "oneCha": false,
      "noEncumbrance": false,
      "mediumArmorFullSpeed": false,
      "heavyArmorFullSpeed": false,
      "multiAttack": false,
      "multiweaponAttack": false,
      "uncannyDodge": false
    },
    "conditionFlags": {
      "dazzled": false,
      "wildshaped": false,
      "polymorphed": false
    },
    "combatChanges": [],
    "combatChangesRange": {
      "maxFormula": "",
      "max": 0
    },
    "combatChangesAdditionalRanges": {
      "hasAdditionalRanges": false,
      "slider1": {
        "maxFormula": "",
        "max": 0,
        "name": ""
      },
      "slider2": {
        "maxFormula": "",
        "max": 0,
        "name": ""
      },
      "slider3": {
        "maxFormula": "",
        "max": 0,
        "name": ""
      }
    },
    "combatChangesUsesCost": "chargesPerUse",
    "combatChangesApplySpecialActionsOnce": true,
    "combatChangeCustomDisplayName": "",
    "combatChangeCustomReferenceName": "",
    "sizeOverride": "",
    "counterName": "",
    "resistances": [],
    "damageReduction": [],
    "requirements": [],
    "creationChanges": [],
    "contextNotes": [],
    "featType": "trait",
    "abilityType": "",
    "associations": {
      "classes": []
    },
    "crOffset": "",
    "spellSpecializationName": "",
    "spellSpecializationForbiddenNames": "",
    "linkedItems": [],
    "metamagic": {
      "enabled": false,
      "shortDesc": "",
      "code": ""
    },
    "spellSpecialization": {
      "isDomain": false,
      "spells": {
        "level1": {
          "level": 1,
          "name": "",
          "img": "",
          "pack": null,
          "id": null
        },
        "level2": {
          "level": 2,
          "name": "",
          "img": "",
          "pack": null,
          "id": null
        },
        "level3": {
          "level": 3,
          "name": "",
          "img": "",
          "pack": null,
          "id": null
        },
        "level4": {
          "level": 4,
          "name": "",
          "img": "",
          "pack": null,
          "id": null
        },
        "level5": {
          "level": 5,
          "name": "",
          "img": "",
          "pack": null,
          "id": null
        },
        "level6": {
          "level": 6,
          "name": "",
          "img": "",
          "pack": null,
          "id": null
        },
        "level7": {
          "level": 7,
          "name": "",
          "img": "",
          "pack": null,
          "id": null
        },
        "level8": {
          "level": 8,
          "name": "",
          "img": "",
          "pack": null,
          "id": null
        },
        "level9": {
          "level": 9,
          "name": "",
          "img": "",
          "pack": null,
          "id": null
        }
      }
    },
    "showInQuickbar": false,
    "links": {
      "charges": []
    },
    "customReferenceId": "",
    "attack": {
      "parts": []
    }
  },
  "sort": 700000,
  "flags": {},
  "img": "systems/D35E/icons/special-abilities/imported.png",
  "effects": [],
  "folder": null,
  "permission": {
    "default": 0
  },
  "_key": "!actors.items!rtZLpvXoHJJ3Xe88.LXpB9EB5UNSPA6xl"
}