{
  "_id": "EW8OW3j9VuXU9BSw",
  "name": "Spiked Chain",
  "type": "weapon",
  "data": {
    "originVersion": 0,
    "originPack": "",
    "originId": "",
    "possibleUpdate": false,
    "description": {
      "value": "<p>A spiked chain has reach, so you can strike opponents 10 feet away with it. In addition, unlike most other weapons with reach, it can be used against an adjacent foe. Because the chain can wrap around an enemy’s leg or other limb, you can make trip attacks with the chain. If you are tripped during your own trip attempt, you can drop the chain to avoid being tripped. When using a spiked chain, you get a +2 bonus on opposed attack rolls made to disarm an opponent (including the roll to avoid being disarmed if such an attempt fails). You can use the Weapon Finesse feat (page 102) to apply your Dexterity modifier instead of your Strength modifier to attack rolls with a spiked chain sized for you, even though it isn’t a light weapon for you.</p>",
      "chat": "",
      "unidentified": ""
    },
    "epic": "",
    "psionic": "",
    "nameFormula": "",
    "nameFromFormula": false,
    "tags": [],
    "uniqueId": "",
    "linkId": "",
    "linkSourceId": "",
    "linkImported": false,
    "linkSourceName": "",
    "source": "",
    "classSource": "",
    "userNonRemovable": false,
    "customAttributes": {},
    "customAttributesLocked": false,
    "customTag": "",
    "createdBy": "",
    "quantity": 1,
    "weight": 10,
    "constantWeight": false,
    "price": 25,
    "resalePrice": "",
    "brokenResalePrice": "",
    "fullResalePrice": false,
    "identified": true,
    "identifiedCurse": false,
    "cursed": false,
    "curseActive": false,
    "hp": {
      "max": 10,
      "value": 10
    },
    "hardness": 10,
    "carried": true,
    "unidentified": {
      "price": 0,
      "name": ""
    },
    "identifiedName": "Spiked Chain",
    "container": "None",
    "containerId": "none",
    "containerWeightless": false,
    "equippedWeightless": false,
    "changes": [],
    "changeFlags": {
      "loseDexToAC": false,
      "noStr": false,
      "noDex": false,
      "noInt": false,
      "noCon": false,
      "oneInt": false,
      "oneWis": false,
      "oneCha": false,
      "noEncumbrance": false,
      "mediumArmorFullSpeed": false,
      "heavyArmorFullSpeed": false,
      "multiAttack": false,
      "multiweaponAttack": false,
      "uncannyDodge": false,
      "hasted": false
    },
    "conditionFlags": {
      "dazzled": false,
      "wildshaped": false,
      "polymorphed": false
    },
    "combatChanges": [],
    "combatChangesRange": {
      "maxFormula": "",
      "max": 0
    },
    "combatChangesAdditionalRanges": {
      "hasAdditionalRanges": false,
      "slider1": {
        "maxFormula": "",
        "max": 0,
        "name": ""
      },
      "slider2": {
        "maxFormula": "",
        "max": 0,
        "name": ""
      },
      "slider3": {
        "maxFormula": "",
        "max": 0,
        "name": ""
      }
    },
    "combatChangesUsesCost": "chargesPerUse",
    "combatChangesApplySpecialActionsOnce": true,
    "combatChangeCustomDisplayName": "",
    "combatChangeCustomReferenceName": "",
    "sizeOverride": "",
    "counterName": "",
    "resistances": [],
    "damageReduction": [],
    "requirements": [],
    "creationChanges": [],
    "contextNotes": [],
    "enhancements": {
      "uses": {
        "value": 0,
        "max": 0,
        "per": null,
        "rechargeFormula": null,
        "autoDeductCharges": true,
        "allowMultipleUses": false,
        "commonPool": false
      },
      "automation": {
        "updateName": false,
        "updatePrice": false
      },
      "clFormula": "",
      "spellcastingAbility": "",
      "items": []
    },
    "light": {
      "color": "#000000",
      "radius": 0,
      "opacity": 0,
      "alpha": 0.5,
      "lightAngle": 360,
      "type": "",
      "animationSpeed": 6,
      "animationIntensity": 6,
      "dimRadius": null,
      "emitLight": false
    },
    "material": {
      "data": null
    },
    "equipped": true,
    "masterwork": false,
    "weaponType": "exotic",
    "weaponSubtype": "2h",
    "properties": {
      "blc": false,
      "brc": false,
      "dbl": false,
      "dis": true,
      "fin": true,
      "frg": false,
      "imp": false,
      "mnk": false,
      "nnl": false,
      "prf": false,
      "rch": false,
      "thr": false,
      "trp": true,
      "grp": false,
      "snd": false
    },
    "linkedItems": [],
    "enh": null,
    "melded": false,
    "weaponData": {
      "damageRoll": "2d4",
      "damageType": "P",
      "damageTypeId": "",
      "critRange": 20,
      "critMult": 2,
      "range": null,
      "attackFormula": "",
      "damageFormula": "",
      "size": "med",
      "alignment": {
        "good": false,
        "evil": false,
        "lawful": false,
        "chaotic": false
      }
    },
    "attackNotes": "",
    "effectNotes": "",
    "bonus": {
      "value": 0,
      "_deprecated": true
    },
    "damageType": {
      "value": "",
      "_deprecated": true
    },
    "damage2": {
      "value": "",
      "_deprecated": true
    },
    "damage2Type": {
      "value": "",
      "_deprecated": true
    },
    "customReferenceId": "",
    "damage": {
      "parts": []
    },
    "threatRangeExtended": false,
    "finesseable": false
  },
  "sort": 1900000,
  "flags": {},
  "img": "systems/D35E/icons/items/weapons/Chain_01.png",
  "effects": [],
  "folder": null,
  "permission": {
    "default": 0
  },
  "_key": "!actors.items!VdomQE1YJ2DORvSg.EW8OW3j9VuXU9BSw"
}