{
  "_id": "luP8pa4MGNcuRasY",
  "name": "Telekinesis",
  "type": "spell",
  "data": {
    "originVersion": 0,
    "originPack": "",
    "originId": "",
    "possibleUpdate": false,
    "description": {
      "value": "<div class=\"spell-description\">\n  <p>\n      <strong>School:</strong>&nbsp;transmutation;\n    <br>\n    <strong>Level:</strong>&nbsp;Wizard 5;\n    \n    \n    \n    \n    <br>\n    <strong>Components:</strong>&nbsp;V, S<br>\n    \n      <strong>Casting Time:</strong>&nbsp;1 standard action<br>\n    <strong>Range:</strong>&nbsp;long (400 ft. + 40 ft./level)<br>\n    \n    <strong>Target:</strong>&nbsp;see text<br>\n    \n    <strong>Duration:</strong>&nbsp;Concentration (up to 1 round/ level) or instantaneous; see text<br>\n    \n        <strong>Saving Throw:</strong>&nbsp;Will negates (object) or None; see text\n        <br>\n        <strong>Spell Resistance:</strong>&nbsp;yes<br>\n  </p>\n  <h2>Description</h2>\n  \n\n\n<p>\nYou move objects or creatures by concentrating on them. Depending on the version selected, the spell can provide a gentle, sustained force, perform a variety of combat maneuvers, or exert a single short, violent thrust.\n</p><p><i>Sustained Force: </i>A sustained force moves an object weighing no more than 25 pounds per caster level (maximum 375 pounds at 15th level) up to 20 feet per round. A creature can negate the effect on an object it possesses with a successful Will save or with spell resistance.\n</p><p>This version of the spell can last 1 round per caster level, but it ends if you cease concentration. The weight can be moved vertically, horizontally, or in both directions. An object cannot be moved beyond your range. The spell ends if the object is forced beyond the range. If you cease concentration for any reason, the object falls or stops.\n</p><p>An object can be telekinetically manipulated as if with one hand. For example, a lever or rope can be pulled, a key can be turned, an object rotated, and so on, if the force required is within the weight limitation. You might even be able to untie simple knots, though delicate activities such as these require Intelligence checks.\n</p><p><i>Combat Maneuver: </i>Alternatively, once per round, you can use <i>telekinesis </i>to perform a bull rush, disarm, grapple (including pin), or trip. Resolve these attempts as normal, except that they don’t provoke attacks of opportunity, you use your caster level in place of your base attack bonus (for disarm and grapple), you use your Intelligence modifier (if a wizard) or Charisma modifier (if a sorcerer) in place of your Strength or Dexterity modifier, and a failed attempt doesn’t allow a reactive attempt by the target (such as for disarm or trip). No save is allowed against these attempts, but spell resistance applies normally. This version of the spell can last 1 round per caster level, but it ends if you cease concentration.\n</p><p><i>Violent Thrust: </i>Alternatively, the spell energy can be spent in a single round. You can hurl one object or creature per caster level (maximum 15) that are within range and all within 10 feet of each other toward any target within 10 feet per level of all the objects. You can hurl up to a total weight of 25 pounds per caster level (maximum 375 pounds at 15th level).\n</p><p>You must succeed on attack rolls (one per creature or object thrown) to hit the target with the items, using your base attack bonus + your Intelligence modifier (if a wizard) or Charisma modifier (if a sorcerer). Weapons cause standard damage (with no Strength bonus; note that arrows or bolts deal damage as daggers of their size when used in this manner). Other objects cause damage ranging from 1 point per 25 pounds (for less dangerous objects) to 1d6 points of damage per 25 pounds (for hard, dense objects).\n</p><p>Creatures who fall within the weight capacity of the spell can be hurled, but they are allowed Will saves (and spell resistance) to negate the effect, as are those whose held possessions are targeted by the spell. If a telekinesed creature is hurled against a solid surface, it takes damage as if it had fallen 10 feet (1d6 points).\n</p>\n<hr/>\n\n\n\n</div>\n",
      "chat": "",
      "unidentified": ""
    },
    "epic": "",
    "psionic": "",
    "nameFormula": "",
    "nameFromFormula": false,
    "tags": [],
    "uniqueId": "",
    "linkId": "",
    "linkSourceId": "",
    "linkImported": false,
    "linkSourceName": "",
    "source": "",
    "classSource": "",
    "userNonRemovable": false,
    "customAttributes": {},
    "customAttributesLocked": false,
    "customTag": "",
    "createdBy": "",
    "activation": {
      "cost": 1,
      "type": "standard"
    },
    "duration": {
      "value": null,
      "units": ""
    },
    "target": {
      "value": "see text"
    },
    "range": {
      "value": null,
      "units": "long",
      "long": null
    },
    "recharge": {
      "enabled": false,
      "formula": "",
      "current": 0
    },
    "uses": {
      "value": 0,
      "max": 0,
      "per": "",
      "autoDeductCharges": true,
      "allowMultipleUses": false,
      "chargesPerUse": 1,
      "maxPerUse": null,
      "maxPerUseFormula": "",
      "maxFormula": "",
      "rechargeFormula": null,
      "isResource": false,
      "canBeLinked": false
    },
    "requiresPsionicFocus": false,
    "linkedChargeItem": {
      "id": null,
      "img": null,
      "name": null
    },
    "measureTemplate": {
      "type": "",
      "size": 0,
      "overrideColor": false,
      "customColor": "",
      "overrideTexture": false,
      "customTexture": ""
    },
    "actionType": "other",
    "attackBonus": "",
    "critConfirmBonus": "",
    "damage": {
      "parts": [],
      "alternativeParts": []
    },
    "summon": [],
    "attackParts": [],
    "autoscaleAttackParts": "",
    "formula": "",
    "attackCountFormula": "",
    "maxDamageDice": 0,
    "maxDamageDiceFormula": "",
    "ability": {
      "attack": "",
      "damage": "",
      "damageMult": 1,
      "critRange": 20,
      "critMult": 2,
      "twoHandedOnly": false,
      "vsTouchAc": false
    },
    "save": {
      "dc": "0",
      "description": "Will negates (object) or None; see text",
      "ability": "",
      "type": "",
      "dcAutoType": "",
      "dcAutoAbility": ""
    },
    "baseCl": "0",
    "sr": true,
    "pr": false,
    "metamagicFeats": {
      "maximized": false,
      "empowered": false,
      "enlarged": false,
      "intensified": false,
      "enhanced": false,
      "enhancedHalf": false,
      "widened": false
    },
    "effectNotes": "",
    "attackNotes": "",
    "specialActions": [],
    "favorite": false,
    "rollTableDraw": {
      "formula": "",
      "name": "",
      "pack": "",
      "id": ""
    },
    "learnedAt": {
      "class": [
        [
          "Wizard",
          5
        ]
      ],
      "domain": [],
      "subDomain": [],
      "elementalSchool": [],
      "bloodline": []
    },
    "level": 0,
    "clOffset": 0,
    "slOffset": 0,
    "school": "trs",
    "subschool": "",
    "types": "",
    "components": {
      "value": "",
      "verbal": true,
      "somatic": true,
      "material": false,
      "focus": false,
      "divineFocus": 0
    },
    "castTime": "",
    "conditionals": [],
    "materials": {
      "value": "",
      "consumed": {
        "value": false,
        "_deprecated": true
      },
      "focus": ""
    },
    "isSpellSpontaneousReplacement": false,
    "spellbook": "spelllike",
    "preparation": {
      "preparedAmount": 0,
      "maxAmount": 0,
      "autoDeductCharges": true,
      "mode": "prepared"
    },
    "atWill": true,
    "powerPointsCost": 0,
    "display": "",
    "isPower": false,
    "shortDescription": "\n\n\n<p>\nYou move objects or creatures by concentrating on them. Depending on the version selected, the spell can provide a gentle, sustained force, perform a variety of combat maneuvers, or exert a single short, violent thrust.\n</p><p><i>Sustained Force: </i>A sustained force moves an object weighing no more than 25 pounds per caster level (maximum 375 pounds at 15th level) up to 20 feet per round. A creature can negate the effect on an object it possesses with a successful Will save or with spell resistance.\n</p><p>This version of the spell can last 1 round per caster level, but it ends if you cease concentration. The weight can be moved vertically, horizontally, or in both directions. An object cannot be moved beyond your range. The spell ends if the object is forced beyond the range. If you cease concentration for any reason, the object falls or stops.\n</p><p>An object can be telekinetically manipulated as if with one hand. For example, a lever or rope can be pulled, a key can be turned, an object rotated, and so on, if the force required is within the weight limitation. You might even be able to untie simple knots, though delicate activities such as these require Intelligence checks.\n</p><p><i>Combat Maneuver: </i>Alternatively, once per round, you can use <i>telekinesis </i>to perform a bull rush, disarm, grapple (including pin), or trip. Resolve these attempts as normal, except that they don’t provoke attacks of opportunity, you use your caster level in place of your base attack bonus (for disarm and grapple), you use your Intelligence modifier (if a wizard) or Charisma modifier (if a sorcerer) in place of your Strength or Dexterity modifier, and a failed attempt doesn’t allow a reactive attempt by the target (such as for disarm or trip). No save is allowed against these attempts, but spell resistance applies normally. This version of the spell can last 1 round per caster level, but it ends if you cease concentration.\n</p><p><i>Violent Thrust: </i>Alternatively, the spell energy can be spent in a single round. You can hurl one object or creature per caster level (maximum 15) that are within range and all within 10 feet of each other toward any target within 10 feet per level of all the objects. You can hurl up to a total weight of 25 pounds per caster level (maximum 375 pounds at 15th level).\n</p><p>You must succeed on attack rolls (one per creature or object thrown) to hit the target with the items, using your base attack bonus + your Intelligence modifier (if a wizard) or Charisma modifier (if a sorcerer). Weapons cause standard damage (with no Strength bonus; note that arrows or bolts deal damage as daggers of their size when used in this manner). Other objects cause damage ranging from 1 point per 25 pounds (for less dangerous objects) to 1d6 points of damage per 25 pounds (for hard, dense objects).\n</p><p>Creatures who fall within the weight capacity of the spell can be hurled, but they are allowed Will saves (and spell resistance) to negate the effect, as are those whose held possessions are targeted by the spell. If a telekinesed creature is hurled against a solid surface, it takes damage as if it had fallen 10 feet (1d6 points).\n</p>\n<hr/>\n\n\n",
    "snip": "Moves object, attacks creature, or hurls object or creature.",
    "spellDuration": "Concentration (up to 1 round/ level) or instantaneous; see text",
    "spellEffect": "",
    "spellArea": "",
    "spellType": {
      "value": "",
      "_deprecated": true
    },
    "showInQuickbar": false,
    "specialPrepared": false,
    "isDomainSpell": false,
    "specialId": null,
    "customReferenceId": "",
    "attack": {
      "parts": []
    }
  },
  "sort": 600000,
  "flags": {},
  "img": "systems/D35E/icons/spells/named-spells/telekinesis.png",
  "effects": [],
  "folder": null,
  "permission": {
    "default": 0
  },
  "_key": "!actors.items!UVmi3IXyZ4dmMYdv.luP8pa4MGNcuRasY"
}