{
  "_id": "QkyZgDyxBIWDoSog",
  "name": "Track",
  "type": "feat",
  "data": {
    "originVersion": 0,
    "originPack": "",
    "originId": "",
    "possibleUpdate": false,
    "description": {
      "value": "\n\n\n<h3><span class=\"mw-headline\" id=\"Benefit\">Benefit</span></h3>\n<p>To find tracks or to follow them for 1 mile requires a successful Survival check. You must make another Survival check every time the tracks become difficult to follow.\n</p><p>You move at half your normal speed (or at your normal speed with a –5 penalty on the check, or at up to twice your normal speed with a –20 penalty on the check). The DC depends on the surface and the prevailing conditions, as given on the table below:\n</p>\n<table class=\"d20\">\n<tbody><tr>\n<th>Surface</th>\n<th>Survival DC\n</th></tr>\n<tr class=\"odd\">\n<td>Very soft ground</td>\n<td>5\n</td></tr>\n<tr class=\"even\">\n<td>Firm ground</td>\n<td>15\n</td></tr>\n<tr class=\"odd\">\n<td>Soft ground</td>\n<td>10\n</td></tr>\n<tr class=\"even\">\n<td>Hard ground</td>\n<td>20\n</td></tr></tbody></table>\n<h6><span class=\"mw-headline\" id=\"Very_Soft_Ground\">Very Soft Ground</span></h6>\n<p>Any surface (fresh snow, thick dust, wet mud) that holds deep, clear impressions of footprints.\n</p>\n<h6><span class=\"mw-headline\" id=\"Soft_Ground\">Soft Ground</span></h6>\n<p>Any surface soft enough to yield to pressure, but firmer than wet mud or fresh snow, in which a creature leaves frequent but shallow footprints.\n</p>\n<h6><span class=\"mw-headline\" id=\"Firm_Ground\">Firm Ground</span></h6>\n<p>Most normal outdoor surfaces (such as lawns, fields, woods, and the like) or exceptionally soft or dirty indoor surfaces (thick rugs and very dirty or dusty floors). The creature might leave some traces (broken branches or tufts of hair), but it leaves only occasional or partial footprints.\n</p>\n<h6><span class=\"mw-headline\" id=\"Hard_Ground\">Hard Ground</span></h6>\n<p>Any surface that doesn’t hold footprints at all, such as bare rock or an indoor floor. Most streambeds fall into this category, since any footprints left behind are obscured or washed away. The creature leaves only traces (scuff marks or displaced pebbles).\n</p><p>Several modifiers may apply to the Survival check, as given on the table below.\n</p>\n<table class=\"d20 minimize\">\n<tbody><tr>\n<th align=\"left\">Condition</th>\n<th>Survival<br/>DC Modifier\n</th></tr>\n<tr>\n<td align=\"left\">Every three creatures in the group being tracked</td>\n<td>–1\n</td></tr>\n<tr class=\"even\">\n<td align=\"left\">Size of creature or creatures being tracked:<sup>1</sup></td>\n<td>\n</td></tr>\n<tr>\n<td style=\"text-align: left; padding-left: 2em;\">Fine</td>\n<td>+8\n</td></tr>\n<tr class=\"even\">\n<td style=\"text-align: left; padding-left: 2em;\">Diminutive</td>\n<td>+4\n</td></tr>\n<tr>\n<td style=\"text-align: left; padding-left: 2em;\">Tiny</td>\n<td>+2\n</td></tr>\n<tr class=\"even\">\n<td style=\"text-align: left; padding-left: 2em;\">Small</td>\n<td>+1\n</td></tr>\n<tr>\n<td style=\"text-align: left; padding-left: 2em;\">Medium</td>\n<td>+0\n</td></tr>\n<tr class=\"even\">\n<td style=\"text-align: left; padding-left: 2em;\">Large</td>\n<td>–1\n</td></tr>\n<tr>\n<td style=\"text-align: left; padding-left: 2em;\">Huge</td>\n<td>–2\n</td></tr>\n<tr class=\"even\">\n<td style=\"text-align: left; padding-left: 2em;\">Gargantuan</td>\n<td>–4\n</td></tr>\n<tr>\n<td style=\"text-align: left; padding-left: 2em;\">Colossal</td>\n<td>–8\n</td></tr>\n<tr class=\"even\">\n<td align=\"left\">Every 24 hours since the trail was made</td>\n<td>+1\n</td></tr>\n<tr>\n<td align=\"left\">Every hour of rain since the trail was made</td>\n<td>+1\n</td></tr>\n<tr class=\"even\">\n<td align=\"left\">Fresh snow cover since the trail was made</td>\n<td>+10\n</td></tr>\n<tr>\n<td align=\"left\">Poor visibility:<sup>2</sup></td>\n<td>\n</td></tr>\n<tr class=\"even\">\n<td style=\"text-align: left; padding-left: 2em;\">Overcast or moonless night</td>\n<td>+6\n</td></tr>\n<tr>\n<td style=\"text-align: left; padding-left: 2em;\">Moonlight</td>\n<td>+3\n</td></tr>\n<tr class=\"even\">\n<td style=\"text-align: left; padding-left: 2em;\">Fog or precipitation</td>\n<td>+3\n</td></tr>\n<tr>\n<td align=\"left\">Tracked party hides trail (and moves at half speed)</td>\n<td>+5\n</td></tr>\n<tr>\n<td class=\"foot\" colspan=\"2\">\n<ol><li>For a group of mixed sizes, apply only the modifier for the largest size category.</li>\n<li>Apply only the largest modifier from this category.</li></ol>\n</td></tr></tbody></table>\n<p>If you fail a Survival check, you can retry after 1 hour (outdoors) or 10 minutes (indoors) of searching.\n</p>\n<h3><span class=\"mw-headline\" id=\"Normal\">Normal</span></h3>\n<p>Without this feat, you can use the Survival skill to find tracks, but you can follow them only if the DC for the task is 10 or lower. Alternatively, you can use the Search skill to find a footprint or similar sign of a creature’s passage using the DCs given above, but you can’t use Search to follow tracks, even if someone else has already found them.\n</p>\n<h3><span class=\"mw-headline\" id=\"Special\">Special</span></h3>\n<p>A ranger automatically has Track as a bonus feat. He need not select it.\n</p><p>This feat does not allow you to find or follow the tracks made by a subject of a <i>pass without trace </i>spell.\n</p><p><br/>\n</p>\n<hr/>\n\n\n",
      "chat": "",
      "unidentified": ""
    },
    "epic": "",
    "psionic": "",
    "nameFormula": "",
    "nameFromFormula": false,
    "tags": [],
    "uniqueId": "",
    "linkId": "",
    "linkSourceId": "",
    "linkImported": false,
    "linkSourceName": "",
    "source": "",
    "classSource": "",
    "userNonRemovable": false,
    "customAttributes": {},
    "customAttributesLocked": false,
    "customTag": "",
    "createdBy": "",
    "activation": {
      "cost": 1,
      "type": ""
    },
    "duration": {
      "value": null,
      "units": ""
    },
    "target": {
      "value": ""
    },
    "range": {
      "value": null,
      "units": "",
      "long": null
    },
    "recharge": {
      "enabled": false,
      "formula": "",
      "current": 0,
      "value": null,
      "charged": false,
      "_deprecated": true
    },
    "uses": {
      "value": 0,
      "max": 0,
      "per": null,
      "autoDeductCharges": true,
      "allowMultipleUses": false,
      "chargesPerUse": 1,
      "maxPerUse": null,
      "maxPerUseFormula": "",
      "maxFormula": "",
      "rechargeFormula": null,
      "isResource": false,
      "canBeLinked": false
    },
    "requiresPsionicFocus": false,
    "linkedChargeItem": {
      "id": null,
      "img": null,
      "name": null
    },
    "measureTemplate": {
      "type": "",
      "size": 0,
      "overrideColor": false,
      "customColor": "",
      "overrideTexture": false,
      "customTexture": ""
    },
    "actionType": "",
    "attackBonus": "",
    "critConfirmBonus": "",
    "damage": {
      "parts": [],
      "alternativeParts": []
    },
    "summon": [],
    "attackParts": [],
    "autoscaleAttackParts": "",
    "formula": "",
    "attackCountFormula": "",
    "maxDamageDice": 0,
    "maxDamageDiceFormula": "",
    "ability": {
      "attack": null,
      "damage": null,
      "damageMult": 1,
      "critRange": 20,
      "critMult": 2,
      "twoHandedOnly": false,
      "vsTouchAc": false
    },
    "save": {
      "dc": 0,
      "description": "",
      "ability": "",
      "type": "",
      "dcAutoType": "",
      "dcAutoAbility": ""
    },
    "baseCl": "0",
    "sr": false,
    "pr": false,
    "metamagicFeats": {
      "maximized": false,
      "empowered": false,
      "enlarged": false,
      "intensified": false,
      "enhanced": false,
      "enhancedHalf": false,
      "widened": false
    },
    "effectNotes": "",
    "attackNotes": "",
    "specialActions": [],
    "favorite": false,
    "rollTableDraw": {
      "formula": "",
      "name": "",
      "pack": "",
      "id": ""
    },
    "changes": [],
    "changeFlags": {
      "loseDexToAC": false,
      "noStr": false,
      "noDex": false,
      "noInt": false,
      "noCon": false,
      "oneInt": false,
      "oneWis": false,
      "oneCha": false,
      "noEncumbrance": false,
      "mediumArmorFullSpeed": false,
      "heavyArmorFullSpeed": false,
      "multiAttack": false,
      "multiweaponAttack": false,
      "uncannyDodge": false
    },
    "conditionFlags": {
      "dazzled": false,
      "wildshaped": false,
      "polymorphed": false
    },
    "combatChanges": [],
    "combatChangesRange": {
      "maxFormula": "",
      "max": 0
    },
    "combatChangesAdditionalRanges": {
      "hasAdditionalRanges": false,
      "slider1": {
        "maxFormula": "",
        "max": 0,
        "name": ""
      },
      "slider2": {
        "maxFormula": "",
        "max": 0,
        "name": ""
      },
      "slider3": {
        "maxFormula": "",
        "max": 0,
        "name": ""
      }
    },
    "combatChangesUsesCost": "chargesPerUse",
    "combatChangesApplySpecialActionsOnce": true,
    "combatChangeCustomDisplayName": "",
    "combatChangeCustomReferenceName": "",
    "sizeOverride": "",
    "counterName": "",
    "resistances": [],
    "damageReduction": [],
    "requirements": [],
    "creationChanges": [],
    "contextNotes": [],
    "featType": "feat",
    "abilityType": "",
    "associations": {
      "classes": []
    },
    "crOffset": "",
    "spellSpecializationName": "",
    "spellSpecializationForbiddenNames": "",
    "linkedItems": [],
    "metamagic": {
      "enabled": false,
      "shortDesc": "",
      "code": ""
    },
    "spellSpecialization": {
      "isDomain": false,
      "spells": {
        "level1": {
          "level": 1,
          "name": "",
          "img": "",
          "pack": null,
          "id": null
        },
        "level2": {
          "level": 2,
          "name": "",
          "img": "",
          "pack": null,
          "id": null
        },
        "level3": {
          "level": 3,
          "name": "",
          "img": "",
          "pack": null,
          "id": null
        },
        "level4": {
          "level": 4,
          "name": "",
          "img": "",
          "pack": null,
          "id": null
        },
        "level5": {
          "level": 5,
          "name": "",
          "img": "",
          "pack": null,
          "id": null
        },
        "level6": {
          "level": 6,
          "name": "",
          "img": "",
          "pack": null,
          "id": null
        },
        "level7": {
          "level": 7,
          "name": "",
          "img": "",
          "pack": null,
          "id": null
        },
        "level8": {
          "level": 8,
          "name": "",
          "img": "",
          "pack": null,
          "id": null
        },
        "level9": {
          "level": 9,
          "name": "",
          "img": "",
          "pack": null,
          "id": null
        }
      }
    },
    "showInQuickbar": false,
    "links": {
      "charges": []
    },
    "customReferenceId": "",
    "time": {
      "value": "",
      "_deprecated": true
    },
    "damageType": {
      "value": "",
      "_deprecated": true
    },
    "attack": {
      "parts": []
    }
  },
  "sort": 1000000,
  "flags": {},
  "img": "systems/D35E/icons/feats/track.png",
  "effects": [],
  "folder": null,
  "permission": {
    "default": 0
  },
  "_key": "!actors.items!PFnq4GDhHDm3hScL.QkyZgDyxBIWDoSog"
}