{
  "_id": "dGJc6dzpR6fHOH0O",
  "name": "Unholy Aura",
  "type": "spell",
  "data": {
    "originVersion": 0,
    "originPack": "",
    "originId": "",
    "possibleUpdate": false,
    "description": {
      "value": "<div class=\"spell-description\">\n  <p>\n      <strong>School:</strong>&nbsp;abjuration&nbsp;[evil];\n    <br>\n    <strong>Level:</strong>&nbsp;Cleric 8;\n    <strong>Domain:</strong>&nbsp;Evil 8;\n    \n    \n    \n    <br>\n    <strong>Components:</strong>&nbsp;V, S, F (a tiny reliquary containing some sacred relic, such as a piece of parchment from an unholy text  the reliquary costs at least 500 gp)<br>\n    \n      <strong>Casting Time:</strong>&nbsp;1 standard action<br>\n    <strong>Range:</strong>&nbsp;20 feet<br>\n    \n    <strong>Target:</strong>&nbsp;one creature/level in a 20-ft.-radius burst centered on you<br>\n    \n    <strong>Duration:</strong>&nbsp;1 round/level (D)<br>\n    \n        <strong>Saving Throw:</strong>&nbsp;See text\n        <br>\n        <strong>Spell Resistance:</strong>&nbsp;yes<br>\n  </p>\n  <h2>Description</h2>\n  \n\n\n<p>\nA malevolent darkness surrounds the subjects, protecting them from attacks, granting them resistance to spells cast by good creatures, and weakening good creatures when they strike the subjects. This abjuration has four effects.\n</p><p>First, each warded creature gains a +4 deflection bonus to AC and a +4 resistance bonus on saves. Unlike the effect of <i>protection from good</i>, this benefit applies against all attacks, not just against attacks by good creatures.\n</p><p>Second, a warded creature gains spell resistance 25 against good spells and spells cast by good creatures.\n</p><p>Third, the abjuration blocks possession and mental influence, just as <i>protection from good</i> does.\n</p><p>Finally, if a good creature succeeds on a melee attack against a warded creature, the offending attacker takes 1d6 points of temporary Strength damage (Fortitude negates).\n</p><p><i>Focus:</i> A tiny reliquary containing some sacred relic, such as a piece of parchment from an unholy text. The reliquary costs at least 500 gp.\n</p>\n<hr/>\n\n\n\n</div>\n",
      "chat": "",
      "unidentified": ""
    },
    "epic": "",
    "psionic": "",
    "nameFormula": "",
    "nameFromFormula": false,
    "tags": [],
    "uniqueId": "",
    "linkId": "",
    "linkSourceId": "",
    "linkImported": false,
    "linkSourceName": "",
    "source": "",
    "classSource": "",
    "userNonRemovable": false,
    "customAttributes": {},
    "customAttributesLocked": false,
    "customTag": "",
    "createdBy": "",
    "activation": {
      "cost": 1,
      "type": "standard"
    },
    "duration": {
      "value": null,
      "units": ""
    },
    "target": {
      "value": "one creature/level in a 20-ft.-radius burst centered on you"
    },
    "range": {
      "value": "20",
      "units": "ft",
      "long": null
    },
    "recharge": {
      "enabled": false,
      "formula": "",
      "current": 0
    },
    "uses": {
      "value": 0,
      "max": 0,
      "per": "",
      "autoDeductCharges": true,
      "allowMultipleUses": false,
      "chargesPerUse": 1,
      "maxPerUse": null,
      "maxPerUseFormula": "",
      "maxFormula": "",
      "rechargeFormula": null,
      "isResource": false,
      "canBeLinked": false
    },
    "requiresPsionicFocus": false,
    "linkedChargeItem": {
      "id": null,
      "img": null,
      "name": null
    },
    "measureTemplate": {
      "type": "",
      "size": 20,
      "overrideColor": false,
      "customColor": "",
      "overrideTexture": false,
      "customTexture": ""
    },
    "actionType": "other",
    "attackBonus": "",
    "critConfirmBonus": "",
    "damage": {
      "parts": [],
      "alternativeParts": []
    },
    "summon": [],
    "attackParts": [],
    "autoscaleAttackParts": "",
    "formula": "",
    "attackCountFormula": "",
    "maxDamageDice": 0,
    "maxDamageDiceFormula": "",
    "ability": {
      "attack": "",
      "damage": "",
      "damageMult": 1,
      "critRange": 20,
      "critMult": 2,
      "twoHandedOnly": false,
      "vsTouchAc": false
    },
    "save": {
      "dc": "0",
      "description": "See text",
      "ability": "",
      "type": "",
      "dcAutoType": "",
      "dcAutoAbility": ""
    },
    "baseCl": "0",
    "sr": true,
    "pr": false,
    "metamagicFeats": {
      "maximized": false,
      "empowered": false,
      "enlarged": false,
      "intensified": false,
      "enhanced": false,
      "enhancedHalf": false,
      "widened": false
    },
    "effectNotes": "",
    "attackNotes": "",
    "specialActions": [],
    "favorite": false,
    "rollTableDraw": {
      "formula": "",
      "name": "",
      "pack": "",
      "id": ""
    },
    "learnedAt": {
      "class": [
        [
          "Cleric",
          8
        ]
      ],
      "domain": [
        [
          "Evil",
          8
        ]
      ],
      "subDomain": [],
      "elementalSchool": [],
      "bloodline": []
    },
    "level": 0,
    "clOffset": 0,
    "slOffset": 0,
    "school": "abj",
    "subschool": "",
    "types": "evil",
    "components": {
      "value": "",
      "verbal": true,
      "somatic": true,
      "material": false,
      "focus": true,
      "divineFocus": 0
    },
    "castTime": "",
    "conditionals": [],
    "materials": {
      "value": "",
      "consumed": {
        "value": false,
        "_deprecated": true
      },
      "focus": "a tiny reliquary containing some sacred relic, such as a piece of parchment from an unholy text  the reliquary costs at least 500 gp"
    },
    "isSpellSpontaneousReplacement": false,
    "spellbook": "spelllike",
    "preparation": {
      "preparedAmount": 0,
      "maxAmount": 0,
      "autoDeductCharges": true,
      "mode": "prepared"
    },
    "atWill": true,
    "powerPointsCost": 0,
    "display": "",
    "isPower": false,
    "shortDescription": "\n\n\n<p>\nA malevolent darkness surrounds the subjects, protecting them from attacks, granting them resistance to spells cast by good creatures, and weakening good creatures when they strike the subjects. This abjuration has four effects.\n</p><p>First, each warded creature gains a +4 deflection bonus to AC and a +4 resistance bonus on saves. Unlike the effect of <i>protection from good</i>, this benefit applies against all attacks, not just against attacks by good creatures.\n</p><p>Second, a warded creature gains spell resistance 25 against good spells and spells cast by good creatures.\n</p><p>Third, the abjuration blocks possession and mental influence, just as <i>protection from good</i> does.\n</p><p>Finally, if a good creature succeeds on a melee attack against a warded creature, the offending attacker takes 1d6 points of temporary Strength damage (Fortitude negates).\n</p><p><i>Focus:</i> A tiny reliquary containing some sacred relic, such as a piece of parchment from an unholy text. The reliquary costs at least 500 gp.\n</p>\n<hr/>\n\n\n",
    "snip": "+4 to AC, +4 resistance, and SR 25 against good spells.",
    "spellDuration": "1 round/level (D)",
    "spellEffect": "",
    "spellArea": "",
    "spellType": {
      "value": "",
      "_deprecated": true
    },
    "showInQuickbar": false,
    "specialPrepared": false,
    "isDomainSpell": false,
    "specialId": null,
    "customReferenceId": "",
    "attack": {
      "parts": []
    }
  },
  "sort": 600000,
  "flags": {},
  "img": "systems/D35E/icons/spells/named-spells/unholy-aura.png",
  "effects": [],
  "folder": null,
  "permission": {
    "default": 0
  },
  "_key": "!actors.items!dimQP9idAZDZJ142.dGJc6dzpR6fHOH0O"
}