{
  "_id": "B6XGD8Yu6ddni0aX",
  "name": "Fly",
  "type": "buff",
  "img": "systems/D35E/icons/spells/buffs/buff/fly.png",
  "effects": [],
  "folder": null,
  "sort": 0,
  "flags": {
    "core": {
      "sourceId": "Item.wlS5WlGoeCK5vyK0"
    },
    "cf": {
      "id": "temp_0b5fizi5atqg"
    }
  },
  "system": {
    "originVersion": 4,
    "originPack": "",
    "originId": "",
    "possibleUpdate": false,
    "description": {
      "value": "<p>The subject can fly at a speed of 60 feet (or 40 feet if it wears medium or heavy armor, or if it carries a medium or heavy load). It can ascend at half speed and descend at double speed, and its maneuverability is good. Using a fly spell requires only as much concentration as walking, so the subject can attack or cast spells normally. The subject of a fly spell can <a href=\"https://www.d20srd.org/srd/combat/specialAttacks.htm#charge\">charge</a> but not <a href=\"https://www.d20srd.org/srd/combat/actionsInCombat.htm#run\">run</a>, and it cannot carry aloft more weight than its maximum load, plus any armor it wears.</p>\n<p>&nbsp;</p>\n<p>Should the spell duration expire while the subject is still aloft, the magic fails slowly. The subject floats downward 60 feet per round for <a class=\"diceRoller\" title=\"Roll the dice!\">1d6</a> rounds. If it reaches the ground in that amount of time, it lands safely. If not, it falls the rest of the distance, taking <a class=\"diceRoller\" title=\"Roll the dice!\">1d6</a> points of damage per 10 feet of fall. Since dispelling a spell effectively ends it, the subject also descends in this way if the fly spell is dispelled, but not if it is negated by an <a href=\"https://www.d20srd.org/srd/specialAbilities.htm#antimagic\">antimagic field</a>.&nbsp;</p>",
      "chat": "",
      "unidentified": ""
    },
    "epic": "",
    "psionic": "",
    "nameFormula": "",
    "nameFromFormula": false,
    "tags": [],
    "uniqueId": "",
    "linkId": "",
    "linkSourceId": "",
    "linkImported": false,
    "linkSourceName": "",
    "source": "",
    "classSource": "",
    "userNonRemovable": false,
    "customAttributes": {},
    "customAttributesLocked": false,
    "customTag": "",
    "createdBy": "",
    "changes": [
      [
        "30",
        "speed",
        "flySpeed",
        "base"
      ]
    ],
    "changeFlags": {
      "loseDexToAC": false,
      "noStr": false,
      "noDex": false,
      "noInt": false,
      "noCon": false,
      "oneInt": false,
      "oneWis": false,
      "oneCha": false,
      "noEncumbrance": false,
      "mediumArmorFullSpeed": false,
      "heavyArmorFullSpeed": false,
      "multiAttack": false,
      "multiweaponAttack": false,
      "uncannyDodge": false,
      "hasted": false,
      "firstChangeTargetSelectableOnDescription": false
    },
    "conditionFlags": {
      "dazzled": false,
      "wildshaped": false,
      "polymorphed": false
    },
    "combatChanges": [],
    "combatChangesRange": {
      "maxFormula": "",
      "max": 0
    },
    "combatChangesAdditionalRanges": {
      "hasAdditionalRanges": false,
      "slider1": {
        "maxFormula": "",
        "max": 0,
        "name": ""
      },
      "slider2": {
        "maxFormula": "",
        "max": 0,
        "name": ""
      },
      "slider3": {
        "maxFormula": "",
        "max": 0,
        "name": ""
      }
    },
    "combatChangesUsesCost": "chargesPerUse",
    "combatChangesApplySpecialActionsOnce": true,
    "combatChangeCustomDisplayName": "",
    "combatChangeCustomReferenceName": "",
    "sizeOverride": "",
    "counterName": "",
    "resistances": [],
    "damageReduction": [],
    "requirements": [],
    "creationChanges": [],
    "contextNotes": [],
    "activation": {
      "cost": 1,
      "type": ""
    },
    "duration": {
      "value": null,
      "units": ""
    },
    "target": {
      "value": ""
    },
    "range": {
      "value": null,
      "units": ""
    },
    "recharge": {
      "enabled": false,
      "formula": "",
      "current": 0
    },
    "uses": {
      "value": 0,
      "max": 0,
      "per": null,
      "autoDeductCharges": true,
      "allowMultipleUses": false,
      "chargesPerUse": 1,
      "maxPerUse": null,
      "maxPerUseFormula": "",
      "maxFormula": "",
      "rechargeFormula": null,
      "isResource": false,
      "canBeLinked": false
    },
    "requiresPsionicFocus": false,
    "linkedChargeItem": {
      "id": null,
      "img": null,
      "name": null
    },
    "light": {
      "color": "",
      "radius": 0,
      "opacity": 0,
      "alpha": 0.5,
      "lightAngle": 360,
      "type": "",
      "animationSpeed": "",
      "animationIntensity": "",
      "dimRadius": "",
      "emitLight": false
    },
    "buffType": "temp",
    "active": false,
    "level": "",
    "timeline": {
      "elapsed": 0,
      "total": 10,
      "formula": "10*@item.level",
      "enabled": true,
      "deleteOnExpiry": true,
      "tickOnEnd": false
    },
    "damagePool": {
      "current": 0,
      "max": 0,
      "formula": "",
      "enabled": false,
      "deleteOnDamagePoolEmpty": false
    },
    "shapechange": {
      "source": {},
      "type": "polymorph"
    },
    "activateActions": [],
    "deactivateActions": [],
    "perRoundActions": [],
    "hideFromToken": false,
    "damage": {
      "parts": [],
      "alternativeParts": []
    },
    "attackParts": [],
    "conditionals": [],
    "specialActions": [],
    "container": "None",
    "containerWeightless": false,
    "identifiedName": "Fly",
    "senses": {
      "lowLight": false,
      "lowLightMultiplier": null,
      "blindsight": null,
      "darkvision": null,
      "tremorsense": null,
      "truesight": null
    },
    "summon": [],
    "index": {
      "subType": null,
      "uniqueId": ""
    }
  },
  "ownership": {
    "default": 0,
    "XSGi1UY5kAehVomp": 3
  },
  "_stats": {
    "systemId": "D35E",
    "systemVersion": "2.1.3",
    "coreVersion": "10.291",
    "createdTime": null,
    "modifiedTime": 1678394274660,
    "lastModifiedBy": "cB3ob9BYxSFYX7sd"
  },
  "_key": "!items!B6XGD8Yu6ddni0aX"
}