{
  "_id": "UpUHQOcICG1TRADG",
  "name": "Foresight - Another",
  "type": "buff",
  "img": "systems/D35E/icons/spells/buffs/buff/foresight.png",
  "effects": [],
  "folder": null,
  "sort": 0,
  "flags": {
    "core": {
      "sourceId": "Item.8LBr73zJ8Xdfr8PE"
    },
    "cf": {
      "id": "temp_0b5fizi5atqg"
    }
  },
  "system": {
    "originVersion": 4,
    "originPack": "",
    "originId": "",
    "possibleUpdate": false,
    "description": {
      "value": "<p><em style=\"box-sizing: border-box; user-select: text; color: #191813; font-size: 13px;\">This buff only tracks the duration of the spell.</em></p>\n<p>When another creature is the subject of the spell, you receive warnings about that creature. You must communicate what you learn to the other creature for the warning to be useful, and the creature can be caught unprepared in the absence of such a warning. Shouting a warning, yanking a person back, and even telepathically communicating (via an appropriate spell) can all be accomplished before some danger befalls the subject, provided you act on the warning without delay. The subject, however, does not gain the&nbsp;<a href=\"https://www.d20srd.org/srd/theBasics.htm#insightBonus\">insight bonus</a>&nbsp;to AC and&nbsp;<a href=\"https://www.d20srd.org/srd/combat/combatStatistics.htm#reflex\">Reflex saves</a>.&nbsp;</p>\n<p><em style=\"box-sizing: border-box; user-select: text; color: #191813; font-size: 13px;\"> </em></p>\n<p>&nbsp;</p>",
      "chat": "",
      "unidentified": ""
    },
    "epic": "",
    "psionic": "",
    "nameFormula": "",
    "nameFromFormula": false,
    "tags": [],
    "uniqueId": "",
    "linkId": "",
    "linkSourceId": "",
    "linkImported": false,
    "linkSourceName": "",
    "source": "",
    "classSource": "",
    "userNonRemovable": false,
    "customAttributes": {},
    "customAttributesLocked": false,
    "customTag": "",
    "createdBy": "",
    "changes": [],
    "changeFlags": {
      "loseDexToAC": false,
      "noStr": false,
      "noDex": false,
      "noInt": false,
      "noCon": false,
      "oneInt": false,
      "oneWis": false,
      "oneCha": false,
      "noEncumbrance": false,
      "mediumArmorFullSpeed": false,
      "heavyArmorFullSpeed": false,
      "multiAttack": false,
      "multiweaponAttack": false,
      "uncannyDodge": false,
      "hasted": false,
      "firstChangeTargetSelectableOnDescription": false
    },
    "conditionFlags": {
      "dazzled": false,
      "wildshaped": false,
      "polymorphed": false
    },
    "combatChanges": [
      [
        "defenseOptional",
        "",
        "",
        "featAC",
        "2",
        ""
      ],
      [
        "savingThrowOptional",
        "",
        "",
        "featSavingThrow",
        "2",
        ""
      ]
    ],
    "combatChangesRange": {
      "maxFormula": "",
      "max": 0
    },
    "combatChangesAdditionalRanges": {
      "hasAdditionalRanges": false,
      "slider1": {
        "maxFormula": "",
        "max": 0,
        "name": ""
      },
      "slider2": {
        "maxFormula": "",
        "max": 0,
        "name": ""
      },
      "slider3": {
        "maxFormula": "",
        "max": 0,
        "name": ""
      }
    },
    "combatChangesUsesCost": "chargesPerUse",
    "combatChangesApplySpecialActionsOnce": true,
    "combatChangeCustomDisplayName": "",
    "combatChangeCustomReferenceName": "",
    "sizeOverride": "",
    "counterName": "",
    "resistances": [],
    "damageReduction": [],
    "requirements": [],
    "creationChanges": [],
    "contextNotes": [],
    "activation": {
      "cost": 1,
      "type": ""
    },
    "duration": {
      "value": null,
      "units": ""
    },
    "target": {
      "value": ""
    },
    "range": {
      "value": null,
      "units": ""
    },
    "recharge": {
      "enabled": false,
      "formula": "",
      "current": 0
    },
    "uses": {
      "value": 0,
      "max": 0,
      "per": null,
      "autoDeductCharges": true,
      "allowMultipleUses": false,
      "chargesPerUse": 1,
      "maxPerUse": null,
      "maxPerUseFormula": "",
      "maxFormula": "",
      "rechargeFormula": null,
      "isResource": false,
      "canBeLinked": false
    },
    "requiresPsionicFocus": false,
    "linkedChargeItem": {
      "id": null,
      "img": null,
      "name": null
    },
    "light": {
      "color": "",
      "radius": 0,
      "opacity": 0,
      "alpha": 0.5,
      "lightAngle": 360,
      "type": "",
      "animationSpeed": "",
      "animationIntensity": "",
      "dimRadius": "",
      "emitLight": false
    },
    "buffType": "temp",
    "active": true,
    "level": "",
    "timeline": {
      "elapsed": 0,
      "total": 100,
      "formula": "@item.level*100",
      "enabled": true,
      "deleteOnExpiry": true,
      "tickOnEnd": false
    },
    "damagePool": {
      "current": 0,
      "max": 0,
      "formula": "",
      "enabled": false,
      "deleteOnDamagePoolEmpty": false
    },
    "shapechange": {
      "source": {},
      "type": "polymorph"
    },
    "activateActions": [],
    "deactivateActions": [],
    "perRoundActions": [],
    "hideFromToken": false,
    "senses": {
      "lowLight": false,
      "lowLightMultiplier": null,
      "blindsight": null,
      "darkvision": null,
      "tremorsense": null,
      "truesight": null
    },
    "damage": {
      "parts": [],
      "alternativeParts": []
    },
    "attackParts": [],
    "conditionals": [],
    "specialActions": [],
    "container": "None",
    "containerWeightless": false,
    "identifiedName": "Foresight - Another",
    "summon": [],
    "index": {
      "subType": null,
      "uniqueId": ""
    }
  },
  "ownership": {
    "default": 0,
    "XSGi1UY5kAehVomp": 3
  },
  "_stats": {
    "systemId": "D35E",
    "systemVersion": "2.1.3",
    "coreVersion": "10.291",
    "createdTime": null,
    "modifiedTime": 1678394278568,
    "lastModifiedBy": "cB3ob9BYxSFYX7sd"
  },
  "_key": "!items!UpUHQOcICG1TRADG"
}