{
  "_id": "FcmRG54a74W0ZTx9",
  "name": "Holy Aura",
  "type": "buff",
  "img": "systems/D35E/icons/spells/buffs/buff/holy-aura.png",
  "effects": [],
  "folder": null,
  "sort": 0,
  "flags": {
    "core": {
      "sourceId": "Item.PaZzYH7xFriW6ZQy"
    },
    "cf": {
      "id": "temp_0b5fizi5atqg"
    }
  },
  "system": {
    "originVersion": 4,
    "originPack": "",
    "originId": "",
    "possibleUpdate": false,
    "description": {
      "value": "<p>A brilliant divine radiance surrounds the subjects, protecting them from attacks, granting them resistance to spells cast by evil creatures, and causing evil creatures to become <a href=\"https://www.d20srd.org/srd/conditionSummary.htm#blinded\">blinded</a> when they strike the subjects. This abjuration has four effects.</p>\n<p>First, each warded creature gains a +4 <a href=\"https://www.d20srd.org/srd/theBasics.htm#deflectionBonus\">deflection bonus</a> to AC and a +4 <a href=\"https://www.d20srd.org/srd/theBasics.htm#resistanceBonus\">resistance bonus</a> on saves. Unlike <a class=\"spell\" href=\"https://www.d20srd.org/srd/spells/protectionFromEvil.htm\">protection from evil</a>, this benefit applies against all attacks, not just against attacks by evil creatures.</p>\n<p>Second, each warded creature gains <a href=\"https://www.d20srd.org/srd/specialAbilities.htm#spellResistance\">spell resistance</a> 25 against evil spells and spells cast by evil creatures.</p>\n<p>Third, the abjuration blocks possession and mental influence, just as <a class=\"spell\" href=\"https://www.d20srd.org/srd/spells/protectionFromEvil.htm\">protection from evil</a> does.</p>\n<p>Finally, if an evil creature succeeds on a melee attack against a warded creature, the offending attacker is blinded (<a href=\"https://www.d20srd.org/srd/combat/combatStatistics.htm#fortitude\">Fortitude save</a> negates, as <a class=\"spell\" href=\"https://www.d20srd.org/srd/spells/blindnessDeafness.htm\">blindness/deafness</a>, but against holy aura&rsquo;s save DC).</p>\n<h3>Focus</h3>\n<p>A tiny reliquary containing some sacred relic. The reliquary costs at least 500 gp.&nbsp;</p>",
      "chat": "",
      "unidentified": ""
    },
    "epic": "",
    "psionic": "",
    "nameFormula": "",
    "nameFromFormula": false,
    "tags": [],
    "uniqueId": "",
    "linkId": "",
    "linkSourceId": "",
    "linkImported": false,
    "linkSourceName": "",
    "source": "",
    "classSource": "",
    "userNonRemovable": false,
    "customAttributes": {},
    "customAttributesLocked": false,
    "customTag": "",
    "createdBy": "",
    "changes": [
      [
        "4",
        "ac",
        "ac",
        "deflection"
      ],
      [
        "4",
        "savingThrows",
        "allSavingThrows",
        "resist"
      ],
      [
        "25",
        "misc",
        "spellResistance",
        "base"
      ]
    ],
    "changeFlags": {
      "loseDexToAC": false,
      "noStr": false,
      "noDex": false,
      "noInt": false,
      "noCon": false,
      "oneInt": false,
      "oneWis": false,
      "oneCha": false,
      "noEncumbrance": false,
      "mediumArmorFullSpeed": false,
      "heavyArmorFullSpeed": false,
      "multiAttack": false,
      "multiweaponAttack": false,
      "uncannyDodge": false,
      "hasted": false,
      "firstChangeTargetSelectableOnDescription": false
    },
    "conditionFlags": {
      "dazzled": false,
      "wildshaped": false,
      "polymorphed": false
    },
    "combatChanges": [],
    "combatChangesRange": {
      "maxFormula": "",
      "max": 0
    },
    "combatChangesAdditionalRanges": {
      "hasAdditionalRanges": false,
      "slider1": {
        "maxFormula": "",
        "max": 0,
        "name": ""
      },
      "slider2": {
        "maxFormula": "",
        "max": 0,
        "name": ""
      },
      "slider3": {
        "maxFormula": "",
        "max": 0,
        "name": ""
      }
    },
    "combatChangesUsesCost": "chargesPerUse",
    "combatChangesApplySpecialActionsOnce": true,
    "combatChangeCustomDisplayName": "",
    "combatChangeCustomReferenceName": "",
    "sizeOverride": "",
    "counterName": "",
    "resistances": [],
    "damageReduction": [],
    "requirements": [],
    "creationChanges": [],
    "contextNotes": [],
    "activation": {
      "cost": 1,
      "type": ""
    },
    "duration": {
      "value": null,
      "units": ""
    },
    "target": {
      "value": ""
    },
    "range": {
      "value": null,
      "units": ""
    },
    "recharge": {
      "enabled": false,
      "formula": "",
      "current": 0
    },
    "uses": {
      "value": 0,
      "max": 0,
      "per": null,
      "autoDeductCharges": true,
      "allowMultipleUses": false,
      "chargesPerUse": 1,
      "maxPerUse": null,
      "maxPerUseFormula": "",
      "maxFormula": "",
      "rechargeFormula": null,
      "isResource": false,
      "canBeLinked": false
    },
    "requiresPsionicFocus": false,
    "linkedChargeItem": {
      "id": null,
      "img": null,
      "name": null
    },
    "light": {
      "color": "",
      "radius": 0,
      "opacity": 0,
      "alpha": 0.5,
      "lightAngle": 360,
      "type": "",
      "animationSpeed": "",
      "animationIntensity": "",
      "dimRadius": "",
      "emitLight": false
    },
    "buffType": "temp",
    "active": false,
    "level": "",
    "timeline": {
      "elapsed": 0,
      "total": 0,
      "formula": "@item.level",
      "enabled": true,
      "deleteOnExpiry": true,
      "tickOnEnd": false
    },
    "damagePool": {
      "current": 0,
      "max": 0,
      "formula": "",
      "enabled": false,
      "deleteOnDamagePoolEmpty": false
    },
    "shapechange": {
      "source": {},
      "type": "polymorph"
    },
    "activateActions": [],
    "deactivateActions": [],
    "perRoundActions": [],
    "hideFromToken": false,
    "senses": {
      "lowLight": false,
      "lowLightMultiplier": null,
      "blindsight": null,
      "darkvision": null,
      "tremorsense": null,
      "truesight": null
    },
    "damage": {
      "parts": [],
      "alternativeParts": []
    },
    "attackParts": [],
    "conditionals": [],
    "specialActions": [],
    "container": "None",
    "containerWeightless": false,
    "identifiedName": "Holy Aura",
    "summon": [],
    "index": {
      "subType": null,
      "uniqueId": ""
    }
  },
  "ownership": {
    "default": 0,
    "XSGi1UY5kAehVomp": 3
  },
  "_stats": {
    "systemId": "D35E",
    "systemVersion": "2.1.3",
    "coreVersion": "10.291",
    "createdTime": null,
    "modifiedTime": 1678394275139,
    "lastModifiedBy": "cB3ob9BYxSFYX7sd"
  },
  "_key": "!items!FcmRG54a74W0ZTx9"
}