{
  "_id": "vfxTHPQ3oPj0uERd",
  "name": "Magic Fang, Greater",
  "type": "buff",
  "img": "systems/D35E/icons/spells/buffs/buff/magic-fang-greater.png",
  "effects": [],
  "folder": null,
  "sort": 0,
  "flags": {
    "core": {
      "sourceId": "Item.jqwp53c8yabvagpw"
    }
  },
  "system": {
    "originVersion": 4,
    "originPack": "D35E.commonbuffs",
    "originId": "tuGYtaYYYRSsMpqG",
    "possibleUpdate": false,
    "description": {
      "value": "<p><em>Greater magic fang </em>gives one natural weapon of the subject a +1 per four caster levels (maximum +5) enhancement bonus on attack and damage rolls. The spell can affect a slam attack, fist, bite, or other natural weapon. (The spell does not change an unarmed strike&rsquo;s damage from nonlethal damage to lethal damage.)</p>\n<p><em>Magic fang </em>can be made permanent with a <em>permanency </em>spell.</p>\n<p>&nbsp;</p>",
      "chat": "",
      "unidentified": ""
    },
    "epic": "",
    "psionic": "",
    "nameFormula": "",
    "nameFromFormula": false,
    "tags": [],
    "uniqueId": "",
    "linkId": "",
    "linkSourceId": "",
    "linkImported": false,
    "linkSourceName": "",
    "source": "",
    "classSource": "",
    "userNonRemovable": false,
    "customAttributes": {},
    "customAttributesLocked": false,
    "customTag": "",
    "createdBy": "",
    "changes": [],
    "changeFlags": {
      "loseDexToAC": false,
      "noStr": false,
      "noDex": false,
      "noInt": false,
      "noCon": false,
      "oneInt": false,
      "oneWis": false,
      "oneCha": false,
      "noEncumbrance": false,
      "mediumArmorFullSpeed": false,
      "heavyArmorFullSpeed": false,
      "multiAttack": false,
      "multiweaponAttack": false,
      "uncannyDodge": false,
      "hasted": false,
      "firstChangeTargetSelectableOnDescription": false
    },
    "conditionFlags": {
      "dazzled": false,
      "wildshaped": false,
      "polymorphed": false
    },
    "combatChanges": [
      [
        "attackOptional",
        "mwak",
        "",
        "featAttackBonus",
        "min(5, max(0, floor((@source.level) / 4)))",
        ""
      ],
      [
        "attackOptional",
        "mwak",
        "",
        "featDamageBonus",
        "min(5, max(0, floor((@source.level) / 4)))",
        ""
      ]
    ],
    "combatChangesRange": {
      "maxFormula": "",
      "max": 0
    },
    "combatChangesAdditionalRanges": {
      "hasAdditionalRanges": false,
      "slider1": {
        "maxFormula": "",
        "max": 0,
        "name": ""
      },
      "slider2": {
        "maxFormula": "",
        "max": 0,
        "name": ""
      },
      "slider3": {
        "maxFormula": "",
        "max": 0,
        "name": ""
      }
    },
    "combatChangesUsesCost": "chargesPerUse",
    "combatChangesApplySpecialActionsOnce": true,
    "combatChangeCustomDisplayName": "",
    "combatChangeCustomReferenceName": "",
    "sizeOverride": "",
    "counterName": "",
    "resistances": [],
    "damageReduction": [],
    "requirements": [],
    "creationChanges": [],
    "contextNotes": [],
    "activation": {
      "cost": 1,
      "type": ""
    },
    "duration": {
      "value": null,
      "units": ""
    },
    "target": {
      "value": ""
    },
    "range": {
      "value": null,
      "units": "",
      "long": null
    },
    "recharge": {
      "enabled": false,
      "formula": "",
      "current": 0
    },
    "uses": {
      "value": -10,
      "max": 0,
      "per": null,
      "autoDeductCharges": true,
      "allowMultipleUses": false,
      "chargesPerUse": 1,
      "maxPerUse": null,
      "maxPerUseFormula": "",
      "maxFormula": "",
      "rechargeFormula": null,
      "isResource": false,
      "canBeLinked": false
    },
    "requiresPsionicFocus": false,
    "linkedChargeItem": {
      "id": null,
      "img": null,
      "name": null
    },
    "light": {
      "color": "",
      "radius": 0,
      "opacity": 0,
      "alpha": 0.5,
      "lightAngle": 360,
      "type": "",
      "animationSpeed": "",
      "animationIntensity": "",
      "dimRadius": "",
      "emitLight": false
    },
    "buffType": "temp",
    "active": false,
    "level": "",
    "timeline": {
      "elapsed": 0,
      "total": 0,
      "formula": "",
      "enabled": false,
      "deleteOnExpiry": false,
      "tickOnEnd": false
    },
    "damagePool": {
      "current": 0,
      "max": 0,
      "formula": "",
      "enabled": false,
      "deleteOnDamagePoolEmpty": false
    },
    "shapechange": {
      "source": {},
      "type": "polymorph"
    },
    "activateActions": [],
    "deactivateActions": [],
    "perRoundActions": [],
    "hideFromToken": false,
    "senses": {
      "lowLight": false,
      "lowLightMultiplier": null,
      "blindsight": null,
      "darkvision": null,
      "tremorsense": null,
      "truesight": null
    },
    "damage": {
      "parts": [],
      "alternativeParts": []
    },
    "attackParts": [],
    "conditionals": [],
    "specialActions": [],
    "container": "None",
    "containerWeightless": false,
    "identifiedName": "Magic Fang, Greater",
    "summon": [],
    "index": {
      "subType": null,
      "uniqueId": ""
    }
  },
  "ownership": {
    "default": 0,
    "XSGi1UY5kAehVomp": 3
  },
  "_stats": {
    "systemId": "D35E",
    "systemVersion": "2.1.3",
    "coreVersion": "10.291",
    "createdTime": null,
    "modifiedTime": 1678394284577,
    "lastModifiedBy": "cB3ob9BYxSFYX7sd"
  },
  "_key": "!items!vfxTHPQ3oPj0uERd"
}