{
  "_id": "OQQYaNxXsb974T8j",
  "name": "Slow",
  "type": "buff",
  "img": "systems/D35E/icons/buffs/slow.png",
  "effects": [],
  "folder": null,
  "sort": 6700000,
  "flags": {
    "core": {
      "sourceId": "Compendium.D35E.commonbuffs.OQQYaNxXsb974T8j"
    },
    "cf": {
      "id": "temp_hol1rayo4ow"
    },
    "exportSource": {
      "world": "lordsofflan",
      "system": "D35E",
      "coreVersion": "9.269",
      "systemVersion": "0.99.13"
    }
  },
  "system": {
    "originVersion": 3,
    "originPack": "",
    "originId": "",
    "possibleUpdate": false,
    "description": {
      "value": "<p>You are&nbsp;staggered, and you have a -1 penalty to attack rolls, AC and Reflex saves.</p>\n<p>In addition, you move at half speed (round down to the next 5-foot increment).</p>",
      "chat": "",
      "unidentified": ""
    },
    "epic": "",
    "psionic": "",
    "nameFormula": "",
    "nameFromFormula": false,
    "tags": [],
    "uniqueId": "",
    "linkId": "",
    "linkSourceId": "",
    "linkImported": false,
    "linkSourceName": "",
    "source": "",
    "classSource": "",
    "userNonRemovable": false,
    "customAttributes": {},
    "customAttributesLocked": false,
    "customTag": "",
    "createdBy": "",
    "changes": [
      [
        "-1",
        "ac",
        "ac",
        "untyped"
      ],
      [
        "-1",
        "attack",
        "attack",
        "untyped"
      ],
      [
        "-1",
        "savingThrows",
        "ref",
        "untyped"
      ],
      [
        "-25",
        "speed",
        "landSpeed",
        "untyped"
      ]
    ],
    "changeFlags": {
      "loseDexToAC": false,
      "noStr": false,
      "noDex": false,
      "noInt": false,
      "noCon": false,
      "oneInt": false,
      "oneWis": false,
      "oneCha": false,
      "noEncumbrance": false,
      "mediumArmorFullSpeed": false,
      "heavyArmorFullSpeed": false,
      "multiAttack": false,
      "multiweaponAttack": false,
      "uncannyDodge": false,
      "hasted": false,
      "firstChangeTargetSelectableOnDescription": false
    },
    "conditionFlags": {
      "dazzled": false,
      "wildshaped": false,
      "polymorphed": false
    },
    "combatChanges": [],
    "combatChangesRange": {
      "maxFormula": "",
      "max": 0
    },
    "combatChangesAdditionalRanges": {
      "hasAdditionalRanges": false,
      "slider1": {
        "maxFormula": "",
        "max": 0,
        "name": ""
      },
      "slider2": {
        "maxFormula": "",
        "max": 0,
        "name": ""
      },
      "slider3": {
        "maxFormula": "",
        "max": 0,
        "name": ""
      }
    },
    "combatChangesUsesCost": "chargesPerUse",
    "combatChangesApplySpecialActionsOnce": true,
    "combatChangeCustomDisplayName": "",
    "combatChangeCustomReferenceName": "",
    "sizeOverride": "",
    "counterName": "",
    "resistances": [],
    "damageReduction": [],
    "requirements": [],
    "creationChanges": [],
    "contextNotes": [],
    "activation": {
      "cost": 1,
      "type": ""
    },
    "duration": {
      "value": null,
      "units": ""
    },
    "target": {
      "value": ""
    },
    "range": {
      "value": null,
      "units": ""
    },
    "recharge": {
      "enabled": false,
      "formula": "",
      "current": 0
    },
    "uses": {
      "value": 0,
      "max": 0,
      "per": null,
      "autoDeductCharges": true,
      "allowMultipleUses": false,
      "chargesPerUse": 1,
      "maxPerUse": null,
      "maxPerUseFormula": "",
      "maxFormula": "",
      "rechargeFormula": null,
      "isResource": false,
      "canBeLinked": false
    },
    "requiresPsionicFocus": false,
    "linkedChargeItem": {
      "id": null,
      "img": null,
      "name": null
    },
    "light": {
      "color": "",
      "radius": 0,
      "opacity": 0,
      "alpha": 0.5,
      "lightAngle": 360,
      "type": "",
      "animationSpeed": "",
      "animationIntensity": "",
      "dimRadius": "",
      "emitLight": false
    },
    "buffType": "temp",
    "active": false,
    "level": "",
    "timeline": {
      "elapsed": 0,
      "total": 2,
      "formula": "max(1,@item.level)*2",
      "enabled": false,
      "deleteOnExpiry": false,
      "tickOnEnd": false
    },
    "damagePool": {
      "current": 0,
      "max": 0,
      "formula": "",
      "enabled": false,
      "deleteOnDamagePoolEmpty": false
    },
    "shapechange": {
      "source": {},
      "type": "polymorph"
    },
    "activateActions": [],
    "deactivateActions": [],
    "perRoundActions": [],
    "hideFromToken": false,
    "damage": {
      "parts": [],
      "alternativeParts": []
    },
    "senses": {
      "lowLight": false,
      "lowLightMultiplier": null,
      "blindsight": null,
      "darkvision": null,
      "tremorsense": null,
      "truesight": null
    },
    "attackParts": [],
    "conditionals": [],
    "specialActions": [],
    "container": "None",
    "containerWeightless": false,
    "identifiedName": "Slow",
    "index": {
      "subType": null,
      "uniqueId": ""
    }
  },
  "ownership": {
    "default": 0
  },
  "_stats": {
    "systemId": "D35E",
    "systemVersion": "2.1.3",
    "coreVersion": "10.291",
    "createdTime": null,
    "modifiedTime": 1678394277236,
    "lastModifiedBy": "cB3ob9BYxSFYX7sd"
  },
  "_key": "!items!OQQYaNxXsb974T8j"
}