{
  "_id": "72lS5ab4mhJzLFtT",
  "name": "Sleet Storm",
  "type": "spell",
  "img": "https://assets.forge-vtt.com/5fe31a2189e302aecfb7063c/systems/D35E/icons/spells/named-spells/sleet-storm.png",
  "effects": [],
  "folder": null,
  "sort": 600000,
  "flags": {
    "core": {
      "sourceId": "Compendium.D35E.spells.72lS5ab4mhJzLFtT"
    }
  },
  "system": {
    "originVersion": 109,
    "originPack": "",
    "originId": "",
    "possibleUpdate": false,
    "description": {
      "value": "<div class=\"spell-description\">\n  <p>\n      <strong>School:</strong>&nbsp;conjuration&nbsp;(creation)&nbsp;[cold];\n    <br>\n    <strong>Level:</strong>&nbsp;Druid 3, Sorcerer 3, Wizard 3;\n    <strong>Domain:</strong>&nbsp;Weather 4;\n    \n    \n    \n    <br>\n    <strong>Components:</strong>&nbsp;V, S, M/DF (a pinch of dust and a few drops of water), F<br>\n    \n      <strong>Casting Time:</strong>&nbsp;1 standard action<br>\n    <strong>Range:</strong>&nbsp;long (400 ft. + 40 ft./level)<br>\n    <strong>Area:</strong>&nbsp;cylinder (40-ft. radius, 20 ft. high)<br>\n    \n    \n    <strong>Duration:</strong>&nbsp;1 Round/Level<br>\n    \n        <strong>Saving Throw:</strong>&nbsp;None\n        <br>\n        <strong>Spell Resistance:</strong>&nbsp;no<br>\n  </p>\n  <h2>Description</h2>\n  \n\n\n<p>\nDriving sleet blocks all sight (even darkvision) within it and causes the ground in the area to be icy. A creature can walk within or through the area of sleet at half normal speed with a DC 10 Balance check. Failure means it can’t move in that round, while failure by 5 or more means it falls (see the Balance skill for details).\n</p><p>The sleet extinguishes torches and small fires.\n</p><p><i>Arcane Material Component: </i>A pinch of dust and a few drops of water.\n</p>\n<hr/>\n\n\n\n</div>\n",
      "chat": "",
      "unidentified": ""
    },
    "epic": "",
    "psionic": "",
    "nameFormula": "",
    "nameFromFormula": false,
    "tags": [],
    "uniqueId": "",
    "linkId": "",
    "linkSourceId": "",
    "linkImported": false,
    "linkSourceName": "",
    "source": "",
    "classSource": "",
    "userNonRemovable": false,
    "customAttributes": {},
    "customAttributesLocked": false,
    "customTag": "",
    "createdBy": "",
    "activation": {
      "cost": 1,
      "type": "standard"
    },
    "duration": {
      "value": null,
      "units": ""
    },
    "target": {
      "value": ""
    },
    "range": {
      "value": null,
      "units": "long",
      "long": null
    },
    "recharge": {
      "enabled": false,
      "formula": "",
      "current": 0
    },
    "uses": {
      "value": 0,
      "max": 0,
      "per": "",
      "autoDeductCharges": true,
      "allowMultipleUses": false,
      "chargesPerUse": 1,
      "maxPerUse": null,
      "maxPerUseFormula": "",
      "maxFormula": "",
      "rechargeFormula": null,
      "isResource": false,
      "canBeLinked": false
    },
    "requiresPsionicFocus": false,
    "linkedChargeItem": {
      "id": null,
      "img": null,
      "name": null
    },
    "measureTemplate": {
      "type": "circle",
      "size": "40",
      "overrideColor": false,
      "customColor": "#000000",
      "overrideTexture": false,
      "customTexture": ""
    },
    "actionType": "other",
    "attackBonus": "",
    "critConfirmBonus": "",
    "damage": {
      "parts": [],
      "alternativeParts": []
    },
    "summon": [],
    "attackParts": [],
    "autoscaleAttackParts": "",
    "formula": "",
    "attackCountFormula": "",
    "maxDamageDice": 0,
    "maxDamageDiceFormula": "",
    "ability": {
      "attack": "",
      "damage": "",
      "damageMult": 1,
      "critRange": 20,
      "critMult": 2,
      "twoHandedOnly": false,
      "vsTouchAc": false
    },
    "save": {
      "dc": "0",
      "description": "None",
      "ability": "",
      "type": "",
      "dcAutoType": "",
      "dcAutoAbility": "",
      "originVersion": 97
    },
    "baseCl": "0",
    "sr": false,
    "pr": false,
    "metamagicFeats": {
      "maximized": false,
      "empowered": false,
      "enlarged": false,
      "intensified": false,
      "enhanced": false,
      "enhancedHalf": false,
      "widened": false
    },
    "effectNotes": "",
    "attackNotes": "",
    "specialActions": [
      {
        "name": "",
        "action": "",
        "condition": "",
        "img": ""
      }
    ],
    "favorite": false,
    "rollTableDraw": {
      "formula": "",
      "name": "",
      "pack": "",
      "id": ""
    },
    "learnedAt": {
      "class": [
        [
          "Druid",
          3
        ],
        [
          "Wizard",
          3
        ],
        [
          "Sorcerer",
          3
        ]
      ],
      "domain": [
        [
          "Weather",
          4
        ]
      ],
      "subDomain": [],
      "elementalSchool": [],
      "bloodline": []
    },
    "level": 4,
    "clOffset": 0,
    "slOffset": 0,
    "school": "con",
    "subschool": "creation",
    "types": "cold",
    "components": {
      "value": "",
      "verbal": true,
      "somatic": true,
      "material": true,
      "focus": true,
      "divineFocus": 2
    },
    "castTime": "",
    "conditionals": [],
    "materials": {
      "value": "a pinch of dust and a few drops of water",
      "consumed": {
        "value": false,
        "_deprecated": true
      },
      "focus": ""
    },
    "isSpellSpontaneousReplacement": false,
    "spellbook": "primary",
    "preparation": {
      "preparedAmount": 0,
      "maxAmount": 0,
      "autoDeductCharges": true,
      "mode": "prepared"
    },
    "atWill": false,
    "powerPointsCost": 0,
    "display": "",
    "isPower": false,
    "shortDescription": "\n\n\n<p>\nDriving sleet blocks all sight (even darkvision) within it and causes the ground in the area to be icy. A creature can walk within or through the area of sleet at half normal speed with a DC 10 Balance check. Failure means it can’t move in that round, while failure by 5 or more means it falls (see the Balance skill for details).\n</p><p>The sleet extinguishes torches and small fires.\n</p><p><i>Arcane Material Component: </i>A pinch of dust and a few drops of water.\n</p>\n<hr/>\n\n\n",
    "snip": "Hampers vision and movement.",
    "spellDuration": "1 round/level",
    "spellEffect": "",
    "spellArea": "cylinder (40-ft. radius, 20 ft. high)",
    "spellType": {
      "value": "",
      "_deprecated": true
    },
    "showInQuickbar": false,
    "specialPrepared": false,
    "isDomainSpell": false,
    "specialId": null,
    "attack": {
      "parts": []
    },
    "identifiedName": "Sleet Storm",
    "changes": [],
    "combatChanges": [],
    "contextNotes": [],
    "activateActions": [],
    "deactivateActions": [],
    "container": "None",
    "containerWeightless": false,
    "customReferenceId": "",
    "requirements": [],
    "creationChanges": [],
    "resistances": [],
    "damageReduction": [],
    "perRoundActions": [],
    "spellDurationData": {
      "value": "1*@cl",
      "units": "roundPerLevel",
      "dismissable": false
    },
    "index": {
      "subType": null,
      "uniqueId": ""
    }
  },
  "ownership": {
    "default": 0
  },
  "_stats": {
    "systemId": "D35E",
    "systemVersion": "2.1.3",
    "coreVersion": "10.291",
    "createdTime": 1668846675821,
    "modifiedTime": 1678394287416,
    "lastModifiedBy": "cB3ob9BYxSFYX7sd"
  },
  "_key": "!items!72lS5ab4mhJzLFtT"
}