{
  "_id": "Hr3V6K3E03JBzsdg",
  "name": "Solid Fog",
  "type": "spell",
  "img": "https://assets.forge-vtt.com/5fe31a2189e302aecfb7063c/systems/D35E/icons/spells/school/con_.png",
  "effects": [],
  "folder": null,
  "sort": 600000,
  "flags": {
    "core": {
      "sourceId": "Compendium.D35E.spells.Hr3V6K3E03JBzsdg"
    }
  },
  "system": {
    "originVersion": 109,
    "originPack": "",
    "originId": "",
    "possibleUpdate": false,
    "description": {
      "value": "<div class=\"spell-description\">\n  <p>\n      <strong>School:</strong>&nbsp;conjuration&nbsp;(creation);\n    <br>\n    <strong>Level:</strong>&nbsp;Sorcerer 4, Wizard 4;\n    \n    \n    \n    \n    <br>\n    <strong>Components:</strong>&nbsp;V, S, M (a pinch of dried, powdered peas combined with powdered animal hoof)<br>\n    \n      <strong>Casting Time:</strong>&nbsp;1 round<br>\n    <strong>Range:</strong>&nbsp;touch<br>\n    \n    \n    \n    <strong>Duration:</strong>&nbsp;1 Minute/Level<br>\n    \n        <strong>Saving Throw:</strong>&nbsp;none\n        <br>\n        <strong>Spell Resistance:</strong>&nbsp;no<br>\n  </p>\n  <h2>Description</h2>\n  \n\n\n<p>\nThis spell functions like <i>fog cloud</i>, but in addition to obscuring sight, the <i>solid fog </i>is so thick that any creature attempting to move through it progresses at a speed of 5 feet, regardless of its normal speed, and it takes a –2 penalty on all melee attack and melee damage rolls. The vapors prevent effective ranged weapon attacks (except for magic rays and the like). A creature or object that falls into <i>solid fog </i>is slowed, so that each 10 feet of vapor that it passes through reduces falling damage by 1d6. A creature can’t take a 5-foot step while in <i>solid fog.</i>\n</p><p>However, unlike normal fog, only a severe wind (31+ mph) disperses these vapors, and it does so in 1 round.\n</p><p><i>Solid fog </i>can be made permanent with a <i>permanency </i>spell. A permanent <i>solid fog </i>dispersed by wind reforms in 10 minutes.\n</p><p><i>Material Component: </i>A pinch of dried, powdered peas combined with powdered animal hoof.\n</p>\n<hr/>\n\n\n\n</div>\n",
      "chat": "",
      "unidentified": ""
    },
    "epic": "",
    "psionic": "",
    "nameFormula": "",
    "nameFromFormula": false,
    "tags": [],
    "uniqueId": "",
    "linkId": "",
    "linkSourceId": "",
    "linkImported": false,
    "linkSourceName": "",
    "source": "",
    "classSource": "",
    "userNonRemovable": false,
    "customAttributes": {},
    "customAttributesLocked": false,
    "customTag": "",
    "createdBy": "",
    "activation": {
      "cost": 1,
      "type": "round"
    },
    "duration": {
      "value": null,
      "units": ""
    },
    "target": {
      "value": ""
    },
    "range": {
      "value": null,
      "units": "touch",
      "long": null
    },
    "recharge": {
      "enabled": false,
      "formula": "",
      "current": 0
    },
    "uses": {
      "value": 0,
      "max": 0,
      "per": "",
      "autoDeductCharges": true,
      "allowMultipleUses": false,
      "chargesPerUse": 1,
      "maxPerUse": null,
      "maxPerUseFormula": "",
      "maxFormula": "",
      "rechargeFormula": null,
      "isResource": false,
      "canBeLinked": false
    },
    "requiresPsionicFocus": false,
    "linkedChargeItem": {
      "id": null,
      "img": null,
      "name": null
    },
    "measureTemplate": {
      "type": "circle",
      "size": "20",
      "overrideColor": false,
      "customColor": "",
      "overrideTexture": false,
      "customTexture": ""
    },
    "actionType": "other",
    "attackBonus": "",
    "critConfirmBonus": "",
    "damage": {
      "parts": [],
      "alternativeParts": []
    },
    "summon": [],
    "attackParts": [],
    "autoscaleAttackParts": "",
    "formula": "",
    "attackCountFormula": "",
    "maxDamageDice": 0,
    "maxDamageDiceFormula": "",
    "ability": {
      "attack": "",
      "damage": "",
      "damageMult": 1,
      "critRange": 20,
      "critMult": 2,
      "twoHandedOnly": false,
      "vsTouchAc": false
    },
    "save": {
      "dc": "0",
      "description": "",
      "ability": "",
      "type": "",
      "dcAutoType": "",
      "dcAutoAbility": "",
      "originVersion": 97
    },
    "baseCl": "0",
    "sr": false,
    "pr": false,
    "metamagicFeats": {
      "maximized": false,
      "empowered": false,
      "enlarged": false,
      "intensified": false,
      "enhanced": false,
      "enhancedHalf": false,
      "widened": false
    },
    "effectNotes": "",
    "attackNotes": "",
    "specialActions": [],
    "favorite": false,
    "rollTableDraw": {
      "formula": "",
      "name": "",
      "pack": "",
      "id": ""
    },
    "learnedAt": {
      "class": [
        [
          "Wizard",
          4
        ],
        [
          "Sorcerer",
          4
        ]
      ],
      "domain": [],
      "subDomain": [],
      "elementalSchool": [],
      "bloodline": []
    },
    "level": 4,
    "clOffset": 0,
    "slOffset": 0,
    "school": "con",
    "subschool": "creation",
    "types": "",
    "components": {
      "value": "",
      "verbal": true,
      "somatic": true,
      "material": true,
      "focus": false,
      "divineFocus": 0
    },
    "castTime": "",
    "conditionals": [],
    "materials": {
      "value": "a pinch of dried, powdered peas combined with powdered animal hoof",
      "consumed": {
        "value": false,
        "_deprecated": true
      },
      "focus": ""
    },
    "isSpellSpontaneousReplacement": false,
    "spellbook": "primary",
    "preparation": {
      "preparedAmount": 0,
      "maxAmount": 0,
      "autoDeductCharges": true,
      "mode": "prepared"
    },
    "atWill": false,
    "powerPointsCost": 0,
    "display": "",
    "isPower": false,
    "shortDescription": "\n\n\n<p>\nThis spell functions like <i>fog cloud</i>, but in addition to obscuring sight, the <i>solid fog </i>is so thick that any creature attempting to move through it progresses at a speed of 5 feet, regardless of its normal speed, and it takes a –2 penalty on all melee attack and melee damage rolls. The vapors prevent effective ranged weapon attacks (except for magic rays and the like). A creature or object that falls into <i>solid fog </i>is slowed, so that each 10 feet of vapor that it passes through reduces falling damage by 1d6. A creature can’t take a 5-foot step while in <i>solid fog.</i>\n</p><p>However, unlike normal fog, only a severe wind (31+ mph) disperses these vapors, and it does so in 1 round.\n</p><p><i>Solid fog </i>can be made permanent with a <i>permanency </i>spell. A permanent <i>solid fog </i>dispersed by wind reforms in 10 minutes.\n</p><p><i>Material Component: </i>A pinch of dried, powdered peas combined with powdered animal hoof.\n</p>\n<hr/>\n\n\n",
    "snip": "Blocks vision and slows movement.",
    "spellDuration": "1 min./level",
    "spellEffect": "",
    "spellArea": "",
    "spellType": {
      "value": "",
      "_deprecated": true
    },
    "showInQuickbar": false,
    "specialPrepared": false,
    "isDomainSpell": false,
    "specialId": null,
    "attack": {
      "parts": []
    },
    "identifiedName": "Solid Fog",
    "customReferenceId": "",
    "changes": [],
    "combatChanges": [],
    "requirements": [],
    "creationChanges": [],
    "resistances": [],
    "damageReduction": [],
    "contextNotes": [],
    "activateActions": [],
    "deactivateActions": [],
    "perRoundActions": [],
    "container": "None",
    "containerWeightless": false,
    "spellDurationData": {
      "value": "1*@cl",
      "units": "minutePerLevel",
      "dismissable": false
    },
    "index": {
      "subType": null,
      "uniqueId": ""
    }
  },
  "ownership": {
    "default": 0
  },
  "_stats": {
    "systemId": "D35E",
    "systemVersion": "2.1.3",
    "coreVersion": "10.291",
    "createdTime": 1668846676824,
    "modifiedTime": 1678394291386,
    "lastModifiedBy": "cB3ob9BYxSFYX7sd"
  },
  "_key": "!items!Hr3V6K3E03JBzsdg"
}