{
  "_id": "ZxXbPHmvRxT2FyIq",
  "name": "Spike Stones",
  "type": "spell",
  "img": "https://assets.forge-vtt.com/5fe31a2189e302aecfb7063c/systems/D35E/icons/spells/named-spells/stone-spikes.png",
  "effects": [],
  "folder": null,
  "sort": 600000,
  "flags": {
    "core": {
      "sourceId": "Compendium.D35E.spells.ZxXbPHmvRxT2FyIq"
    }
  },
  "system": {
    "originVersion": 108,
    "originPack": "",
    "originId": "",
    "possibleUpdate": false,
    "description": {
      "value": "<div class=\"spell-description\">\n  <p>\n      <strong>School:</strong>&nbsp;transmutation&nbsp;[earth];\n    <br>\n    <strong>Level:</strong>&nbsp;Druid 4;\n    <strong>Domain:</strong>&nbsp;Earth 4;\n    \n    \n    \n    <br>\n    <strong>Components:</strong>&nbsp;V, S, F, DF<br>\n    \n      <strong>Casting Time:</strong>&nbsp;1 standard action<br>\n    <strong>Range:</strong>&nbsp;medium (100 ft. + 10 ft./level)<br>\n    <strong>Area:</strong>&nbsp;one 20-ft. square/level<br>\n    \n    \n    <strong>Duration:</strong>&nbsp;1 Hours/Level (D)<br>\n    \n        <strong>Saving Throw:</strong>&nbsp;Reflex Partial\n        <br>\n        <strong>Spell Resistance:</strong>&nbsp;yes<br>\n  </p>\n  <h2>Description</h2>\n  \n\n\n<p>\nRocky ground, stone floors, and similar surfaces shape themselves into long, sharp points that blend into the background.\n</p><p><i>Spike stones </i>impede progress through an area and deal damage. Any creature moving on foot into or through the spell’s area moves at half speed.\n</p><p>In addition, each creature moving through the area takes 1d8 points of piercing damage for each 5 feet of movement through the spiked area.\n</p><p>Any creature that takes damage from this spell must also succeed on a Reflex save to avoid injuries to its feet and legs. A failed save causes the creature’s speed to be reduced to half normal for 24 hours or until the injured creature receives a <i>cure </i>spell (which also restores lost hit points). Another character can remove the penalty by taking 10 minutes to dress the injuries and succeeding on a Heal check against the spell’s save DC.\n</p><p><i>Spike stones </i>is a magic trap that can’t be disabled with the Disable Device skill.\n</p><p><i>Note:</i> Magic traps such as <i>spike stones</i> are hard to detect. A rogue (only) can use the Search skill to find <i>spike stones</i>. The DC is 25 + spell level, or DC 29 for <i>spike stones</i>.\n</p>\n<hr/>\n\n\n\n</div>\n",
      "chat": "",
      "unidentified": ""
    },
    "epic": "",
    "psionic": "",
    "nameFormula": "",
    "nameFromFormula": false,
    "tags": [],
    "uniqueId": "",
    "linkId": "",
    "linkSourceId": "",
    "linkImported": false,
    "linkSourceName": "",
    "source": "",
    "classSource": "",
    "userNonRemovable": false,
    "customAttributes": {},
    "customAttributesLocked": false,
    "customTag": "",
    "createdBy": "",
    "activation": {
      "cost": 1,
      "type": "standard"
    },
    "duration": {
      "value": null,
      "units": ""
    },
    "target": {
      "value": ""
    },
    "range": {
      "value": null,
      "units": "medium",
      "long": null
    },
    "recharge": {
      "enabled": false,
      "formula": "",
      "current": 0
    },
    "uses": {
      "value": 0,
      "max": 0,
      "per": "",
      "autoDeductCharges": true,
      "allowMultipleUses": false,
      "chargesPerUse": 1,
      "maxPerUse": null,
      "maxPerUseFormula": "",
      "maxFormula": "",
      "rechargeFormula": null,
      "isResource": false,
      "canBeLinked": false
    },
    "requiresPsionicFocus": false,
    "linkedChargeItem": {
      "id": null,
      "img": null,
      "name": null
    },
    "measureTemplate": {
      "type": "circle",
      "size": "0",
      "overrideColor": false,
      "customColor": "",
      "overrideTexture": false,
      "customTexture": ""
    },
    "actionType": "spellsave",
    "attackBonus": "",
    "critConfirmBonus": "",
    "damage": {
      "parts": [
        [
          "1d8",
          "",
          "damage-piercing"
        ]
      ],
      "alternativeParts": []
    },
    "summon": [],
    "attackParts": [],
    "autoscaleAttackParts": "",
    "formula": "",
    "attackCountFormula": "",
    "maxDamageDice": 0,
    "maxDamageDiceFormula": "",
    "ability": {
      "attack": "",
      "damage": "",
      "damageMult": 1,
      "critRange": 20,
      "critMult": 2,
      "twoHandedOnly": false,
      "vsTouchAc": false
    },
    "save": {
      "dc": "0",
      "description": "",
      "ability": "",
      "type": "reflexpartial",
      "dcAutoType": "",
      "dcAutoAbility": "",
      "originVersion": 97
    },
    "baseCl": "0",
    "sr": true,
    "pr": false,
    "metamagicFeats": {
      "maximized": false,
      "empowered": false,
      "enlarged": false,
      "intensified": false,
      "enhanced": false,
      "enhancedHalf": false,
      "widened": false
    },
    "effectNotes": "",
    "attackNotes": "1d8 points of piercing damage for each 5 feet of movement through the spiked area",
    "specialActions": [
      {
        "name": "Spike Stones",
        "action": "Create unique \"Spike Stones\" from \"D35E.commonbuffs\" on target;Set buff \"Spike Stones\" field data.level to max(1,(@cl)) on target;Activate buff \"Spike Stones\" on target",
        "range": "",
        "img": "icons/svg/item-bag.svg",
        "condition": ""
      }
    ],
    "favorite": false,
    "rollTableDraw": {
      "formula": "",
      "name": "",
      "pack": "",
      "id": ""
    },
    "learnedAt": {
      "class": [
        [
          "Druid",
          4
        ]
      ],
      "domain": [
        [
          "Earth",
          4
        ]
      ],
      "subDomain": [],
      "elementalSchool": [],
      "bloodline": []
    },
    "level": 4,
    "clOffset": 0,
    "slOffset": 0,
    "school": "trs",
    "subschool": "",
    "types": "earth",
    "components": {
      "value": "",
      "verbal": true,
      "somatic": true,
      "material": false,
      "focus": true,
      "divineFocus": 1
    },
    "castTime": "",
    "conditionals": [],
    "materials": {
      "value": "",
      "consumed": {
        "value": false,
        "_deprecated": true
      },
      "focus": ""
    },
    "isSpellSpontaneousReplacement": false,
    "spellbook": "primary",
    "preparation": {
      "preparedAmount": 0,
      "maxAmount": 0,
      "autoDeductCharges": true,
      "mode": "prepared"
    },
    "atWill": false,
    "powerPointsCost": 0,
    "display": "",
    "isPower": false,
    "shortDescription": "\n\n\n<p>\nRocky ground, stone floors, and similar surfaces shape themselves into long, sharp points that blend into the background.\n</p><p><i>Spike stones </i>impede progress through an area and deal damage. Any creature moving on foot into or through the spell’s area moves at half speed.\n</p><p>In addition, each creature moving through the area takes 1d8 points of piercing damage for each 5 feet of movement through the spiked area.\n</p><p>Any creature that takes damage from this spell must also succeed on a Reflex save to avoid injuries to its feet and legs. A failed save causes the creature’s speed to be reduced to half normal for 24 hours or until the injured creature receives a <i>cure </i>spell (which also restores lost hit points). Another character can remove the penalty by taking 10 minutes to dress the injuries and succeeding on a Heal check against the spell’s save DC.\n</p><p><i>Spike stones </i>is a magic trap that can’t be disabled with the Disable Device skill.\n</p><p><i>Note:</i> Magic traps such as <i>spike stones</i> are hard to detect. A rogue (only) can use the Search skill to find <i>spike stones</i>. The DC is 25 + spell level, or DC 29 for <i>spike stones</i>.\n</p>\n<hr/>\n\n\n",
    "snip": "Creatures in area take 1d8 damage, may be slowed.",
    "spellDuration": "1 hour/level (D)",
    "spellEffect": "",
    "spellArea": "one 20-ft. square/level",
    "spellType": {
      "value": "",
      "_deprecated": true
    },
    "showInQuickbar": false,
    "specialPrepared": false,
    "isDomainSpell": false,
    "specialId": null,
    "attack": {
      "parts": []
    },
    "identifiedName": "Spike Stones",
    "changes": [],
    "combatChanges": [],
    "contextNotes": [],
    "activateActions": [],
    "deactivateActions": [],
    "container": "None",
    "containerWeightless": false,
    "customReferenceId": "",
    "requirements": [],
    "creationChanges": [],
    "resistances": [],
    "damageReduction": [],
    "perRoundActions": [],
    "spellDurationData": {
      "value": "1*@cl",
      "units": "hourPerLevel",
      "dismissable": false
    },
    "index": {
      "subType": null,
      "uniqueId": ""
    }
  },
  "ownership": {
    "default": 0
  },
  "_stats": {
    "systemId": "D35E",
    "systemVersion": "2.1.3",
    "coreVersion": "10.291",
    "createdTime": 1668846679379,
    "modifiedTime": 1678394297162,
    "lastModifiedBy": "cB3ob9BYxSFYX7sd"
  },
  "_key": "!items!ZxXbPHmvRxT2FyIq"
}