{
  "_id": "AqU7RiBTvhsH3fOd",
  "name": "Stone to Flesh",
  "type": "spell",
  "img": "https://assets.forge-vtt.com/5fe31a2189e302aecfb7063c/systems/D35E/icons/spells/school/trs.png",
  "effects": [],
  "folder": null,
  "sort": 600000,
  "flags": {
    "core": {
      "sourceId": "Compendium.D35E.spells.AqU7RiBTvhsH3fOd"
    }
  },
  "system": {
    "originVersion": 109,
    "originPack": "",
    "originId": "",
    "possibleUpdate": false,
    "description": {
      "value": "<div class=\"spell-description\">\n  <p>\n      <strong>School:</strong>&nbsp;transmutation;\n    <br>\n    <strong>Level:</strong>&nbsp;Sorcerer 6, Wizard 6;\n    \n    \n    \n    \n    <br>\n    <strong>Components:</strong>&nbsp;V, S, M (a pinch of earth and a drop of blood)<br>\n    \n      <strong>Casting Time:</strong>&nbsp;1 standard action<br>\n    <strong>Range:</strong>&nbsp;medium (100 ft. + 10 ft./level)<br>\n    \n    <strong>Target:</strong>&nbsp;one petrified creature or a cylinder of stone from 1 ft. to 3 ft. in diameter and up to 10 ft. long<br>\n    \n    <strong>Duration:</strong>&nbsp;Instantaneous<br>\n    \n        <strong>Saving Throw:</strong>&nbsp;Fortitude Negates\n        <br>\n        <strong>Spell Resistance:</strong>&nbsp;yes<br>\n  </p>\n  <h2>Description</h2>\n  \n\n\n<p>\nThis spell restores a petrified creature to its normal state, restoring life and goods. The creature must make a DC 15 Fortitude save to survive the process. Any petrified creature, regardless of size, can be restored.\n</p><p>The spell also can convert a mass of stone into a fleshy substance. Such flesh is inert and lacking a vital life force unless a life force or magical energy is available. (For example, this spell would turn a stone golem into a flesh golem, but an ordinary statue would become a corpse.) You can affect an object that fits within a cylinder from 1 foot to 3 feet in diameter and up to 10 feet long or a cylinder of up to those dimensions in a larger mass of stone.\n</p><p><i>Material Component: </i>A pinch of earth and a drop of blood.\n</p>\n<hr/>\n\n\n\n</div>\n",
      "chat": "",
      "unidentified": ""
    },
    "epic": "",
    "psionic": "",
    "nameFormula": "",
    "nameFromFormula": false,
    "tags": [],
    "uniqueId": "",
    "linkId": "",
    "linkSourceId": "",
    "linkImported": false,
    "linkSourceName": "",
    "source": "",
    "classSource": "",
    "userNonRemovable": false,
    "customAttributes": {},
    "customAttributesLocked": false,
    "customTag": "",
    "createdBy": "",
    "activation": {
      "cost": 1,
      "type": "standard"
    },
    "duration": {
      "value": null,
      "units": ""
    },
    "target": {
      "value": "one petrified creature or a cylinder of stone from 1 ft. to 3 ft. in diameter and up to 10 ft. long"
    },
    "range": {
      "value": null,
      "units": "medium",
      "long": null
    },
    "recharge": {
      "enabled": false,
      "formula": "",
      "current": 0
    },
    "uses": {
      "value": 0,
      "max": 0,
      "per": "",
      "autoDeductCharges": true,
      "allowMultipleUses": false,
      "chargesPerUse": 1,
      "maxPerUse": null,
      "maxPerUseFormula": "",
      "maxFormula": "",
      "rechargeFormula": null,
      "isResource": false,
      "canBeLinked": false
    },
    "requiresPsionicFocus": false,
    "linkedChargeItem": {
      "id": null,
      "img": null,
      "name": null
    },
    "measureTemplate": {
      "type": "",
      "size": 0,
      "overrideColor": false,
      "customColor": "",
      "overrideTexture": false,
      "customTexture": ""
    },
    "actionType": "spellsave",
    "attackBonus": "",
    "critConfirmBonus": "",
    "damage": {
      "parts": [],
      "alternativeParts": []
    },
    "summon": [],
    "attackParts": [],
    "autoscaleAttackParts": "",
    "formula": "",
    "attackCountFormula": "",
    "maxDamageDice": 0,
    "maxDamageDiceFormula": "",
    "ability": {
      "attack": "",
      "damage": "",
      "damageMult": 1,
      "critRange": 20,
      "critMult": 2,
      "twoHandedOnly": false,
      "vsTouchAc": false
    },
    "save": {
      "dc": "0",
      "description": "Fortitude negates (object); see text",
      "ability": "",
      "type": "fortitudenegates",
      "dcAutoType": "",
      "dcAutoAbility": "",
      "originVersion": 97
    },
    "baseCl": "0",
    "sr": true,
    "pr": false,
    "metamagicFeats": {
      "maximized": false,
      "empowered": false,
      "enlarged": false,
      "intensified": false,
      "enhanced": false,
      "enhancedHalf": false,
      "widened": false
    },
    "effectNotes": "",
    "attackNotes": "",
    "specialActions": [],
    "favorite": false,
    "rollTableDraw": {
      "formula": "",
      "name": "",
      "pack": "",
      "id": ""
    },
    "learnedAt": {
      "class": [
        [
          "Wizard",
          6
        ],
        [
          "Sorcerer",
          6
        ]
      ],
      "domain": [],
      "subDomain": [],
      "elementalSchool": [],
      "bloodline": []
    },
    "level": 6,
    "clOffset": 0,
    "slOffset": 0,
    "school": "trs",
    "subschool": "",
    "types": "",
    "components": {
      "value": "",
      "verbal": true,
      "somatic": true,
      "material": true,
      "focus": false,
      "divineFocus": 0
    },
    "castTime": "",
    "conditionals": [],
    "materials": {
      "value": "a pinch of earth and a drop of blood",
      "consumed": {
        "value": false,
        "_deprecated": true
      },
      "focus": ""
    },
    "isSpellSpontaneousReplacement": false,
    "spellbook": "primary",
    "preparation": {
      "preparedAmount": 0,
      "maxAmount": 0,
      "autoDeductCharges": true,
      "mode": "prepared"
    },
    "atWill": false,
    "powerPointsCost": 0,
    "display": "",
    "isPower": false,
    "shortDescription": "\n\n\n<p>\nThis spell restores a petrified creature to its normal state, restoring life and goods. The creature must make a DC 15 Fortitude save to survive the process. Any petrified creature, regardless of size, can be restored.\n</p><p>The spell also can convert a mass of stone into a fleshy substance. Such flesh is inert and lacking a vital life force unless a life force or magical energy is available. (For example, this spell would turn a stone golem into a flesh golem, but an ordinary statue would become a corpse.) You can affect an object that fits within a cylinder from 1 foot to 3 feet in diameter and up to 10 feet long or a cylinder of up to those dimensions in a larger mass of stone.\n</p><p><i>Material Component: </i>A pinch of earth and a drop of blood.\n</p>\n<hr/>\n\n\n",
    "snip": "Restores petrified creature.",
    "spellDuration": "Instantaneous",
    "spellEffect": "",
    "spellArea": "",
    "spellType": {
      "value": "",
      "_deprecated": true
    },
    "showInQuickbar": false,
    "specialPrepared": false,
    "isDomainSpell": false,
    "specialId": null,
    "attack": {
      "parts": []
    },
    "identifiedName": "Stone to Flesh",
    "customReferenceId": "",
    "changes": [],
    "combatChanges": [],
    "requirements": [],
    "creationChanges": [],
    "resistances": [],
    "damageReduction": [],
    "contextNotes": [],
    "activateActions": [],
    "deactivateActions": [],
    "perRoundActions": [],
    "container": "None",
    "containerWeightless": false,
    "spellDurationData": {
      "value": "",
      "units": "inst",
      "dismissable": false
    },
    "index": {
      "subType": null,
      "uniqueId": ""
    }
  },
  "ownership": {
    "default": 0
  },
  "_stats": {
    "systemId": "D35E",
    "systemVersion": "2.1.3",
    "coreVersion": "10.291",
    "createdTime": 1668846676171,
    "modifiedTime": 1678394289105,
    "lastModifiedBy": "cB3ob9BYxSFYX7sd"
  },
  "_key": "!items!AqU7RiBTvhsH3fOd"
}