{
  "_id": "lq2L7TxDOrArWNzU",
  "name": "Improved Critical (No Weapon Selected)",
  "type": "feat",
  "img": "systems/D35E/icons/feats/improved-critical.png",
  "effects": [],
  "folder": null,
  "sort": 0,
  "flags": {
    "core": {
      "sourceId": "Compendium.D35E.feats.lq2L7TxDOrArWNzU"
    }
  },
  "system": {
    "originVersion": 103,
    "originPack": "",
    "originId": "",
    "possibleUpdate": false,
    "description": {
      "value": "<p>Choose one type of weapon.</p>\n<h3><span id=\"Prerequisite\" class=\"mw-headline\">Prerequisite</span></h3>\n<p>Proficient with weapon, base attack bonus +8.</p>\n<h3><span id=\"Benefit\" class=\"mw-headline\">Benefit</span></h3>\n<p>When using the weapon you selected, your threat range is doubled.</p>\n<h3><span id=\"Special\" class=\"mw-headline\">Special</span></h3>\n<p>You can gain Improved Critical multiple times. The effects do not stack. Each time you take the feat, it applies to a new type of weapon.</p>\n<p>This effect doesn&rsquo;t stack with any other effect that expands the threat range of a weapon.</p>\n<p>A fighter may select Improved Critical as one of his fighter bonus feats.</p>\n<p>&nbsp;</p>",
      "chat": "",
      "unidentified": ""
    },
    "epic": "",
    "psionic": "",
    "nameFormula": "Improved Critical (${this.custom.weaponname})",
    "nameFromFormula": true,
    "tags": [],
    "uniqueId": "",
    "linkId": "",
    "linkSourceId": "",
    "linkImported": false,
    "linkSourceName": "",
    "source": "",
    "classSource": "",
    "userNonRemovable": false,
    "customAttributes": {
      "_q876yak3y": {
        "id": "_q876yak3y",
        "name": "Weapon Name",
        "value": "No Weapon Selected",
        "selectList": "No Weapon Selected|Armor Spikes|Bastard Sword|Battleaxe|Bayonet|Blowgun|Bolas|Club|Dagger|Dart|Dire Flail|Dwarven Urgrosh|Dwarven Waraxe|Falchion|Flail|Gauntlet|Glaive|Gnome Hooked Hammer|Grappling Hook|Greataxe|Greatclub|Greatsword|Guisarme|Halberd|Hand Crossbow|Handaxe|Heavy Crossbow|Heavy Flail|Heavy Mace|Heavy Pick|Heavy Repeating Crossbow|Javelin|Kama|Kukri|Lance|Light Crossbow|Light Hammer|Light Mace|Light Pick|Light Repeating Crossbow|Longbow|Longspear|Longsword|Morningstar|Net|Nunchaku|Orc Double Axe|Punching Dagger|Quarterstaff|Ranseur|Rapier|Repeating Crossbow Bolt|Sai|Sap|Scimitar|Scythe|Shield Spikes (Heavy)|Shield Spikes (Light)|Shortbow|Shortspear|Shortsword|Shuriken|Siangham|Sickle|Sling|Spear|Spiked Chain|Spiked Gauntlet|Throwing Axe|Trident|Two-Bladed Sword|Unarmed Strike|Warhammer|Whip|Simple Light|Dagger, disguised|Flute, steel|Muspelrule|Poison ring|Sickle, heavy|Fauchard|Simple Ranged|Blowgun|Cutlass|Cutlass|Lancet, Gehennan|Razored armor|Razored shield, light|Stabaxe|Straightblade|Wakizashi|Cloak, weighted|Razored shield, heavy|Saber|Swordcane|Truncheon|Bardiche|Duom|Lucerne hammer|Lucerne hammer|Maquahuitl|Maul|Nagamaki|Naginata|Partisan|Pick, dire|Pilum|Spetum|Voulge|Warmace|Ripper|Atlatl|Dart Thruster|Longbow, aquatic|Lute-bow|Pilum",
        "showOnDetails": true,
        "selectListArray": {
          "No Weapon Selected": "No Weapon Selected",
          "Armor Spikes": "Armor Spikes",
          "Bastard Sword": "Bastard Sword",
          "Battleaxe": "Battleaxe",
          "Bayonet": "Bayonet",
          "Blowgun": "Blowgun",
          "Bolas": "Bolas",
          "Club": "Club",
          "Dagger": "Dagger",
          "Dart": "Dart",
          "Dire Flail": "Dire Flail",
          "Dwarven Urgrosh": "Dwarven Urgrosh",
          "Dwarven Waraxe": "Dwarven Waraxe",
          "Falchion": "Falchion",
          "Flail": "Flail",
          "Gauntlet": "Gauntlet",
          "Glaive": "Glaive",
          "Gnome Hooked Hammer": "Gnome Hooked Hammer",
          "Grappling Hook": "Grappling Hook",
          "Greataxe": "Greataxe",
          "Greatclub": "Greatclub",
          "Greatsword": "Greatsword",
          "Guisarme": "Guisarme",
          "Halberd": "Halberd",
          "Hand Crossbow": "Hand Crossbow",
          "Handaxe": "Handaxe",
          "Heavy Crossbow": "Heavy Crossbow",
          "Heavy Flail": "Heavy Flail",
          "Heavy Mace": "Heavy Mace",
          "Heavy Pick": "Heavy Pick",
          "Heavy Repeating Crossbow": "Heavy Repeating Crossbow",
          "Javelin": "Javelin",
          "Kama": "Kama",
          "Kukri": "Kukri",
          "Lance": "Lance",
          "Light Crossbow": "Light Crossbow",
          "Light Hammer": "Light Hammer",
          "Light Mace": "Light Mace",
          "Light Pick": "Light Pick",
          "Light Repeating Crossbow": "Light Repeating Crossbow",
          "Longbow": "Longbow",
          "Longspear": "Longspear",
          "Longsword": "Longsword",
          "Morningstar": "Morningstar",
          "Net": "Net",
          "Nunchaku": "Nunchaku",
          "Orc Double Axe": "Orc Double Axe",
          "Punching Dagger": "Punching Dagger",
          "Quarterstaff": "Quarterstaff",
          "Ranseur": "Ranseur",
          "Rapier": "Rapier",
          "Repeating Crossbow Bolt": "Repeating Crossbow Bolt",
          "Sai": "Sai",
          "Sap": "Sap",
          "Scimitar": "Scimitar",
          "Scythe": "Scythe",
          "Shield Spikes (Heavy)": "Shield Spikes (Heavy)",
          "Shield Spikes (Light)": "Shield Spikes (Light)",
          "Shortbow": "Shortbow",
          "Shortspear": "Shortspear",
          "Shortsword": "Shortsword",
          "Shuriken": "Shuriken",
          "Siangham": "Siangham",
          "Sickle": "Sickle",
          "Sling": "Sling",
          "Spear": "Spear",
          "Spiked Chain": "Spiked Chain",
          "Spiked Gauntlet": "Spiked Gauntlet",
          "Throwing Axe": "Throwing Axe",
          "Trident": "Trident",
          "Two-Bladed Sword": "Two-Bladed Sword",
          "Unarmed Strike": "Unarmed Strike",
          "Warhammer": "Warhammer",
          "Whip": "Whip",
          "Simple Light": "Simple Light",
          "Dagger, disguised": "Dagger, disguised",
          "Flute, steel": "Flute, steel",
          "Muspelrule": "Muspelrule",
          "Poison ring": "Poison ring",
          "Sickle, heavy": "Sickle, heavy",
          "Fauchard": "Fauchard",
          "Simple Ranged": "Simple Ranged",
          "Cutlass": "Cutlass",
          "Lancet, Gehennan": "Lancet, Gehennan",
          "Razored armor": "Razored armor",
          "Razored shield, light": "Razored shield, light",
          "Stabaxe": "Stabaxe",
          "Straightblade": "Straightblade",
          "Wakizashi": "Wakizashi",
          "Cloak, weighted": "Cloak, weighted",
          "Razored shield, heavy": "Razored shield, heavy",
          "Saber": "Saber",
          "Swordcane": "Swordcane",
          "Truncheon": "Truncheon",
          "Bardiche": "Bardiche",
          "Duom": "Duom",
          "Lucerne hammer": "Lucerne hammer",
          "Maquahuitl": "Maquahuitl",
          "Maul": "Maul",
          "Nagamaki": "Nagamaki",
          "Naginata": "Naginata",
          "Partisan": "Partisan",
          "Pick, dire": "Pick, dire",
          "Pilum": "Pilum",
          "Spetum": "Spetum",
          "Voulge": "Voulge",
          "Warmace": "Warmace",
          "Ripper": "Ripper",
          "Atlatl": "Atlatl",
          "Dart Thruster": "Dart Thruster",
          "Longbow, aquatic": "Longbow, aquatic",
          "Lute-bow": "Lute-bow"
        }
      }
    },
    "customAttributesLocked": true,
    "customTag": "",
    "createdBy": "",
    "activation": {
      "cost": 1,
      "type": ""
    },
    "duration": {
      "value": null,
      "units": ""
    },
    "target": {
      "value": ""
    },
    "range": {
      "value": null,
      "units": "",
      "long": null
    },
    "recharge": {
      "enabled": false,
      "formula": "",
      "current": 0,
      "value": null,
      "charged": false,
      "_deprecated": true
    },
    "uses": {
      "value": 0,
      "max": 0,
      "per": null,
      "autoDeductCharges": true,
      "allowMultipleUses": false,
      "chargesPerUse": 1,
      "maxPerUse": null,
      "maxPerUseFormula": "",
      "maxFormula": "",
      "rechargeFormula": null,
      "isResource": false,
      "canBeLinked": false
    },
    "requiresPsionicFocus": false,
    "linkedChargeItem": {
      "id": null,
      "img": null,
      "name": null
    },
    "measureTemplate": {
      "type": "",
      "size": 0,
      "overrideColor": false,
      "customColor": "",
      "overrideTexture": false,
      "customTexture": ""
    },
    "actionType": "",
    "attackBonus": "",
    "critConfirmBonus": "",
    "damage": {
      "parts": [],
      "alternativeParts": []
    },
    "summon": [],
    "attackParts": [],
    "autoscaleAttackParts": "",
    "formula": "",
    "attackCountFormula": "",
    "maxDamageDice": 0,
    "maxDamageDiceFormula": "",
    "ability": {
      "attack": null,
      "damage": null,
      "damageMult": 1,
      "critRange": 20,
      "critMult": 2,
      "twoHandedOnly": false,
      "vsTouchAc": false
    },
    "save": {
      "dc": 0,
      "description": "",
      "ability": "",
      "type": "",
      "dcAutoType": "",
      "dcAutoAbility": "",
      "originVersion": 97
    },
    "baseCl": "0",
    "sr": false,
    "pr": false,
    "metamagicFeats": {
      "maximized": false,
      "empowered": false,
      "enlarged": false,
      "intensified": false,
      "enhanced": false,
      "enhancedHalf": false,
      "widened": false
    },
    "effectNotes": "",
    "attackNotes": "",
    "specialActions": [],
    "favorite": false,
    "rollTableDraw": {
      "formula": "",
      "name": "",
      "pack": "",
      "id": ""
    },
    "changes": [],
    "changeFlags": {
      "loseDexToAC": false,
      "noStr": false,
      "noDex": false,
      "noInt": false,
      "noCon": false,
      "oneInt": false,
      "oneWis": false,
      "oneCha": false,
      "noEncumbrance": false,
      "mediumArmorFullSpeed": false,
      "heavyArmorFullSpeed": false,
      "multiAttack": false,
      "multiweaponAttack": false,
      "uncannyDodge": false,
      "hasted": false,
      "firstChangeTargetSelectableOnDescription": false
    },
    "conditionFlags": {
      "dazzled": false,
      "wildshaped": false,
      "polymorphed": false
    },
    "combatChanges": [
      [
        "attack",
        "mwak",
        "'@item.baseWeaponType' === '@self.custom.weaponname'",
        "isKeen",
        "1",
        ""
      ]
    ],
    "combatChangesRange": {
      "maxFormula": "",
      "max": 0
    },
    "combatChangesAdditionalRanges": {
      "hasAdditionalRanges": false,
      "slider1": {
        "maxFormula": "",
        "max": 0,
        "name": ""
      },
      "slider2": {
        "maxFormula": "",
        "max": 0,
        "name": ""
      },
      "slider3": {
        "maxFormula": "",
        "max": 0,
        "name": ""
      }
    },
    "combatChangesUsesCost": "chargesPerUse",
    "combatChangesApplySpecialActionsOnce": true,
    "combatChangeCustomDisplayName": "",
    "combatChangeCustomReferenceName": "",
    "sizeOverride": "",
    "counterName": "",
    "resistances": [],
    "damageReduction": [],
    "requirements": [],
    "creationChanges": [],
    "contextNotes": [],
    "featType": "feat",
    "abilityType": "",
    "associations": {
      "classes": []
    },
    "crOffset": "",
    "spellSpecializationName": "",
    "spellSpecializationForbiddenNames": "",
    "linkedItems": [],
    "metamagic": {
      "enabled": false,
      "shortDesc": "",
      "code": ""
    },
    "spellSpecialization": {
      "isDomain": false,
      "spells": {
        "level1": {
          "level": 1,
          "name": "",
          "img": "",
          "pack": null,
          "id": null
        },
        "level2": {
          "level": 2,
          "name": "",
          "img": "",
          "pack": null,
          "id": null
        },
        "level3": {
          "level": 3,
          "name": "",
          "img": "",
          "pack": null,
          "id": null
        },
        "level4": {
          "level": 4,
          "name": "",
          "img": "",
          "pack": null,
          "id": null
        },
        "level5": {
          "level": 5,
          "name": "",
          "img": "",
          "pack": null,
          "id": null
        },
        "level6": {
          "level": 6,
          "name": "",
          "img": "",
          "pack": null,
          "id": null
        },
        "level7": {
          "level": 7,
          "name": "",
          "img": "",
          "pack": null,
          "id": null
        },
        "level8": {
          "level": 8,
          "name": "",
          "img": "",
          "pack": null,
          "id": null
        },
        "level9": {
          "level": 9,
          "name": "",
          "img": "",
          "pack": null,
          "id": null
        }
      }
    },
    "showInQuickbar": false,
    "links": {
      "charges": []
    },
    "time": {
      "value": "",
      "_deprecated": true
    },
    "damageType": {
      "value": "",
      "_deprecated": true
    },
    "attack": {
      "parts": []
    },
    "equippedWeightless": false,
    "carried": false,
    "constantWeight": false,
    "conditionals": [],
    "activateActions": [],
    "deactivateActions": [],
    "perRoundActions": [],
    "container": "None",
    "containerWeightless": false,
    "identifiedName": "Improved Critical (No Weapon Selected)",
    "index": {
      "subType": "feat",
      "uniqueId": ""
    }
  },
  "ownership": {
    "default": 0,
    "gvVvJrAyZKOZnAuP": 3
  },
  "_stats": {
    "systemId": "D35E",
    "systemVersion": "2.1.3",
    "coreVersion": "10.291",
    "createdTime": null,
    "modifiedTime": 1678394294304,
    "lastModifiedBy": "cB3ob9BYxSFYX7sd"
  },
  "_key": "!items!lq2L7TxDOrArWNzU"
}