{
  "_id": "IheQMBL3wOSub3Yk",
  "name": "Psicrystal Affinity",
  "type": "feat",
  "img": "systems/D35E/icons/feats/feat-generic.png",
  "effects": [],
  "folder": null,
  "sort": 0,
  "flags": {
    "core": {
      "sourceId": "Compendium.D35E.feats.IheQMBL3wOSub3Yk"
    }
  },
  "system": {
    "originVersion": 99,
    "originPack": "",
    "originId": "",
    "possibleUpdate": false,
    "description": {
      "value": "\n\n\n<p>You have created a psicrystal.\n</p>\n<h3><span class=\"mw-headline\" id=\"Prerequisites\">Prerequisites</span></h3>\n<p>Manifester level 1st.\n</p>\n<h3><span class=\"mw-headline\" id=\"Benefit\">Benefit</span></h3>\n<p>This feat allows you to gain a psicrystal.\n</p>\n<h4><span class=\"mw-headline\" id=\"Psicrystals\">Psicrystals</span></h4>\n<p>A psicrystal is a fragment of a psionic character’s personality, brought into physical form and a semblance of life (via the Psicrystal Affinity feat). A psicrystal appears as a crystalline construct about the size of a human hand.\n</p><p>Because it is an extension of its creator’s personality, a character’s psicrystal is in some ways a part of him. That’s why, for example, a psionic character can manifest a personal range power on his psicrystal even though normally he can manifest such a power only on himself.\n</p><p>A psicrystal is treated as a construct for the purposes of all effects that depend on its type.\n</p><p>A psicrystal grants special abilities to its owner, as shown on the Psicrystal Special Abilities table below. In addition, a psicrystal has a personality (being a fragment of the owner’s personality), which gives its owner a bonus on certain types of checks or saving throws, as given on the Psicrystal Personalities table below. These special abilities and bonuses apply only when the owner and the psicrystal are within 1 mile of each other.\n</p><p>Psicrystal abilities are based on the owner’s levels in psionic classes. Levels from other classes do not count toward the owner’s level for purposes of psicrystal abilities.\n</p><p>A psicrystal can speak one language of its owner’s choice (so long as it is a language the owner knows). A psicrystal can understand all other languages known by its owner, but cannot speak them. This is a supernatural ability.\n</p>\n<h3><span class=\"mw-headline\" id=\"Psicrystal_Basics\">Psicrystal Basics</span></h3>\n<p>Use the statistics for a psicrystal, but make the following changes.\n</p>\n<h6><span class=\"mw-headline\" id=\"Saving_Throws\">Saving Throws</span></h6>\n<p>A psicrystal uses its owner’s base saving throw bonuses and ability modifiers on saves, though it doesn’t enjoy any other bonuses its owner might have (from magic items or feats, for example).\n</p>\n<h6><span class=\"mw-headline\" id=\"Abilities\">Abilities</span></h6>\n<p>When its self-propulsion ability is not activated, a psicrystal has no Strength score and no Dexterity score.\n</p>\n<h6><span class=\"mw-headline\" id=\"Skills\">Skills</span></h6>\n<p>A psicrystal has the same skill ranks as its owner, except that it has a minimum of 4 ranks each in Spot, Listen, Move Silently, and Search. (Even if its owner has no ranks in these skills, a psicrystal has 4 ranks in each.) A psicrystal uses its own ability modifiers on skill checks.\n</p>\n<p class=\"mw-empty-elt\"></p><table class=\"d20\">\n<caption>\n<h3><span class=\"mw-headline\" id=\"Psicrystal_Special_Abilities\">Psicrystal Special Abilities</span></h3>\n<p class=\"mw-empty-elt\"></p></caption>\n<tbody><tr>\n<th>Owner Level</th>\n<th>Natural<br/>Armor Adj.</th>\n<th>Int Adj.</th>\n<th align=\"left\">Special\n</th></tr>\n<tr>\n<td>1st–2nd</td>\n<td>+0</td>\n<td>+0</td>\n<td align=\"left\">Alertness, improved evasion, personality, self-<br/>propulsion, share powers, sighted, telepathic link\n</td></tr>\n<tr class=\"even\">\n<td>3rd–4th</td>\n<td>+1</td>\n<td>+1</td>\n<td align=\"left\">Deliver touch powers\n</td></tr>\n<tr>\n<td>5th–6th</td>\n<td>+2</td>\n<td>+2</td>\n<td align=\"left\">Telepathic speech\n</td></tr>\n<tr class=\"even\">\n<td>7th–8th</td>\n<td>+3</td>\n<td>+3</td>\n<td align=\"left\">—\n</td></tr>\n<tr>\n<td>9th–10th</td>\n<td>+4</td>\n<td>+4</td>\n<td align=\"left\">Flight\n</td></tr>\n<tr class=\"even\">\n<td>11th–12th</td>\n<td>+5</td>\n<td>+5</td>\n<td align=\"left\">Power resistance\n</td></tr>\n<tr>\n<td>13th–14th</td>\n<td>+6</td>\n<td>+6</td>\n<td align=\"left\">Sight link\n</td></tr>\n<tr class=\"even\">\n<td>15th–16th</td>\n<td>+7</td>\n<td>+7</td>\n<td align=\"left\">Channel power\n</td></tr>\n<tr>\n<td>17th–18th</td>\n<td>+8</td>\n<td>+8</td>\n<td align=\"left\">—\n</td></tr>\n<tr class=\"even\">\n<td>19th–20th</td>\n<td>+9</td>\n<td>+9</td>\n<td align=\"left\">—\n</td></tr>\n<tr>\n<td>21st–22nd</td>\n<td>+10</td>\n<td>+10</td>\n<td align=\"left\">Psicrystal Power\n</td></tr>\n<tr class=\"even\">\n<td>23rd–24th</td>\n<td>+11</td>\n<td>+11</td>\n<td align=\"left\">—\n</td></tr>\n<tr>\n<td>25th–26th</td>\n<td>+12</td>\n<td>+12</td>\n<td align=\"left\">—\n</td></tr>\n<tr class=\"even\">\n<td>27th–28th</td>\n<td>+13</td>\n<td>+13</td>\n<td align=\"left\">—\n</td></tr>\n<tr>\n<td>29th–30th</td>\n<td>+14</td>\n<td>+14</td>\n<td align=\"left\">—\n</td></tr>\n<tr class=\"even\">\n<td>31st–32nd</td>\n<td>+15</td>\n<td>+15</td>\n<td align=\"left\">Psicrystal Power\n</td></tr>\n<tr>\n<td>33rd–34th</td>\n<td>+16</td>\n<td>+16</td>\n<td align=\"left\">—\n</td></tr>\n<tr class=\"even\">\n<td>35th–36th</td>\n<td>+17</td>\n<td>+17</td>\n<td align=\"left\">—\n</td></tr>\n<tr>\n<td>37th–38th</td>\n<td>+18</td>\n<td>+18</td>\n<td align=\"left\">—\n</td></tr>\n<tr class=\"even\">\n<td>39th–40th</td>\n<td>+19</td>\n<td>+19</td>\n<td align=\"left\">—\n</td></tr>\n<tr>\n<td>41st–42nd</td>\n<td>+20</td>\n<td>+20</td>\n<td align=\"left\">Psicrystal Power\n</td></tr></tbody></table>\n<h3><span class=\"mw-headline\" id=\"Psicrystal_Ability_Descriptions\">Psicrystal Ability Descriptions</span></h3>\n<p>All psicrystals have special abilities (or impart abilities to their owners) depending on the level of the owner, as shown on the table above. The abilities on the table are cumulative.\n</p>\n<h6><span id=\"Natural_Armor_Adj._(Ex)\"></span><span class=\"mw-headline\" id=\"Natural_Armor_Adj._.28Ex.29\">Natural Armor Adj. (Ex)</span></h6>\n<p>This number noted here is an improvement to the psicrystal’s natural armor bonus (normally 0). It represents a psicrystal’s preternatural durability.\n</p>\n<h6><span id=\"Intelligence_Adj._(Ex)\"></span><span class=\"mw-headline\" id=\"Intelligence_Adj._.28Ex.29\">Intelligence Adj. (Ex)</span></h6>\n<p>Add this value to the psicrystal’s Intelligence score. Psicrystals are as smart as people (though not necessarily as smart as smart people).\n</p>\n<h6><span id=\"Alertness_(Ex)\"></span><span class=\"mw-headline\" id=\"Alertness_.28Ex.29\">Alertness (Ex)</span></h6>\n<p>The presence of a psicrystal sharpens its master’s senses. While a psicrystal is within arm’s reach (adjacent to or in the same square as its owner), its owner gains the Alertness feat.\n</p>\n<h6><span id=\"Improved_Evasion_(Ex)\"></span><span class=\"mw-headline\" id=\"Improved_Evasion_.28Ex.29\">Improved Evasion (Ex)</span></h6>\n<p>If a psicrystal is subjected to an attack that normally allows a Reflex saving throw for half damage, it takes no damage if it makes a successful saving throw and half damage even if the saving throw fails.\n</p>\n<h6><span id=\"Personality_(Ex)\"></span><span class=\"mw-headline\" id=\"Personality_.28Ex.29\">Personality (Ex)</span></h6>\n<p>Every psicrystal has a personality. See Psicrystal Personality, below.\n</p>\n<h6><span id=\"Self-Propulsion_(Su)\"></span><span class=\"mw-headline\" id=\"Self-Propulsion_.28Su.29\">Self-Propulsion (Su)</span></h6>\n<p>As a standard action, its owner can will a psicrystal to form spidery, ectoplasmic legs that grant the psicrystal a land speed of 30 feet and a climb speed of 20 feet. The legs fade into nothingness after one day (or sooner, if the owner desires).\n</p>\n<h6><span id=\"Share_Powers_(Su)\"></span><span class=\"mw-headline\" id=\"Share_Powers_.28Su.29\">Share Powers (Su)</span></h6>\n<p>At the owner’s option, he can have any power (but not any psi-like ability) he manifests on himself also affect his psicrystal. The psicrystal must be within 5 feet of him at the time of the manifestation to receive the benefit. If the power has a duration other than instantaneous, it stops affecting the psicrystal if it moves farther than 5 feet away, and will not affect the psicrystal again, even if it returns to its owner before the duration expires.\n</p><p>Additionally, the owner can manifest a power with a target of “You” on his psicrystal (as a touch range power) instead of on himself. The owner and psicrystal cannot share powers if the powers normally do not affect creatures of the psicrystal’s type (construct).\n</p>\n<h6><span id=\"Sighted_(Ex)\"></span><span class=\"mw-headline\" id=\"Sighted_.28Ex.29\">Sighted (Ex)</span></h6>\n<p>Although it has no physical sensory organs, a psicrystal can telepathically sense its environment as well as a creature with normal vision and hearing. Darkness (even supernatural darkness) is irrelevant, as are areas of supernatural silence, though a psicrystal still can’t discern invisible or ethereal beings. A psicrystal’s sighted range is 40 feet.\n</p>\n<h6><span id=\"Telepathic_Link_(Su)\"></span><span class=\"mw-headline\" id=\"Telepathic_Link_.28Su.29\">Telepathic Link (Su)</span></h6>\n<p>The owner has a telepathic link with his psicrystal out to a distance of up to 1 mile. The owner cannot see through the psicrystal’s senses, but the two of them can communicate telepathically as if the psicrystal were the target of a <i>mindlink</i> power manifested by the owner. For instance, a psicrystal placed in a distant room could relay the activities occurring in that room.\n</p><p>Because of the telepathic link between a psicrystal and its owner, the owner has the same connection to an item or place that the psicrystal does. For instance, if his psicrystal has seen a room, the owner can teleport into that room as if he has seen it too.\n</p>\n<h6><span id=\"Deliver_Touch_Powers_(Su)\"></span><span class=\"mw-headline\" id=\"Deliver_Touch_Powers_.28Su.29\">Deliver Touch Powers (Su)</span></h6>\n<p>If the owner is 3rd level or higher, his psicrystal can deliver touch powers for him. If the owner and psicrystal are in contact at the time the owner manifests a touch power, he can designate his psicrystal as the “toucher.” The psicrystal can then deliver the touch power just as the owner could. As usual, if the owner manifests another power before the touch is delivered, the touch power dissipates.\n</p>\n<h6><span id=\"Telepathic_Speech_(Ex)\"></span><span class=\"mw-headline\" id=\"Telepathic_Speech_.28Ex.29\">Telepathic Speech (Ex)</span></h6>\n<p>If the owner is 5th level or higher, the psicrystal can communicate telepathically with any creature that has a language and is within 30 feet of the psicrystal, while the psicrystal is also within 1 mile of the owner.\n</p>\n<h6><span id=\"Flight_(Su)\"></span><span class=\"mw-headline\" id=\"Flight_.28Su.29\">Flight (Su)</span></h6>\n<p>If the owner is 9th level or higher, he can, as a standard action, will his psicrystal to fly at a speed of 50 feet (poor). The psicrystal drifts gently to the ground after one day (or sooner, if the owner desires).\n</p>\n<h6><span id=\"Power_Resistance_(Ex)\"></span><span class=\"mw-headline\" id=\"Power_Resistance_.28Ex.29\">Power Resistance (Ex)</span></h6>\n<p>If the owner is 11th level or higher, the psicrystal gains power resistance equal to the owner’s level + 5. To affect the psicrystal with a power, another manifester must get a result on a manifester level check that equals or exceeds the psicrystal’s power resistance.\n</p>\n<h6><span id=\"Sight_Link_(Sp)\"></span><span class=\"mw-headline\" id=\"Sight_Link_.28Sp.29\">Sight Link (Sp)</span></h6>\n<p>If the owner is 13th level or higher, the character can remote view the psicrystal (as if manifesting the <i>remote view</i> power) once per day.\n</p>\n<h6><span id=\"Channel_Power_(Sp)\"></span><span class=\"mw-headline\" id=\"Channel_Power_.28Sp.29\">Channel Power (Sp)</span></h6>\n<p>If the owner is 15th level or higher, he can manifest powers through the psicrystal to a distance of up to 1 mile. The psicrystal is treated as the power’s originator, and all ranges are calculated from its location.\n</p><p>When channeling a power through his psicrystal, the owner manifests the power by paying its power point cost. He is still subject to attacks of opportunity and other hazards of manifesting a power, if applicable (for instance, he becomes visible when manifesting an offensive power if <i>invisible</i>, as does the psicrystal).\n</p>\n<h6><span class=\"mw-headline\" id=\"Psicrystal_Power\">Psicrystal Power</span></h6>\n<p>When the owner reaches 21st level, and every 10 levels after, the psicrystal gains the benefit of the Psicrystal Power epic feat for the power its master chooses.\n</p>\n<h3><span id=\"Psicrystal_Personality_(Ex)\"></span><span class=\"mw-headline\" id=\"Psicrystal_Personality_.28Ex.29\">Psicrystal Personality (Ex)</span></h3>\n<p>Each psicrystal has a distinct personality, chosen by its owner at the time of its creation from among those given on the following table. At 1st level, its owner typically gets a feel for a psicrystal’s personality only through occasional impulses, but as the owner increases in level the psicrystal’s personality becomes more pronounced. At higher levels, it is not uncommon for a psicrystal to constantly ply its owner with observations and advice, often severely slanted toward the psicrystal’s particular worldview. The owner always sees a bit of himself in his psicrystal, even if magnified and therefore distorted.\n</p>\n<p class=\"mw-empty-elt\"></p><table class=\"d20\">\n<caption>\n<h3><span class=\"mw-headline\" id=\"Psicrystal_Personalities\">Psicrystal Personalities</span></h3>\n<p class=\"mw-empty-elt\"></p></caption>\n<tbody><tr>\n<th align=\"left\">Personality</th>\n<th align=\"left\">Benefit to Owner\n</th></tr>\n<tr>\n<td align=\"left\">Artiste</td>\n<td align=\"left\">+3 bonus on Craft checks\n</td></tr>\n<tr class=\"even\">\n<td align=\"left\">Bully</td>\n<td align=\"left\">+3 bonus on Intimidate checks\n</td></tr>\n<tr>\n<td align=\"left\">Coward</td>\n<td align=\"left\">+3 bonus on Hide checks\n</td></tr>\n<tr class=\"even\">\n<td align=\"left\">Friendly</td>\n<td align=\"left\">+3 bonus on Diplomacy checks\n</td></tr>\n<tr>\n<td align=\"left\">Hero</td>\n<td align=\"left\">+2 bonus on Fortitude saves\n</td></tr>\n<tr class=\"even\">\n<td align=\"left\">Liar</td>\n<td align=\"left\">+3 bonus on Bluff checks\n</td></tr>\n<tr>\n<td align=\"left\">Meticulous</td>\n<td align=\"left\">+3 bonus on Search checks\n</td></tr>\n<tr class=\"even\">\n<td align=\"left\">Nimble</td>\n<td align=\"left\">+2 bonus on Initiative checks\n</td></tr>\n<tr>\n<td align=\"left\">Observant</td>\n<td align=\"left\">+3 bonus on Spot checks\n</td></tr>\n<tr class=\"even\">\n<td align=\"left\">Poised</td>\n<td align=\"left\">+3 bonus on Balance checks\n</td></tr>\n<tr>\n<td align=\"left\">Resolved</td>\n<td align=\"left\">+2 bonus on Will saves\n</td></tr>\n<tr class=\"even\">\n<td align=\"left\">Sage</td>\n<td align=\"left\">+3 bonus on checks involving any one Knowledge skill owner already knows; once chosen, this does not vary\n</td></tr>\n<tr>\n<td align=\"left\">Single-minded</td>\n<td align=\"left\">+3 bonus on Concentration checks\n</td></tr>\n<tr class=\"even\">\n<td align=\"left\">Sneaky</td>\n<td align=\"left\">+3 bonus on Move Silently checks\n</td></tr>\n<tr>\n<td align=\"left\">Sympathetic</td>\n<td align=\"left\">+3 bonus on Sense Motive checks\n</td></tr></tbody></table>\n<h3><span class=\"mw-headline\" id=\"Psicrystals_at_Epic_Level\">Psicrystals at Epic Level</span></h3>\n<p>Special abilities granted to a psicrystal continue to grow as the level of its master increases beyond 20th, as shown on Psicrystal Special Abilities. Even though the table shows advancement only to 42nd level, that is not the limit. The patterns in the table continue infinitely. Psicrystal special abilities gained at less than 20th level also continue to improve.\n</p><p><br/>\n</p>\n<hr/>\n\n\n",
      "chat": "",
      "unidentified": ""
    },
    "epic": "",
    "psionic": "",
    "nameFormula": "",
    "nameFromFormula": false,
    "tags": [],
    "uniqueId": "",
    "linkId": "",
    "linkSourceId": "",
    "linkImported": false,
    "linkSourceName": "",
    "source": "",
    "classSource": "",
    "userNonRemovable": false,
    "customAttributes": {},
    "customAttributesLocked": false,
    "customTag": "",
    "createdBy": "",
    "activation": {
      "cost": 1,
      "type": ""
    },
    "duration": {
      "value": null,
      "units": ""
    },
    "target": {
      "value": ""
    },
    "range": {
      "value": null,
      "units": "",
      "long": null
    },
    "recharge": {
      "enabled": false,
      "formula": "",
      "current": 0,
      "value": null,
      "charged": false,
      "_deprecated": true
    },
    "uses": {
      "value": 0,
      "max": 0,
      "per": null,
      "autoDeductCharges": true,
      "allowMultipleUses": false,
      "chargesPerUse": 1,
      "maxPerUse": null,
      "maxPerUseFormula": "",
      "maxFormula": "",
      "rechargeFormula": null,
      "isResource": false,
      "canBeLinked": false
    },
    "requiresPsionicFocus": false,
    "linkedChargeItem": {
      "id": null,
      "img": null,
      "name": null
    },
    "measureTemplate": {
      "type": "",
      "size": 0,
      "overrideColor": false,
      "customColor": "",
      "overrideTexture": false,
      "customTexture": ""
    },
    "actionType": "",
    "attackBonus": "",
    "critConfirmBonus": "",
    "damage": {
      "parts": [],
      "alternativeParts": []
    },
    "summon": [],
    "attackParts": [],
    "autoscaleAttackParts": "",
    "formula": "",
    "attackCountFormula": "",
    "maxDamageDice": 0,
    "maxDamageDiceFormula": "",
    "ability": {
      "attack": null,
      "damage": null,
      "damageMult": 1,
      "critRange": 20,
      "critMult": 2,
      "twoHandedOnly": false,
      "vsTouchAc": false
    },
    "save": {
      "dc": 0,
      "description": "",
      "ability": "",
      "type": "",
      "dcAutoType": "",
      "dcAutoAbility": "",
      "originVersion": 97
    },
    "baseCl": "0",
    "sr": false,
    "pr": false,
    "metamagicFeats": {
      "maximized": false,
      "empowered": false,
      "enlarged": false,
      "intensified": false,
      "enhanced": false,
      "enhancedHalf": false,
      "widened": false
    },
    "effectNotes": "",
    "attackNotes": "",
    "specialActions": [],
    "favorite": false,
    "rollTableDraw": {
      "formula": "",
      "name": "",
      "pack": "",
      "id": ""
    },
    "changes": [],
    "changeFlags": {
      "loseDexToAC": false,
      "noStr": false,
      "noDex": false,
      "noInt": false,
      "noCon": false,
      "oneInt": false,
      "oneWis": false,
      "oneCha": false,
      "noEncumbrance": false,
      "mediumArmorFullSpeed": false,
      "heavyArmorFullSpeed": false,
      "multiAttack": false,
      "multiweaponAttack": false
    },
    "conditionFlags": {
      "dazzled": false,
      "wildshaped": false,
      "polymorphed": false
    },
    "combatChanges": [],
    "combatChangesRange": {
      "maxFormula": "",
      "max": 0
    },
    "combatChangesAdditionalRanges": {
      "hasAdditionalRanges": false,
      "slider1": {
        "maxFormula": "",
        "max": 0,
        "name": ""
      },
      "slider2": {
        "maxFormula": "",
        "max": 0,
        "name": ""
      },
      "slider3": {
        "maxFormula": "",
        "max": 0,
        "name": ""
      }
    },
    "combatChangesUsesCost": "chargesPerUse",
    "combatChangesApplySpecialActionsOnce": true,
    "combatChangeCustomDisplayName": "",
    "combatChangeCustomReferenceName": "",
    "sizeOverride": "",
    "counterName": "",
    "resistances": [],
    "damageReduction": [],
    "requirements": [],
    "creationChanges": [],
    "contextNotes": [],
    "featType": "feat",
    "abilityType": "",
    "associations": {
      "classes": []
    },
    "crOffset": "",
    "spellSpecializationName": "",
    "spellSpecializationForbiddenNames": "",
    "linkedItems": [],
    "metamagic": {
      "enabled": false,
      "shortDesc": "",
      "code": ""
    },
    "spellSpecialization": {
      "isDomain": false,
      "spells": {
        "level1": {
          "level": 1,
          "name": "",
          "img": "",
          "pack": null,
          "id": null
        },
        "level2": {
          "level": 2,
          "name": "",
          "img": "",
          "pack": null,
          "id": null
        },
        "level3": {
          "level": 3,
          "name": "",
          "img": "",
          "pack": null,
          "id": null
        },
        "level4": {
          "level": 4,
          "name": "",
          "img": "",
          "pack": null,
          "id": null
        },
        "level5": {
          "level": 5,
          "name": "",
          "img": "",
          "pack": null,
          "id": null
        },
        "level6": {
          "level": 6,
          "name": "",
          "img": "",
          "pack": null,
          "id": null
        },
        "level7": {
          "level": 7,
          "name": "",
          "img": "",
          "pack": null,
          "id": null
        },
        "level8": {
          "level": 8,
          "name": "",
          "img": "",
          "pack": null,
          "id": null
        },
        "level9": {
          "level": 9,
          "name": "",
          "img": "",
          "pack": null,
          "id": null
        }
      }
    },
    "showInQuickbar": false,
    "links": {
      "charges": []
    },
    "time": {
      "value": "",
      "_deprecated": true
    },
    "damageType": {
      "value": "",
      "_deprecated": true
    },
    "attack": {
      "parts": []
    },
    "index": {
      "subType": "feat",
      "uniqueId": ""
    }
  },
  "ownership": {
    "default": 0,
    "0AZr2hADCJgHCg73": 3
  },
  "_stats": {
    "systemId": "D35E",
    "systemVersion": "2.1.3",
    "coreVersion": "10.291",
    "createdTime": null,
    "modifiedTime": 1678394288868,
    "lastModifiedBy": "cB3ob9BYxSFYX7sd"
  },
  "_key": "!items!IheQMBL3wOSub3Yk"
}